<?xml version="1.0" encoding="UTF-8" standalone="no"?>
<svg
   xmlns:dc="http://purl.org/dc/elements/1.1/"
   xmlns:cc="http://creativecommons.org/ns#"
   xmlns:rdf="http://www.w3.org/1999/02/22-rdf-syntax-ns#"
   xmlns:svg="http://www.w3.org/2000/svg"
   xmlns="http://www.w3.org/2000/svg"
   xmlns:xlink="http://www.w3.org/1999/xlink"
   id="svg183"
   version="1.2"
   viewBox="0 0 243.78 164.41"
   height="164.41pt"
   width="243.78pt">
  <metadata
     id="metadata187">
    <rdf:RDF>
      <cc:Work
         rdf:about="">
        <dc:format>image/svg+xml</dc:format>
        <dc:type
           rdf:resource="http://purl.org/dc/dcmitype/StillImage" />
        <dc:title></dc:title>
      </cc:Work>
    </rdf:RDF>
  </metadata>
  <defs
     id="defs58">
    <g
       id="g50">
      <symbol
         id="glyph1-0"
         overflow="visible">
        <path
           id="path2"
           d=""
           style="stroke:none;" />
      </symbol>
      <symbol
         id="glyph1-1"
         overflow="visible">
        <path
           id="path5"
           d="M 1.328125 -9.953125 L 1.328125 0 L 5.03125 0 C 7.0625 0 8.53125 -1.296875 8.53125 -2.703125 C 8.53125 -3.953125 7.28125 -4.984375 5.8125 -5.203125 C 7.484375 -5.671875 8.140625 -6.625 8.140625 -7.453125 C 8.140625 -8.75 6.671875 -9.953125 4.640625 -9.953125 Z M 2.5 -5.609375 L 2.5 -9.15625 L 4.265625 -9.15625 C 5.796875 -9.15625 7.03125 -8.390625 7.03125 -7.4375 C 7.03125 -6.4375 5.796875 -5.609375 4.28125 -5.609375 Z M 2.5 -0.796875 L 2.5 -4.75 L 4.40625 -4.75 C 6.25 -4.75 7.40625 -3.71875 7.40625 -2.71875 C 7.40625 -1.703125 6.234375 -0.796875 4.640625 -0.796875 Z M 2.5 -0.796875 "
           style="stroke:none;" />
      </symbol>
      <symbol
         id="glyph1-2"
         overflow="visible">
        <path
           id="path8"
           d="M 6.53125 -9.546875 C 5.9375 -9.875 5.21875 -10.25 3.9375 -10.25 C 2.015625 -10.25 0.78125 -8.875 0.78125 -7.4375 C 0.78125 -6.421875 1.390625 -5.765625 1.46875 -5.6875 C 2.171875 -4.984375 2.65625 -4.84375 3.578125 -4.625 C 4.796875 -4.3125 4.984375 -4.265625 5.453125 -3.78125 C 5.6875 -3.53125 5.90625 -3.0625 5.90625 -2.5625 C 5.90625 -1.578125 5.09375 -0.65625 3.859375 -0.65625 C 2.8125 -0.65625 1.6875 -1.078125 0.84375 -1.84375 L 0.625 -0.6875 C 1.9375 0.171875 3.203125 0.296875 3.859375 0.296875 C 5.703125 0.296875 7.015625 -1.125 7.015625 -2.71875 C 7.015625 -3.625 6.5625 -4.3125 6.25 -4.671875 C 5.59375 -5.375 5.0625 -5.515625 4.109375 -5.765625 C 3.125 -6.015625 2.765625 -6.09375 2.453125 -6.390625 C 2.265625 -6.59375 1.875 -6.953125 1.875 -7.609375 C 1.875 -8.484375 2.671875 -9.328125 3.9375 -9.328125 C 5.15625 -9.328125 5.796875 -8.84375 6.3125 -8.390625 Z M 6.53125 -9.546875 "
           style="stroke:none;" />
      </symbol>
      <symbol
         id="glyph1-3"
         overflow="visible">
        <path
           id="path11"
           d="M 2.1875 -9.953125 L 1.125 -9.953125 L 1.125 0 L 2.203125 0 L 2.203125 -0.640625 C 2.875 -0.015625 3.578125 0.140625 4.078125 0.140625 C 5.4375 0.140625 6.6875 -1.25 6.6875 -3.203125 C 6.6875 -4.96875 5.734375 -6.515625 4.40625 -6.515625 C 3.984375 -6.515625 3.0625 -6.421875 2.1875 -5.703125 Z M 2.203125 -4.828125 C 2.46875 -5.234375 2.984375 -5.65625 3.6875 -5.65625 C 4.5625 -5.65625 5.59375 -4.984375 5.59375 -3.203125 C 5.59375 -1.328125 4.421875 -0.71875 3.546875 -0.71875 C 3.140625 -0.71875 2.875 -0.859375 2.609375 -1.0625 C 2.265625 -1.359375 2.203125 -1.625 2.203125 -1.859375 Z M 2.203125 -4.828125 "
           style="stroke:none;" />
      </symbol>
      <symbol
         id="glyph1-4"
         overflow="visible">
        <path
           id="path14"
           d="M 5.84375 -3.234375 C 5.84375 -3.84375 5.78125 -4.71875 5.328125 -5.484375 C 4.734375 -6.46875 3.734375 -6.578125 3.3125 -6.578125 C 1.765625 -6.578125 0.46875 -5.09375 0.46875 -3.234375 C 0.46875 -1.328125 1.84375 0.140625 3.515625 0.140625 C 4.171875 0.140625 4.96875 -0.046875 5.75 -0.609375 C 5.75 -0.671875 5.703125 -1.125 5.703125 -1.140625 C 5.6875 -1.15625 5.671875 -1.484375 5.671875 -1.53125 C 4.8125 -0.8125 3.96875 -0.71875 3.546875 -0.71875 C 2.4375 -0.71875 1.484375 -1.703125 1.46875 -3.234375 Z M 1.546875 -4 C 1.796875 -4.96875 2.46875 -5.71875 3.3125 -5.71875 C 3.765625 -5.71875 4.75 -5.515625 4.984375 -4 Z M 1.546875 -4 "
           style="stroke:none;" />
      </symbol>
      <symbol
         id="glyph1-5"
         overflow="visible">
        <path
           id="path17"
           d="M 5.609375 -4.203125 C 5.609375 -5.578125 4.625 -6.578125 3.28125 -6.578125 C 2.421875 -6.578125 1.78125 -6.390625 1.078125 -5.984375 L 1.15625 -5.03125 C 1.796875 -5.5 2.453125 -5.75 3.28125 -5.75 C 3.9375 -5.75 4.515625 -5.21875 4.515625 -4.171875 L 4.515625 -3.578125 C 3.875 -3.5625 3.015625 -3.515625 2.15625 -3.234375 C 1.1875 -2.890625 0.625 -2.359375 0.625 -1.65625 C 0.625 -1.015625 1 0.140625 2.21875 0.140625 C 3.015625 0.140625 4.015625 -0.09375 4.546875 -0.53125 L 4.546875 0 L 5.609375 0 Z M 4.515625 -1.921875 C 4.515625 -1.640625 4.515625 -1.296875 4.046875 -1 C 3.65625 -0.765625 3.171875 -0.71875 2.953125 -0.71875 C 2.1875 -0.71875 1.65625 -1.140625 1.65625 -1.65625 C 1.65625 -2.640625 3.640625 -2.859375 4.515625 -2.859375 Z M 4.515625 -1.921875 "
           style="stroke:none;" />
      </symbol>
      <symbol
         id="glyph1-6"
         overflow="visible">
        <path
           id="path20"
           d="M 10 -4.3125 C 10 -5.3125 9.734375 -6.515625 8.0625 -6.515625 C 6.84375 -6.515625 6.171875 -5.671875 5.953125 -5.34375 C 5.6875 -6.25 4.90625 -6.515625 4.15625 -6.515625 C 2.984375 -6.515625 2.359375 -5.75 2.125 -5.453125 L 2.125 -6.4375 L 1.109375 -6.4375 L 1.109375 0 L 2.1875 0 L 2.1875 -3.578125 C 2.1875 -4.515625 2.5625 -5.65625 3.609375 -5.65625 C 4.9375 -5.65625 5 -4.75 5 -4.21875 L 5 0 L 6.09375 0 L 6.09375 -3.578125 C 6.09375 -4.515625 6.46875 -5.65625 7.515625 -5.65625 C 8.828125 -5.65625 8.90625 -4.75 8.90625 -4.21875 L 8.90625 0 L 10 0 Z M 10 -4.3125 "
           style="stroke:none;" />
      </symbol>
      <symbol
         id="glyph1-7"
         overflow="visible">
        <path
           id="path23"
           d="M 2.1875 -9.953125 L 1.125 -9.953125 L 1.125 0 L 2.1875 0 Z M 2.1875 -9.953125 "
           style="stroke:none;" />
      </symbol>
      <symbol
         id="glyph1-8"
         overflow="visible">
        <path
           id="path26"
           d="M 2.265625 -9.734375 L 1.03125 -9.734375 L 1.03125 -8.5 L 2.265625 -8.5 Z M 2.1875 -6.375 L 1.125 -6.375 L 1.125 0 L 2.1875 0 Z M 2.1875 -6.375 "
           style="stroke:none;" />
      </symbol>
      <symbol
         id="glyph1-9"
         overflow="visible">
        <path
           id="path29"
           d="M 4.890625 -5.65625 C 4.890625 -5.65625 4.921875 -5.625 4.9375 -5.59375 C 5.234375 -5.625 5.546875 -5.671875 6.078125 -5.671875 C 6.125 -5.671875 6.453125 -5.671875 6.8125 -5.640625 L 6.65625 -6.515625 C 6.390625 -6.515625 5.40625 -6.5 4.453125 -6.03125 C 3.984375 -6.4375 3.40625 -6.515625 3.125 -6.515625 C 1.875 -6.515625 0.875 -5.46875 0.875 -4.203125 C 0.875 -3.6875 1.03125 -3.21875 1.34375 -2.78125 C 1.015625 -2.328125 0.9375 -1.890625 0.9375 -1.546875 C 0.9375 -1.015625 1.140625 -0.65625 1.296875 -0.46875 C 0.5625 0 0.390625 0.609375 0.390625 1.015625 C 0.390625 2.0625 1.75 2.9375 3.5 2.9375 C 5.25 2.9375 6.625 2.09375 6.625 1 C 6.625 -1 4.296875 -1 3.71875 -1 L 2.5 -1 C 2.296875 -1 1.671875 -1 1.671875 -1.765625 C 1.671875 -2.078125 1.734375 -2.171875 1.828125 -2.296875 C 2.0625 -2.125 2.53125 -1.875 3.109375 -1.875 C 4.34375 -1.875 5.359375 -2.890625 5.359375 -4.203125 C 5.359375 -4.71875 5.171875 -5.25 4.875 -5.640625 Z M 3.125 -2.671875 C 2.5 -2.671875 1.859375 -3.09375 1.859375 -4.1875 C 1.859375 -5.46875 2.671875 -5.71875 3.109375 -5.71875 C 3.75 -5.71875 4.375 -5.296875 4.375 -4.203125 C 4.375 -2.921875 3.578125 -2.671875 3.125 -2.671875 Z M 3.734375 0.03125 C 4.046875 0.03125 5.625 0.03125 5.625 1.015625 C 5.625 1.671875 4.640625 2.15625 3.515625 2.15625 C 2.390625 2.15625 1.390625 1.703125 1.390625 1 C 1.390625 0.96875 1.390625 0.03125 2.484375 0.03125 Z M 3.734375 0.03125 "
           style="stroke:none;" />
      </symbol>
      <symbol
         id="glyph1-10"
         overflow="visible">
        <path
           id="path32"
           d="M 6.078125 -4.3125 C 6.078125 -5.1875 5.890625 -6.515625 4.15625 -6.515625 C 3.359375 -6.515625 2.671875 -6.15625 2.125 -5.46875 L 2.125 -6.4375 L 1.109375 -6.4375 L 1.109375 0 L 2.1875 0 L 2.1875 -3.578125 C 2.1875 -4.453125 2.53125 -5.65625 3.609375 -5.65625 C 4.953125 -5.65625 4.984375 -4.71875 4.984375 -4.21875 L 4.984375 0 L 6.078125 0 Z M 6.078125 -4.3125 "
           style="stroke:none;" />
      </symbol>
      <symbol
         id="glyph1-11"
         overflow="visible">
        <path
           id="path35"
           d="M 2.453125 -5.53125 L 4.4375 -5.53125 L 4.4375 -6.375 L 2.453125 -6.375 L 2.453125 -8.1875 L 1.46875 -8.1875 L 1.46875 -6.375 L 0.265625 -6.375 L 0.265625 -5.53125 L 1.4375 -5.53125 L 1.4375 -1.671875 C 1.4375 -0.84375 1.625 0.140625 2.609375 0.140625 C 3.578125 0.140625 4.234375 -0.1875 4.671875 -0.421875 L 4.453125 -1.25 C 3.953125 -0.796875 3.421875 -0.75 3.171875 -0.75 C 2.53125 -0.75 2.453125 -1.421875 2.453125 -1.921875 Z M 2.453125 -5.53125 "
           style="stroke:none;" />
      </symbol>
      <symbol
         id="glyph2-0"
         overflow="visible">
        <path
           id="path38"
           d=""
           style="stroke:none;" />
      </symbol>
      <symbol
         id="glyph2-1"
         overflow="visible">
        <path
           id="path41"
           d="M 6.890625 -8.296875 L 5.96875 -8.296875 L 5.96875 -2.765625 C 5.96875 -1.171875 4.96875 -0.421875 4.015625 -0.421875 C 3.078125 -0.421875 2.109375 -1.15625 2.109375 -2.765625 L 2.109375 -8.296875 L 1.078125 -8.296875 L 1.078125 -2.78125 C 1.078125 -1.03125 2.453125 0.25 4 0.25 C 5.5625 0.25 6.890625 -1.046875 6.890625 -2.78125 Z M 6.890625 -8.296875 "
           style="stroke:none;" />
      </symbol>
      <symbol
         id="glyph2-2"
         overflow="visible">
        <path
           id="path44"
           d="M 5.96875 -3.9375 L 5.96875 -4.65625 L 2.109375 -4.65625 L 2.109375 -7.53125 L 3.734375 -7.53125 C 3.875 -7.53125 4.015625 -7.515625 4.15625 -7.515625 L 6.3125 -7.515625 L 6.3125 -8.265625 L 1.078125 -8.265625 L 1.078125 0 L 6.46875 0 L 6.46875 -0.8125 L 4.90625 -0.8125 C 4.75 -0.8125 4.609375 -0.796875 4.46875 -0.796875 L 2.109375 -0.796875 L 2.109375 -3.9375 Z M 5.96875 -3.9375 "
           style="stroke:none;" />
      </symbol>
      <symbol
         id="glyph0-0"
         overflow="visible">
        <path
           id="path47"
           d="M 0.851562 0 C 0.851562 -0.46875 0.46875 -0.851562 0 -0.851562 C -0.46875 -0.851562 -0.851562 -0.46875 -0.851562 0 C -0.851562 0.46875 -0.46875 0.851562 0 0.851562 C 0.46875 0.851562 0.851562 0.46875 0.851562 0 "
           style="stroke:none;" />
      </symbol>
    </g>
    <clipPath
       id="clip1">
      <path
         id="path52"
         d="M 72 72 L 196 72 L 196 164.410156 L 72 164.410156 Z M 72 72 " />
    </clipPath>
    <clipPath
       id="clip2">
      <path
         id="path55"
         d="M 203 0 L 243.78125 0 L 243.78125 31 L 203 31 Z M 203 0 " />
    </clipPath>
  </defs>
  <g
     id="surface548">
    <path
       id="path60"
       d="M 111.515625 47.519531 L 104.773438 47.304688 L 108.648438 52.828125 L 110.082031 50.175781 "
       style=" stroke:none;fill-rule:nonzero;fill:rgb(59.959412%,59.959412%,59.959412%);fill-opacity:1;" />
    <path
       id="path62"
       transform="matrix(0.1,0,0,-0.1,0,164.41)"
       d="M 1047.734375 246.170312 C 1227.460938 329.998437 1342.34375 510.310937 1342.34375 708.63125 C 1342.34375 885.779687 1250.46875 1050.232812 1099.609375 1143.123437 "
       style="fill:none;stroke-width:11.3366;stroke-linecap:butt;stroke-linejoin:miter;stroke:rgb(59.959412%,59.959412%,59.959412%);stroke-opacity:1;stroke-miterlimit:10;" />
    <path
       id="path64"
       transform="matrix(0.1,0,0,-0.1,0,164.41)"
       d="M 100.78125 708.63125 L 100.78125 374.139062 L 542.96875 374.139062 L 542.96875 1043.123437 L 100.78125 1043.123437 Z M 100.78125 708.63125 "
       style="fill:none;stroke-width:11.3366;stroke-linecap:butt;stroke-linejoin:miter;stroke:rgb(0%,0%,0%);stroke-opacity:1;stroke-miterlimit:10;" />
    <path
       id="path66"
       transform="matrix(0.1,0,0,-0.1,0,164.41)"
       d="M 548.632812 935.389062 L 775.390625 935.389062 "
       style="fill:none;stroke-width:11.3366;stroke-linecap:butt;stroke-linejoin:miter;stroke:rgb(0%,0%,0%);stroke-opacity:1;stroke-miterlimit:10;" />
    <path
       id="path68"
       transform="matrix(0.1,0,0,-0.1,0,164.41)"
       d="M 775.390625 1048.7875 L 662.03125 935.389062 L 775.390625 821.990625 "
       style="fill:none;stroke-width:11.3366;stroke-linecap:butt;stroke-linejoin:miter;stroke:rgb(0%,0%,0%);stroke-opacity:1;stroke-miterlimit:10;" />
    <path
       id="path70"
       transform="matrix(0.1,0,0,-0.1,0,164.41)"
       d="M 548.632812 481.834375 L 775.390625 481.834375 "
       style="fill:none;stroke-width:11.3366;stroke-linecap:butt;stroke-linejoin:miter;stroke:rgb(0%,0%,0%);stroke-opacity:1;stroke-miterlimit:10;" />
    <path
       id="path72"
       transform="matrix(0.1,0,0,-0.1,0,164.41)"
       d="M 775.390625 595.232812 L 662.03125 481.834375 L 775.390625 368.475 "
       style="fill:none;stroke-width:11.3366;stroke-linecap:butt;stroke-linejoin:miter;stroke:rgb(0%,0%,0%);stroke-opacity:1;stroke-miterlimit:10;" />
    <path
       id="path74"
       transform="matrix(0.1,0,0,-0.1,0,164.41)"
       d="M 888.789062 708.63125 C 888.789062 481.834375 2136.054688 708.63125 2136.054688 935.389062 C 2136.054688 1162.146875 888.789062 935.389062 888.789062 708.63125 "
       style="fill:none;stroke-width:11.3366;stroke-linecap:butt;stroke-linejoin:miter;stroke:rgb(59.959412%,59.959412%,59.959412%);stroke-opacity:1;stroke-miterlimit:10;" />
    <path
       id="path76"
       transform="matrix(0.1,0,0,-0.1,0,164.41)"
       d="M 888.789062 708.63125 C 888.789062 481.834375 2249.414062 481.834375 2249.414062 708.63125 C 2249.414062 935.389062 888.789062 935.389062 888.789062 708.63125 "
       style="fill:none;stroke-width:11.3366;stroke-linecap:butt;stroke-linejoin:miter;stroke:rgb(59.959412%,59.959412%,59.959412%);stroke-opacity:1;stroke-miterlimit:10;" />
    <path
       id="path78"
       transform="matrix(0.1,0,0,-0.1,0,164.41)"
       d="M 888.789062 708.63125 C 888.789062 481.834375 2136.054688 255.076562 2136.054688 481.834375 C 2136.054688 708.63125 888.789062 935.389062 888.789062 708.63125 "
       style="fill:none;stroke-width:11.3366;stroke-linecap:butt;stroke-linejoin:miter;stroke:rgb(59.959412%,59.959412%,59.959412%);stroke-opacity:1;stroke-miterlimit:10;" />
    <path
       id="path80"
       transform="matrix(0.1,0,0,-0.1,0,164.41)"
       d="M 888.789062 708.63125 C 888.789062 481.834375 2022.65625 28.31875 2022.65625 255.076562 C 2022.65625 481.834375 888.789062 935.389062 888.789062 708.63125 "
       style="fill:none;stroke-width:11.3366;stroke-linecap:butt;stroke-linejoin:miter;stroke:rgb(59.959412%,59.959412%,59.959412%);stroke-opacity:1;stroke-miterlimit:10;" />
    <g
       id="g84"
       clip-rule="nonzero"
       clip-path="url(#clip1)">
      <path
         id="path82"
         transform="matrix(0.1,0,0,-0.1,0,164.41)"
         d="M 888.789062 708.63125 C 888.789062 481.834375 1795.898438 -85.079688 1795.898438 141.678125 C 1795.898438 368.475 888.789062 935.389062 888.789062 708.63125 "
         style="fill:none;stroke-width:11.3366;stroke-linecap:butt;stroke-linejoin:miter;stroke:rgb(59.959412%,59.959412%,59.959412%);stroke-opacity:1;stroke-miterlimit:10;" />
    </g>
    <path
       id="path86"
       transform="matrix(0.1,0,0,-0.1,0,164.41)"
       d="M 888.789062 708.63125 C 888.789062 481.834375 1795.898438 1048.7875 1795.898438 1275.545312 C 1795.898438 1502.303125 888.789062 935.389062 888.789062 708.63125 "
       style="fill:none;stroke-width:11.3366;stroke-linecap:butt;stroke-linejoin:miter;stroke:rgb(59.959412%,59.959412%,59.959412%);stroke-opacity:1;stroke-miterlimit:10;" />
    <g
       id="g90"
       style="fill:rgb(0%,0%,0%);fill-opacity:1;">
      <use
         id="use88"
         y="82.16"
         x="66.25"
         xlink:href="#glyph0-0" />
    </g>
    <g
       id="g94"
       style="fill:rgb(0%,0%,0%);fill-opacity:1;">
      <use
         id="use92"
         y="93.56"
         x="66.25"
         xlink:href="#glyph0-0" />
    </g>
    <g
       id="g98"
       style="fill:rgb(0%,0%,0%);fill-opacity:1;">
      <use
         id="use96"
         y="104.86"
         x="66.25"
         xlink:href="#glyph0-0" />
    </g>
    <path
       id="path100"
       transform="matrix(0.1,0,0,-0.1,0,164.41)"
       d="M 888.789062 708.63125 C 888.789062 481.834375 2022.65625 935.389062 2022.65625 1162.146875 C 2022.65625 1388.94375 888.789062 935.389062 888.789062 708.63125 "
       style="fill:none;stroke-width:11.3366;stroke-linecap:butt;stroke-linejoin:miter;stroke:rgb(59.959412%,59.959412%,59.959412%);stroke-opacity:1;stroke-miterlimit:10;" />
    <path
       id="path102"
       transform="matrix(0.1,0,0,-0.1,0,164.41)"
       d="M 2141.71875 1275.545312 L 2141.71875 1111.13125 L 2357.148438 1111.13125 L 2357.148438 1439.959375 L 2141.71875 1439.959375 Z M 2141.71875 1275.545312 "
       style="fill:none;stroke-width:11.3366;stroke-linecap:butt;stroke-linejoin:miter;stroke:rgb(0%,0%,0%);stroke-opacity:1;stroke-miterlimit:10;" />
    <path
       id="path104"
       transform="matrix(0.1,0,0,-0.1,0,164.41)"
       d="M 2249.414062 1559.021875 L 2249.414062 1445.623437 "
       style="fill:none;stroke-width:11.3366;stroke-linecap:butt;stroke-linejoin:miter;stroke:rgb(0%,0%,0%);stroke-opacity:1;stroke-miterlimit:10;" />
    <g
       id="g108"
       clip-rule="nonzero"
       clip-path="url(#clip2)">
      <path
         id="path106"
         transform="matrix(0.1,0,0,-0.1,0,164.41)"
         d="M 2192.734375 1559.021875 L 2249.414062 1502.303125 L 2306.132812 1559.021875 "
         style="fill:none;stroke-width:11.3366;stroke-linecap:butt;stroke-linejoin:miter;stroke:rgb(0%,0%,0%);stroke-opacity:1;stroke-miterlimit:10;" />
    </g>
    <path
       id="path110"
       transform="matrix(0.1,0,0,-0.1,0,164.41)"
       d="M 888.789062 708.63125 C 888.789062 481.834375 2022.65625 935.389062 2022.65625 1162.146875 C 2022.65625 1388.94375 888.789062 935.389062 888.789062 708.63125 "
       style="fill-rule:nonzero;fill:rgb(0%,0%,0%);fill-opacity:1;stroke-width:11.3366;stroke-linecap:butt;stroke-linejoin:miter;stroke:rgb(0%,0%,0%);stroke-opacity:1;stroke-miterlimit:10;" />
    <g
       id="g114"
       style="fill:rgb(0%,0%,0%);fill-opacity:1;">
      <use
         id="use112"
         y="98.5885"
         x="23.6664"
         xlink:href="#glyph1-1" />
    </g>
    <g
       id="g118"
       style="fill:rgb(0%,0%,0%);fill-opacity:1;">
      <use
         id="use116"
         y="98.5885"
         x="33.026373"
         xlink:href="#glyph1-2" />
    </g>
    <g
       id="g122"
       style="fill:rgb(0%,0%,0%);fill-opacity:1;">
      <use
         id="use120"
         y="41.0557"
         x="217.5024"
         xlink:href="#glyph2-1" />
    </g>
    <g
       id="g126"
       style="fill:rgb(0%,0%,0%);fill-opacity:1;">
      <use
         id="use124"
         y="41.0557"
         x="225.422424"
         xlink:href="#glyph2-2" />
    </g>
    <path
       id="path128"
       transform="matrix(0.1,0,0,-0.1,0,164.41)"
       d="M 44.0625 821.990625 L 44.0625 33.982812 L 2413.828125 33.982812 L 2413.828125 1610.0375 L 44.0625 1610.0375 Z M 44.0625 821.990625 "
       style="fill:none;stroke-width:11.3366;stroke-linecap:butt;stroke-linejoin:miter;stroke:rgb(100%,100%,100%);stroke-opacity:1;stroke-miterlimit:10;" />
    <g
       id="g132"
       style="fill:rgb(0%,0%,0%);fill-opacity:1;">
      <use
         id="use130"
         y="23.448"
         x="87.434"
         xlink:href="#glyph1-3" />
    </g>
    <g
       id="g136"
       style="fill:rgb(0%,0%,0%);fill-opacity:1;">
      <use
         id="use134"
         y="23.448"
         x="94.994135"
         xlink:href="#glyph1-4" />
    </g>
    <g
       id="g140"
       style="fill:rgb(0%,0%,0%);fill-opacity:1;">
      <use
         id="use138"
         y="23.448"
         x="101.234115"
         xlink:href="#glyph1-5" />
    </g>
    <g
       id="g144"
       style="fill:rgb(0%,0%,0%);fill-opacity:1;">
      <use
         id="use142"
         y="23.448"
         x="107.954094"
         xlink:href="#glyph1-6" />
    </g>
    <g
       id="g148"
       style="fill:rgb(0%,0%,0%);fill-opacity:1;">
      <use
         id="use146"
         y="23.448"
         x="123.794049"
         xlink:href="#glyph1-5" />
    </g>
    <g
       id="g152"
       style="fill:rgb(0%,0%,0%);fill-opacity:1;">
      <use
         id="use150"
         y="23.448"
         x="130.514027"
         xlink:href="#glyph1-7" />
    </g>
    <g
       id="g156"
       style="fill:rgb(0%,0%,0%);fill-opacity:1;">
      <use
         id="use154"
         y="23.448"
         x="133.874017"
         xlink:href="#glyph1-8" />
    </g>
    <g
       id="g160"
       style="fill:rgb(0%,0%,0%);fill-opacity:1;">
      <use
         id="use158"
         y="23.448"
         x="137.234019"
         xlink:href="#glyph1-9" />
    </g>
    <g
       id="g164"
       style="fill:rgb(0%,0%,0%);fill-opacity:1;">
      <use
         id="use162"
         y="23.448"
         x="144.313996"
         xlink:href="#glyph1-10" />
    </g>
    <g
       id="g168"
       style="fill:rgb(0%,0%,0%);fill-opacity:1;">
      <use
         id="use166"
         y="23.448"
         x="151.513981"
         xlink:href="#glyph1-6" />
    </g>
    <g
       id="g172"
       style="fill:rgb(0%,0%,0%);fill-opacity:1;">
      <use
         id="use170"
         y="23.448"
         x="162.673946"
         xlink:href="#glyph1-4" />
    </g>
    <g
       id="g176"
       style="fill:rgb(0%,0%,0%);fill-opacity:1;">
      <use
         id="use174"
         y="23.448"
         x="168.913933"
         xlink:href="#glyph1-10" />
    </g>
    <g
       id="g180"
       style="fill:rgb(0%,0%,0%);fill-opacity:1;">
      <use
         id="use178"
         y="23.448"
         x="176.113918"
         xlink:href="#glyph1-11" />
    </g>
  </g>
</svg>
