<?xml version="1.0" encoding="UTF-8" standalone="no"?>
<svg
   xmlns:dc="http://purl.org/dc/elements/1.1/"
   xmlns:cc="http://creativecommons.org/ns#"
   xmlns:rdf="http://www.w3.org/1999/02/22-rdf-syntax-ns#"
   xmlns:svg="http://www.w3.org/2000/svg"
   xmlns="http://www.w3.org/2000/svg"
   xmlns:xlink="http://www.w3.org/1999/xlink"
   id="svg656"
   version="1.2"
   viewBox="0 0 266.68 345.15"
   height="345.15pt"
   width="266.68pt">
  <metadata
     id="metadata660">
    <rdf:RDF>
      <cc:Work
         rdf:about="">
        <dc:format>image/svg+xml</dc:format>
        <dc:type
           rdf:resource="http://purl.org/dc/dcmitype/StillImage" />
        <dc:title></dc:title>
      </cc:Work>
    </rdf:RDF>
  </metadata>
  <defs
     id="defs157">
    <g
       id="g92">
      <symbol
         id="glyph0-0"
         overflow="visible">
        <path
           id="path2"
           d=""
           style="stroke:none;" />
      </symbol>
      <symbol
         id="glyph0-1"
         overflow="visible">
        <path
           id="path5"
           d="M 1.328125 -9.953125 L 1.328125 0 L 5.03125 0 C 7.0625 0 8.53125 -1.296875 8.53125 -2.703125 C 8.53125 -3.953125 7.28125 -4.984375 5.8125 -5.203125 C 7.484375 -5.671875 8.140625 -6.625 8.140625 -7.453125 C 8.140625 -8.75 6.671875 -9.953125 4.640625 -9.953125 Z M 2.5 -5.609375 L 2.5 -9.15625 L 4.265625 -9.15625 C 5.796875 -9.15625 7.03125 -8.390625 7.03125 -7.4375 C 7.03125 -6.4375 5.796875 -5.609375 4.28125 -5.609375 Z M 2.5 -0.796875 L 2.5 -4.75 L 4.40625 -4.75 C 6.25 -4.75 7.40625 -3.71875 7.40625 -2.71875 C 7.40625 -1.703125 6.234375 -0.796875 4.640625 -0.796875 Z M 2.5 -0.796875 "
           style="stroke:none;" />
      </symbol>
      <symbol
         id="glyph0-2"
         overflow="visible">
        <path
           id="path8"
           d="M 6.53125 -9.546875 C 5.9375 -9.875 5.21875 -10.25 3.9375 -10.25 C 2.015625 -10.25 0.78125 -8.875 0.78125 -7.4375 C 0.78125 -6.421875 1.390625 -5.765625 1.46875 -5.6875 C 2.171875 -4.984375 2.65625 -4.84375 3.578125 -4.625 C 4.796875 -4.3125 4.984375 -4.265625 5.453125 -3.78125 C 5.6875 -3.53125 5.90625 -3.0625 5.90625 -2.5625 C 5.90625 -1.578125 5.09375 -0.65625 3.859375 -0.65625 C 2.8125 -0.65625 1.6875 -1.078125 0.84375 -1.84375 L 0.625 -0.6875 C 1.9375 0.171875 3.203125 0.296875 3.859375 0.296875 C 5.703125 0.296875 7.015625 -1.125 7.015625 -2.71875 C 7.015625 -3.625 6.5625 -4.3125 6.25 -4.671875 C 5.59375 -5.375 5.0625 -5.515625 4.109375 -5.765625 C 3.125 -6.015625 2.765625 -6.09375 2.453125 -6.390625 C 2.265625 -6.59375 1.875 -6.953125 1.875 -7.609375 C 1.875 -8.484375 2.671875 -9.328125 3.9375 -9.328125 C 5.15625 -9.328125 5.796875 -8.84375 6.3125 -8.390625 Z M 6.53125 -9.546875 "
           style="stroke:none;" />
      </symbol>
      <symbol
         id="glyph0-3"
         overflow="visible">
        <path
           id="path11"
           d="M 5.84375 -3.234375 C 5.84375 -3.84375 5.78125 -4.71875 5.328125 -5.484375 C 4.734375 -6.46875 3.734375 -6.578125 3.3125 -6.578125 C 1.765625 -6.578125 0.46875 -5.09375 0.46875 -3.234375 C 0.46875 -1.328125 1.84375 0.140625 3.515625 0.140625 C 4.171875 0.140625 4.96875 -0.046875 5.75 -0.609375 C 5.75 -0.671875 5.703125 -1.125 5.703125 -1.140625 C 5.6875 -1.15625 5.671875 -1.484375 5.671875 -1.53125 C 4.8125 -0.8125 3.96875 -0.71875 3.546875 -0.71875 C 2.4375 -0.71875 1.484375 -1.703125 1.46875 -3.234375 Z M 1.546875 -4 C 1.796875 -4.96875 2.46875 -5.71875 3.3125 -5.71875 C 3.765625 -5.71875 4.75 -5.515625 4.984375 -4 Z M 1.546875 -4 "
           style="stroke:none;" />
      </symbol>
      <symbol
         id="glyph0-4"
         overflow="visible">
        <path
           id="path14"
           d="M 5.609375 -4.203125 C 5.609375 -5.578125 4.625 -6.578125 3.28125 -6.578125 C 2.421875 -6.578125 1.78125 -6.390625 1.078125 -5.984375 L 1.15625 -5.03125 C 1.796875 -5.5 2.453125 -5.75 3.28125 -5.75 C 3.9375 -5.75 4.515625 -5.21875 4.515625 -4.171875 L 4.515625 -3.578125 C 3.875 -3.5625 3.015625 -3.515625 2.15625 -3.234375 C 1.1875 -2.890625 0.625 -2.359375 0.625 -1.65625 C 0.625 -1.015625 1 0.140625 2.21875 0.140625 C 3.015625 0.140625 4.015625 -0.09375 4.546875 -0.53125 L 4.546875 0 L 5.609375 0 Z M 4.515625 -1.921875 C 4.515625 -1.640625 4.515625 -1.296875 4.046875 -1 C 3.65625 -0.765625 3.171875 -0.71875 2.953125 -0.71875 C 2.1875 -0.71875 1.65625 -1.140625 1.65625 -1.65625 C 1.65625 -2.640625 3.640625 -2.859375 4.515625 -2.859375 Z M 4.515625 -1.921875 "
           style="stroke:none;" />
      </symbol>
      <symbol
         id="glyph0-5"
         overflow="visible">
        <path
           id="path17"
           d="M 10 -4.3125 C 10 -5.3125 9.734375 -6.515625 8.0625 -6.515625 C 6.84375 -6.515625 6.171875 -5.671875 5.953125 -5.34375 C 5.6875 -6.25 4.90625 -6.515625 4.15625 -6.515625 C 2.984375 -6.515625 2.359375 -5.75 2.125 -5.453125 L 2.125 -6.4375 L 1.109375 -6.4375 L 1.109375 0 L 2.1875 0 L 2.1875 -3.578125 C 2.1875 -4.515625 2.5625 -5.65625 3.609375 -5.65625 C 4.9375 -5.65625 5 -4.75 5 -4.21875 L 5 0 L 6.09375 0 L 6.09375 -3.578125 C 6.09375 -4.515625 6.46875 -5.65625 7.515625 -5.65625 C 8.828125 -5.65625 8.90625 -4.75 8.90625 -4.21875 L 8.90625 0 L 10 0 Z M 10 -4.3125 "
           style="stroke:none;" />
      </symbol>
      <symbol
         id="glyph0-6"
         overflow="visible">
        <path
           id="path20"
           d="M 5.265625 -9.953125 L 4 -9.953125 L 0.390625 0 L 1.453125 0 L 2.5 -2.90625 L 6.546875 -2.90625 L 7.609375 0 L 8.875 0 Z M 4.515625 -8.921875 L 6.234375 -3.71875 L 2.8125 -3.71875 Z M 4.515625 -8.921875 "
           style="stroke:none;" />
      </symbol>
      <symbol
         id="glyph0-7"
         overflow="visible">
        <path
           id="path23"
           d="M 2.1875 -9.953125 L 1.125 -9.953125 L 1.125 0 L 2.1875 0 Z M 2.1875 -9.953125 "
           style="stroke:none;" />
      </symbol>
      <symbol
         id="glyph0-8"
         overflow="visible">
        <path
           id="path26"
           d="M 2.265625 -9.734375 L 1.03125 -9.734375 L 1.03125 -8.5 L 2.265625 -8.5 Z M 2.1875 -6.375 L 1.125 -6.375 L 1.125 0 L 2.1875 0 Z M 2.1875 -6.375 "
           style="stroke:none;" />
      </symbol>
      <symbol
         id="glyph0-9"
         overflow="visible">
        <path
           id="path29"
           d="M 4.890625 -5.65625 C 4.890625 -5.65625 4.921875 -5.625 4.9375 -5.59375 C 5.234375 -5.625 5.546875 -5.671875 6.078125 -5.671875 C 6.125 -5.671875 6.453125 -5.671875 6.8125 -5.640625 L 6.65625 -6.515625 C 6.390625 -6.515625 5.40625 -6.5 4.453125 -6.03125 C 3.984375 -6.4375 3.40625 -6.515625 3.125 -6.515625 C 1.875 -6.515625 0.875 -5.46875 0.875 -4.203125 C 0.875 -3.6875 1.03125 -3.21875 1.34375 -2.78125 C 1.015625 -2.328125 0.9375 -1.890625 0.9375 -1.546875 C 0.9375 -1.015625 1.140625 -0.65625 1.296875 -0.46875 C 0.5625 0 0.390625 0.609375 0.390625 1.015625 C 0.390625 2.0625 1.75 2.9375 3.5 2.9375 C 5.25 2.9375 6.625 2.09375 6.625 1 C 6.625 -1 4.296875 -1 3.71875 -1 L 2.5 -1 C 2.296875 -1 1.671875 -1 1.671875 -1.765625 C 1.671875 -2.078125 1.734375 -2.171875 1.828125 -2.296875 C 2.0625 -2.125 2.53125 -1.875 3.109375 -1.875 C 4.34375 -1.875 5.359375 -2.890625 5.359375 -4.203125 C 5.359375 -4.71875 5.171875 -5.25 4.875 -5.640625 Z M 3.125 -2.671875 C 2.5 -2.671875 1.859375 -3.09375 1.859375 -4.1875 C 1.859375 -5.46875 2.671875 -5.71875 3.109375 -5.71875 C 3.75 -5.71875 4.375 -5.296875 4.375 -4.203125 C 4.375 -2.921875 3.578125 -2.671875 3.125 -2.671875 Z M 3.734375 0.03125 C 4.046875 0.03125 5.625 0.03125 5.625 1.015625 C 5.625 1.671875 4.640625 2.15625 3.515625 2.15625 C 2.390625 2.15625 1.390625 1.703125 1.390625 1 C 1.390625 0.96875 1.390625 0.03125 2.484375 0.03125 Z M 3.734375 0.03125 "
           style="stroke:none;" />
      </symbol>
      <symbol
         id="glyph0-10"
         overflow="visible">
        <path
           id="path32"
           d="M 6.078125 -4.3125 C 6.078125 -5.1875 5.890625 -6.515625 4.15625 -6.515625 C 3.359375 -6.515625 2.671875 -6.15625 2.125 -5.46875 L 2.125 -6.4375 L 1.109375 -6.4375 L 1.109375 0 L 2.1875 0 L 2.1875 -3.578125 C 2.1875 -4.453125 2.53125 -5.65625 3.609375 -5.65625 C 4.953125 -5.65625 4.984375 -4.71875 4.984375 -4.21875 L 4.984375 0 L 6.078125 0 Z M 6.078125 -4.3125 "
           style="stroke:none;" />
      </symbol>
      <symbol
         id="glyph0-11"
         overflow="visible">
        <path
           id="path35"
           d="M 2.453125 -5.53125 L 4.4375 -5.53125 L 4.4375 -6.375 L 2.453125 -6.375 L 2.453125 -8.1875 L 1.46875 -8.1875 L 1.46875 -6.375 L 0.265625 -6.375 L 0.265625 -5.53125 L 1.4375 -5.53125 L 1.4375 -1.671875 C 1.4375 -0.84375 1.625 0.140625 2.609375 0.140625 C 3.578125 0.140625 4.234375 -0.1875 4.671875 -0.421875 L 4.453125 -1.25 C 3.953125 -0.796875 3.421875 -0.75 3.171875 -0.75 C 2.53125 -0.75 2.453125 -1.421875 2.453125 -1.921875 Z M 2.453125 -5.53125 "
           style="stroke:none;" />
      </symbol>
      <symbol
         id="glyph0-12"
         overflow="visible">
        <path
           id="path38"
           d="M 4.8125 -6.140625 C 3.90625 -6.5625 3.125 -6.578125 2.796875 -6.578125 C 2.46875 -6.578125 0.46875 -6.578125 0.46875 -4.71875 C 0.46875 -4.09375 0.8125 -3.65625 1.03125 -3.453125 C 1.546875 -3.015625 1.90625 -2.9375 2.75 -2.765625 C 3.234375 -2.671875 4.0625 -2.5 4.0625 -1.734375 C 4.0625 -0.75 2.9375 -0.75 2.734375 -0.75 C 2.171875 -0.75 1.328125 -0.90625 0.5625 -1.46875 L 0.390625 -0.484375 C 0.453125 -0.4375 1.4375 0.140625 2.75 0.140625 C 4.609375 0.140625 5.046875 -0.96875 5.046875 -1.828125 C 5.046875 -2.546875 4.609375 -3.015625 4.546875 -3.078125 C 4.015625 -3.625 3.578125 -3.71875 2.71875 -3.890625 C 2.1875 -3.984375 1.46875 -4.125 1.46875 -4.84375 C 1.46875 -5.734375 2.46875 -5.734375 2.65625 -5.734375 C 3.40625 -5.734375 4.015625 -5.5625 4.640625 -5.203125 Z M 4.8125 -6.140625 "
           style="stroke:none;" />
      </symbol>
      <symbol
         id="glyph0-13"
         overflow="visible">
        <path
           id="path41"
           d="M 6.578125 -3.15625 C 6.578125 -5.09375 5.15625 -6.578125 3.515625 -6.578125 C 1.828125 -6.578125 0.4375 -5.0625 0.4375 -3.15625 C 0.4375 -1.28125 1.859375 0.140625 3.5 0.140625 C 5.1875 0.140625 6.578125 -1.3125 6.578125 -3.15625 Z M 3.515625 -0.75 C 2.484375 -0.75 1.515625 -1.609375 1.515625 -3.296875 C 1.515625 -5.03125 2.59375 -5.71875 3.5 -5.71875 C 4.484375 -5.71875 5.5 -4.984375 5.5 -3.296875 C 5.5 -1.53125 4.46875 -0.75 3.515625 -0.75 Z M 3.515625 -0.75 "
           style="stroke:none;" />
      </symbol>
      <symbol
         id="glyph0-14"
         overflow="visible">
        <path
           id="path44"
           d="M 8.265625 -9.953125 L 7.171875 -9.953125 L 7.171875 -3.328125 C 7.171875 -1.40625 5.96875 -0.5 4.8125 -0.5 C 3.6875 -0.5 2.53125 -1.390625 2.53125 -3.328125 L 2.53125 -9.953125 L 1.296875 -9.953125 L 1.296875 -3.34375 C 1.296875 -1.234375 2.9375 0.296875 4.8125 0.296875 C 6.671875 0.296875 8.265625 -1.265625 8.265625 -3.34375 Z M 8.265625 -9.953125 "
           style="stroke:none;" />
      </symbol>
      <symbol
         id="glyph0-15"
         overflow="visible">
        <path
           id="path47"
           d="M 2.1875 -3.140625 C 2.1875 -4.59375 3.265625 -5.53125 4.5625 -5.546875 L 4.5625 -6.515625 C 3.25 -6.5 2.5 -5.734375 2.109375 -5.171875 L 2.109375 -6.4375 L 1.125 -6.4375 L 1.125 0 L 2.1875 0 Z M 2.1875 -3.140625 "
           style="stroke:none;" />
      </symbol>
      <symbol
         id="glyph0-16"
         overflow="visible">
        <path
           id="path50"
           d="M 3.0625 -9.953125 L 1.3125 -9.953125 L 1.3125 0 L 2.40625 0 L 2.40625 -8.890625 L 2.421875 -8.890625 C 2.546875 -8.609375 3.296875 -7.0625 3.578125 -6.484375 L 6.75 0 L 8.515625 0 L 8.515625 -9.953125 L 7.421875 -9.953125 L 7.421875 -1.0625 L 7.40625 -1.0625 C 7.265625 -1.34375 6.53125 -2.890625 6.234375 -3.46875 Z M 3.0625 -9.953125 "
           style="stroke:none;" />
      </symbol>
      <symbol
         id="glyph0-17"
         overflow="visible">
        <path
           id="path53"
           d="M 9.328125 -6.375 L 8.28125 -6.375 L 7.421875 -3.453125 C 7.21875 -2.765625 6.8125 -1.421875 6.75 -0.796875 L 6.734375 -0.796875 C 6.703125 -1.140625 6.46875 -2.109375 6.171875 -3.125 L 5.21875 -6.375 L 4.234375 -6.375 L 3.40625 -3.5625 C 3.15625 -2.671875 2.8125 -1.4375 2.765625 -0.828125 L 2.75 -0.828125 C 2.734375 -1.109375 2.578125 -1.859375 2.3125 -2.828125 L 1.296875 -6.375 L 0.203125 -6.375 L 2.125 0 L 3.234375 0 C 3.765625 -1.8125 4.609375 -4.53125 4.6875 -5.53125 L 4.703125 -5.53125 C 4.734375 -4.953125 5.015625 -3.921875 5.125 -3.578125 L 6.140625 0 L 7.40625 0 Z M 9.328125 -6.375 "
           style="stroke:none;" />
      </symbol>
      <symbol
         id="glyph0-18"
         overflow="visible">
        <path
           id="path56"
           d="M 5.40625 -9 L 6.671875 -9 C 6.84375 -9 7.015625 -8.984375 7.1875 -8.984375 L 9.0625 -8.984375 L 9.0625 -9.890625 L 0.5 -9.890625 L 0.5 -8.984375 L 2.390625 -8.984375 C 2.5625 -8.984375 2.734375 -9 2.90625 -9 L 4.171875 -9 L 4.171875 0 L 5.40625 0 Z M 5.40625 -9 "
           style="stroke:none;" />
      </symbol>
      <symbol
         id="glyph1-0"
         overflow="visible">
        <path
           id="path59"
           d=""
           style="stroke:none;" />
      </symbol>
      <symbol
         id="glyph1-1"
         overflow="visible">
        <path
           id="path62"
           d="M 5.0625 -5.3125 L 4.15625 -5.3125 L 4.15625 -1.890625 C 4.15625 -0.984375 3.53125 -0.53125 2.75 -0.53125 C 1.90625 -0.53125 1.828125 -0.84375 1.828125 -1.375 L 1.828125 -5.3125 L 0.921875 -5.3125 L 0.921875 -1.328125 C 0.921875 -0.46875 1.1875 0.125 2.171875 0.125 C 2.515625 0.125 3.453125 0.0625 4.1875 -0.59375 L 4.1875 0 L 5.0625 0 Z M 5.0625 -5.3125 "
           style="stroke:none;" />
      </symbol>
      <symbol
         id="glyph1-2"
         overflow="visible">
        <path
           id="path65"
           d="M 4.015625 -5.109375 C 3.25 -5.46875 2.609375 -5.484375 2.328125 -5.484375 C 2.0625 -5.484375 0.390625 -5.484375 0.390625 -3.9375 C 0.390625 -3.40625 0.6875 -3.046875 0.859375 -2.875 C 1.296875 -2.515625 1.59375 -2.453125 2.296875 -2.3125 C 2.6875 -2.21875 3.375 -2.078125 3.375 -1.453125 C 3.375 -0.625 2.453125 -0.625 2.28125 -0.625 C 1.8125 -0.625 1.109375 -0.75 0.46875 -1.21875 L 0.328125 -0.40625 C 0.375 -0.375 1.1875 0.125 2.296875 0.125 C 3.84375 0.125 4.203125 -0.8125 4.203125 -1.515625 C 4.203125 -2.125 3.84375 -2.515625 3.796875 -2.5625 C 3.34375 -3.03125 2.984375 -3.09375 2.265625 -3.234375 C 1.828125 -3.328125 1.21875 -3.4375 1.21875 -4.046875 C 1.21875 -4.78125 2.0625 -4.78125 2.21875 -4.78125 C 2.84375 -4.78125 3.34375 -4.640625 3.875 -4.34375 Z M 4.015625 -5.109375 "
           style="stroke:none;" />
      </symbol>
      <symbol
         id="glyph1-3"
         overflow="visible">
        <path
           id="path68"
           d="M 4.859375 -2.6875 C 4.859375 -3.203125 4.8125 -3.9375 4.4375 -4.5625 C 3.9375 -5.390625 3.109375 -5.484375 2.765625 -5.484375 C 1.46875 -5.484375 0.390625 -4.25 0.390625 -2.6875 C 0.390625 -1.109375 1.546875 0.125 2.921875 0.125 C 3.484375 0.125 4.140625 -0.03125 4.796875 -0.515625 C 4.796875 -0.5625 4.75 -0.9375 4.75 -0.953125 C 4.75 -0.96875 4.71875 -1.234375 4.71875 -1.28125 C 4.015625 -0.6875 3.3125 -0.59375 2.953125 -0.59375 C 2.03125 -0.59375 1.25 -1.421875 1.21875 -2.6875 Z M 1.296875 -3.328125 C 1.5 -4.140625 2.0625 -4.765625 2.765625 -4.765625 C 3.125 -4.765625 3.953125 -4.609375 4.15625 -3.328125 Z M 1.296875 -3.328125 "
           style="stroke:none;" />
      </symbol>
      <symbol
         id="glyph1-4"
         overflow="visible">
        <path
           id="path71"
           d="M 1.8125 -2.625 C 1.8125 -3.828125 2.71875 -4.609375 3.796875 -4.625 L 3.796875 -5.421875 C 2.71875 -5.421875 2.078125 -4.78125 1.75 -4.3125 L 1.75 -5.359375 L 0.9375 -5.359375 L 0.9375 0 L 1.8125 0 Z M 1.8125 -2.625 "
           style="stroke:none;" />
      </symbol>
      <symbol
         id="glyph1-5"
         overflow="visible">
        <path
           id="path74"
           d="M 3.234375 -2.3125 L 3.234375 -3 L 0.125 -3 L 0.125 -2.3125 Z M 3.234375 -2.3125 "
           style="stroke:none;" />
      </symbol>
      <symbol
         id="glyph1-6"
         overflow="visible">
        <path
           id="path77"
           d="M 1.84375 -0.53125 C 2.25 -0.171875 2.75 0.125 3.390625 0.125 C 4.546875 0.125 5.5625 -1.046875 5.5625 -2.671875 C 5.5625 -4.109375 4.8125 -5.421875 3.6875 -5.421875 C 3.203125 -5.421875 2.4375 -5.265625 1.8125 -4.75 L 1.8125 -5.3125 L 0.9375 -5.3125 L 0.9375 2.3125 L 1.84375 2.3125 Z M 1.84375 -4.015625 C 2.109375 -4.421875 2.5625 -4.6875 3.0625 -4.6875 C 3.9375 -4.6875 4.65625 -3.796875 4.65625 -2.65625 C 4.65625 -1.453125 3.84375 -0.59375 2.953125 -0.59375 C 2.625 -0.59375 2.390625 -0.71875 2.171875 -0.890625 C 1.875 -1.140625 1.84375 -1.359375 1.84375 -1.546875 Z M 1.84375 -4.015625 "
           style="stroke:none;" />
      </symbol>
      <symbol
         id="glyph1-7"
         overflow="visible">
        <path
           id="path80"
           d="M 4.796875 -1.296875 C 4.25 -0.84375 3.640625 -0.625 2.96875 -0.625 C 1.96875 -0.625 1.328125 -1.5 1.328125 -2.671875 C 1.328125 -3.65625 1.8125 -4.75 3 -4.75 C 3.796875 -4.75 4.140625 -4.546875 4.65625 -4.203125 L 4.796875 -4.984375 C 4.09375 -5.390625 3.703125 -5.484375 3 -5.484375 C 1.34375 -5.484375 0.421875 -4.03125 0.421875 -2.671875 C 0.421875 -1.140625 1.515625 0.125 2.953125 0.125 C 3.53125 0.125 4.203125 -0.03125 4.859375 -0.5 C 4.859375 -0.53125 4.828125 -0.90625 4.8125 -0.953125 Z M 4.796875 -1.296875 "
           style="stroke:none;" />
      </symbol>
      <symbol
         id="glyph1-8"
         overflow="visible">
        <path
           id="path83"
           d="M 1.890625 -8.109375 L 0.859375 -8.109375 L 0.859375 -7.09375 L 1.890625 -7.09375 Z M 1.8125 -5.3125 L 0.9375 -5.3125 L 0.9375 0 L 1.8125 0 Z M 1.8125 -5.3125 "
           style="stroke:none;" />
      </symbol>
      <symbol
         id="glyph1-9"
         overflow="visible">
        <path
           id="path86"
           d="M 5.34375 -8.3125 L 4.375 -8.3125 L 4.375 -7.34375 L 5.34375 -7.34375 Z M 5.3125 -5.3125 L 4.421875 -5.3125 L 4.421875 0 L 5.3125 0 Z M 2.0625 -4.609375 L 3.4375 -4.609375 L 3.4375 -5.3125 L 2.046875 -5.3125 L 2.046875 -6.765625 C 2.046875 -7.484375 2.421875 -7.703125 2.75 -7.703125 C 3.015625 -7.703125 3.28125 -7.609375 3.4375 -7.484375 L 3.4375 -8.296875 C 3.203125 -8.390625 3.125 -8.421875 2.75 -8.421875 C 1.859375 -8.421875 1.1875 -7.5625 1.1875 -6.40625 L 1.1875 -5.3125 L 0.3125 -5.3125 L 0.3125 -4.609375 L 1.1875 -4.609375 L 1.1875 0 L 2.0625 0 Z M 2.0625 -4.609375 "
           style="stroke:none;" />
      </symbol>
      <symbol
         id="glyph1-10"
         overflow="visible">
        <path
           id="path89"
           d="M 2.046875 -4.609375 L 3.6875 -4.609375 L 3.6875 -5.3125 L 2.046875 -5.3125 L 2.046875 -6.828125 L 1.21875 -6.828125 L 1.21875 -5.3125 L 0.21875 -5.3125 L 0.21875 -4.609375 L 1.1875 -4.609375 L 1.1875 -1.40625 C 1.1875 -0.703125 1.34375 0.125 2.171875 0.125 C 2.96875 0.125 3.53125 -0.15625 3.890625 -0.34375 L 3.71875 -1.046875 C 3.296875 -0.671875 2.859375 -0.625 2.640625 -0.625 C 2.109375 -0.625 2.046875 -1.1875 2.046875 -1.609375 Z M 2.046875 -4.609375 "
           style="stroke:none;" />
      </symbol>
    </g>
    <clipPath
       id="clip1">
      <path
         id="path94"
         d="M 192 0 L 266.679688 0 L 266.679688 59 L 192 59 Z M 192 0 " />
    </clipPath>
    <clipPath
       id="clip2">
      <path
         id="path97"
         d="M 198 0 L 266.679688 0 L 266.679688 54 L 198 54 Z M 198 0 " />
    </clipPath>
    <clipPath
       id="clip3">
      <path
         id="path100"
         d="M 209 0 L 266.679688 0 L 266.679688 94 L 209 94 Z M 209 0 " />
    </clipPath>
    <clipPath
       id="clip4">
      <path
         id="path103"
         d="M 211 0 L 266.679688 0 L 266.679688 86 L 211 86 Z M 211 0 " />
    </clipPath>
    <clipPath
       id="clip5">
      <path
         id="path106"
         d="M 103 265 L 173 265 L 173 345.148438 L 103 345.148438 Z M 103 265 " />
    </clipPath>
    <clipPath
       id="clip6">
      <path
         id="path109"
         d="M 103 281 L 173 281 L 173 345.148438 L 103 345.148438 Z M 103 281 " />
    </clipPath>
    <clipPath
       id="clip7">
      <path
         id="path112"
         d="M 103 273 L 173 273 L 173 345.148438 L 103 345.148438 Z M 103 273 " />
    </clipPath>
    <clipPath
       id="clip8">
      <path
         id="path115"
         d="M 103 289 L 173 289 L 173 345.148438 L 103 345.148438 Z M 103 289 " />
    </clipPath>
    <clipPath
       id="clip9">
      <path
         id="path118"
         d="M 103 297 L 173 297 L 173 345.148438 L 103 345.148438 Z M 103 297 " />
    </clipPath>
    <clipPath
       id="clip10">
      <path
         id="path121"
         d="M 103 273 L 173 273 L 173 345.148438 L 103 345.148438 Z M 103 273 " />
    </clipPath>
    <clipPath
       id="clip11">
      <path
         id="path124"
         d="M 103 289 L 173 289 L 173 345.148438 L 103 345.148438 Z M 103 289 " />
    </clipPath>
    <clipPath
       id="clip12">
      <path
         id="path127"
         d="M 103 305 L 173 305 L 173 345.148438 L 103 345.148438 Z M 103 305 " />
    </clipPath>
    <clipPath
       id="clip13">
      <path
         id="path130"
         d="M 123 273 L 193 273 L 193 345.148438 L 123 345.148438 Z M 123 273 " />
    </clipPath>
    <clipPath
       id="clip14">
      <path
         id="path133"
         d="M 123 289 L 193 289 L 193 345.148438 L 123 345.148438 Z M 123 289 " />
    </clipPath>
    <clipPath
       id="clip15">
      <path
         id="path136"
         d="M 123 265 L 193 265 L 193 345.148438 L 123 345.148438 Z M 123 265 " />
    </clipPath>
    <clipPath
       id="clip16">
      <path
         id="path139"
         d="M 123 281 L 193 281 L 193 345.148438 L 123 345.148438 Z M 123 281 " />
    </clipPath>
    <clipPath
       id="clip17">
      <path
         id="path142"
         d="M 123 297 L 193 297 L 193 345.148438 L 123 345.148438 Z M 123 297 " />
    </clipPath>
    <clipPath
       id="clip18">
      <path
         id="path145"
         d="M 123 305 L 193 305 L 193 345.148438 L 123 345.148438 Z M 123 305 " />
    </clipPath>
    <clipPath
       id="clip19">
      <path
         id="path148"
         d="M 128 310 L 168 310 L 168 345.148438 L 128 345.148438 Z M 128 310 " />
    </clipPath>
    <clipPath
       id="clip20">
      <path
         id="path151"
         d="M 149 319 L 188 319 L 188 345.148438 L 149 345.148438 Z M 149 319 " />
    </clipPath>
    <clipPath
       id="clip21">
      <path
         id="path154"
         d="M 108 319 L 147 319 L 147 345.148438 L 108 345.148438 Z M 108 319 " />
    </clipPath>
  </defs>
  <g
     id="surface626">
    <path
       id="path159"
       transform="matrix(0.1,0,0,-0.1,0,345.15)"
       d="M 854.765625 2743.53125 C 854.765625 2516.734375 2102.03125 2743.53125 2102.03125 2970.289063 C 2102.03125 3197.046875 854.765625 2970.289063 854.765625 2743.53125 "
       style="fill:none;stroke-width:11.3366;stroke-linecap:butt;stroke-linejoin:miter;stroke:rgb(59.959412%,59.959412%,59.959412%);stroke-opacity:1;stroke-miterlimit:10;" />
    <path
       id="path161"
       transform="matrix(0.1,0,0,-0.1,0,345.15)"
       d="M 854.765625 2743.53125 C 854.765625 2516.734375 2215.390625 2516.734375 2215.390625 2743.53125 C 2215.390625 2970.289063 854.765625 2970.289063 854.765625 2743.53125 "
       style="fill:none;stroke-width:11.3366;stroke-linecap:butt;stroke-linejoin:miter;stroke:rgb(59.959412%,59.959412%,59.959412%);stroke-opacity:1;stroke-miterlimit:10;" />
    <path
       id="path163"
       transform="matrix(0.1,0,0,-0.1,0,345.15)"
       d="M 854.765625 2743.53125 C 854.765625 2516.734375 2102.03125 2289.976563 2102.03125 2516.734375 C 2102.03125 2743.53125 854.765625 2970.289063 854.765625 2743.53125 "
       style="fill:none;stroke-width:11.3366;stroke-linecap:butt;stroke-linejoin:miter;stroke:rgb(59.959412%,59.959412%,59.959412%);stroke-opacity:1;stroke-miterlimit:10;" />
    <path
       id="path165"
       transform="matrix(0.1,0,0,-0.1,0,345.15)"
       d="M 854.765625 2743.53125 C 854.765625 2516.734375 1988.632812 2063.21875 1988.632812 2289.976563 C 1988.632812 2516.734375 854.765625 2970.289063 854.765625 2743.53125 "
       style="fill:none;stroke-width:11.3366;stroke-linecap:butt;stroke-linejoin:miter;stroke:rgb(59.959412%,59.959412%,59.959412%);stroke-opacity:1;stroke-miterlimit:10;" />
    <path
       id="path167"
       transform="matrix(0.1,0,0,-0.1,0,345.15)"
       d="M 854.765625 2743.53125 C 854.765625 2516.734375 1761.875 1949.820313 1761.875 2176.578125 C 1761.875 2403.375 854.765625 2970.289063 854.765625 2743.53125 "
       style="fill:none;stroke-width:11.3366;stroke-linecap:butt;stroke-linejoin:miter;stroke:rgb(59.959412%,59.959412%,59.959412%);stroke-opacity:1;stroke-miterlimit:10;" />
    <path
       id="path169"
       transform="matrix(0.1,0,0,-0.1,0,345.15)"
       d="M 854.765625 2743.53125 C 854.765625 2516.734375 1761.875 3083.6875 1761.875 3310.445313 C 1761.875 3537.203125 854.765625 2970.289063 854.765625 2743.53125 "
       style="fill:none;stroke-width:11.3366;stroke-linecap:butt;stroke-linejoin:miter;stroke:rgb(59.959412%,59.959412%,59.959412%);stroke-opacity:1;stroke-miterlimit:10;" />
    <path
       id="path171"
       transform="matrix(0.1,0,0,-0.1,0,345.15)"
       d="M 854.765625 2743.53125 C 854.765625 2516.734375 1988.632812 2970.289063 1988.632812 3197.046875 C 1988.632812 3423.84375 854.765625 2970.289063 854.765625 2743.53125 "
       style="fill:none;stroke-width:11.3366;stroke-linecap:butt;stroke-linejoin:miter;stroke:rgb(59.959412%,59.959412%,59.959412%);stroke-opacity:1;stroke-miterlimit:10;" />
    <path
       id="path173"
       transform="matrix(0.1,0,0,-0.1,0,345.15)"
       d="M 854.765625 2743.53125 C 854.765625 2516.734375 2102.03125 2743.53125 2102.03125 2970.289063 C 2102.03125 3197.046875 854.765625 2970.289063 854.765625 2743.53125 "
       style="fill-rule:nonzero;fill:rgb(0%,0%,0%);fill-opacity:1;stroke-width:11.3366;stroke-linecap:butt;stroke-linejoin:miter;stroke:rgb(0%,0%,0%);stroke-opacity:1;stroke-miterlimit:10;" />
    <g
       id="g177"
       style="fill:rgb(0%,0%,0%);fill-opacity:1;">
      <use
         id="use175"
         y="75.838"
         x="25.9344"
         xlink:href="#glyph0-1" />
    </g>
    <g
       id="g181"
       style="fill:rgb(0%,0%,0%);fill-opacity:1;">
      <use
         id="use179"
         y="75.838"
         x="35.294373"
         xlink:href="#glyph0-2" />
    </g>
    <path
       id="path183"
       d="M 247.53125 19.09375 C 247.53125 10.628906 240.664062 3.761719 232.199219 3.761719 C 223.730469 3.761719 216.867188 10.628906 216.867188 19.09375 C 216.867188 27.5625 223.730469 34.425781 232.199219 34.425781 C 240.664062 34.425781 247.53125 27.5625 247.53125 19.09375 "
       style=" stroke:none;fill-rule:nonzero;fill:rgb(100%,100%,100%);fill-opacity:1;" />
    <g
       id="g187"
       clip-rule="nonzero"
       clip-path="url(#clip1)">
      <path
         id="path185"
         transform="matrix(0.1,0,0,-0.1,0,345.15)"
         d="M 2475.3125 3260.5625 C 2475.3125 3345.210938 2406.640625 3413.882813 2321.992188 3413.882813 C 2237.304688 3413.882813 2168.671875 3345.210938 2168.671875 3260.5625 C 2168.671875 3175.875 2237.304688 3107.242188 2321.992188 3107.242188 C 2406.640625 3107.242188 2475.3125 3175.875 2475.3125 3260.5625 Z M 2475.3125 3260.5625 "
         style="fill:none;stroke-width:17.0071;stroke-linecap:butt;stroke-linejoin:miter;stroke:rgb(50%,50%,50%);stroke-opacity:1;stroke-miterlimit:10;" />
    </g>
    <path
       id="path189"
       d="M 242.089844 19.09375 C 242.089844 13.632812 237.660156 9.207031 232.199219 9.207031 C 226.738281 9.207031 222.308594 13.632812 222.308594 19.09375 C 222.308594 24.554688 226.738281 28.984375 232.199219 28.984375 C 237.660156 28.984375 242.089844 24.554688 242.089844 19.09375 "
       style=" stroke:none;fill-rule:nonzero;fill:rgb(0%,0%,0%);fill-opacity:1;" />
    <g
       id="g193"
       clip-rule="nonzero"
       clip-path="url(#clip2)">
      <path
         id="path191"
         transform="matrix(0.1,0,0,-0.1,0,345.15)"
         d="M 2420.898438 3260.5625 C 2420.898438 3315.171875 2376.601562 3359.429688 2321.992188 3359.429688 C 2267.382812 3359.429688 2223.085938 3315.171875 2223.085938 3260.5625 C 2223.085938 3205.953125 2267.382812 3161.65625 2321.992188 3161.65625 C 2376.601562 3161.65625 2420.898438 3205.953125 2420.898438 3260.5625 Z M 2420.898438 3260.5625 "
         style="fill:none;stroke-width:17.0071;stroke-linecap:butt;stroke-linejoin:miter;stroke:rgb(0%,0%,0%);stroke-opacity:1;stroke-miterlimit:10;" />
    </g>
    <path
       id="path195"
       d="M 236.644531 19.09375 C 236.644531 16.640625 234.652344 14.648438 232.199219 14.648438 C 229.742188 14.648438 227.753906 16.640625 227.753906 19.09375 C 227.753906 21.550781 229.742188 23.539062 232.199219 23.539062 C 234.652344 23.539062 236.644531 21.550781 236.644531 19.09375 "
       style=" stroke:none;fill-rule:nonzero;fill:rgb(100%,100%,100%);fill-opacity:1;" />
    <path
       id="path197"
       transform="matrix(0.1,0,0,-0.1,0,345.15)"
       d="M 2366.445312 3260.5625 C 2366.445312 3285.09375 2346.523438 3305.015625 2321.992188 3305.015625 C 2297.421875 3305.015625 2277.539062 3285.09375 2277.539062 3260.5625 C 2277.539062 3235.992188 2297.421875 3216.109375 2321.992188 3216.109375 C 2346.523438 3216.109375 2366.445312 3235.992188 2366.445312 3260.5625 Z M 2366.445312 3260.5625 "
       style="fill:none;stroke-width:17.0071;stroke-linecap:butt;stroke-linejoin:miter;stroke:rgb(0%,0%,0%);stroke-opacity:1;stroke-miterlimit:10;" />
    <path
       id="path199"
       d="M 233.050781 44.945312 L 233.050781 20.742188 C 233.050781 20.300781 233.40625 19.945312 233.84375 19.945312 L 263.207031 19.945312 C 263.648438 19.945312 264.003906 20.300781 264.003906 20.742188 L 264.003906 69.152344 C 264.003906 69.59375 263.648438 69.949219 263.207031 69.949219 L 233.84375 69.949219 C 233.40625 69.949219 233.050781 69.59375 233.050781 69.152344 "
       style=" stroke:none;fill-rule:nonzero;fill:rgb(0%,0%,0%);fill-opacity:1;" />
    <g
       id="g203"
       clip-rule="nonzero"
       clip-path="url(#clip3)">
      <path
         id="path201"
         transform="matrix(0.1,0,0,-0.1,0,345.15)"
         d="M 2330.507812 3002.046875 L 2330.507812 3244.078125 C 2330.507812 3248.492188 2334.0625 3252.046875 2338.4375 3252.046875 L 2632.070312 3252.046875 C 2636.484375 3252.046875 2640.039062 3248.492188 2640.039062 3244.078125 L 2640.039062 2759.976563 C 2640.039062 2755.5625 2636.484375 2752.007813 2632.070312 2752.007813 L 2338.4375 2752.007813 C 2334.0625 2752.007813 2330.507812 2755.5625 2330.507812 2759.976563 Z M 2330.507812 3002.046875 "
         style="fill:none;stroke-width:17.0071;stroke-linecap:butt;stroke-linejoin:miter;stroke:rgb(100%,100%,100%);stroke-opacity:1;stroke-miterlimit:10;" />
    </g>
    <path
       id="path205"
       d="M 235.769531 42.226562 L 235.769531 23.234375 C 235.769531 22.921875 236.023438 22.664062 236.335938 22.664062 L 260.714844 22.664062 C 261.027344 22.664062 261.28125 22.921875 261.28125 23.234375 L 261.28125 61.21875 C 261.28125 61.53125 261.027344 61.785156 260.714844 61.785156 L 236.335938 61.785156 C 236.023438 61.785156 235.769531 61.53125 235.769531 61.21875 "
       style=" stroke:none;fill-rule:nonzero;fill:rgb(50%,50%,50%);fill-opacity:1;" />
    <g
       id="g209"
       clip-rule="nonzero"
       clip-path="url(#clip4)">
      <path
         id="path207"
         transform="matrix(0.1,0,0,-0.1,0,345.15)"
         d="M 2357.695312 3029.234375 L 2357.695312 3219.15625 C 2357.695312 3222.28125 2360.234375 3224.859375 2363.359375 3224.859375 L 2607.148438 3224.859375 C 2610.273438 3224.859375 2612.8125 3222.28125 2612.8125 3219.15625 L 2612.8125 2839.3125 C 2612.8125 2836.1875 2610.273438 2833.648438 2607.148438 2833.648438 L 2363.359375 2833.648438 C 2360.234375 2833.648438 2357.695312 2836.1875 2357.695312 2839.3125 Z M 2357.695312 3029.234375 "
         style="fill:none;stroke-width:17.0071;stroke-linecap:butt;stroke-linejoin:miter;stroke:rgb(0%,0%,0%);stroke-opacity:1;stroke-miterlimit:10;" />
    </g>
    <path
       id="path211"
       d="M 6.675781 61.792969 L 6.675781 69.230469 L 73.574219 69.230469 L 73.574219 54.355469 L 6.675781 54.355469 "
       style=" stroke:none;fill-rule:nonzero;fill:rgb(100%,100%,100%);fill-opacity:1;" />
    <path
       id="path213"
       transform="matrix(0.1,0,0,-0.1,0,345.15)"
       d="M 66.757812 2833.570313 L 66.757812 2759.195313 L 735.742188 2759.195313 L 735.742188 2907.945313 L 66.757812 2907.945313 Z M 66.757812 2833.570313 "
       style="fill:none;stroke-width:11.3366;stroke-linecap:butt;stroke-linejoin:miter;stroke:rgb(100%,100%,100%);stroke-opacity:1;stroke-miterlimit:10;" />
    <path
       id="path215"
       d="M 36.722656 121.988281 L 36.722656 149.316406 L 43.523438 149.316406 L 43.523438 94.660156 L 36.722656 94.660156 "
       style=" stroke:none;fill-rule:nonzero;fill:rgb(58.789062%,58.789062%,58.789062%);fill-opacity:1;" />
    <path
       id="path217"
       transform="matrix(0.1,0,0,-0.1,0,345.15)"
       d="M 367.226562 2231.617188 L 367.226562 1958.335938 L 435.234375 1958.335938 L 435.234375 2504.898438 L 367.226562 2504.898438 Z M 367.226562 2231.617188 "
       style="fill:none;stroke-width:17.0071;stroke-linecap:butt;stroke-linejoin:miter;stroke:rgb(0%,0%,0%);stroke-opacity:1;stroke-miterlimit:10;" />
    <path
       id="path219"
       d="M 40.125 61.792969 L 6.109375 61.792969 L 6.109375 77.800781 L 40.125 101.8125 L 74.140625 77.800781 L 74.140625 61.792969 "
       style=" stroke:none;fill-rule:nonzero;fill:rgb(100%,100%,100%);fill-opacity:1;" />
    <path
       id="path221"
       transform="matrix(0.1,0,0,-0.1,0,345.15)"
       d="M 401.25 2833.570313 L 61.09375 2833.570313 L 61.09375 2673.492188 L 401.25 2433.375 L 741.40625 2673.492188 L 741.40625 2833.570313 Z M 401.25 2833.570313 "
       style="fill:none;stroke-width:11.3366;stroke-linecap:butt;stroke-linejoin:miter;stroke:rgb(100%,100%,100%);stroke-opacity:1;stroke-miterlimit:10;" />
    <path
       id="path223"
       transform="matrix(0.1,0,0,-0.1,0,345.15)"
       d="M 61.09375 2673.492188 L 401.25 2433.375 "
       style="fill:none;stroke-width:11.3366;stroke-linecap:butt;stroke-linejoin:miter;stroke:rgb(0%,0%,0%);stroke-opacity:1;stroke-miterlimit:10;" />
    <path
       id="path225"
       transform="matrix(0.1,0,0,-0.1,0,345.15)"
       d="M 741.40625 2673.492188 L 401.25 2433.375 "
       style="fill:none;stroke-width:11.3366;stroke-linecap:butt;stroke-linejoin:miter;stroke:rgb(0%,0%,0%);stroke-opacity:1;stroke-miterlimit:10;" />
    <path
       id="path227"
       transform="matrix(0.1,0,0,-0.1,0,345.15)"
       d="M 61.09375 2793.53125 L 61.09375 2913.609375 L 741.40625 2913.609375 L 741.40625 2673.492188 L 401.25 2433.375 L 61.09375 2673.492188 Z M 61.09375 2793.53125 "
       style="fill:none;stroke-width:17.0071;stroke-linecap:butt;stroke-linejoin:miter;stroke:rgb(0%,0%,0%);stroke-opacity:1;stroke-miterlimit:10;" />
    <path
       id="path229"
       transform="matrix(0.1,0,0,-0.1,0,345.15)"
       d="M 741.40625 2913.609375 L 401.25 2673.492188 L 401.25 2433.375 "
       style="fill:none;stroke-width:17.0071;stroke-linecap:butt;stroke-linejoin:miter;stroke:rgb(0%,0%,0%);stroke-opacity:1;stroke-miterlimit:10;" />
    <path
       id="path231"
       transform="matrix(0.1,0,0,-0.1,0,345.15)"
       d="M 61.09375 2913.609375 L 401.25 2673.492188 L 401.25 2433.375 "
       style="fill:none;stroke-width:17.0071;stroke-linecap:butt;stroke-linejoin:miter;stroke:rgb(0%,0%,0%);stroke-opacity:1;stroke-miterlimit:10;" />
    <path
       id="path233"
       d="M 14.613281 71.800781 L 14.613281 61.792969 L 31.621094 73.800781 L 31.621094 93.808594 L 14.613281 81.804688 "
       style=" stroke:none;fill-rule:nonzero;fill:rgb(0%,0%,0%);fill-opacity:1;" />
    <path
       id="path235"
       transform="matrix(0.1,0,0,-0.1,0,345.15)"
       d="M 146.132812 2733.492188 L 146.132812 2833.570313 L 316.210938 2713.492188 L 316.210938 2513.414063 L 146.132812 2633.453125 Z M 146.132812 2733.492188 "
       style="fill:none;stroke-width:11.3366;stroke-linecap:butt;stroke-linejoin:miter;stroke:rgb(0%,0%,0%);stroke-opacity:1;stroke-miterlimit:10;" />
    <path
       id="path237"
       d="M 65.636719 71.800781 L 65.636719 61.792969 L 48.628906 73.800781 L 48.628906 93.808594 L 65.636719 81.804688 "
       style=" stroke:none;fill-rule:nonzero;fill:rgb(0%,0%,0%);fill-opacity:1;" />
    <path
       id="path239"
       transform="matrix(0.1,0,0,-0.1,0,345.15)"
       d="M 656.367188 2733.492188 L 656.367188 2833.570313 L 486.289062 2713.492188 L 486.289062 2513.414063 L 656.367188 2633.453125 Z M 656.367188 2733.492188 "
       style="fill:none;stroke-width:11.3366;stroke-linecap:butt;stroke-linejoin:miter;stroke:rgb(0%,0%,0%);stroke-opacity:1;stroke-miterlimit:10;" />
    <path
       id="path241"
       d="M 178.023438 223.867188 C 178.023438 215.027344 170.855469 207.855469 162.011719 207.855469 C 153.171875 207.855469 146.003906 215.027344 146.003906 223.867188 C 146.003906 232.710938 153.171875 239.882812 162.011719 239.882812 C 170.855469 239.882812 178.023438 232.710938 178.023438 223.867188 "
       style=" stroke:none;fill-rule:nonzero;fill:rgb(73.242188%,73.242188%,73.242188%);fill-opacity:1;" />
    <path
       id="path243"
       transform="matrix(0.1,0,0,-0.1,0,345.15)"
       d="M 1780.234375 1212.828125 C 1780.234375 1301.226563 1708.554688 1372.945313 1620.117188 1372.945313 C 1531.71875 1372.945313 1460.039062 1301.226563 1460.039062 1212.828125 C 1460.039062 1124.390625 1531.71875 1052.671875 1620.117188 1052.671875 C 1708.554688 1052.671875 1780.234375 1124.390625 1780.234375 1212.828125 Z M 1780.234375 1212.828125 "
       style="fill:none;stroke-width:11.3366;stroke-linecap:butt;stroke-linejoin:miter;stroke:rgb(73.242188%,73.242188%,73.242188%);stroke-opacity:1;stroke-miterlimit:10;" />
    <path
       id="path245"
       d="M 149.679688 223.867188 C 149.679688 215.027344 142.511719 207.855469 133.667969 207.855469 C 124.824219 207.855469 117.65625 215.027344 117.65625 223.867188 C 117.65625 232.710938 124.824219 239.882812 133.667969 239.882812 C 142.511719 239.882812 149.679688 232.710938 149.679688 223.867188 "
       style=" stroke:none;fill-rule:nonzero;fill:rgb(73.242188%,73.242188%,73.242188%);fill-opacity:1;" />
    <path
       id="path247"
       transform="matrix(0.1,0,0,-0.1,0,345.15)"
       d="M 1496.796875 1212.828125 C 1496.796875 1301.226563 1425.117188 1372.945313 1336.679688 1372.945313 C 1248.242188 1372.945313 1176.5625 1301.226563 1176.5625 1212.828125 C 1176.5625 1124.390625 1248.242188 1052.671875 1336.679688 1052.671875 C 1425.117188 1052.671875 1496.796875 1124.390625 1496.796875 1212.828125 Z M 1496.796875 1212.828125 "
       style="fill:none;stroke-width:11.3366;stroke-linecap:butt;stroke-linejoin:miter;stroke:rgb(73.242188%,73.242188%,73.242188%);stroke-opacity:1;stroke-miterlimit:10;" />
    <path
       id="path249"
       d="M 178.023438 189.855469 C 178.023438 181.011719 170.855469 173.84375 162.011719 173.84375 C 153.171875 173.84375 146.003906 181.011719 146.003906 189.855469 C 146.003906 198.695312 153.171875 205.863281 162.011719 205.863281 C 170.855469 205.863281 178.023438 198.695312 178.023438 189.855469 "
       style=" stroke:none;fill-rule:nonzero;fill:rgb(73.242188%,73.242188%,73.242188%);fill-opacity:1;" />
    <path
       id="path251"
       transform="matrix(0.1,0,0,-0.1,0,345.15)"
       d="M 1780.234375 1552.945313 C 1780.234375 1641.382813 1708.554688 1713.0625 1620.117188 1713.0625 C 1531.71875 1713.0625 1460.039062 1641.382813 1460.039062 1552.945313 C 1460.039062 1464.546875 1531.71875 1392.867188 1620.117188 1392.867188 C 1708.554688 1392.867188 1780.234375 1464.546875 1780.234375 1552.945313 Z M 1780.234375 1552.945313 "
       style="fill:none;stroke-width:11.3366;stroke-linecap:butt;stroke-linejoin:miter;stroke:rgb(73.242188%,73.242188%,73.242188%);stroke-opacity:1;stroke-miterlimit:10;" />
    <path
       id="path253"
       d="M 149.679688 189.855469 C 149.679688 181.011719 142.511719 173.84375 133.667969 173.84375 C 124.824219 173.84375 117.65625 181.011719 117.65625 189.855469 C 117.65625 198.695312 124.824219 205.863281 133.667969 205.863281 C 142.511719 205.863281 149.679688 198.695312 149.679688 189.855469 "
       style=" stroke:none;fill-rule:nonzero;fill:rgb(73.242188%,73.242188%,73.242188%);fill-opacity:1;" />
    <path
       id="path255"
       transform="matrix(0.1,0,0,-0.1,0,345.15)"
       d="M 1496.796875 1552.945313 C 1496.796875 1641.382813 1425.117188 1713.0625 1336.679688 1713.0625 C 1248.242188 1713.0625 1176.5625 1641.382813 1176.5625 1552.945313 C 1176.5625 1464.546875 1248.242188 1392.867188 1336.679688 1392.867188 C 1425.117188 1392.867188 1496.796875 1464.546875 1496.796875 1552.945313 Z M 1496.796875 1552.945313 "
       style="fill:none;stroke-width:11.3366;stroke-linecap:butt;stroke-linejoin:miter;stroke:rgb(73.242188%,73.242188%,73.242188%);stroke-opacity:1;stroke-miterlimit:10;" />
    <path
       id="path257"
       d="M 132.671875 206.859375 C 132.671875 198.019531 125.503906 190.851562 116.660156 190.851562 C 107.816406 190.851562 100.648438 198.019531 100.648438 206.859375 C 100.648438 215.703125 107.816406 222.871094 116.660156 222.871094 C 125.503906 222.871094 132.671875 215.703125 132.671875 206.859375 "
       style=" stroke:none;fill-rule:nonzero;fill:rgb(73.242188%,73.242188%,73.242188%);fill-opacity:1;" />
    <path
       id="path259"
       transform="matrix(0.1,0,0,-0.1,0,345.15)"
       d="M 1326.71875 1382.90625 C 1326.71875 1471.304688 1255.039062 1542.984375 1166.601562 1542.984375 C 1078.164062 1542.984375 1006.484375 1471.304688 1006.484375 1382.90625 C 1006.484375 1294.46875 1078.164062 1222.789063 1166.601562 1222.789063 C 1255.039062 1222.789063 1326.71875 1294.46875 1326.71875 1382.90625 Z M 1326.71875 1382.90625 "
       style="fill:none;stroke-width:11.3366;stroke-linecap:butt;stroke-linejoin:miter;stroke:rgb(73.242188%,73.242188%,73.242188%);stroke-opacity:1;stroke-miterlimit:10;" />
    <path
       id="path261"
       d="M 195.03125 206.859375 C 195.03125 198.019531 187.863281 190.851562 179.019531 190.851562 C 170.179688 190.851562 163.007812 198.019531 163.007812 206.859375 C 163.007812 215.703125 170.179688 222.871094 179.019531 222.871094 C 187.863281 222.871094 195.03125 215.703125 195.03125 206.859375 "
       style=" stroke:none;fill-rule:nonzero;fill:rgb(73.242188%,73.242188%,73.242188%);fill-opacity:1;" />
    <path
       id="path263"
       transform="matrix(0.1,0,0,-0.1,0,345.15)"
       d="M 1950.3125 1382.90625 C 1950.3125 1471.304688 1878.632812 1542.984375 1790.195312 1542.984375 C 1701.796875 1542.984375 1630.078125 1471.304688 1630.078125 1382.90625 C 1630.078125 1294.46875 1701.796875 1222.789063 1790.195312 1222.789063 C 1878.632812 1222.789063 1950.3125 1294.46875 1950.3125 1382.90625 Z M 1950.3125 1382.90625 "
       style="fill:none;stroke-width:11.3366;stroke-linecap:butt;stroke-linejoin:miter;stroke:rgb(73.242188%,73.242188%,73.242188%);stroke-opacity:1;stroke-miterlimit:10;" />
    <path
       id="path265"
       d="M 166.6875 206.859375 C 166.6875 198.019531 159.515625 190.851562 150.675781 190.851562 C 141.832031 190.851562 134.664062 198.019531 134.664062 206.859375 C 134.664062 215.703125 141.832031 222.871094 150.675781 222.871094 C 159.515625 222.871094 166.6875 215.703125 166.6875 206.859375 "
       style=" stroke:none;fill-rule:nonzero;fill:rgb(73.242188%,73.242188%,73.242188%);fill-opacity:1;" />
    <path
       id="path267"
       transform="matrix(0.1,0,0,-0.1,0,345.15)"
       d="M 1666.875 1382.90625 C 1666.875 1471.304688 1595.15625 1542.984375 1506.757812 1542.984375 C 1418.320312 1542.984375 1346.640625 1471.304688 1346.640625 1382.90625 C 1346.640625 1294.46875 1418.320312 1222.789063 1506.757812 1222.789063 C 1595.15625 1222.789063 1666.875 1294.46875 1666.875 1382.90625 Z M 1666.875 1382.90625 "
       style="fill:none;stroke-width:11.3366;stroke-linecap:butt;stroke-linejoin:miter;stroke:rgb(73.242188%,73.242188%,73.242188%);stroke-opacity:1;stroke-miterlimit:10;" />
    <path
       id="path269"
       transform="matrix(0.1,0,0,-0.1,0,345.15)"
       d="M 1276.328125 558.492188 L 1480 477.046875 "
       style="fill:none;stroke-width:17.0071;stroke-linecap:butt;stroke-linejoin:miter;stroke:rgb(12.547302%,32.93457%,84.375%);stroke-opacity:1;stroke-miterlimit:10;" />
    <path
       id="path271"
       transform="matrix(0.1,0,0,-0.1,0,345.15)"
       d="M 1276.328125 558.492188 L 1480 314.117188 "
       style="fill:none;stroke-width:17.0071;stroke-linecap:butt;stroke-linejoin:miter;stroke:rgb(12.547302%,32.93457%,84.375%);stroke-opacity:1;stroke-miterlimit:10;" />
    <g
       id="g275"
       clip-rule="nonzero"
       clip-path="url(#clip5)">
      <path
         id="path273"
         transform="matrix(0.1,0,0,-0.1,0,345.15)"
         d="M 1276.328125 558.492188 L 1480 151.1875 "
         style="fill:none;stroke-width:17.0071;stroke-linecap:butt;stroke-linejoin:miter;stroke:rgb(12.547302%,32.93457%,84.375%);stroke-opacity:1;stroke-miterlimit:10;" />
    </g>
    <path
       id="path277"
       transform="matrix(0.1,0,0,-0.1,0,345.15)"
       d="M 1276.328125 395.5625 L 1480 477.046875 "
       style="fill:none;stroke-width:17.0071;stroke-linecap:butt;stroke-linejoin:miter;stroke:rgb(12.547302%,32.93457%,84.375%);stroke-opacity:1;stroke-miterlimit:10;" />
    <path
       id="path279"
       transform="matrix(0.1,0,0,-0.1,0,345.15)"
       d="M 1276.328125 395.5625 L 1480 314.117188 "
       style="fill:none;stroke-width:17.0071;stroke-linecap:butt;stroke-linejoin:miter;stroke:rgb(12.547302%,32.93457%,84.375%);stroke-opacity:1;stroke-miterlimit:10;" />
    <g
       id="g283"
       clip-rule="nonzero"
       clip-path="url(#clip6)">
      <path
         id="path281"
         transform="matrix(0.1,0,0,-0.1,0,345.15)"
         d="M 1276.328125 395.5625 L 1480 151.1875 "
         style="fill:none;stroke-width:17.0071;stroke-linecap:butt;stroke-linejoin:miter;stroke:rgb(12.547302%,32.93457%,84.375%);stroke-opacity:1;stroke-miterlimit:10;" />
    </g>
    <g
       id="g287"
       clip-rule="nonzero"
       clip-path="url(#clip7)">
      <path
         id="path285"
         transform="matrix(0.1,0,0,-0.1,0,345.15)"
         d="M 1276.328125 232.632813 L 1480 477.046875 "
         style="fill:none;stroke-width:17.0071;stroke-linecap:butt;stroke-linejoin:miter;stroke:rgb(12.547302%,32.93457%,84.375%);stroke-opacity:1;stroke-miterlimit:10;" />
    </g>
    <g
       id="g291"
       clip-rule="nonzero"
       clip-path="url(#clip8)">
      <path
         id="path289"
         transform="matrix(0.1,0,0,-0.1,0,345.15)"
         d="M 1276.328125 232.632813 L 1480 314.117188 "
         style="fill:none;stroke-width:17.0071;stroke-linecap:butt;stroke-linejoin:miter;stroke:rgb(12.547302%,32.93457%,84.375%);stroke-opacity:1;stroke-miterlimit:10;" />
    </g>
    <g
       id="g295"
       clip-rule="nonzero"
       clip-path="url(#clip9)">
      <path
         id="path293"
         transform="matrix(0.1,0,0,-0.1,0,345.15)"
         d="M 1276.328125 232.632813 L 1480 151.1875 "
         style="fill:none;stroke-width:17.0071;stroke-linecap:butt;stroke-linejoin:miter;stroke:rgb(12.547302%,32.93457%,84.375%);stroke-opacity:1;stroke-miterlimit:10;" />
    </g>
    <g
       id="g299"
       clip-rule="nonzero"
       clip-path="url(#clip10)">
      <path
         id="path297"
         transform="matrix(0.1,0,0,-0.1,0,345.15)"
         d="M 1276.328125 69.703125 L 1480 477.046875 "
         style="fill:none;stroke-width:17.0071;stroke-linecap:butt;stroke-linejoin:miter;stroke:rgb(12.547302%,32.93457%,84.375%);stroke-opacity:1;stroke-miterlimit:10;" />
    </g>
    <g
       id="g303"
       clip-rule="nonzero"
       clip-path="url(#clip11)">
      <path
         id="path301"
         transform="matrix(0.1,0,0,-0.1,0,345.15)"
         d="M 1276.328125 69.703125 L 1480 314.117188 "
         style="fill:none;stroke-width:17.0071;stroke-linecap:butt;stroke-linejoin:miter;stroke:rgb(12.547302%,32.93457%,84.375%);stroke-opacity:1;stroke-miterlimit:10;" />
    </g>
    <g
       id="g307"
       clip-rule="nonzero"
       clip-path="url(#clip12)">
      <path
         id="path305"
         transform="matrix(0.1,0,0,-0.1,0,345.15)"
         d="M 1276.328125 69.703125 L 1480 151.1875 "
         style="fill:none;stroke-width:17.0071;stroke-linecap:butt;stroke-linejoin:miter;stroke:rgb(12.547302%,32.93457%,84.375%);stroke-opacity:1;stroke-miterlimit:10;" />
    </g>
    <path
       id="path309"
       transform="matrix(0.1,0,0,-0.1,0,345.15)"
       d="M 1480 477.046875 L 1683.632812 558.492188 "
       style="fill:none;stroke-width:17.0071;stroke-linecap:butt;stroke-linejoin:miter;stroke:rgb(12.547302%,32.93457%,84.375%);stroke-opacity:1;stroke-miterlimit:10;" />
    <path
       id="path311"
       transform="matrix(0.1,0,0,-0.1,0,345.15)"
       d="M 1480 477.046875 L 1683.632812 395.5625 "
       style="fill:none;stroke-width:17.0071;stroke-linecap:butt;stroke-linejoin:miter;stroke:rgb(12.547302%,32.93457%,84.375%);stroke-opacity:1;stroke-miterlimit:10;" />
    <g
       id="g317"
       clip-rule="nonzero"
       clip-path="url(#clip13)">
      <path
         id="path313"
         transform="matrix(0.1,0,0,-0.1,0,345.15)"
         d="M 1480 477.046875 L 1683.632812 232.632813 "
         style="fill:none;stroke-width:17.0071;stroke-linecap:butt;stroke-linejoin:miter;stroke:rgb(12.547302%,32.93457%,84.375%);stroke-opacity:1;stroke-miterlimit:10;" />
      <path
         id="path315"
         transform="matrix(0.1,0,0,-0.1,0,345.15)"
         d="M 1480 477.046875 L 1683.632812 69.703125 "
         style="fill:none;stroke-width:17.0071;stroke-linecap:butt;stroke-linejoin:miter;stroke:rgb(12.547302%,32.93457%,84.375%);stroke-opacity:1;stroke-miterlimit:10;" />
    </g>
    <path
       id="path319"
       transform="matrix(0.1,0,0,-0.1,0,345.15)"
       d="M 1480 314.117188 L 1683.632812 558.492188 "
       style="fill:none;stroke-width:17.0071;stroke-linecap:butt;stroke-linejoin:miter;stroke:rgb(12.547302%,32.93457%,84.375%);stroke-opacity:1;stroke-miterlimit:10;" />
    <path
       id="path321"
       transform="matrix(0.1,0,0,-0.1,0,345.15)"
       d="M 1480 314.117188 L 1683.632812 395.5625 "
       style="fill:none;stroke-width:17.0071;stroke-linecap:butt;stroke-linejoin:miter;stroke:rgb(12.547302%,32.93457%,84.375%);stroke-opacity:1;stroke-miterlimit:10;" />
    <g
       id="g327"
       clip-rule="nonzero"
       clip-path="url(#clip14)">
      <path
         id="path323"
         transform="matrix(0.1,0,0,-0.1,0,345.15)"
         d="M 1480 314.117188 L 1683.632812 232.632813 "
         style="fill:none;stroke-width:17.0071;stroke-linecap:butt;stroke-linejoin:miter;stroke:rgb(12.547302%,32.93457%,84.375%);stroke-opacity:1;stroke-miterlimit:10;" />
      <path
         id="path325"
         transform="matrix(0.1,0,0,-0.1,0,345.15)"
         d="M 1480 314.117188 L 1683.632812 69.703125 "
         style="fill:none;stroke-width:17.0071;stroke-linecap:butt;stroke-linejoin:miter;stroke:rgb(12.547302%,32.93457%,84.375%);stroke-opacity:1;stroke-miterlimit:10;" />
    </g>
    <g
       id="g331"
       clip-rule="nonzero"
       clip-path="url(#clip15)">
      <path
         id="path329"
         transform="matrix(0.1,0,0,-0.1,0,345.15)"
         d="M 1480 151.1875 L 1683.632812 558.492188 "
         style="fill:none;stroke-width:17.0071;stroke-linecap:butt;stroke-linejoin:miter;stroke:rgb(12.547302%,32.93457%,84.375%);stroke-opacity:1;stroke-miterlimit:10;" />
    </g>
    <g
       id="g335"
       clip-rule="nonzero"
       clip-path="url(#clip16)">
      <path
         id="path333"
         transform="matrix(0.1,0,0,-0.1,0,345.15)"
         d="M 1480 151.1875 L 1683.632812 395.5625 "
         style="fill:none;stroke-width:17.0071;stroke-linecap:butt;stroke-linejoin:miter;stroke:rgb(12.547302%,32.93457%,84.375%);stroke-opacity:1;stroke-miterlimit:10;" />
    </g>
    <g
       id="g339"
       clip-rule="nonzero"
       clip-path="url(#clip17)">
      <path
         id="path337"
         transform="matrix(0.1,0,0,-0.1,0,345.15)"
         d="M 1480 151.1875 L 1683.632812 232.632813 "
         style="fill:none;stroke-width:17.0071;stroke-linecap:butt;stroke-linejoin:miter;stroke:rgb(12.547302%,32.93457%,84.375%);stroke-opacity:1;stroke-miterlimit:10;" />
    </g>
    <g
       id="g343"
       clip-rule="nonzero"
       clip-path="url(#clip18)">
      <path
         id="path341"
         transform="matrix(0.1,0,0,-0.1,0,345.15)"
         d="M 1480 151.1875 L 1683.632812 69.703125 "
         style="fill:none;stroke-width:17.0071;stroke-linecap:butt;stroke-linejoin:miter;stroke:rgb(12.547302%,32.93457%,84.375%);stroke-opacity:1;stroke-miterlimit:10;" />
    </g>
    <path
       id="path345"
       d="M 151.074219 297.445312 C 151.074219 295.746094 149.699219 294.371094 148 294.371094 C 146.300781 294.371094 144.921875 295.746094 144.921875 297.445312 C 144.921875 299.144531 146.300781 300.523438 148 300.523438 C 149.699219 300.523438 151.074219 299.144531 151.074219 297.445312 "
       style=" stroke:none;fill-rule:nonzero;fill:rgb(100%,0%,0%);fill-opacity:1;" />
    <path
       id="path347"
       transform="matrix(0.1,0,0,-0.1,0,345.15)"
       d="M 1510.742188 477.046875 C 1510.742188 494.039063 1496.992188 507.789063 1480 507.789063 C 1463.007812 507.789063 1449.21875 494.039063 1449.21875 477.046875 C 1449.21875 460.054688 1463.007812 446.265625 1480 446.265625 C 1496.992188 446.265625 1510.742188 460.054688 1510.742188 477.046875 Z M 1510.742188 477.046875 "
       style="fill:none;stroke-width:11.3366;stroke-linecap:butt;stroke-linejoin:miter;stroke:rgb(100%,0%,0%);stroke-opacity:1;stroke-miterlimit:10;" />
    <path
       id="path349"
       d="M 151.074219 313.738281 C 151.074219 312.039062 149.699219 310.664062 148 310.664062 C 146.300781 310.664062 144.921875 312.039062 144.921875 313.738281 C 144.921875 315.4375 146.300781 316.816406 148 316.816406 C 149.699219 316.816406 151.074219 315.4375 151.074219 313.738281 "
       style=" stroke:none;fill-rule:nonzero;fill:rgb(100%,0%,0%);fill-opacity:1;" />
    <path
       id="path351"
       transform="matrix(0.1,0,0,-0.1,0,345.15)"
       d="M 1510.742188 314.117188 C 1510.742188 331.109375 1496.992188 344.859375 1480 344.859375 C 1463.007812 344.859375 1449.21875 331.109375 1449.21875 314.117188 C 1449.21875 297.125 1463.007812 283.335938 1480 283.335938 C 1496.992188 283.335938 1510.742188 297.125 1510.742188 314.117188 Z M 1510.742188 314.117188 "
       style="fill:none;stroke-width:11.3366;stroke-linecap:butt;stroke-linejoin:miter;stroke:rgb(100%,0%,0%);stroke-opacity:1;stroke-miterlimit:10;" />
    <path
       id="path353"
       d="M 151.074219 330.03125 C 151.074219 328.335938 149.699219 326.957031 148 326.957031 C 146.300781 326.957031 144.921875 328.335938 144.921875 330.03125 C 144.921875 331.730469 146.300781 333.109375 148 333.109375 C 149.699219 333.109375 151.074219 331.730469 151.074219 330.03125 "
       style=" stroke:none;fill-rule:nonzero;fill:rgb(100%,0%,0%);fill-opacity:1;" />
    <g
       id="g357"
       clip-rule="nonzero"
       clip-path="url(#clip19)">
      <path
         id="path355"
         transform="matrix(0.1,0,0,-0.1,0,345.15)"
         d="M 1510.742188 151.1875 C 1510.742188 168.140625 1496.992188 181.929688 1480 181.929688 C 1463.007812 181.929688 1449.21875 168.140625 1449.21875 151.1875 C 1449.21875 134.195313 1463.007812 120.40625 1480 120.40625 C 1496.992188 120.40625 1510.742188 134.195313 1510.742188 151.1875 Z M 1510.742188 151.1875 "
         style="fill:none;stroke-width:11.3366;stroke-linecap:butt;stroke-linejoin:miter;stroke:rgb(100%,0%,0%);stroke-opacity:1;stroke-miterlimit:10;" />
    </g>
    <path
       id="path359"
       d="M 171.441406 289.300781 C 171.441406 287.601562 170.0625 286.222656 168.363281 286.222656 C 166.664062 286.222656 165.289062 287.601562 165.289062 289.300781 C 165.289062 291 166.664062 292.375 168.363281 292.375 C 170.0625 292.375 171.441406 291 171.441406 289.300781 "
       style=" stroke:none;fill-rule:nonzero;fill:rgb(100%,0%,0%);fill-opacity:1;" />
    <path
       id="path361"
       transform="matrix(0.1,0,0,-0.1,0,345.15)"
       d="M 1714.414062 558.492188 C 1714.414062 575.484375 1700.625 589.273438 1683.632812 589.273438 C 1666.640625 589.273438 1652.890625 575.484375 1652.890625 558.492188 C 1652.890625 541.5 1666.640625 527.75 1683.632812 527.75 C 1700.625 527.75 1714.414062 541.5 1714.414062 558.492188 Z M 1714.414062 558.492188 "
       style="fill:none;stroke-width:11.3366;stroke-linecap:butt;stroke-linejoin:miter;stroke:rgb(100%,0%,0%);stroke-opacity:1;stroke-miterlimit:10;" />
    <path
       id="path363"
       d="M 171.441406 305.59375 C 171.441406 303.894531 170.0625 302.515625 168.363281 302.515625 C 166.664062 302.515625 165.289062 303.894531 165.289062 305.59375 C 165.289062 307.292969 166.664062 308.671875 168.363281 308.671875 C 170.0625 308.671875 171.441406 307.292969 171.441406 305.59375 "
       style=" stroke:none;fill-rule:nonzero;fill:rgb(100%,0%,0%);fill-opacity:1;" />
    <path
       id="path365"
       transform="matrix(0.1,0,0,-0.1,0,345.15)"
       d="M 1714.414062 395.5625 C 1714.414062 412.554688 1700.625 426.34375 1683.632812 426.34375 C 1666.640625 426.34375 1652.890625 412.554688 1652.890625 395.5625 C 1652.890625 378.570313 1666.640625 364.78125 1683.632812 364.78125 C 1700.625 364.78125 1714.414062 378.570313 1714.414062 395.5625 Z M 1714.414062 395.5625 "
       style="fill:none;stroke-width:11.3366;stroke-linecap:butt;stroke-linejoin:miter;stroke:rgb(100%,0%,0%);stroke-opacity:1;stroke-miterlimit:10;" />
    <path
       id="path367"
       d="M 171.441406 321.886719 C 171.441406 320.1875 170.0625 318.808594 168.363281 318.808594 C 166.664062 318.808594 165.289062 320.1875 165.289062 321.886719 C 165.289062 323.585938 166.664062 324.964844 168.363281 324.964844 C 170.0625 324.964844 171.441406 323.585938 171.441406 321.886719 "
       style=" stroke:none;fill-rule:nonzero;fill:rgb(100%,0%,0%);fill-opacity:1;" />
    <path
       id="path369"
       transform="matrix(0.1,0,0,-0.1,0,345.15)"
       d="M 1714.414062 232.632813 C 1714.414062 249.625 1700.625 263.414063 1683.632812 263.414063 C 1666.640625 263.414063 1652.890625 249.625 1652.890625 232.632813 C 1652.890625 215.640625 1666.640625 201.851563 1683.632812 201.851563 C 1700.625 201.851563 1714.414062 215.640625 1714.414062 232.632813 Z M 1714.414062 232.632813 "
       style="fill:none;stroke-width:11.3366;stroke-linecap:butt;stroke-linejoin:miter;stroke:rgb(100%,0%,0%);stroke-opacity:1;stroke-miterlimit:10;" />
    <path
       id="path371"
       d="M 171.441406 338.179688 C 171.441406 336.480469 170.0625 335.101562 168.363281 335.101562 C 166.664062 335.101562 165.289062 336.480469 165.289062 338.179688 C 165.289062 339.878906 166.664062 341.257812 168.363281 341.257812 C 170.0625 341.257812 171.441406 339.878906 171.441406 338.179688 "
       style=" stroke:none;fill-rule:nonzero;fill:rgb(100%,0%,0%);fill-opacity:1;" />
    <g
       id="g375"
       clip-rule="nonzero"
       clip-path="url(#clip20)">
      <path
         id="path373"
         transform="matrix(0.1,0,0,-0.1,0,345.15)"
         d="M 1714.414062 69.703125 C 1714.414062 86.695313 1700.625 100.484375 1683.632812 100.484375 C 1666.640625 100.484375 1652.890625 86.695313 1652.890625 69.703125 C 1652.890625 52.710938 1666.640625 38.921875 1683.632812 38.921875 C 1700.625 38.921875 1714.414062 52.710938 1714.414062 69.703125 Z M 1714.414062 69.703125 "
         style="fill:none;stroke-width:11.3366;stroke-linecap:butt;stroke-linejoin:miter;stroke:rgb(100%,0%,0%);stroke-opacity:1;stroke-miterlimit:10;" />
    </g>
    <path
       id="path377"
       d="M 130.710938 289.300781 C 130.710938 287.601562 129.332031 286.222656 127.632812 286.222656 C 125.933594 286.222656 124.554688 287.601562 124.554688 289.300781 C 124.554688 291 125.933594 292.375 127.632812 292.375 C 129.332031 292.375 130.710938 291 130.710938 289.300781 "
       style=" stroke:none;fill-rule:nonzero;fill:rgb(100%,0%,0%);fill-opacity:1;" />
    <path
       id="path379"
       transform="matrix(0.1,0,0,-0.1,0,345.15)"
       d="M 1307.109375 558.492188 C 1307.109375 575.484375 1293.320312 589.273438 1276.328125 589.273438 C 1259.335938 589.273438 1245.546875 575.484375 1245.546875 558.492188 C 1245.546875 541.5 1259.335938 527.75 1276.328125 527.75 C 1293.320312 527.75 1307.109375 541.5 1307.109375 558.492188 Z M 1307.109375 558.492188 "
       style="fill:none;stroke-width:11.3366;stroke-linecap:butt;stroke-linejoin:miter;stroke:rgb(100%,0%,0%);stroke-opacity:1;stroke-miterlimit:10;" />
    <path
       id="path381"
       d="M 130.710938 305.59375 C 130.710938 303.894531 129.332031 302.515625 127.632812 302.515625 C 125.933594 302.515625 124.554688 303.894531 124.554688 305.59375 C 124.554688 307.292969 125.933594 308.671875 127.632812 308.671875 C 129.332031 308.671875 130.710938 307.292969 130.710938 305.59375 "
       style=" stroke:none;fill-rule:nonzero;fill:rgb(100%,0%,0%);fill-opacity:1;" />
    <path
       id="path383"
       transform="matrix(0.1,0,0,-0.1,0,345.15)"
       d="M 1307.109375 395.5625 C 1307.109375 412.554688 1293.320312 426.34375 1276.328125 426.34375 C 1259.335938 426.34375 1245.546875 412.554688 1245.546875 395.5625 C 1245.546875 378.570313 1259.335938 364.78125 1276.328125 364.78125 C 1293.320312 364.78125 1307.109375 378.570313 1307.109375 395.5625 Z M 1307.109375 395.5625 "
       style="fill:none;stroke-width:11.3366;stroke-linecap:butt;stroke-linejoin:miter;stroke:rgb(100%,0%,0%);stroke-opacity:1;stroke-miterlimit:10;" />
    <path
       id="path385"
       d="M 130.710938 321.886719 C 130.710938 320.1875 129.332031 318.808594 127.632812 318.808594 C 125.933594 318.808594 124.554688 320.1875 124.554688 321.886719 C 124.554688 323.585938 125.933594 324.964844 127.632812 324.964844 C 129.332031 324.964844 130.710938 323.585938 130.710938 321.886719 "
       style=" stroke:none;fill-rule:nonzero;fill:rgb(100%,0%,0%);fill-opacity:1;" />
    <path
       id="path387"
       transform="matrix(0.1,0,0,-0.1,0,345.15)"
       d="M 1307.109375 232.632813 C 1307.109375 249.625 1293.320312 263.414063 1276.328125 263.414063 C 1259.335938 263.414063 1245.546875 249.625 1245.546875 232.632813 C 1245.546875 215.640625 1259.335938 201.851563 1276.328125 201.851563 C 1293.320312 201.851563 1307.109375 215.640625 1307.109375 232.632813 Z M 1307.109375 232.632813 "
       style="fill:none;stroke-width:11.3366;stroke-linecap:butt;stroke-linejoin:miter;stroke:rgb(100%,0%,0%);stroke-opacity:1;stroke-miterlimit:10;" />
    <path
       id="path389"
       d="M 130.710938 338.179688 C 130.710938 336.480469 129.332031 335.101562 127.632812 335.101562 C 125.933594 335.101562 124.554688 336.480469 124.554688 338.179688 C 124.554688 339.878906 125.933594 341.257812 127.632812 341.257812 C 129.332031 341.257812 130.710938 339.878906 130.710938 338.179688 "
       style=" stroke:none;fill-rule:nonzero;fill:rgb(100%,0%,0%);fill-opacity:1;" />
    <g
       id="g393"
       clip-rule="nonzero"
       clip-path="url(#clip21)">
      <path
         id="path391"
         transform="matrix(0.1,0,0,-0.1,0,345.15)"
         d="M 1307.109375 69.703125 C 1307.109375 86.695313 1293.320312 100.484375 1276.328125 100.484375 C 1259.335938 100.484375 1245.546875 86.695313 1245.546875 69.703125 C 1245.546875 52.710938 1259.335938 38.921875 1276.328125 38.921875 C 1293.320312 38.921875 1307.109375 52.710938 1307.109375 69.703125 Z M 1307.109375 69.703125 "
         style="fill:none;stroke-width:11.3366;stroke-linecap:butt;stroke-linejoin:miter;stroke:rgb(100%,0%,0%);stroke-opacity:1;stroke-miterlimit:10;" />
    </g>
    <g
       id="g397"
       style="fill:rgb(0%,0%,0%);fill-opacity:1;">
      <use
         id="use395"
         y="200.563"
         x="131.16"
         xlink:href="#glyph0-1" />
    </g>
    <g
       id="g401"
       style="fill:rgb(0%,0%,0%);fill-opacity:1;">
      <use
         id="use399"
         y="200.563"
         x="140.519976"
         xlink:href="#glyph0-3" />
    </g>
    <g
       id="g405"
       style="fill:rgb(0%,0%,0%);fill-opacity:1;">
      <use
         id="use403"
         y="200.563"
         x="146.759962"
         xlink:href="#glyph0-4" />
    </g>
    <g
       id="g409"
       style="fill:rgb(0%,0%,0%);fill-opacity:1;">
      <use
         id="use407"
         y="200.563"
         x="153.479941"
         xlink:href="#glyph0-5" />
    </g>
    <g
       id="g413"
       style="fill:rgb(0%,0%,0%);fill-opacity:1;">
      <use
         id="use411"
         y="216.1306"
         x="117.96"
         xlink:href="#glyph0-6" />
    </g>
    <g
       id="g417"
       style="fill:rgb(0%,0%,0%);fill-opacity:1;">
      <use
         id="use415"
         y="216.1306"
         x="127.199975"
         xlink:href="#glyph0-7" />
    </g>
    <g
       id="g421"
       style="fill:rgb(0%,0%,0%);fill-opacity:1;">
      <use
         id="use419"
         y="216.1306"
         x="130.559965"
         xlink:href="#glyph0-8" />
    </g>
    <g
       id="g425"
       style="fill:rgb(0%,0%,0%);fill-opacity:1;">
      <use
         id="use423"
         y="216.1306"
         x="133.919954"
         xlink:href="#glyph0-9" />
    </g>
    <g
       id="g429"
       style="fill:rgb(0%,0%,0%);fill-opacity:1;">
      <use
         id="use427"
         y="216.1306"
         x="140.999943"
         xlink:href="#glyph0-10" />
    </g>
    <g
       id="g433"
       style="fill:rgb(0%,0%,0%);fill-opacity:1;">
      <use
         id="use431"
         y="216.1306"
         x="148.199917"
         xlink:href="#glyph0-5" />
    </g>
    <g
       id="g437"
       style="fill:rgb(0%,0%,0%);fill-opacity:1;">
      <use
         id="use435"
         y="216.1306"
         x="159.359893"
         xlink:href="#glyph0-3" />
    </g>
    <g
       id="g441"
       style="fill:rgb(0%,0%,0%);fill-opacity:1;">
      <use
         id="use439"
         y="216.1306"
         x="165.599868"
         xlink:href="#glyph0-10" />
    </g>
    <g
       id="g445"
       style="fill:rgb(0%,0%,0%);fill-opacity:1;">
      <use
         id="use443"
         y="216.1306"
         x="172.799854"
         xlink:href="#glyph0-11" />
    </g>
    <path
       id="path447"
       d="M 49.945312 181.148438 L 45.792969 172.847656 L 41.640625 181.148438 L 45.792969 181.148438 "
       style=" stroke:none;fill-rule:nonzero;fill:rgb(0%,0%,0%);fill-opacity:1;" />
    <path
       id="path449"
       transform="matrix(0.1,0,0,-0.1,0,345.15)"
       d="M 1081.5625 1439.585938 L 457.929688 1439.585938 L 457.929688 1640.015625 "
       style="fill:none;stroke-width:17.0071;stroke-linecap:butt;stroke-linejoin:miter;stroke:rgb(0%,0%,0%);stroke-opacity:1;stroke-miterlimit:10;" />
    <path
       id="path451"
       d="M 99.851562 216.683594 L 108.15625 212.53125 L 99.851562 208.378906 L 99.851562 212.53125 "
       style=" stroke:none;fill-rule:nonzero;fill:rgb(0%,0%,0%);fill-opacity:1;" />
    <path
       id="path453"
       transform="matrix(0.1,0,0,-0.1,0,345.15)"
       d="M 998.515625 1326.1875 L 344.53125 1326.1875 L 344.53125 1723.023438 "
       style="fill:none;stroke-width:17.0071;stroke-linecap:butt;stroke-linejoin:miter;stroke:rgb(0%,0%,0%);stroke-opacity:1;stroke-dasharray:48.2029,28.9218;stroke-miterlimit:10;" />
    <g
       id="g457"
       style="fill:rgb(0%,0%,0%);fill-opacity:1;">
      <use
         id="use455"
         y="166.547"
         x="2.92344"
         xlink:href="#glyph0-1" />
    </g>
    <g
       id="g461"
       style="fill:rgb(0%,0%,0%);fill-opacity:1;">
      <use
         id="use459"
         y="166.547"
         x="12.283413"
         xlink:href="#glyph0-4" />
    </g>
    <g
       id="g465"
       style="fill:rgb(0%,0%,0%);fill-opacity:1;">
      <use
         id="use463"
         y="166.547"
         x="19.003393"
         xlink:href="#glyph0-12" />
    </g>
    <g
       id="g469"
       style="fill:rgb(0%,0%,0%);fill-opacity:1;">
      <use
         id="use467"
         y="166.547"
         x="24.403378"
         xlink:href="#glyph0-3" />
    </g>
    <g
       id="g473"
       style="fill:rgb(0%,0%,0%);fill-opacity:1;">
      <use
         id="use471"
         y="166.547"
         x="35.203427"
         xlink:href="#glyph0-2" />
    </g>
    <g
       id="g477"
       style="fill:rgb(0%,0%,0%);fill-opacity:1;">
      <use
         id="use475"
         y="166.547"
         x="43.003405"
         xlink:href="#glyph0-11" />
    </g>
    <g
       id="g481"
       style="fill:rgb(0%,0%,0%);fill-opacity:1;">
      <use
         id="use479"
         y="166.547"
         x="48.043389"
         xlink:href="#glyph0-4" />
    </g>
    <g
       id="g485"
       style="fill:rgb(0%,0%,0%);fill-opacity:1;">
      <use
         id="use483"
         y="166.547"
         x="54.763374"
         xlink:href="#glyph0-11" />
    </g>
    <g
       id="g489"
       style="fill:rgb(0%,0%,0%);fill-opacity:1;">
      <use
         id="use487"
         y="166.547"
         x="59.803357"
         xlink:href="#glyph0-8" />
    </g>
    <g
       id="g493"
       style="fill:rgb(0%,0%,0%);fill-opacity:1;">
      <use
         id="use491"
         y="166.547"
         x="63.163353"
         xlink:href="#glyph0-13" />
    </g>
    <g
       id="g497"
       style="fill:rgb(0%,0%,0%);fill-opacity:1;">
      <use
         id="use495"
         y="166.547"
         x="70.24333"
         xlink:href="#glyph0-10" />
    </g>
    <g
       id="g501"
       style="fill:rgb(0%,0%,0%);fill-opacity:1;">
      <use
         id="use499"
         y="87.1767"
         x="236.92744"
         xlink:href="#glyph0-14" />
    </g>
    <g
       id="g505"
       style="fill:rgb(0%,0%,0%);fill-opacity:1;">
      <use
         id="use503"
         y="87.1767"
         x="246.527419"
         xlink:href="#glyph0-12" />
    </g>
    <g
       id="g509"
       style="fill:rgb(0%,0%,0%);fill-opacity:1;">
      <use
         id="use507"
         y="87.1767"
         x="251.92741"
         xlink:href="#glyph0-3" />
    </g>
    <g
       id="g513"
       style="fill:rgb(0%,0%,0%);fill-opacity:1;">
      <use
         id="use511"
         y="87.1767"
         x="258.167372"
         xlink:href="#glyph0-15" />
    </g>
    <path
       id="path515"
       d="M 248.367188 101.777344 L 244.21875 93.476562 L 240.066406 101.777344 L 244.21875 101.777344 "
       style=" stroke:none;fill-rule:nonzero;fill:rgb(0%,0%,0%);fill-opacity:1;" />
    <path
       id="path517"
       transform="matrix(0.1,0,0,-0.1,0,345.15)"
       d="M 1875.234375 1439.585938 L 2442.1875 1439.585938 L 2442.1875 2433.726563 "
       style="fill:none;stroke-width:17.0071;stroke-linecap:butt;stroke-linejoin:miter;stroke:rgb(0%,0%,0%);stroke-opacity:1;stroke-miterlimit:10;" />
    <path
       id="path519"
       d="M 195.828125 208.378906 L 187.523438 212.53125 L 195.828125 216.683594 L 195.828125 212.53125 "
       style=" stroke:none;fill-rule:nonzero;fill:rgb(0%,0%,0%);fill-opacity:1;" />
    <path
       id="path521"
       transform="matrix(0.1,0,0,-0.1,0,345.15)"
       d="M 1958.28125 1326.1875 L 2555.585938 1326.1875 L 2555.585938 2516.734375 "
       style="fill:none;stroke-width:17.0071;stroke-linecap:butt;stroke-linejoin:miter;stroke:rgb(0%,0%,0%);stroke-opacity:1;stroke-dasharray:49.3878,29.6327;stroke-miterlimit:10;" />
    <path
       id="path523"
       d="M 151.992188 232.171875 L 147.839844 223.867188 L 143.6875 232.171875 L 147.839844 232.171875 "
       style=" stroke:none;fill-rule:nonzero;fill:rgb(0%,0%,0%);fill-opacity:1;" />
    <path
       id="path525"
       transform="matrix(0.1,0,0,-0.1,0,345.15)"
       d="M 1478.398438 815.953125 L 1478.398438 1129.78125 "
       style="fill:none;stroke-width:17.0071;stroke-linecap:butt;stroke-linejoin:miter;stroke:rgb(0%,0%,0%);stroke-opacity:1;stroke-miterlimit:10;" />
    <g
       id="g529"
       style="fill:rgb(0%,0%,0%);fill-opacity:1;">
      <use
         id="use527"
         y="279.9328"
         x="116.88"
         xlink:href="#glyph0-16" />
    </g>
    <g
       id="g533"
       style="fill:rgb(0%,0%,0%);fill-opacity:1;">
      <use
         id="use531"
         y="279.9328"
         x="126.71998"
         xlink:href="#glyph0-3" />
    </g>
    <g
       id="g537"
       style="fill:rgb(0%,0%,0%);fill-opacity:1;">
      <use
         id="use535"
         y="279.9328"
         x="132.959954"
         xlink:href="#glyph0-17" />
    </g>
    <g
       id="g541"
       style="fill:rgb(0%,0%,0%);fill-opacity:1;">
      <use
         id="use539"
         y="279.9328"
         x="147.240075"
         xlink:href="#glyph0-18" />
    </g>
    <g
       id="g545"
       style="fill:rgb(0%,0%,0%);fill-opacity:1;">
      <use
         id="use543"
         y="279.9328"
         x="155.640048"
         xlink:href="#glyph0-13" />
    </g>
    <g
       id="g549"
       style="fill:rgb(0%,0%,0%);fill-opacity:1;">
      <use
         id="use547"
         y="279.9328"
         x="163.079875"
         xlink:href="#glyph0-13" />
    </g>
    <g
       id="g553"
       style="fill:rgb(0%,0%,0%);fill-opacity:1;">
      <use
         id="use551"
         y="279.9328"
         x="170.159864"
         xlink:href="#glyph0-7" />
    </g>
    <g
       id="g557"
       style="fill:rgb(0%,0%,0%);fill-opacity:1;">
      <use
         id="use555"
         y="279.9328"
         x="173.519854"
         xlink:href="#glyph0-12" />
    </g>
    <g
       id="g561"
       style="fill:rgb(0%,0%,0%);fill-opacity:1;">
      <use
         id="use559"
         y="226.8691"
         x="197.6902"
         xlink:href="#glyph1-1" />
    </g>
    <g
       id="g565"
       style="fill:rgb(0%,0%,0%);fill-opacity:1;">
      <use
         id="use563"
         y="226.8691"
         x="203.690221"
         xlink:href="#glyph1-2" />
    </g>
    <g
       id="g569"
       style="fill:rgb(0%,0%,0%);fill-opacity:1;">
      <use
         id="use567"
         y="226.8691"
         x="208.130233"
         xlink:href="#glyph1-3" />
    </g>
    <g
       id="g573"
       style="fill:rgb(0%,0%,0%);fill-opacity:1;">
      <use
         id="use571"
         y="226.8691"
         x="213.290266"
         xlink:href="#glyph1-4" />
    </g>
    <g
       id="g577"
       style="fill:rgb(0%,0%,0%);fill-opacity:1;">
      <use
         id="use575"
         y="226.8691"
         x="217.250286"
         xlink:href="#glyph1-5" />
    </g>
    <g
       id="g581"
       style="fill:rgb(0%,0%,0%);fill-opacity:1;">
      <use
         id="use579"
         y="226.8691"
         x="221.210279"
         xlink:href="#glyph1-2" />
    </g>
    <g
       id="g585"
       style="fill:rgb(0%,0%,0%);fill-opacity:1;">
      <use
         id="use583"
         y="226.8691"
         x="225.65029"
         xlink:href="#glyph1-6" />
    </g>
    <g
       id="g589"
       style="fill:rgb(0%,0%,0%);fill-opacity:1;">
      <use
         id="use587"
         y="226.8691"
         x="232.010249"
         xlink:href="#glyph1-3" />
    </g>
    <g
       id="g593"
       style="fill:rgb(0%,0%,0%);fill-opacity:1;">
      <use
         id="use591"
         y="226.8691"
         x="237.170282"
         xlink:href="#glyph1-7" />
    </g>
    <g
       id="g597"
       style="fill:rgb(0%,0%,0%);fill-opacity:1;">
      <use
         id="use595"
         y="226.8691"
         x="242.330291"
         xlink:href="#glyph1-8" />
    </g>
    <g
       id="g601"
       style="fill:rgb(0%,0%,0%);fill-opacity:1;">
      <use
         id="use599"
         y="226.8691"
         x="245.090314"
         xlink:href="#glyph1-9" />
    </g>
    <g
       id="g605"
       style="fill:rgb(0%,0%,0%);fill-opacity:1;">
      <use
         id="use603"
         y="226.8691"
         x="251.33031"
         xlink:href="#glyph1-7" />
    </g>
    <g
       id="g609"
       style="fill:rgb(0%,0%,0%);fill-opacity:1;">
      <use
         id="use607"
         y="226.8691"
         x="40.5102"
         xlink:href="#glyph1-2" />
    </g>
    <g
       id="g613"
       style="fill:rgb(0%,0%,0%);fill-opacity:1;">
      <use
         id="use611"
         y="226.8691"
         x="44.950211"
         xlink:href="#glyph1-8" />
    </g>
    <g
       id="g617"
       style="fill:rgb(0%,0%,0%);fill-opacity:1;">
      <use
         id="use615"
         y="226.8691"
         x="47.710219"
         xlink:href="#glyph1-10" />
    </g>
    <g
       id="g621"
       style="fill:rgb(0%,0%,0%);fill-opacity:1;">
      <use
         id="use619"
         y="226.8691"
         x="51.910233"
         xlink:href="#glyph1-3" />
    </g>
    <g
       id="g625"
       style="fill:rgb(0%,0%,0%);fill-opacity:1;">
      <use
         id="use623"
         y="226.8691"
         x="57.070242"
         xlink:href="#glyph1-5" />
    </g>
    <g
       id="g629"
       style="fill:rgb(0%,0%,0%);fill-opacity:1;">
      <use
         id="use627"
         y="226.8691"
         x="61.030253"
         xlink:href="#glyph1-2" />
    </g>
    <g
       id="g633"
       style="fill:rgb(0%,0%,0%);fill-opacity:1;">
      <use
         id="use631"
         y="226.8691"
         x="65.470258"
         xlink:href="#glyph1-6" />
    </g>
    <g
       id="g637"
       style="fill:rgb(0%,0%,0%);fill-opacity:1;">
      <use
         id="use635"
         y="226.8691"
         x="71.830199"
         xlink:href="#glyph1-3" />
    </g>
    <g
       id="g641"
       style="fill:rgb(0%,0%,0%);fill-opacity:1;">
      <use
         id="use639"
         y="226.8691"
         x="76.990208"
         xlink:href="#glyph1-7" />
    </g>
    <g
       id="g645"
       style="fill:rgb(0%,0%,0%);fill-opacity:1;">
      <use
         id="use643"
         y="226.8691"
         x="82.150223"
         xlink:href="#glyph1-8" />
    </g>
    <g
       id="g649"
       style="fill:rgb(0%,0%,0%);fill-opacity:1;">
      <use
         id="use647"
         y="226.8691"
         x="84.910228"
         xlink:href="#glyph1-9" />
    </g>
    <g
       id="g653"
       style="fill:rgb(0%,0%,0%);fill-opacity:1;">
      <use
         id="use651"
         y="226.8691"
         x="91.150242"
         xlink:href="#glyph1-7" />
    </g>
  </g>
</svg>
