<?xml version="1.0" encoding="UTF-8"?>
<svg xmlns="http://www.w3.org/2000/svg" xmlns:xlink="http://www.w3.org/1999/xlink" width="187.09pt" height="119.06pt" viewBox="0 0 187.09 119.06" version="1.2">
<defs>
<g>
<symbol overflow="visible" id="glyph0-0">
<path style="stroke:none;" d=""/>
</symbol>
<symbol overflow="visible" id="glyph0-1">
<path style="stroke:none;" d="M 1.578125 -0.453125 C 1.890625 -0.171875 2.328125 0.109375 2.921875 0.109375 C 3.875 0.109375 4.75 -0.859375 4.75 -2.203125 C 4.75 -3.390625 4.125 -4.5 3.171875 -4.5 C 2.578125 -4.5 2 -4.296875 1.546875 -3.90625 L 1.546875 -4.390625 L 0.8125 -4.390625 L 0.8125 1.921875 L 1.578125 1.921875 Z M 1.578125 -3.296875 C 1.8125 -3.640625 2.203125 -3.875 2.625 -3.875 C 3.375 -3.875 3.96875 -3.109375 3.96875 -2.203125 C 3.96875 -1.1875 3.28125 -0.5 2.53125 -0.5 C 2.140625 -0.5 1.875 -0.6875 1.6875 -0.953125 C 1.578125 -1.109375 1.578125 -1.125 1.578125 -1.3125 Z M 1.578125 -3.296875 "/>
</symbol>
<symbol overflow="visible" id="glyph0-2">
<path style="stroke:none;" d="M 1.546875 -6.859375 L 0.796875 -6.859375 L 0.796875 0 L 1.546875 0 Z M 1.546875 -6.859375 "/>
</symbol>
<symbol overflow="visible" id="glyph0-3">
<path style="stroke:none;" d="M 3.953125 -2.859375 C 3.953125 -3.875 3.21875 -4.5625 2.3125 -4.5625 C 1.671875 -4.5625 1.21875 -4.40625 0.765625 -4.140625 L 0.828125 -3.484375 C 1.328125 -3.84375 1.828125 -3.96875 2.3125 -3.96875 C 2.78125 -3.96875 3.171875 -3.578125 3.171875 -2.84375 L 3.171875 -2.421875 C 1.6875 -2.40625 0.4375 -1.984375 0.4375 -1.125 C 0.4375 -0.6875 0.703125 0.109375 1.5625 0.109375 C 1.703125 0.109375 2.625 0.09375 3.203125 -0.359375 L 3.203125 0 L 3.953125 0 Z M 3.171875 -1.3125 C 3.171875 -1.125 3.171875 -0.875 2.84375 -0.6875 C 2.546875 -0.5 2.171875 -0.5 2.0625 -0.5 C 1.59375 -0.5 1.140625 -0.71875 1.140625 -1.140625 C 1.140625 -1.828125 2.75 -1.90625 3.171875 -1.921875 Z M 3.171875 -1.3125 "/>
</symbol>
<symbol overflow="visible" id="glyph0-4">
<path style="stroke:none;" d="M 4.296875 -2.953125 C 4.296875 -3.59375 4.15625 -4.5 2.953125 -4.5 C 2.0625 -4.5 1.578125 -3.828125 1.515625 -3.75 L 1.515625 -4.453125 L 0.796875 -4.453125 L 0.796875 0 L 1.578125 0 L 1.578125 -2.421875 C 1.578125 -3.078125 1.8125 -3.890625 2.578125 -3.890625 C 3.515625 -3.890625 3.53125 -3.1875 3.53125 -2.875 L 3.53125 0 L 4.296875 0 Z M 4.296875 -2.953125 "/>
</symbol>
<symbol overflow="visible" id="glyph0-5">
<path style="stroke:none;" d="M 4.09375 -2.171875 C 4.09375 -2.5 4.078125 -3.25 3.703125 -3.84375 C 3.296875 -4.453125 2.6875 -4.5625 2.328125 -4.5625 C 1.234375 -4.5625 0.34375 -3.515625 0.34375 -2.234375 C 0.34375 -0.9375 1.296875 0.109375 2.484375 0.109375 C 3.109375 0.109375 3.671875 -0.125 4.0625 -0.40625 L 4 -1.046875 C 3.375 -0.53125 2.71875 -0.5 2.5 -0.5 C 1.703125 -0.5 1.0625 -1.203125 1.03125 -2.171875 Z M 1.09375 -2.703125 C 1.25 -3.46875 1.765625 -3.953125 2.328125 -3.953125 C 2.84375 -3.953125 3.40625 -3.625 3.53125 -2.703125 Z M 1.09375 -2.703125 "/>
</symbol>
<symbol overflow="visible" id="glyph0-6">
<path style="stroke:none;" d="M 6.609375 -4.390625 L 5.890625 -4.390625 L 5.25 -2.296875 C 5.140625 -1.9375 4.84375 -0.953125 4.796875 -0.53125 L 4.78125 -0.53125 C 4.75 -0.84375 4.5 -1.71875 4.328125 -2.28125 L 3.6875 -4.390625 L 3 -4.390625 L 2.4375 -2.53125 C 2.328125 -2.1875 1.984375 -1.046875 1.953125 -0.546875 L 1.9375 -0.546875 C 1.890625 -1.015625 1.5625 -2.140625 1.40625 -2.6875 L 0.890625 -4.390625 L 0.140625 -4.390625 L 1.5 0 L 2.28125 0 C 2.328125 -0.15625 2.671875 -1.265625 2.890625 -2.03125 C 3.03125 -2.5 3.296875 -3.46875 3.328125 -3.84375 L 3.34375 -3.84375 C 3.359375 -3.5625 3.53125 -2.875 3.65625 -2.453125 L 4.375 0 L 5.25 0 Z M 6.609375 -4.390625 "/>
</symbol>
<symbol overflow="visible" id="glyph0-7">
<path style="stroke:none;" d="M 4.40625 -4.390625 L 3.671875 -4.390625 L 2.890625 -2.328125 C 2.6875 -1.796875 2.375 -0.984375 2.296875 -0.53125 L 2.28125 -0.53125 C 2.21875 -0.875 1.96875 -1.5625 1.875 -1.828125 L 0.90625 -4.390625 L 0.140625 -4.390625 L 1.84375 0 L 2.703125 0 Z M 4.40625 -4.390625 "/>
</symbol>
<symbol overflow="visible" id="glyph0-8">
<path style="stroke:none;" d="M 1.734375 -3.8125 L 3.125 -3.8125 L 3.125 -4.390625 L 1.734375 -4.390625 L 1.734375 -5.640625 L 1.046875 -5.640625 L 1.046875 -4.390625 L 0.1875 -4.390625 L 0.1875 -3.8125 L 1.015625 -3.8125 L 1.015625 -1.171875 C 1.015625 -0.578125 1.15625 0.109375 1.84375 0.109375 C 2.53125 0.109375 3.03125 -0.140625 3.28125 -0.265625 L 3.125 -0.84375 C 2.875 -0.640625 2.546875 -0.53125 2.234375 -0.53125 C 1.875 -0.53125 1.734375 -0.828125 1.734375 -1.34375 Z M 1.734375 -3.8125 "/>
</symbol>
<symbol overflow="visible" id="glyph0-9">
<path style="stroke:none;" d="M 2.953125 -6.703125 L 2.765625 -6.703125 C 2.171875 -6.109375 1.359375 -6.078125 0.875 -6.046875 L 0.875 -5.484375 C 1.203125 -5.484375 1.6875 -5.515625 2.171875 -5.71875 L 2.171875 -0.578125 L 0.9375 -0.578125 L 0.9375 0 L 4.1875 0 L 4.1875 -0.578125 L 2.953125 -0.578125 Z M 2.953125 -6.703125 "/>
</symbol>
<symbol overflow="visible" id="glyph0-10">
<path style="stroke:none;" d="M 4.515625 -3.21875 C 4.515625 -4 4.484375 -4.921875 4.0625 -5.734375 C 3.65625 -6.46875 2.984375 -6.703125 2.46875 -6.703125 C 1.890625 -6.703125 1.203125 -6.4375 0.796875 -5.5625 C 0.46875 -4.84375 0.421875 -4.015625 0.421875 -3.21875 C 0.421875 -2.4375 0.453125 -1.71875 0.75 -1 C 1.140625 -0.046875 1.90625 0.21875 2.46875 0.21875 C 3.1875 0.21875 3.8125 -0.1875 4.125 -0.875 C 4.421875 -1.515625 4.515625 -2.171875 4.515625 -3.21875 Z M 2.46875 -0.390625 C 1.953125 -0.390625 1.546875 -0.765625 1.359375 -1.46875 C 1.203125 -2.03125 1.1875 -2.578125 1.1875 -3.34375 C 1.1875 -3.96875 1.1875 -4.5625 1.359375 -5.109375 C 1.421875 -5.296875 1.65625 -6.109375 2.46875 -6.109375 C 3.234375 -6.109375 3.484375 -5.34375 3.5625 -5.171875 C 3.75 -4.625 3.75 -3.953125 3.75 -3.34375 C 3.75 -2.6875 3.75 -2.0625 3.578125 -1.4375 C 3.3125 -0.546875 2.796875 -0.390625 2.46875 -0.390625 Z M 2.46875 -0.390625 "/>
</symbol>
<symbol overflow="visible" id="glyph1-0">
<path style="stroke:none;" d=""/>
</symbol>
<symbol overflow="visible" id="glyph1-1">
<path style="stroke:none;" d="M 5.109375 -6.75 C 5.109375 -6.765625 5.109375 -6.859375 4.96875 -6.859375 C 4.828125 -6.859375 3.890625 -6.78125 3.71875 -6.75 C 3.640625 -6.75 3.578125 -6.703125 3.578125 -6.5625 C 3.578125 -6.453125 3.671875 -6.453125 3.8125 -6.453125 C 4.296875 -6.453125 4.3125 -6.375 4.3125 -6.28125 L 4.28125 -6.078125 L 3.6875 -3.734375 C 3.515625 -4.109375 3.21875 -4.375 2.78125 -4.375 C 1.625 -4.375 0.390625 -2.921875 0.390625 -1.46875 C 0.390625 -0.546875 0.9375 0.109375 1.71875 0.109375 C 1.90625 0.109375 2.40625 0.0625 3 -0.640625 C 3.078125 -0.21875 3.421875 0.109375 3.890625 0.109375 C 4.25 0.109375 4.46875 -0.125 4.625 -0.4375 C 4.796875 -0.796875 4.921875 -1.390625 4.921875 -1.421875 C 4.921875 -1.515625 4.84375 -1.515625 4.8125 -1.515625 C 4.703125 -1.515625 4.703125 -1.46875 4.671875 -1.328125 C 4.5 -0.6875 4.328125 -0.109375 3.921875 -0.109375 C 3.65625 -0.109375 3.625 -0.359375 3.625 -0.5625 C 3.625 -0.796875 3.640625 -0.875 3.671875 -1.03125 Z M 3.046875 -1.171875 C 3 -1 3 -0.984375 2.84375 -0.8125 C 2.40625 -0.265625 2 -0.109375 1.734375 -0.109375 C 1.234375 -0.109375 1.09375 -0.65625 1.09375 -1.03125 C 1.09375 -1.53125 1.421875 -2.75 1.640625 -3.203125 C 1.953125 -3.78125 2.390625 -4.15625 2.796875 -4.15625 C 3.4375 -4.15625 3.578125 -3.34375 3.578125 -3.28125 C 3.578125 -3.21875 3.546875 -3.171875 3.546875 -3.109375 Z M 3.046875 -1.171875 "/>
</symbol>
<symbol overflow="visible" id="glyph2-0">
<path style="stroke:none;" d="M 2.8125 0 C 2.8125 -1.554688 1.554688 -2.8125 0 -2.8125 C -1.554688 -2.8125 -2.8125 -1.554688 -2.8125 0 C -2.8125 1.554688 -1.554688 2.8125 0 2.8125 C 1.554688 2.8125 2.8125 1.554688 2.8125 0 "/>
</symbol>
</g>
</defs>
<g id="surface1">
<g style="fill:rgb(100%,0%,0%);fill-opacity:1;">
  <use xlink:href="#glyph0-1" x="71.467704" y="27.76499"/>
</g>
<g style="fill:rgb(100%,0%,0%);fill-opacity:1;">
  <use xlink:href="#glyph0-2" x="76.587281" y="27.76499"/>
</g>
<g style="fill:rgb(100%,0%,0%);fill-opacity:1;">
  <use xlink:href="#glyph0-3" x="78.968484" y="27.76499"/>
</g>
<g style="fill:rgb(100%,0%,0%);fill-opacity:1;">
  <use xlink:href="#glyph0-4" x="83.730883" y="27.76499"/>
</g>
<g style="fill:rgb(100%,0%,0%);fill-opacity:1;">
  <use xlink:href="#glyph0-5" x="88.85046" y="27.76499"/>
</g>
<g style="fill:rgb(100%,0%,0%);fill-opacity:1;">
  <use xlink:href="#glyph0-6" x="96.589291" y="27.76499"/>
</g>
<g style="fill:rgb(100%,0%,0%);fill-opacity:1;">
  <use xlink:href="#glyph0-3" x="103.137594" y="27.76499"/>
</g>
<g style="fill:rgb(100%,0%,0%);fill-opacity:1;">
  <use xlink:href="#glyph0-7" x="107.899993" y="27.76499"/>
</g>
<g style="fill:rgb(100%,0%,0%);fill-opacity:1;">
  <use xlink:href="#glyph0-5" x="112.424274" y="27.76499"/>
</g>
<path style=" stroke:none;fill-rule:nonzero;fill:rgb(100%,0%,0%);fill-opacity:1;" d="M 91.09375 69.902344 L 94.089844 75.890625 L 97.082031 69.902344 L 94.089844 69.902344 "/>
<path style="fill:none;stroke-width:11.3366;stroke-linecap:butt;stroke-linejoin:miter;stroke:rgb(100%,0%,0%);stroke-opacity:1;stroke-miterlimit:10;" d="M 945.491454 486.057647 L 945.491454 822.560776 " transform="matrix(0.0992167,0,0,-0.0992167,0.281333,118.127363)"/>
<path style=" stroke:none;fill-rule:nonzero;fill:rgb(100%,0%,0%);fill-opacity:1;" d="M 107.96875 69.902344 L 110.964844 75.890625 L 113.957031 69.902344 L 110.964844 69.902344 "/>
<path style="fill:none;stroke-width:11.3366;stroke-linecap:butt;stroke-linejoin:miter;stroke:rgb(100%,0%,0%);stroke-opacity:1;stroke-miterlimit:10;" d="M 1115.573765 486.057647 L 1115.573765 822.560776 " transform="matrix(0.0992167,0,0,-0.0992167,0.281333,118.127363)"/>
<path style=" stroke:none;fill-rule:nonzero;fill:rgb(100%,0%,0%);fill-opacity:1;" d="M 124.84375 69.902344 L 127.839844 75.890625 L 130.832031 69.902344 L 127.839844 69.902344 "/>
<path style="fill:none;stroke-width:11.3366;stroke-linecap:butt;stroke-linejoin:miter;stroke:rgb(100%,0%,0%);stroke-opacity:1;stroke-miterlimit:10;" d="M 1285.656077 486.057647 L 1285.656077 822.560776 " transform="matrix(0.0992167,0,0,-0.0992167,0.281333,118.127363)"/>
<path style=" stroke:none;fill-rule:nonzero;fill:rgb(100%,0%,0%);fill-opacity:1;" d="M 57.347656 69.902344 L 60.339844 75.890625 L 63.332031 69.902344 L 60.339844 69.902344 "/>
<path style="fill:none;stroke-width:11.3366;stroke-linecap:butt;stroke-linejoin:miter;stroke:rgb(100%,0%,0%);stroke-opacity:1;stroke-miterlimit:10;" d="M 605.326831 486.057647 L 605.326831 822.560776 " transform="matrix(0.0992167,0,0,-0.0992167,0.281333,118.127363)"/>
<path style=" stroke:none;fill-rule:nonzero;fill:rgb(100%,0%,0%);fill-opacity:1;" d="M 74.222656 69.902344 L 77.214844 75.890625 L 80.207031 69.902344 L 77.214844 69.902344 "/>
<path style="fill:none;stroke-width:11.3366;stroke-linecap:butt;stroke-linejoin:miter;stroke:rgb(100%,0%,0%);stroke-opacity:1;stroke-miterlimit:10;" d="M 775.409142 486.057647 L 775.409142 822.560776 " transform="matrix(0.0992167,0,0,-0.0992167,0.281333,118.127363)"/>
<path style="fill:none;stroke-width:11.3366;stroke-linecap:butt;stroke-linejoin:miter;stroke:rgb(100%,0%,0%);stroke-opacity:1;stroke-miterlimit:10;" d="M 548.632727 425.702049 L 1342.350181 425.702049 " transform="matrix(0.0992167,0,0,-0.0992167,0.281333,118.127363)"/>
<path style="fill:none;stroke-width:11.3366;stroke-linecap:butt;stroke-linejoin:miter;stroke:rgb(0%,0%,0%);stroke-opacity:1;stroke-miterlimit:10;" d="M 605.326831 198.965005 L 605.326831 85.576797 " transform="matrix(0.0992167,0,0,-0.0992167,0.281333,118.127363)"/>
<path style="fill:none;stroke-width:11.3366;stroke-linecap:butt;stroke-linejoin:miter;stroke:rgb(0%,0%,0%);stroke-opacity:1;stroke-miterlimit:10;" d="M 605.326831 142.270901 L 832.103246 142.270901 " transform="matrix(0.0992167,0,0,-0.0992167,0.281333,118.127363)"/>
<path style="fill:none;stroke-width:11.3366;stroke-linecap:butt;stroke-linejoin:miter;stroke:rgb(0%,0%,0%);stroke-opacity:1;stroke-miterlimit:10;" d="M 1285.656077 198.965005 L 1285.656077 85.576797 " transform="matrix(0.0992167,0,0,-0.0992167,0.281333,118.127363)"/>
<path style="fill:none;stroke-width:11.3366;stroke-linecap:butt;stroke-linejoin:miter;stroke:rgb(0%,0%,0%);stroke-opacity:1;stroke-miterlimit:10;" d="M 1058.879662 142.270901 L 1285.656077 142.270901 " transform="matrix(0.0992167,0,0,-0.0992167,0.281333,118.127363)"/>
<g style="fill:rgb(0%,0%,0%);fill-opacity:1;">
  <use xlink:href="#glyph1-1" x="91.469983" y="107.465838"/>
</g>
<g style="fill:rgb(0%,0%,0%);fill-opacity:1;">
  <use xlink:href="#glyph0-3" x="8.133836" y="95.978036"/>
</g>
<g style="fill:rgb(0%,0%,0%);fill-opacity:1;">
  <use xlink:href="#glyph0-4" x="12.896236" y="95.978036"/>
</g>
<g style="fill:rgb(0%,0%,0%);fill-opacity:1;">
  <use xlink:href="#glyph0-8" x="18.015815" y="95.978036"/>
</g>
<g style="fill:rgb(0%,0%,0%);fill-opacity:1;">
  <use xlink:href="#glyph0-5" x="21.587615" y="95.978036"/>
</g>
<g style="fill:rgb(0%,0%,0%);fill-opacity:1;">
  <use xlink:href="#glyph0-4" x="25.992833" y="95.978036"/>
</g>
<g style="fill:rgb(0%,0%,0%);fill-opacity:1;">
  <use xlink:href="#glyph0-4" x="31.112413" y="95.978036"/>
</g>
<g style="fill:rgb(0%,0%,0%);fill-opacity:1;">
  <use xlink:href="#glyph0-3" x="36.231994" y="95.978036"/>
</g>
<g style="fill:rgb(0%,0%,0%);fill-opacity:1;">
  <use xlink:href="#glyph0-9" x="44.209172" y="95.978036"/>
</g>
<g style="fill:rgb(0%,0%,0%);fill-opacity:1;">
  <use xlink:href="#glyph0-3" x="139.088574" y="95.978036"/>
</g>
<g style="fill:rgb(0%,0%,0%);fill-opacity:1;">
  <use xlink:href="#glyph0-4" x="143.850973" y="95.978036"/>
</g>
<g style="fill:rgb(0%,0%,0%);fill-opacity:1;">
  <use xlink:href="#glyph0-8" x="148.970551" y="95.978036"/>
</g>
<g style="fill:rgb(0%,0%,0%);fill-opacity:1;">
  <use xlink:href="#glyph0-5" x="152.542355" y="95.978036"/>
</g>
<g style="fill:rgb(0%,0%,0%);fill-opacity:1;">
  <use xlink:href="#glyph0-4" x="156.947576" y="95.978036"/>
</g>
<g style="fill:rgb(0%,0%,0%);fill-opacity:1;">
  <use xlink:href="#glyph0-4" x="162.067153" y="95.978036"/>
</g>
<g style="fill:rgb(0%,0%,0%);fill-opacity:1;">
  <use xlink:href="#glyph0-3" x="167.186731" y="95.978036"/>
</g>
<g style="fill:rgb(0%,0%,0%);fill-opacity:1;">
  <use xlink:href="#glyph0-10" x="175.163909" y="95.978036"/>
</g>
<g style="fill:rgb(0%,0%,0%);fill-opacity:1;">
  <use xlink:href="#glyph2-0" x="60.357025" y="92.777525"/>
</g>
<g style="fill:rgb(0%,0%,0%);fill-opacity:1;">
  <use xlink:href="#glyph2-0" x="127.824146" y="92.777525"/>
</g>
<path style="fill:none;stroke-width:11.3366;stroke-linecap:butt;stroke-linejoin:miter;stroke:rgb(100%,100%,100%);stroke-opacity:1;stroke-miterlimit:10;" d="M 44.055203 595.784361 L 44.055203 34.552104 L 1846.888334 34.552104 L 1846.888334 1157.055989 L 44.055203 1157.055989 Z M 44.055203 595.784361 " transform="matrix(0.0992167,0,0,-0.0992167,0.281333,118.127363)"/>
</g>
</svg>
