<?xml version="1.0" encoding="UTF-8"?>
<svg xmlns="http://www.w3.org/2000/svg" xmlns:xlink="http://www.w3.org/1999/xlink" width="318.86pt" height="26.08pt" viewBox="0 0 318.86 26.08" version="1.2">
<defs>
<g>
<symbol overflow="visible" id="glyph0-0">
<path style="stroke:none;" d=""/>
</symbol>
<symbol overflow="visible" id="glyph0-1">
<path style="stroke:none;" d="M 4.96875 -6.578125 C 4.96875 -6.578125 4.96875 -6.6875 4.84375 -6.6875 C 4.703125 -6.6875 3.78125 -6.59375 3.625 -6.578125 C 3.546875 -6.5625 3.484375 -6.515625 3.484375 -6.390625 C 3.484375 -6.28125 3.578125 -6.28125 3.71875 -6.28125 C 4.171875 -6.28125 4.203125 -6.203125 4.203125 -6.109375 L 4.171875 -5.921875 L 3.59375 -3.640625 C 3.421875 -4 3.140625 -4.25 2.703125 -4.25 C 1.578125 -4.25 0.390625 -2.84375 0.390625 -1.4375 C 0.390625 -0.53125 0.921875 0.109375 1.671875 0.109375 C 1.859375 0.109375 2.34375 0.0625 2.921875 -0.609375 C 3 -0.21875 3.328125 0.109375 3.796875 0.109375 C 4.125 0.109375 4.34375 -0.109375 4.5 -0.421875 C 4.671875 -0.765625 4.796875 -1.359375 4.796875 -1.375 C 4.796875 -1.46875 4.703125 -1.46875 4.671875 -1.46875 C 4.578125 -1.46875 4.578125 -1.4375 4.546875 -1.296875 C 4.375 -0.671875 4.203125 -0.109375 3.8125 -0.109375 C 3.546875 -0.109375 3.515625 -0.359375 3.515625 -0.546875 C 3.515625 -0.78125 3.546875 -0.84375 3.578125 -1.015625 Z M 2.96875 -1.140625 C 2.921875 -0.96875 2.921875 -0.953125 2.765625 -0.796875 C 2.34375 -0.265625 1.953125 -0.109375 1.6875 -0.109375 C 1.203125 -0.109375 1.0625 -0.640625 1.0625 -1.015625 C 1.0625 -1.484375 1.375 -2.671875 1.59375 -3.125 C 1.890625 -3.6875 2.328125 -4.046875 2.71875 -4.046875 C 3.34375 -4.046875 3.46875 -3.25 3.46875 -3.203125 C 3.46875 -3.140625 3.453125 -3.078125 3.453125 -3.03125 Z M 2.96875 -1.140625 "/>
</symbol>
<symbol overflow="visible" id="glyph0-2">
<path style="stroke:none;" d="M 7.28125 -5.5625 C 7.375 -5.953125 7.546875 -6.25 8.3125 -6.28125 C 8.359375 -6.28125 8.484375 -6.28125 8.484375 -6.46875 C 8.484375 -6.484375 8.484375 -6.578125 8.359375 -6.578125 C 8.03125 -6.578125 7.703125 -6.546875 7.375 -6.546875 C 7.0625 -6.546875 6.71875 -6.578125 6.40625 -6.578125 C 6.34375 -6.578125 6.234375 -6.578125 6.234375 -6.375 C 6.234375 -6.28125 6.328125 -6.28125 6.40625 -6.28125 C 6.953125 -6.265625 7.0625 -6.0625 7.0625 -5.859375 C 7.0625 -5.828125 7.03125 -5.671875 7.03125 -5.65625 L 5.953125 -1.359375 L 3.828125 -6.390625 C 3.75 -6.5625 3.734375 -6.578125 3.515625 -6.578125 L 2.21875 -6.578125 C 2.03125 -6.578125 1.9375 -6.578125 1.9375 -6.375 C 1.9375 -6.28125 2.03125 -6.28125 2.21875 -6.28125 C 2.265625 -6.28125 2.875 -6.28125 2.875 -6.1875 L 1.578125 -1.015625 C 1.484375 -0.640625 1.3125 -0.328125 0.53125 -0.296875 C 0.484375 -0.296875 0.375 -0.28125 0.375 -0.109375 C 0.375 -0.03125 0.421875 0 0.5 0 C 0.8125 0 1.140625 -0.03125 1.46875 -0.03125 C 1.796875 -0.03125 2.140625 0 2.453125 0 C 2.5 0 2.625 0 2.625 -0.1875 C 2.625 -0.28125 2.546875 -0.296875 2.4375 -0.296875 C 1.875 -0.3125 1.796875 -0.53125 1.796875 -0.71875 C 1.796875 -0.796875 1.8125 -0.84375 1.84375 -0.9375 L 3.109375 -6.03125 C 3.140625 -5.96875 3.140625 -5.953125 3.203125 -5.859375 L 5.59375 -0.1875 C 5.65625 -0.015625 5.6875 0 5.78125 0 C 5.875 0 5.875 -0.03125 5.921875 -0.203125 Z M 7.28125 -5.5625 "/>
</symbol>
<symbol overflow="visible" id="glyph1-0">
<path style="stroke:none;" d=""/>
</symbol>
<symbol overflow="visible" id="glyph1-1">
<path style="stroke:none;" d="M 2.875 -6.53125 L 2.6875 -6.53125 C 2.125 -5.9375 1.3125 -5.90625 0.859375 -5.890625 L 0.859375 -5.328125 C 1.171875 -5.34375 1.640625 -5.359375 2.125 -5.5625 L 2.125 -0.5625 L 0.921875 -0.5625 L 0.921875 0 L 4.078125 0 L 4.078125 -0.5625 L 2.875 -0.5625 Z M 2.875 -6.53125 "/>
</symbol>
<symbol overflow="visible" id="glyph1-2">
<path style="stroke:none;" d="M 4.40625 -3.140625 C 4.40625 -3.890625 4.359375 -4.796875 3.953125 -5.578125 C 3.5625 -6.296875 2.890625 -6.53125 2.40625 -6.53125 C 1.84375 -6.53125 1.171875 -6.265625 0.765625 -5.40625 C 0.453125 -4.703125 0.40625 -3.90625 0.40625 -3.140625 C 0.40625 -2.375 0.4375 -1.671875 0.734375 -0.96875 C 1.109375 -0.046875 1.84375 0.21875 2.390625 0.21875 C 3.09375 0.21875 3.703125 -0.1875 4.015625 -0.84375 C 4.296875 -1.46875 4.40625 -2.109375 4.40625 -3.140625 Z M 2.40625 -0.375 C 1.90625 -0.375 1.515625 -0.734375 1.3125 -1.4375 C 1.171875 -1.984375 1.15625 -2.5 1.15625 -3.25 C 1.15625 -3.859375 1.15625 -4.4375 1.3125 -4.96875 C 1.375 -5.15625 1.609375 -5.9375 2.390625 -5.9375 C 3.140625 -5.9375 3.390625 -5.203125 3.46875 -5.03125 C 3.640625 -4.5 3.640625 -3.84375 3.640625 -3.25 C 3.640625 -2.625 3.640625 -2.015625 3.46875 -1.40625 C 3.21875 -0.53125 2.71875 -0.375 2.40625 -0.375 Z M 2.40625 -0.375 "/>
</symbol>
<symbol overflow="visible" id="glyph1-3">
<path style="stroke:none;" d="M 1.671875 -1.8125 L 0.484375 -0.609375 L 0.484375 0 L 4.328125 0 L 4.328125 -0.6875 L 2.5625 -0.6875 C 2.453125 -0.6875 2.34375 -0.671875 2.21875 -0.671875 L 1.171875 -0.671875 C 1.484375 -0.9375 2.21875 -1.671875 2.515625 -1.9375 C 2.6875 -2.125 3.1875 -2.515625 3.375 -2.6875 C 3.796875 -3.125 4.328125 -3.640625 4.328125 -4.453125 C 4.328125 -5.5625 3.546875 -6.53125 2.265625 -6.53125 C 1.171875 -6.53125 0.640625 -5.78125 0.40625 -4.953125 C 0.515625 -4.78125 0.5625 -4.71875 0.59375 -4.703125 C 0.609375 -4.671875 0.703125 -4.546875 0.796875 -4.421875 C 0.984375 -5.15625 1.265625 -5.90625 2.140625 -5.90625 C 3.046875 -5.90625 3.53125 -5.1875 3.53125 -4.4375 C 3.53125 -3.625 2.984375 -3.078125 2.421875 -2.5 Z M 1.671875 -1.8125 "/>
</symbol>
<symbol overflow="visible" id="glyph3-0">
<path style="stroke:none;" d=""/>
</symbol>
<symbol overflow="visible" id="glyph3-1">
<path style="stroke:none;" d="M 6.34375 -2.21875 C 6.5 -2.21875 6.6875 -2.21875 6.6875 -2.40625 C 6.6875 -2.59375 6.5 -2.59375 6.34375 -2.59375 L 1.140625 -2.59375 C 0.96875 -2.59375 0.796875 -2.59375 0.796875 -2.40625 C 0.796875 -2.21875 0.96875 -2.21875 1.140625 -2.21875 Z M 6.34375 -2.21875 "/>
</symbol>
<symbol overflow="visible" id="glyph4-0">
<path style="stroke:none;" d=""/>
</symbol>
<symbol overflow="visible" id="glyph4-1">
<path style="stroke:none;" d="M 2.828125 -6.15625 C 2.828125 -6.390625 2.828125 -6.40625 2.609375 -6.40625 C 2.015625 -5.796875 1.171875 -5.796875 0.859375 -5.796875 L 0.859375 -5.5 C 1.046875 -5.5 1.609375 -5.5 2.125 -5.75 L 2.125 -0.765625 C 2.125 -0.40625 2.09375 -0.296875 1.21875 -0.296875 L 0.921875 -0.296875 L 0.921875 0 C 1.25 -0.03125 2.09375 -0.03125 2.46875 -0.03125 C 2.859375 -0.03125 3.703125 -0.03125 4.03125 0 L 4.03125 -0.296875 L 3.71875 -0.296875 C 2.859375 -0.296875 2.828125 -0.40625 2.828125 -0.765625 Z M 2.828125 -6.15625 "/>
</symbol>
<symbol overflow="visible" id="glyph4-2">
<path style="stroke:none;" d="M 1.21875 -0.734375 L 2.25 -1.734375 C 3.75 -3.0625 4.328125 -3.578125 4.328125 -4.546875 C 4.328125 -5.640625 3.453125 -6.40625 2.28125 -6.40625 C 1.1875 -6.40625 0.484375 -5.53125 0.484375 -4.671875 C 0.484375 -4.125 0.96875 -4.125 0.984375 -4.125 C 1.15625 -4.125 1.484375 -4.25 1.484375 -4.640625 C 1.484375 -4.890625 1.3125 -5.140625 0.984375 -5.140625 C 0.90625 -5.140625 0.890625 -5.140625 0.859375 -5.125 C 1.078125 -5.75 1.59375 -6.109375 2.15625 -6.109375 C 3.03125 -6.109375 3.453125 -5.328125 3.453125 -4.546875 C 3.453125 -3.765625 2.96875 -3.015625 2.4375 -2.421875 L 0.59375 -0.359375 C 0.484375 -0.25 0.484375 -0.234375 0.484375 0 L 4.046875 0 L 4.328125 -1.671875 L 4.078125 -1.671875 C 4.03125 -1.390625 3.96875 -0.96875 3.875 -0.8125 C 3.796875 -0.734375 3.171875 -0.734375 2.953125 -0.734375 Z M 1.21875 -0.734375 "/>
</symbol>
<symbol overflow="visible" id="glyph2-0">
<path style="stroke:none;" d="M 2.738281 0 C 2.738281 -1.511719 1.511719 -2.738281 0 -2.738281 C -1.511719 -2.738281 -2.738281 -1.511719 -2.738281 0 C -2.738281 1.511719 -1.511719 2.738281 0 2.738281 C 1.511719 2.738281 2.738281 1.511719 2.738281 0 "/>
</symbol>
<symbol overflow="visible" id="glyph5-0">
<path style="stroke:none;" d="M 0.820312 0 C 0.820312 -0.453125 0.453125 -0.820312 0 -0.820312 C -0.453125 -0.820312 -0.820312 -0.453125 -0.820312 0 C -0.820312 0.453125 -0.453125 0.820312 0 0.820312 C 0.453125 0.820312 0.820312 0.453125 0.820312 0 "/>
</symbol>
</g>
</defs>
<g id="surface1">
<path style="fill:none;stroke-width:11.3366;stroke-linecap:butt;stroke-linejoin:miter;stroke:rgb(0%,0%,0%);stroke-opacity:1;stroke-miterlimit:10;" d="M 2334.046384 141.541049 L 2334.046384 28.145967 " transform="matrix(0.0965926,0,0,-0.0965926,5.364815,25.191348)"/>
<path style="fill:none;stroke-width:11.3366;stroke-linecap:butt;stroke-linejoin:miter;stroke:rgb(0%,0%,0%);stroke-opacity:1;stroke-miterlimit:10;" d="M 2334.046384 84.843508 L 2560.836549 84.843508 " transform="matrix(0.0965926,0,0,-0.0965926,5.364815,25.191348)"/>
<path style="fill:none;stroke-width:11.3366;stroke-linecap:butt;stroke-linejoin:miter;stroke:rgb(0%,0%,0%);stroke-opacity:1;stroke-miterlimit:10;" d="M 3014.376438 141.541049 L 3014.376438 28.145967 " transform="matrix(0.0965926,0,0,-0.0965926,5.364815,25.191348)"/>
<path style="fill:none;stroke-width:11.3366;stroke-linecap:butt;stroke-linejoin:miter;stroke:rgb(0%,0%,0%);stroke-opacity:1;stroke-miterlimit:10;" d="M 2787.586273 84.843508 L 3014.376438 84.843508 " transform="matrix(0.0965926,0,0,-0.0965926,5.364815,25.191348)"/>
<g style="fill:rgb(0%,0%,0%);fill-opacity:1;">
  <use xlink:href="#glyph0-1" x="261.123647" y="20.241354"/>
</g>
<g style="fill:rgb(0%,0%,0%);fill-opacity:1;">
  <use xlink:href="#glyph1-1" x="241.769293" y="9.173196"/>
</g>
<g style="fill:rgb(0%,0%,0%);fill-opacity:1;">
  <use xlink:href="#glyph1-2" x="307.482857" y="9.173196"/>
</g>
<g style="fill:rgb(0%,0%,0%);fill-opacity:1;">
  <use xlink:href="#glyph2-0" x="230.860415" y="6.017709"/>
</g>
<g style="fill:rgb(0%,0%,0%);fill-opacity:1;">
  <use xlink:href="#glyph2-0" x="296.543172" y="6.017709"/>
</g>
<g style="fill:rgb(0%,0%,0%);fill-opacity:1;">
  <use xlink:href="#glyph0-1" x="195.410548" y="20.241354"/>
</g>
<path style="fill:none;stroke-width:11.3366;stroke-linecap:butt;stroke-linejoin:miter;stroke:rgb(0%,0%,0%);stroke-opacity:1;stroke-miterlimit:10;" d="M 1653.75677 84.843508 L 1880.506494 84.843508 " transform="matrix(0.0965926,0,0,-0.0965926,5.364815,25.191348)"/>
<path style="fill:none;stroke-width:11.3366;stroke-linecap:butt;stroke-linejoin:miter;stroke:rgb(0%,0%,0%);stroke-opacity:1;stroke-miterlimit:10;" d="M 2107.296659 84.843508 L 2334.046384 84.843508 " transform="matrix(0.0965926,0,0,-0.0965926,5.364815,25.191348)"/>
<path style="fill:none;stroke-width:11.3366;stroke-linecap:butt;stroke-linejoin:miter;stroke:rgb(0%,0%,0%);stroke-opacity:1;stroke-miterlimit:10;" d="M 1653.75677 141.541049 L 1653.75677 28.145967 " transform="matrix(0.0965926,0,0,-0.0965926,5.364815,25.191348)"/>
<g style="fill:rgb(0%,0%,0%);fill-opacity:1;">
  <use xlink:href="#glyph2-0" x="165.080667" y="6.017719"/>
</g>
<g style="fill:rgb(0%,0%,0%);fill-opacity:1;">
  <use xlink:href="#glyph1-3" x="176.056" y="9.173205"/>
</g>
<g style="fill:rgb(0%,0%,0%);fill-opacity:1;">
  <use xlink:href="#glyph0-2" x="22.724919" y="8.941157"/>
</g>
<g style="fill:rgb(0%,0%,0%);fill-opacity:1;">
  <use xlink:href="#glyph3-1" x="33.62066" y="8.941157"/>
</g>
<g style="fill:rgb(0%,0%,0%);fill-opacity:1;">
  <use xlink:href="#glyph4-1" x="43.241436" y="8.941157"/>
</g>
<g style="fill:rgb(0%,0%,0%);fill-opacity:1;">
  <use xlink:href="#glyph2-0" x="11.788473" y="6.017724"/>
</g>
<path style="fill:none;stroke-width:11.3366;stroke-linecap:butt;stroke-linejoin:miter;stroke:rgb(0%,0%,0%);stroke-opacity:1;stroke-miterlimit:10;" d="M 746.636551 141.541049 L 746.636551 28.145967 " transform="matrix(0.0965926,0,0,-0.0965926,5.364815,25.191348)"/>
<g style="fill:rgb(0%,0%,0%);fill-opacity:1;">
  <use xlink:href="#glyph0-1" x="42.07908" y="20.241354"/>
</g>
<path style="fill:none;stroke-width:11.3366;stroke-linecap:butt;stroke-linejoin:miter;stroke:rgb(0%,0%,0%);stroke-opacity:1;stroke-miterlimit:10;" d="M 66.346937 84.843508 L 293.096662 84.843508 " transform="matrix(0.0965926,0,0,-0.0965926,5.364815,25.191348)"/>
<path style="fill:none;stroke-width:11.3366;stroke-linecap:butt;stroke-linejoin:miter;stroke:rgb(0%,0%,0%);stroke-opacity:1;stroke-miterlimit:10;" d="M 519.886827 84.843508 L 746.636551 84.843508 " transform="matrix(0.0965926,0,0,-0.0965926,5.364815,25.191348)"/>
<path style="fill:none;stroke-width:11.3366;stroke-linecap:butt;stroke-linejoin:miter;stroke:rgb(0%,0%,0%);stroke-opacity:1;stroke-miterlimit:10;" d="M 66.346937 141.541049 L 66.346937 28.145967 " transform="matrix(0.0965926,0,0,-0.0965926,5.364815,25.191348)"/>
<g style="fill:rgb(0%,0%,0%);fill-opacity:1;">
  <use xlink:href="#glyph2-0" x="77.471185" y="6.017719"/>
</g>
<g style="fill:rgb(0%,0%,0%);fill-opacity:1;">
  <use xlink:href="#glyph0-2" x="88.438212" y="8.941151"/>
</g>
<g style="fill:rgb(0%,0%,0%);fill-opacity:1;">
  <use xlink:href="#glyph3-1" x="99.333953" y="8.941151"/>
</g>
<g style="fill:rgb(0%,0%,0%);fill-opacity:1;">
  <use xlink:href="#glyph4-2" x="108.954729" y="8.941151"/>
</g>
<g style="fill:rgb(0%,0%,0%);fill-opacity:1;">
  <use xlink:href="#glyph5-0" x="110.312686" y="17.029274"/>
</g>
<g style="fill:rgb(0%,0%,0%);fill-opacity:1;">
  <use xlink:href="#glyph5-0" x="121.32422" y="17.029274"/>
</g>
<g style="fill:rgb(0%,0%,0%);fill-opacity:1;">
  <use xlink:href="#glyph5-0" x="132.239177" y="17.029274"/>
</g>
</g>
</svg>
