<?xml version="1.0" encoding="UTF-8"?>
<svg xmlns="http://www.w3.org/2000/svg" xmlns:xlink="http://www.w3.org/1999/xlink" width="221.1pt" height="170.08pt" viewBox="0 0 221.1 170.08" version="1.2">
<defs>
<g>
<symbol overflow="visible" id="glyph0-0">
<path style="stroke:none;" d=""/>
</symbol>
<symbol overflow="visible" id="glyph0-1">
<path style="stroke:none;" d="M 5.109375 -6.765625 C 5.109375 -6.78125 5.109375 -6.875 4.984375 -6.875 C 4.828125 -6.875 3.890625 -6.78125 3.71875 -6.765625 C 3.640625 -6.75 3.59375 -6.703125 3.59375 -6.578125 C 3.59375 -6.453125 3.671875 -6.453125 3.828125 -6.453125 C 4.296875 -6.453125 4.3125 -6.390625 4.3125 -6.296875 L 4.296875 -6.09375 L 3.6875 -3.75 C 3.515625 -4.109375 3.234375 -4.375 2.78125 -4.375 C 1.625 -4.375 0.390625 -2.921875 0.390625 -1.46875 C 0.390625 -0.546875 0.9375 0.109375 1.71875 0.109375 C 1.90625 0.109375 2.40625 0.0625 3 -0.640625 C 3.078125 -0.21875 3.421875 0.109375 3.90625 0.109375 C 4.25 0.109375 4.484375 -0.125 4.640625 -0.4375 C 4.796875 -0.796875 4.9375 -1.390625 4.9375 -1.421875 C 4.9375 -1.515625 4.84375 -1.515625 4.8125 -1.515625 C 4.71875 -1.515625 4.703125 -1.46875 4.671875 -1.34375 C 4.5 -0.6875 4.328125 -0.109375 3.921875 -0.109375 C 3.65625 -0.109375 3.625 -0.359375 3.625 -0.5625 C 3.625 -0.796875 3.640625 -0.875 3.6875 -1.046875 Z M 3.046875 -1.171875 C 3 -1 3 -0.984375 2.859375 -0.8125 C 2.421875 -0.265625 2.015625 -0.109375 1.734375 -0.109375 C 1.234375 -0.109375 1.09375 -0.65625 1.09375 -1.046875 C 1.09375 -1.53125 1.421875 -2.75 1.640625 -3.203125 C 1.953125 -3.796875 2.390625 -4.15625 2.796875 -4.15625 C 3.4375 -4.15625 3.578125 -3.34375 3.578125 -3.28125 C 3.578125 -3.234375 3.5625 -3.171875 3.546875 -3.125 Z M 3.046875 -1.171875 "/>
</symbol>
<symbol overflow="visible" id="glyph0-2">
<path style="stroke:none;" d="M 4.8125 -3.78125 C 4.859375 -3.90625 4.859375 -3.9375 4.859375 -4 C 4.859375 -4.1875 4.71875 -4.265625 4.5625 -4.265625 C 4.46875 -4.265625 4.3125 -4.203125 4.21875 -4.0625 C 4.203125 -4.015625 4.125 -3.703125 4.078125 -3.53125 C 4.015625 -3.265625 3.9375 -3 3.890625 -2.734375 L 3.4375 -0.953125 C 3.390625 -0.796875 2.96875 -0.109375 2.3125 -0.109375 C 1.8125 -0.109375 1.703125 -0.546875 1.703125 -0.90625 C 1.703125 -1.359375 1.875 -1.984375 2.203125 -2.859375 C 2.375 -3.265625 2.40625 -3.375 2.40625 -3.5625 C 2.40625 -4.015625 2.09375 -4.375 1.59375 -4.375 C 0.65625 -4.375 0.28125 -2.9375 0.28125 -2.859375 C 0.28125 -2.75 0.390625 -2.75 0.40625 -2.75 C 0.5 -2.75 0.515625 -2.78125 0.5625 -2.9375 C 0.828125 -3.859375 1.234375 -4.15625 1.5625 -4.15625 C 1.640625 -4.15625 1.8125 -4.15625 1.8125 -3.84375 C 1.8125 -3.59375 1.71875 -3.34375 1.640625 -3.15625 C 1.25 -2.09375 1.0625 -1.53125 1.0625 -1.0625 C 1.0625 -0.1875 1.6875 0.109375 2.28125 0.109375 C 2.671875 0.109375 3 -0.0625 3.28125 -0.34375 C 3.15625 0.171875 3.03125 0.65625 2.640625 1.1875 C 2.375 1.53125 2 1.8125 1.546875 1.8125 C 1.40625 1.8125 0.953125 1.78125 0.796875 1.390625 C 0.953125 1.390625 1.078125 1.390625 1.21875 1.28125 C 1.3125 1.1875 1.421875 1.0625 1.421875 0.875 C 1.421875 0.5625 1.15625 0.53125 1.046875 0.53125 C 0.828125 0.53125 0.5 0.6875 0.5 1.171875 C 0.5 1.671875 0.9375 2.03125 1.546875 2.03125 C 2.5625 2.03125 3.59375 1.125 3.859375 0.015625 Z M 4.8125 -3.78125 "/>
</symbol>
<symbol overflow="visible" id="glyph0-3">
<path style="stroke:none;" d="M 4.5 -4.953125 C 4.5 -5.609375 4.328125 -6.984375 3.3125 -6.984375 C 1.9375 -6.984375 0.421875 -4.1875 0.421875 -1.921875 C 0.421875 -0.984375 0.703125 0.109375 1.609375 0.109375 C 3 0.109375 4.5 -2.734375 4.5 -4.953125 Z M 1.46875 -3.59375 C 1.640625 -4.234375 1.828125 -5.015625 2.234375 -5.71875 C 2.5 -6.21875 2.859375 -6.765625 3.3125 -6.765625 C 3.796875 -6.765625 3.859375 -6.125 3.859375 -5.5625 C 3.859375 -5.078125 3.78125 -4.578125 3.53125 -3.59375 Z M 3.453125 -3.28125 C 3.34375 -2.828125 3.125 -1.984375 2.75 -1.265625 C 2.40625 -0.59375 2.03125 -0.109375 1.609375 -0.109375 C 1.28125 -0.109375 1.0625 -0.390625 1.0625 -1.3125 C 1.0625 -1.734375 1.125 -2.3125 1.390625 -3.28125 Z M 3.453125 -3.28125 "/>
</symbol>
<symbol overflow="visible" id="glyph0-4">
<path style="stroke:none;" d="M 3.3125 -2.984375 C 3.375 -3.25 3.59375 -4.15625 4.296875 -4.15625 C 4.34375 -4.15625 4.578125 -4.15625 4.78125 -4.03125 C 4.5 -3.984375 4.3125 -3.734375 4.3125 -3.5 C 4.3125 -3.34375 4.421875 -3.15625 4.6875 -3.15625 C 4.90625 -3.15625 5.21875 -3.328125 5.21875 -3.71875 C 5.21875 -4.234375 4.640625 -4.375 4.296875 -4.375 C 3.71875 -4.375 3.375 -3.859375 3.265625 -3.625 C 3.015625 -4.28125 2.484375 -4.375 2.1875 -4.375 C 1.15625 -4.375 0.59375 -3.09375 0.59375 -2.859375 C 0.59375 -2.75 0.6875 -2.75 0.71875 -2.75 C 0.796875 -2.75 0.828125 -2.78125 0.84375 -2.859375 C 1.171875 -3.90625 1.828125 -4.15625 2.171875 -4.15625 C 2.359375 -4.15625 2.703125 -4.078125 2.703125 -3.5 C 2.703125 -3.1875 2.53125 -2.53125 2.171875 -1.140625 C 2.015625 -0.53125 1.671875 -0.109375 1.234375 -0.109375 C 1.171875 -0.109375 0.9375 -0.109375 0.734375 -0.234375 C 0.984375 -0.28125 1.203125 -0.5 1.203125 -0.765625 C 1.203125 -1.046875 0.984375 -1.125 0.828125 -1.125 C 0.53125 -1.125 0.28125 -0.859375 0.28125 -0.546875 C 0.28125 -0.09375 0.78125 0.109375 1.21875 0.109375 C 1.875 0.109375 2.234375 -0.578125 2.265625 -0.640625 C 2.375 -0.28125 2.734375 0.109375 3.328125 0.109375 C 4.34375 0.109375 4.90625 -1.171875 4.90625 -1.421875 C 4.90625 -1.515625 4.828125 -1.515625 4.796875 -1.515625 C 4.703125 -1.515625 4.6875 -1.46875 4.671875 -1.40625 C 4.34375 -0.34375 3.671875 -0.109375 3.34375 -0.109375 C 2.96875 -0.109375 2.796875 -0.421875 2.796875 -0.765625 C 2.796875 -0.984375 2.859375 -1.203125 2.96875 -1.640625 Z M 3.3125 -2.984375 "/>
</symbol>
<symbol overflow="visible" id="glyph0-5">
<path style="stroke:none;" d="M 0.875 -0.578125 C 0.84375 -0.4375 0.78125 -0.203125 0.78125 -0.15625 C 0.78125 0.015625 0.921875 0.109375 1.0625 0.109375 C 1.1875 0.109375 1.359375 0.03125 1.4375 -0.171875 C 1.453125 -0.203125 1.796875 -1.5625 1.828125 -1.734375 C 1.90625 -2.0625 2.09375 -2.75 2.15625 -3.015625 C 2.1875 -3.15625 2.46875 -3.609375 2.703125 -3.828125 C 2.78125 -3.90625 3.078125 -4.15625 3.5 -4.15625 C 3.75 -4.15625 3.90625 -4.046875 3.90625 -4.046875 C 3.609375 -4 3.390625 -3.75 3.390625 -3.5 C 3.390625 -3.34375 3.5 -3.15625 3.78125 -3.15625 C 4.046875 -3.15625 4.3125 -3.375 4.3125 -3.734375 C 4.3125 -4.078125 4 -4.375 3.5 -4.375 C 2.859375 -4.375 2.421875 -3.890625 2.234375 -3.609375 C 2.15625 -4.0625 1.796875 -4.375 1.328125 -4.375 C 0.875 -4.375 0.6875 -4 0.59375 -3.8125 C 0.421875 -3.484375 0.28125 -2.875 0.28125 -2.859375 C 0.28125 -2.75 0.390625 -2.75 0.40625 -2.75 C 0.5 -2.75 0.515625 -2.765625 0.578125 -2.984375 C 0.75 -3.6875 0.9375 -4.15625 1.296875 -4.15625 C 1.46875 -4.15625 1.609375 -4.078125 1.609375 -3.703125 C 1.609375 -3.5 1.578125 -3.390625 1.453125 -2.875 Z M 0.875 -0.578125 "/>
</symbol>
<symbol overflow="visible" id="glyph1-0">
<path style="stroke:none;" d=""/>
</symbol>
<symbol overflow="visible" id="glyph1-1">
<path style="stroke:none;" d="M 3.953125 -2.859375 C 3.953125 -3.875 3.234375 -4.5625 2.3125 -4.5625 C 1.671875 -4.5625 1.234375 -4.40625 0.765625 -4.140625 L 0.828125 -3.484375 C 1.34375 -3.859375 1.828125 -3.984375 2.3125 -3.984375 C 2.78125 -3.984375 3.1875 -3.59375 3.1875 -2.859375 L 3.1875 -2.421875 C 1.6875 -2.40625 0.4375 -1.984375 0.4375 -1.125 C 0.4375 -0.6875 0.703125 0.109375 1.5625 0.109375 C 1.703125 0.109375 2.640625 0.09375 3.203125 -0.359375 L 3.203125 0 L 3.953125 0 Z M 3.1875 -1.3125 C 3.1875 -1.125 3.1875 -0.875 2.84375 -0.6875 C 2.5625 -0.5 2.171875 -0.5 2.078125 -0.5 C 1.59375 -0.5 1.15625 -0.71875 1.15625 -1.140625 C 1.15625 -1.828125 2.75 -1.90625 3.1875 -1.921875 Z M 3.1875 -1.3125 "/>
</symbol>
<symbol overflow="visible" id="glyph1-2">
<path style="stroke:none;" d="M 4.3125 -2.953125 C 4.3125 -3.609375 4.15625 -4.5 2.953125 -4.5 C 2.0625 -4.5 1.578125 -3.828125 1.515625 -3.75 L 1.515625 -4.453125 L 0.796875 -4.453125 L 0.796875 0 L 1.578125 0 L 1.578125 -2.421875 C 1.578125 -3.078125 1.828125 -3.90625 2.578125 -3.90625 C 3.53125 -3.90625 3.53125 -3.203125 3.53125 -2.875 L 3.53125 0 L 4.3125 0 Z M 4.3125 -2.953125 "/>
</symbol>
<symbol overflow="visible" id="glyph1-3">
<path style="stroke:none;" d="M 1.734375 -3.828125 L 3.125 -3.828125 L 3.125 -4.390625 L 1.734375 -4.390625 L 1.734375 -5.65625 L 1.046875 -5.65625 L 1.046875 -4.390625 L 0.1875 -4.390625 L 0.1875 -3.828125 L 1.015625 -3.828125 L 1.015625 -1.171875 C 1.015625 -0.578125 1.15625 0.109375 1.84375 0.109375 C 2.53125 0.109375 3.046875 -0.140625 3.28125 -0.265625 L 3.125 -0.859375 C 2.875 -0.640625 2.5625 -0.53125 2.234375 -0.53125 C 1.875 -0.53125 1.734375 -0.828125 1.734375 -1.34375 Z M 1.734375 -3.828125 "/>
</symbol>
<symbol overflow="visible" id="glyph1-4">
<path style="stroke:none;" d="M 4.09375 -2.171875 C 4.09375 -2.5 4.09375 -3.25 3.703125 -3.84375 C 3.296875 -4.453125 2.6875 -4.5625 2.34375 -4.5625 C 1.234375 -4.5625 0.34375 -3.515625 0.34375 -2.234375 C 0.34375 -0.9375 1.296875 0.109375 2.484375 0.109375 C 3.109375 0.109375 3.671875 -0.125 4.0625 -0.40625 L 4 -1.046875 C 3.375 -0.53125 2.71875 -0.5 2.5 -0.5 C 1.703125 -0.5 1.0625 -1.203125 1.046875 -2.171875 Z M 1.09375 -2.71875 C 1.25 -3.46875 1.765625 -3.96875 2.34375 -3.96875 C 2.859375 -3.96875 3.40625 -3.625 3.53125 -2.71875 Z M 1.09375 -2.71875 "/>
</symbol>
<symbol overflow="visible" id="glyph1-5">
<path style="stroke:none;" d="M 2.96875 -6.71875 L 2.765625 -6.71875 C 2.171875 -6.109375 1.359375 -6.078125 0.875 -6.0625 L 0.875 -5.484375 C 1.203125 -5.5 1.6875 -5.515625 2.171875 -5.71875 L 2.171875 -0.578125 L 0.9375 -0.578125 L 0.9375 0 L 4.203125 0 L 4.203125 -0.578125 L 2.96875 -0.578125 Z M 2.96875 -6.71875 "/>
</symbol>
<symbol overflow="visible" id="glyph1-6">
<path style="stroke:none;" d="M 4.53125 -3.234375 C 4.53125 -4.015625 4.484375 -4.9375 4.078125 -5.734375 C 3.671875 -6.484375 2.984375 -6.71875 2.484375 -6.71875 C 1.890625 -6.71875 1.203125 -6.453125 0.796875 -5.5625 C 0.46875 -4.84375 0.421875 -4.015625 0.421875 -3.234375 C 0.421875 -2.453125 0.453125 -1.71875 0.75 -1 C 1.15625 -0.046875 1.90625 0.21875 2.46875 0.21875 C 3.1875 0.21875 3.8125 -0.1875 4.125 -0.875 C 4.421875 -1.515625 4.53125 -2.171875 4.53125 -3.234375 Z M 2.484375 -0.390625 C 1.96875 -0.390625 1.5625 -0.765625 1.359375 -1.46875 C 1.203125 -2.046875 1.1875 -2.578125 1.1875 -3.34375 C 1.1875 -3.96875 1.1875 -4.5625 1.359375 -5.109375 C 1.421875 -5.296875 1.671875 -6.109375 2.46875 -6.109375 C 3.234375 -6.109375 3.5 -5.359375 3.5625 -5.1875 C 3.75 -4.625 3.75 -3.96875 3.75 -3.34375 C 3.75 -2.6875 3.75 -2.078125 3.578125 -1.453125 C 3.3125 -0.546875 2.796875 -0.390625 2.484375 -0.390625 Z M 2.484375 -0.390625 "/>
</symbol>
<symbol overflow="visible" id="glyph1-7">
<path style="stroke:none;" d="M 1.578125 -0.453125 C 1.890625 -0.171875 2.328125 0.109375 2.921875 0.109375 C 3.890625 0.109375 4.75 -0.859375 4.75 -2.203125 C 4.75 -3.390625 4.125 -4.5 3.1875 -4.5 C 2.578125 -4.5 2.015625 -4.296875 1.5625 -3.90625 L 1.5625 -4.390625 L 0.8125 -4.390625 L 0.8125 1.921875 L 1.578125 1.921875 Z M 1.578125 -3.296875 C 1.828125 -3.640625 2.203125 -3.875 2.640625 -3.875 C 3.390625 -3.875 3.984375 -3.125 3.984375 -2.203125 C 3.984375 -1.1875 3.28125 -0.5 2.53125 -0.5 C 2.15625 -0.5 1.875 -0.6875 1.6875 -0.953125 C 1.578125 -1.109375 1.578125 -1.125 1.578125 -1.3125 Z M 1.578125 -3.296875 "/>
</symbol>
<symbol overflow="visible" id="glyph1-8">
<path style="stroke:none;" d="M 1.546875 -6.875 L 0.796875 -6.875 L 0.796875 0 L 1.546875 0 Z M 1.546875 -6.875 "/>
</symbol>
<symbol overflow="visible" id="glyph1-9">
<path style="stroke:none;" d="M 6.625 -4.390625 L 5.890625 -4.390625 L 5.265625 -2.296875 C 5.15625 -1.9375 4.859375 -0.953125 4.796875 -0.53125 C 4.75 -0.84375 4.5 -1.71875 4.34375 -2.28125 L 3.6875 -4.390625 L 3 -4.390625 L 2.4375 -2.53125 C 2.328125 -2.1875 1.984375 -1.046875 1.953125 -0.546875 L 1.9375 -0.546875 C 1.890625 -1.015625 1.5625 -2.140625 1.40625 -2.6875 L 0.890625 -4.390625 L 0.140625 -4.390625 L 1.5 0 L 2.28125 0 C 2.328125 -0.15625 2.671875 -1.265625 2.890625 -2.046875 C 3.03125 -2.5 3.3125 -3.484375 3.34375 -3.84375 C 3.375 -3.5625 3.53125 -2.875 3.671875 -2.453125 L 4.390625 0 L 5.265625 0 Z M 6.625 -4.390625 "/>
</symbol>
<symbol overflow="visible" id="glyph1-10">
<path style="stroke:none;" d="M 4.421875 -4.390625 L 3.671875 -4.390625 L 2.890625 -2.34375 C 2.6875 -1.796875 2.375 -0.984375 2.296875 -0.53125 L 2.28125 -0.53125 C 2.234375 -0.875 1.96875 -1.5625 1.875 -1.828125 L 0.90625 -4.390625 L 0.140625 -4.390625 L 1.84375 0 L 2.71875 0 Z M 4.421875 -4.390625 "/>
</symbol>
<symbol overflow="visible" id="glyph1-11">
<path style="stroke:none;" d="M 1.75 -3.828125 L 2.828125 -3.828125 L 2.828125 -4.390625 L 1.71875 -4.390625 L 1.71875 -5.578125 C 1.71875 -6.3125 2.375 -6.375 2.640625 -6.375 C 2.828125 -6.375 3.09375 -6.359375 3.4375 -6.21875 L 3.4375 -6.875 C 3.3125 -6.90625 3.015625 -6.984375 2.640625 -6.984375 C 1.71875 -6.984375 1 -6.28125 1 -5.296875 L 1 -4.390625 L 0.265625 -4.390625 L 0.265625 -3.828125 L 1 -3.828125 L 1 0 L 1.75 0 Z M 1.75 -3.828125 "/>
</symbol>
<symbol overflow="visible" id="glyph1-12">
<path style="stroke:none;" d="M 1.5625 -2.125 C 1.5625 -3.109375 2.265625 -3.828125 3.234375 -3.84375 L 3.234375 -4.5 C 2.359375 -4.5 1.8125 -4.015625 1.5 -3.5625 L 1.5 -4.453125 L 0.8125 -4.453125 L 0.8125 0 L 1.5625 0 Z M 1.5625 -2.125 "/>
</symbol>
<symbol overflow="visible" id="glyph1-13">
<path style="stroke:none;" d="M 4.640625 -2.171875 C 4.640625 -3.5 3.65625 -4.5625 2.484375 -4.5625 C 1.265625 -4.5625 0.296875 -3.484375 0.296875 -2.171875 C 0.296875 -0.875 1.3125 0.109375 2.46875 0.109375 C 3.65625 0.109375 4.640625 -0.890625 4.640625 -2.171875 Z M 2.46875 -0.53125 C 1.78125 -0.53125 1.0625 -1.078125 1.0625 -2.28125 C 1.0625 -3.484375 1.828125 -3.96875 2.46875 -3.96875 C 3.15625 -3.96875 3.875 -3.453125 3.875 -2.28125 C 3.875 -1.109375 3.203125 -0.53125 2.46875 -0.53125 Z M 2.46875 -0.53125 "/>
</symbol>
<symbol overflow="visible" id="glyph1-14">
<path style="stroke:none;" d="M 7.0625 -2.953125 C 7.0625 -3.609375 6.90625 -4.5 5.703125 -4.5 C 5.109375 -4.5 4.59375 -4.234375 4.234375 -3.6875 C 3.96875 -4.453125 3.28125 -4.5 2.96875 -4.5 C 2.25 -4.5 1.78125 -4.09375 1.515625 -3.75 L 1.515625 -4.453125 L 0.796875 -4.453125 L 0.796875 0 L 1.578125 0 L 1.578125 -2.421875 C 1.578125 -3.09375 1.84375 -3.90625 2.578125 -3.90625 C 3.5 -3.90625 3.546875 -3.265625 3.546875 -2.875 L 3.546875 0 L 4.3125 0 L 4.3125 -2.421875 C 4.3125 -3.09375 4.59375 -3.90625 5.3125 -3.90625 C 6.234375 -3.90625 6.296875 -3.265625 6.296875 -2.875 L 6.296875 0 L 7.0625 0 Z M 7.0625 -2.953125 "/>
</symbol>
<symbol overflow="visible" id="glyph2-0">
<path style="stroke:none;" d="M 2.820312 0 C 2.820312 -1.558594 1.558594 -2.820312 0 -2.820312 C -1.558594 -2.820312 -2.820312 -1.558594 -2.820312 0 C -2.820312 1.558594 -1.558594 2.820312 0 2.820312 C 1.558594 2.820312 2.820312 1.558594 2.820312 0 "/>
</symbol>
</g>
<clipPath id="clip1">
  <path d="M 0.148438 18 L 43 18 L 43 59 L 0.148438 59 Z M 0.148438 18 "/>
</clipPath>
</defs>
<g id="surface1">
<path style="fill:none;stroke-width:11.3366;stroke-linecap:butt;stroke-linejoin:miter;stroke:rgb(0%,0%,0%);stroke-opacity:1;stroke-miterlimit:10;" d="M 662.011645 424.990684 C 718.723009 481.702048 775.395099 424.990684 775.395099 368.318594 " transform="matrix(0.099462,0,0,-0.099462,0.147193,169.16495)"/>
<path style="fill:none;stroke-width:11.3366;stroke-linecap:butt;stroke-linejoin:miter;stroke:rgb(95.3125%,42.747498%,1.567078%);stroke-opacity:1;stroke-miterlimit:10;" d="M 662.011645 254.93514 L 1342.351642 254.93514 " transform="matrix(0.099462,0,0,-0.099462,0.147193,169.16495)"/>
<path style="fill:none;stroke-width:11.3366;stroke-linecap:butt;stroke-linejoin:miter;stroke:rgb(0%,0%,0%);stroke-opacity:1;stroke-miterlimit:10;" d="M 945.489917 538.374138 L 1002.162006 481.702048 L 1058.87337 538.374138 " transform="matrix(0.099462,0,0,-0.099462,0.147193,169.16495)"/>
<path style=" stroke:none;fill-rule:nonzero;fill:rgb(0%,0%,100%);fill-opacity:1;" d="M 68.113281 137.445312 L 65.992188 143.808594 L 72.359375 141.6875 L 70.238281 139.566406 "/>
<path style="fill:none;stroke-width:11.3366;stroke-linecap:butt;stroke-linejoin:miter;stroke:rgb(0%,0%,100%);stroke-opacity:1;stroke-miterlimit:10;" d="M 704.702263 297.586485 L 1002.162006 595.085502 " transform="matrix(0.099462,0,0,-0.099462,0.147193,169.16495)"/>
<path style="fill:none;stroke-width:11.3366;stroke-linecap:butt;stroke-linejoin:miter;stroke:rgb(0%,0%,0%);stroke-opacity:1;stroke-miterlimit:10;" d="M 662.011645 198.223777 L 662.011645 84.840323 " transform="matrix(0.099462,0,0,-0.099462,0.147193,169.16495)"/>
<path style="fill:none;stroke-width:11.3366;stroke-linecap:butt;stroke-linejoin:miter;stroke:rgb(0%,0%,0%);stroke-opacity:1;stroke-miterlimit:10;" d="M 662.011645 141.551687 L 888.778553 141.551687 " transform="matrix(0.099462,0,0,-0.099462,0.147193,169.16495)"/>
<path style="fill:none;stroke-width:11.3366;stroke-linecap:butt;stroke-linejoin:miter;stroke:rgb(0%,0%,0%);stroke-opacity:1;stroke-miterlimit:10;" d="M 1342.351642 198.223777 L 1342.351642 84.840323 " transform="matrix(0.099462,0,0,-0.099462,0.147193,169.16495)"/>
<path style="fill:none;stroke-width:11.3366;stroke-linecap:butt;stroke-linejoin:miter;stroke:rgb(0%,0%,0%);stroke-opacity:1;stroke-miterlimit:10;" d="M 1115.584734 141.551687 L 1342.351642 141.551687 " transform="matrix(0.099462,0,0,-0.099462,0.147193,169.16495)"/>
<g style="fill:rgb(0%,0%,0%);fill-opacity:1;">
  <use xlink:href="#glyph0-1" x="97.199914" y="158.429222"/>
</g>
<g style="fill:rgb(0%,0%,0%);fill-opacity:1;">
  <use xlink:href="#glyph1-1" x="13.657712" y="147.03227"/>
</g>
<g style="fill:rgb(0%,0%,0%);fill-opacity:1;">
  <use xlink:href="#glyph1-2" x="18.431886" y="147.03227"/>
</g>
<g style="fill:rgb(0%,0%,0%);fill-opacity:1;">
  <use xlink:href="#glyph1-3" x="23.564124" y="147.03227"/>
</g>
<g style="fill:rgb(0%,0%,0%);fill-opacity:1;">
  <use xlink:href="#glyph1-4" x="27.144753" y="147.03227"/>
</g>
<g style="fill:rgb(0%,0%,0%);fill-opacity:1;">
  <use xlink:href="#glyph1-2" x="31.560864" y="147.03227"/>
</g>
<g style="fill:rgb(0%,0%,0%);fill-opacity:1;">
  <use xlink:href="#glyph1-2" x="36.693103" y="147.03227"/>
</g>
<g style="fill:rgb(0%,0%,0%);fill-opacity:1;">
  <use xlink:href="#glyph1-1" x="41.825342" y="147.03227"/>
</g>
<g style="fill:rgb(0%,0%,0%);fill-opacity:1;">
  <use xlink:href="#glyph1-5" x="49.822244" y="147.03227"/>
</g>
<g style="fill:rgb(0%,0%,0%);fill-opacity:1;">
  <use xlink:href="#glyph1-1" x="144.936244" y="147.03227"/>
</g>
<g style="fill:rgb(0%,0%,0%);fill-opacity:1;">
  <use xlink:href="#glyph1-2" x="149.710418" y="147.03227"/>
</g>
<g style="fill:rgb(0%,0%,0%);fill-opacity:1;">
  <use xlink:href="#glyph1-3" x="154.842654" y="147.03227"/>
</g>
<g style="fill:rgb(0%,0%,0%);fill-opacity:1;">
  <use xlink:href="#glyph1-4" x="158.42329" y="147.03227"/>
</g>
<g style="fill:rgb(0%,0%,0%);fill-opacity:1;">
  <use xlink:href="#glyph1-2" x="162.839404" y="147.03227"/>
</g>
<g style="fill:rgb(0%,0%,0%);fill-opacity:1;">
  <use xlink:href="#glyph1-2" x="167.97164" y="147.03227"/>
</g>
<g style="fill:rgb(0%,0%,0%);fill-opacity:1;">
  <use xlink:href="#glyph1-1" x="173.103875" y="147.03227"/>
</g>
<g style="fill:rgb(0%,0%,0%);fill-opacity:1;">
  <use xlink:href="#glyph1-6" x="181.100778" y="147.03227"/>
</g>
<path style=" stroke:none;fill-rule:nonzero;fill:rgb(100%,0%,0%);fill-opacity:1;" d="M 90.671875 92.332031 L 88.546875 98.699219 L 94.914062 96.578125 L 92.792969 94.453125 "/>
<path style="fill:none;stroke-width:11.3366;stroke-linecap:butt;stroke-linejoin:miter;stroke:rgb(100%,0%,0%);stroke-opacity:1;stroke-miterlimit:10;" d="M 931.469171 751.159573 L 1285.640278 1105.33068 " transform="matrix(0.099462,0,0,-0.099462,0.147193,169.16495)"/>
<path style=" stroke:none;fill-rule:nonzero;fill:rgb(100%,0%,0%);fill-opacity:1;" d="M 101.949219 103.609375 L 99.824219 109.976562 L 106.191406 107.855469 L 104.070312 105.734375 "/>
<path style="fill:none;stroke-width:11.3366;stroke-linecap:butt;stroke-linejoin:miter;stroke:rgb(100%,0%,0%);stroke-opacity:1;stroke-miterlimit:10;" d="M 1044.852625 637.736846 L 1399.023731 991.947227 " transform="matrix(0.099462,0,0,-0.099462,0.147193,169.16495)"/>
<path style=" stroke:none;fill-rule:nonzero;fill:rgb(100%,0%,0%);fill-opacity:1;" d="M 113.226562 114.886719 L 111.105469 121.253906 L 117.46875 119.132812 L 115.347656 117.011719 "/>
<path style="fill:none;stroke-width:11.3366;stroke-linecap:butt;stroke-linejoin:miter;stroke:rgb(100%,0%,0%);stroke-opacity:1;stroke-miterlimit:10;" d="M 1158.236078 524.353392 L 1512.407185 878.563773 " transform="matrix(0.099462,0,0,-0.099462,0.147193,169.16495)"/>
<path style=" stroke:none;fill-rule:nonzero;fill:rgb(100%,0%,0%);fill-opacity:1;" d="M 124.503906 126.164062 L 122.382812 132.53125 L 128.746094 130.410156 L 126.625 128.289062 "/>
<path style="fill:none;stroke-width:11.3366;stroke-linecap:butt;stroke-linejoin:miter;stroke:rgb(100%,0%,0%);stroke-opacity:1;stroke-miterlimit:10;" d="M 1271.619532 410.969938 L 1625.790639 765.141045 " transform="matrix(0.099462,0,0,-0.099462,0.147193,169.16495)"/>
<path style=" stroke:none;fill-rule:nonzero;fill:rgb(100%,0%,0%);fill-opacity:1;" d="M 135.78125 137.445312 L 133.660156 143.808594 L 140.023438 141.6875 L 137.902344 139.566406 "/>
<path style="fill:none;stroke-width:11.3366;stroke-linecap:butt;stroke-linejoin:miter;stroke:rgb(100%,0%,0%);stroke-opacity:1;stroke-miterlimit:10;" d="M 1385.002986 297.586485 L 1739.174093 651.757592 " transform="matrix(0.099462,0,0,-0.099462,0.147193,169.16495)"/>
<path style="fill:none;stroke-width:11.3366;stroke-linecap:butt;stroke-linejoin:miter;stroke:rgb(100%,0%,0%);stroke-opacity:1;stroke-miterlimit:10;" d="M 1399.023731 198.223777 L 605.339555 991.947227 " transform="matrix(0.099462,0,0,-0.099462,0.147193,169.16495)"/>
<path style="fill:none;stroke-width:11.3366;stroke-linecap:butt;stroke-linejoin:miter;stroke:rgb(100%,100%,100%);stroke-opacity:1;stroke-miterlimit:10;" d="M 44.077713 850.208091 L 44.077713 33.82366 L 2187.052481 33.82366 L 2187.052481 1666.592522 L 44.077713 1666.592522 Z M 44.077713 850.208091 " transform="matrix(0.099462,0,0,-0.099462,0.147193,169.16495)"/>
<g style="fill:rgb(0%,0%,0%);fill-opacity:1;">
  <use xlink:href="#glyph0-2" x="12.618035" y="15.311178"/>
</g>
<g style="fill:rgb(0%,0%,0%);fill-opacity:1;">
  <use xlink:href="#glyph2-0" x="66.04076" y="143.851874"/>
</g>
<g style="fill:rgb(0%,0%,0%);fill-opacity:1;">
  <use xlink:href="#glyph2-0" x="133.6747" y="143.851874"/>
</g>
<path style=" stroke:none;fill-rule:nonzero;fill:rgb(100%,0%,0%);fill-opacity:1;" d="M 68.113281 69.777344 L 65.992188 76.144531 L 72.359375 74.023438 L 70.238281 71.898438 "/>
<path style="fill:none;stroke-width:11.3366;stroke-linecap:butt;stroke-linejoin:miter;stroke:rgb(100%,0%,0%);stroke-opacity:1;stroke-miterlimit:10;" d="M 704.702263 977.926481 L 1058.87337 1332.097588 " transform="matrix(0.099462,0,0,-0.099462,0.147193,169.16495)"/>
<g style="fill:rgb(0%,0%,0%);fill-opacity:1;">
  <use xlink:href="#glyph0-3" x="24.015385" y="28.736558"/>
</g>
<g style="fill:rgb(100%,0%,0%);fill-opacity:1;">
  <use xlink:href="#glyph1-7" x="144.814655" y="55.976212"/>
</g>
<g style="fill:rgb(100%,0%,0%);fill-opacity:1;">
  <use xlink:href="#glyph1-8" x="149.946891" y="55.976212"/>
</g>
<g style="fill:rgb(100%,0%,0%);fill-opacity:1;">
  <use xlink:href="#glyph1-1" x="152.333981" y="55.976212"/>
</g>
<g style="fill:rgb(100%,0%,0%);fill-opacity:1;">
  <use xlink:href="#glyph1-2" x="157.108156" y="55.976212"/>
</g>
<g style="fill:rgb(100%,0%,0%);fill-opacity:1;">
  <use xlink:href="#glyph1-4" x="162.240391" y="55.976212"/>
</g>
<g style="fill:rgb(100%,0%,0%);fill-opacity:1;">
  <use xlink:href="#glyph1-9" x="169.998357" y="55.976212"/>
</g>
<g style="fill:rgb(100%,0%,0%);fill-opacity:1;">
  <use xlink:href="#glyph1-1" x="176.562851" y="55.976212"/>
</g>
<g style="fill:rgb(100%,0%,0%);fill-opacity:1;">
  <use xlink:href="#glyph1-10" x="181.337026" y="55.976212"/>
</g>
<g style="fill:rgb(100%,0%,0%);fill-opacity:1;">
  <use xlink:href="#glyph1-4" x="185.872494" y="55.976212"/>
</g>
<path style=" stroke:none;fill-rule:nonzero;fill:rgb(100%,0%,0%);fill-opacity:1;" d="M 79.394531 81.054688 L 77.269531 87.421875 L 83.636719 85.300781 L 81.515625 83.179688 "/>
<path style="fill:none;stroke-width:11.3366;stroke-linecap:butt;stroke-linejoin:miter;stroke:rgb(100%,0%,0%);stroke-opacity:1;stroke-miterlimit:10;" d="M 818.085717 864.503753 L 1172.256824 1218.714134 " transform="matrix(0.099462,0,0,-0.099462,0.147193,169.16495)"/>
<path style=" stroke:none;fill-rule:nonzero;fill:rgb(0%,0%,0%);fill-opacity:1;" d="M 18.246094 25.757812 L 15.242188 19.757812 L 12.242188 25.757812 L 15.242188 25.757812 "/>
<path style="fill:none;stroke-width:11.3366;stroke-linecap:butt;stroke-linejoin:miter;stroke:rgb(0%,0%,0%);stroke-opacity:1;stroke-miterlimit:10;" d="M 151.766467 1105.33068 L 151.766467 1441.828578 " transform="matrix(0.099462,0,0,-0.099462,0.147193,169.16495)"/>
<g clip-path="url(#clip1)" clip-rule="nonzero">
<path style="fill:none;stroke-width:11.3366;stroke-linecap:butt;stroke-linejoin:miter;stroke:rgb(0%,0%,0%);stroke-opacity:1;stroke-miterlimit:10;" d="M 151.766467 1332.097588 C 208.47783 1388.769678 265.189194 1332.097588 265.189194 1275.386224 " transform="matrix(0.099462,0,0,-0.099462,0.147193,169.16495)"/>
</g>
<path style=" stroke:none;fill-rule:nonzero;fill:rgb(0%,0%,0%);fill-opacity:1;" d="M 37.4375 56.589844 L 43.4375 53.589844 L 37.4375 50.585938 L 37.4375 53.589844 "/>
<path style="fill:none;stroke-width:11.3366;stroke-linecap:butt;stroke-linejoin:miter;stroke:rgb(0%,0%,0%);stroke-opacity:1;stroke-miterlimit:10;" d="M 95.094377 1162.00277 L 374.920185 1162.00277 " transform="matrix(0.099462,0,0,-0.099462,0.147193,169.16495)"/>
<path style=" stroke:none;fill-rule:nonzero;fill:rgb(100%,0%,0%);fill-opacity:1;" d="M 17.367188 47.222656 L 15.242188 53.589844 L 21.609375 51.464844 L 19.488281 49.34375 "/>
<path style="fill:none;stroke-width:11.3366;stroke-linecap:butt;stroke-linejoin:miter;stroke:rgb(100%,0%,0%);stroke-opacity:1;stroke-miterlimit:10;" d="M 194.457085 1204.693388 L 435.244738 1445.481042 " transform="matrix(0.099462,0,0,-0.099462,0.147193,169.16495)"/>
<g style="fill:rgb(0%,0%,0%);fill-opacity:1;">
  <use xlink:href="#glyph0-4" x="46.212516" y="55.737504"/>
</g>
<g style="fill:rgb(100%,0%,0%);fill-opacity:1;">
  <use xlink:href="#glyph1-11" x="153.766234" y="68.209042"/>
</g>
<g style="fill:rgb(100%,0%,0%);fill-opacity:1;">
  <use xlink:href="#glyph1-12" x="156.750088" y="68.209042"/>
</g>
<g style="fill:rgb(100%,0%,0%);fill-opacity:1;">
  <use xlink:href="#glyph1-13" x="160.092003" y="68.209042"/>
</g>
<g style="fill:rgb(100%,0%,0%);fill-opacity:1;">
  <use xlink:href="#glyph1-14" x="165.104886" y="68.209042"/>
</g>
<g style="fill:rgb(100%,0%,0%);fill-opacity:1;">
  <use xlink:href="#glyph0-3" x="176.324312" y="68.209042"/>
</g>
<g style="fill:rgb(0%,0%,0%);fill-opacity:1;">
  <use xlink:href="#glyph0-3" x="74.764671" y="121.254607"/>
</g>
<path style=" stroke:none;fill-rule:nonzero;fill:rgb(0%,0%,0%);fill-opacity:1;" d="M 68.996094 115.980469 L 65.992188 109.976562 L 62.992188 115.980469 L 65.992188 115.980469 "/>
<path style="fill:none;stroke-width:11.3366;stroke-linecap:butt;stroke-linejoin:miter;stroke:rgb(0%,0%,0%);stroke-opacity:1;stroke-miterlimit:10;" d="M 662.011645 254.93514 L 662.011645 534.721675 " transform="matrix(0.099462,0,0,-0.099462,0.147193,169.16495)"/>
<g style="fill:rgb(0%,0%,0%);fill-opacity:1;">
  <use xlink:href="#glyph0-3" x="116.742503" y="141.512528"/>
</g>
<g style="fill:rgb(0%,0%,0%);fill-opacity:1;">
  <use xlink:href="#glyph0-5" x="86.161423" y="131.07061"/>
</g>
</g>
</svg>
