<?xml version="1.0" encoding="UTF-8"?>
<svg xmlns="http://www.w3.org/2000/svg" xmlns:xlink="http://www.w3.org/1999/xlink" width="215.43pt" height="153.78pt" viewBox="0 0 215.43 153.78" version="1.2">
<defs>
<g>
<symbol overflow="visible" id="glyph0-0">
<path style="stroke:none;" d=""/>
</symbol>
<symbol overflow="visible" id="glyph0-1">
<path style="stroke:none;" d="M 6.78125 -5.84375 C 6.328125 -5.75 6.15625 -5.40625 6.15625 -5.140625 C 6.15625 -4.796875 6.421875 -4.6875 6.625 -4.6875 C 7.0625 -4.6875 7.359375 -5.046875 7.359375 -5.4375 C 7.359375 -6.046875 6.671875 -6.3125 6.0625 -6.3125 C 5.203125 -6.3125 4.703125 -5.453125 4.578125 -5.1875 C 4.25 -6.25 3.359375 -6.3125 3.109375 -6.3125 C 1.640625 -6.3125 0.875 -4.4375 0.875 -4.125 C 0.875 -4.0625 0.9375 -4 1.03125 -4 C 1.140625 -4 1.171875 -4.078125 1.203125 -4.140625 C 1.6875 -5.71875 2.640625 -6.03125 3.0625 -6.03125 C 3.703125 -6.03125 3.828125 -5.421875 3.828125 -5.078125 C 3.828125 -4.765625 3.75 -4.4375 3.578125 -3.75 L 3.09375 -1.796875 C 2.875 -0.9375 2.46875 -0.140625 1.703125 -0.140625 C 1.625 -0.140625 1.28125 -0.140625 0.96875 -0.328125 C 1.484375 -0.421875 1.609375 -0.859375 1.609375 -1.03125 C 1.609375 -1.3125 1.390625 -1.484375 1.109375 -1.484375 C 0.765625 -1.484375 0.40625 -1.1875 0.40625 -0.734375 C 0.40625 -0.125 1.078125 0.140625 1.6875 0.140625 C 2.375 0.140625 2.859375 -0.40625 3.15625 -0.984375 C 3.390625 -0.140625 4.109375 0.140625 4.640625 0.140625 C 6.09375 0.140625 6.875 -1.734375 6.875 -2.046875 C 6.875 -2.125 6.8125 -2.171875 6.734375 -2.171875 C 6.59375 -2.171875 6.578125 -2.109375 6.546875 -1.984375 C 6.15625 -0.734375 5.328125 -0.140625 4.6875 -0.140625 C 4.171875 -0.140625 3.90625 -0.515625 3.90625 -1.109375 C 3.90625 -1.421875 3.96875 -1.640625 4.1875 -2.59375 L 4.6875 -4.53125 C 4.90625 -5.390625 5.390625 -6.03125 6.046875 -6.03125 C 6.078125 -6.03125 6.484375 -6.03125 6.78125 -5.84375 Z M 6.78125 -5.84375 "/>
</symbol>
<symbol overflow="visible" id="glyph0-2">
<path style="stroke:none;" d="M 3.765625 1.609375 C 3.375 2.140625 2.8125 2.640625 2.125 2.640625 C 1.953125 2.640625 1.265625 2.609375 1.046875 1.953125 C 1.09375 1.953125 1.15625 1.953125 1.1875 1.953125 C 1.625 1.953125 1.90625 1.59375 1.90625 1.265625 C 1.90625 0.9375 1.625 0.8125 1.421875 0.8125 C 1.1875 0.8125 0.6875 0.984375 0.6875 1.6875 C 0.6875 2.421875 1.296875 2.921875 2.125 2.921875 C 3.546875 2.921875 5 1.609375 5.390625 0.015625 L 6.796875 -5.5625 C 6.8125 -5.640625 6.84375 -5.71875 6.84375 -5.8125 C 6.84375 -6.03125 6.671875 -6.171875 6.453125 -6.171875 C 6.328125 -6.171875 6.03125 -6.109375 5.90625 -5.6875 L 4.859375 -1.46875 C 4.78125 -1.21875 4.78125 -1.1875 4.671875 -1.03125 C 4.375 -0.625 3.90625 -0.140625 3.21875 -0.140625 C 2.421875 -0.140625 2.34375 -0.9375 2.34375 -1.3125 C 2.34375 -2.125 2.734375 -3.234375 3.125 -4.265625 C 3.28125 -4.6875 3.359375 -4.875 3.359375 -5.171875 C 3.359375 -5.765625 2.9375 -6.3125 2.234375 -6.3125 C 0.921875 -6.3125 0.390625 -4.234375 0.390625 -4.125 C 0.390625 -4.0625 0.4375 -4 0.546875 -4 C 0.671875 -4 0.6875 -4.046875 0.75 -4.25 C 1.09375 -5.453125 1.625 -6.03125 2.1875 -6.03125 C 2.3125 -6.03125 2.5625 -6.03125 2.5625 -5.546875 C 2.5625 -5.1875 2.40625 -4.765625 2.1875 -4.21875 C 1.484375 -2.34375 1.484375 -1.875 1.484375 -1.53125 C 1.484375 -0.171875 2.46875 0.140625 3.171875 0.140625 C 3.59375 0.140625 4.109375 0.015625 4.609375 -0.515625 L 4.625 -0.5 C 4.40625 0.34375 4.265625 0.90625 3.765625 1.609375 Z M 3.765625 1.609375 "/>
</symbol>
<symbol overflow="visible" id="glyph0-3">
<path style="stroke:none;" d="M 1.8125 -1.15625 C 2.4375 -1.859375 2.9375 -2.296875 3.65625 -2.953125 C 4.515625 -3.6875 4.875 -4.046875 5.078125 -4.265625 C 6.078125 -5.25 6.578125 -6.078125 6.578125 -6.203125 C 6.578125 -6.3125 6.46875 -6.3125 6.4375 -6.3125 C 6.34375 -6.3125 6.3125 -6.25 6.234375 -6.15625 C 5.875 -5.53125 5.53125 -5.234375 5.171875 -5.234375 C 4.859375 -5.234375 4.703125 -5.375 4.4375 -5.703125 C 4.140625 -6.0625 3.890625 -6.3125 3.484375 -6.3125 C 2.4375 -6.3125 1.796875 -5.015625 1.796875 -4.703125 C 1.796875 -4.671875 1.8125 -4.578125 1.953125 -4.578125 C 2.0625 -4.578125 2.078125 -4.640625 2.125 -4.734375 C 2.359375 -5.3125 3.046875 -5.40625 3.328125 -5.40625 C 3.625 -5.40625 3.90625 -5.3125 4.203125 -5.1875 C 4.75 -4.953125 4.984375 -4.953125 5.125 -4.953125 C 5.21875 -4.953125 5.28125 -4.953125 5.359375 -4.96875 C 4.875 -4.40625 4.109375 -3.71875 3.46875 -3.140625 L 2.015625 -1.796875 C 1.140625 -0.921875 0.609375 -0.078125 0.609375 0.03125 C 0.609375 0.109375 0.6875 0.140625 0.765625 0.140625 C 0.859375 0.140625 0.875 0.125 0.96875 -0.046875 C 1.203125 -0.40625 1.65625 -0.9375 2.1875 -0.9375 C 2.484375 -0.9375 2.640625 -0.828125 2.921875 -0.46875 C 3.1875 -0.15625 3.4375 0.140625 3.890625 0.140625 C 5.296875 0.140625 6.09375 -1.671875 6.09375 -2 C 6.09375 -2.0625 6.078125 -2.140625 5.9375 -2.140625 C 5.828125 -2.140625 5.8125 -2.09375 5.765625 -1.953125 C 5.453125 -1.109375 4.609375 -0.765625 4.046875 -0.765625 C 3.75 -0.765625 3.46875 -0.859375 3.15625 -0.984375 C 2.59375 -1.21875 2.4375 -1.21875 2.25 -1.21875 C 2.109375 -1.21875 1.953125 -1.21875 1.8125 -1.15625 Z M 1.8125 -1.15625 "/>
</symbol>
<symbol overflow="visible" id="glyph0-4">
<path style="stroke:none;" d="M 6.15625 -9.796875 C 6.15625 -9.9375 6.046875 -9.9375 6.015625 -9.9375 C 5.875 -9.9375 5.875 -9.90625 5.8125 -9.65625 L 5.03125 -6.578125 C 5 -6.390625 4.984375 -6.390625 4.96875 -6.375 C 4.953125 -6.34375 4.859375 -6.328125 4.828125 -6.328125 C 2.46875 -6.125 0.671875 -4.1875 0.671875 -2.40625 C 0.671875 -0.859375 1.859375 0.078125 3.34375 0.171875 C 3.234375 0.609375 3.140625 1.078125 3.015625 1.515625 C 2.8125 2.28125 2.703125 2.75 2.703125 2.8125 C 2.703125 2.828125 2.703125 2.921875 2.84375 2.921875 C 2.890625 2.921875 2.953125 2.921875 2.984375 2.859375 C 3 2.828125 3.09375 2.484375 3.15625 2.296875 L 3.671875 0.171875 C 6.125 0.046875 7.984375 -1.953125 7.984375 -3.765625 C 7.984375 -5.203125 6.90625 -6.234375 5.3125 -6.34375 Z M 5.21875 -6.046875 C 6.171875 -6 7.109375 -5.46875 7.109375 -4.0625 C 7.109375 -2.453125 5.984375 -0.296875 3.75 -0.125 Z M 3.421875 -0.109375 C 2.71875 -0.15625 1.546875 -0.53125 1.546875 -2.109375 C 1.546875 -3.90625 2.84375 -5.90625 4.90625 -6.046875 Z M 3.421875 -0.109375 "/>
</symbol>
<symbol overflow="visible" id="glyph0-5">
<path style="stroke:none;" d="M 6.34375 -7.203125 C 6.34375 -8.65625 5.875 -10.078125 4.703125 -10.078125 C 2.703125 -10.078125 0.578125 -5.875 0.578125 -2.734375 C 0.578125 -2.078125 0.71875 0.140625 2.21875 0.140625 C 4.171875 0.140625 6.34375 -3.953125 6.34375 -7.203125 Z M 2 -5.1875 C 2.21875 -6.03125 2.515625 -7.234375 3.09375 -8.25 C 3.5625 -9.109375 4.0625 -9.796875 4.6875 -9.796875 C 5.171875 -9.796875 5.484375 -9.390625 5.484375 -8.015625 C 5.484375 -7.5 5.4375 -6.78125 5.03125 -5.1875 Z M 4.921875 -4.75 C 4.5625 -3.34375 4.265625 -2.453125 3.75 -1.546875 C 3.328125 -0.8125 2.828125 -0.140625 2.234375 -0.140625 C 1.796875 -0.140625 1.4375 -0.484375 1.4375 -1.90625 C 1.4375 -2.828125 1.65625 -3.8125 1.890625 -4.75 Z M 4.921875 -4.75 "/>
</symbol>
<symbol overflow="visible" id="glyph0-6">
<path style="stroke:none;" d="M 2.796875 0.0625 C 2.796875 -0.765625 2.515625 -1.390625 1.9375 -1.390625 C 1.46875 -1.390625 1.25 -1.015625 1.25 -0.703125 C 1.25 -0.390625 1.453125 0 1.953125 0 C 2.125 0 2.296875 -0.0625 2.421875 -0.1875 C 2.453125 -0.21875 2.46875 -0.21875 2.46875 -0.21875 C 2.5 -0.21875 2.5 -0.015625 2.5 0.0625 C 2.5 0.53125 2.421875 1.453125 1.59375 2.390625 C 1.4375 2.5625 1.4375 2.59375 1.4375 2.625 C 1.4375 2.6875 1.5 2.765625 1.578125 2.765625 C 1.6875 2.765625 2.796875 1.703125 2.796875 0.0625 Z M 2.796875 0.0625 "/>
</symbol>
<symbol overflow="visible" id="glyph1-0">
<path style="stroke:none;" d=""/>
</symbol>
<symbol overflow="visible" id="glyph1-1">
<path style="stroke:none;" d="M 4.65625 3.484375 C 4.65625 3.4375 4.65625 3.40625 4.40625 3.15625 C 2.984375 1.71875 2.171875 -0.640625 2.171875 -3.5625 C 2.171875 -6.34375 2.84375 -8.734375 4.515625 -10.421875 C 4.65625 -10.546875 4.65625 -10.578125 4.65625 -10.625 C 4.65625 -10.703125 4.578125 -10.734375 4.515625 -10.734375 C 4.34375 -10.734375 3.15625 -9.703125 2.46875 -8.296875 C 1.734375 -6.859375 1.40625 -5.328125 1.40625 -3.5625 C 1.40625 -2.296875 1.609375 -0.59375 2.34375 0.9375 C 3.1875 2.65625 4.359375 3.59375 4.515625 3.59375 C 4.578125 3.59375 4.65625 3.5625 4.65625 3.484375 Z M 4.65625 3.484375 "/>
</symbol>
<symbol overflow="visible" id="glyph1-2">
<path style="stroke:none;" d="M 4.03125 -3.5625 C 4.03125 -4.65625 3.890625 -6.421875 3.09375 -8.09375 C 2.25 -9.796875 1.078125 -10.734375 0.921875 -10.734375 C 0.859375 -10.734375 0.78125 -10.703125 0.78125 -10.625 C 0.78125 -10.578125 0.78125 -10.546875 1.03125 -10.3125 C 2.46875 -8.859375 3.265625 -6.5 3.265625 -3.578125 C 3.265625 -0.796875 2.59375 1.59375 0.9375 3.28125 C 0.78125 3.40625 0.78125 3.4375 0.78125 3.484375 C 0.78125 3.5625 0.859375 3.59375 0.921875 3.59375 C 1.109375 3.59375 2.28125 2.5625 2.984375 1.15625 C 3.703125 -0.296875 4.03125 -1.84375 4.03125 -3.5625 Z M 4.03125 -3.5625 "/>
</symbol>
<symbol overflow="visible" id="glyph2-0">
<path style="stroke:none;" d=""/>
</symbol>
<symbol overflow="visible" id="glyph2-1">
<path style="stroke:none;" d="M 3.96875 -2.875 C 3.96875 -3.890625 3.234375 -4.578125 2.328125 -4.578125 C 1.671875 -4.578125 1.234375 -4.421875 0.765625 -4.15625 L 0.828125 -3.5 C 1.34375 -3.859375 1.84375 -4 2.328125 -4 C 2.796875 -4 3.1875 -3.59375 3.1875 -2.859375 L 3.1875 -2.4375 C 1.703125 -2.421875 0.4375 -2 0.4375 -1.125 C 0.4375 -0.703125 0.703125 0.109375 1.5625 0.109375 C 1.703125 0.109375 2.640625 0.09375 3.21875 -0.359375 L 3.21875 0 L 3.96875 0 Z M 3.1875 -1.3125 C 3.1875 -1.125 3.1875 -0.875 2.859375 -0.6875 C 2.5625 -0.5 2.1875 -0.5 2.078125 -0.5 C 1.59375 -0.5 1.15625 -0.71875 1.15625 -1.140625 C 1.15625 -1.84375 2.765625 -1.90625 3.1875 -1.921875 Z M 3.1875 -1.3125 "/>
</symbol>
<symbol overflow="visible" id="glyph2-2">
<path style="stroke:none;" d="M 3.96875 -4.03125 L 3.96875 -4.40625 L 0.421875 -4.40625 L 0.421875 -3.828125 L 1.796875 -3.828125 C 1.921875 -3.828125 2.03125 -3.828125 2.15625 -3.828125 L 2.9375 -3.828125 L 0.28125 -0.40625 L 0.28125 0 L 4 0 L 4 -0.609375 L 2.53125 -0.609375 C 2.421875 -0.609375 2.296875 -0.609375 2.171875 -0.609375 L 1.328125 -0.609375 Z M 3.96875 -4.03125 "/>
</symbol>
<symbol overflow="visible" id="glyph2-3">
<path style="stroke:none;" d="M 1.625 -6.75 L 0.734375 -6.75 L 0.734375 -5.875 L 1.625 -5.875 Z M 1.546875 -4.40625 L 0.8125 -4.40625 L 0.8125 0 L 1.546875 0 Z M 1.546875 -4.40625 "/>
</symbol>
<symbol overflow="visible" id="glyph2-4">
<path style="stroke:none;" d="M 7.078125 -2.96875 C 7.078125 -3.625 6.921875 -4.515625 5.71875 -4.515625 C 5.125 -4.515625 4.609375 -4.25 4.25 -3.703125 C 3.984375 -4.46875 3.296875 -4.515625 2.96875 -4.515625 C 2.25 -4.515625 1.78125 -4.109375 1.515625 -3.75 L 1.515625 -4.46875 L 0.8125 -4.46875 L 0.8125 0 L 1.578125 0 L 1.578125 -2.4375 C 1.578125 -3.109375 1.84375 -3.921875 2.578125 -3.921875 C 3.515625 -3.921875 3.5625 -3.265625 3.5625 -2.890625 L 3.5625 0 L 4.328125 0 L 4.328125 -2.4375 C 4.328125 -3.109375 4.59375 -3.921875 5.34375 -3.921875 C 6.265625 -3.921875 6.3125 -3.265625 6.3125 -2.890625 L 6.3125 0 L 7.078125 0 Z M 7.078125 -2.96875 "/>
</symbol>
<symbol overflow="visible" id="glyph2-5">
<path style="stroke:none;" d="M 4.328125 -4.40625 L 3.546875 -4.40625 L 3.546875 -1.53125 C 3.546875 -0.78125 2.984375 -0.4375 2.359375 -0.4375 C 1.65625 -0.4375 1.578125 -0.703125 1.578125 -1.125 L 1.578125 -4.40625 L 0.8125 -4.40625 L 0.8125 -1.078125 C 0.8125 -0.375 1.03125 0.109375 1.859375 0.109375 C 2.390625 0.109375 3.09375 -0.046875 3.578125 -0.484375 L 3.578125 0 L 4.328125 0 Z M 4.328125 -4.40625 "/>
</symbol>
<symbol overflow="visible" id="glyph2-6">
<path style="stroke:none;" d="M 1.734375 -3.828125 L 3.140625 -3.828125 L 3.140625 -4.40625 L 1.734375 -4.40625 L 1.734375 -5.671875 L 1.046875 -5.671875 L 1.046875 -4.40625 L 0.1875 -4.40625 L 0.1875 -3.828125 L 1.03125 -3.828125 L 1.03125 -1.1875 C 1.03125 -0.59375 1.15625 0.109375 1.84375 0.109375 C 2.546875 0.109375 3.046875 -0.140625 3.296875 -0.265625 L 3.140625 -0.859375 C 2.875 -0.640625 2.5625 -0.53125 2.25 -0.53125 C 1.875 -0.53125 1.734375 -0.828125 1.734375 -1.34375 Z M 1.734375 -3.828125 "/>
</symbol>
<symbol overflow="visible" id="glyph2-7">
<path style="stroke:none;" d="M 4.328125 -2.96875 C 4.328125 -3.625 4.171875 -4.515625 2.96875 -4.515625 C 2.34375 -4.515625 1.875 -4.21875 1.546875 -3.8125 L 1.546875 -6.890625 L 0.8125 -6.890625 L 0.8125 0 L 1.578125 0 L 1.578125 -2.4375 C 1.578125 -3.09375 1.828125 -3.921875 2.578125 -3.921875 C 3.53125 -3.921875 3.546875 -3.203125 3.546875 -2.890625 L 3.546875 0 L 4.328125 0 Z M 4.328125 -2.96875 "/>
</symbol>
<symbol overflow="visible" id="glyph2-8">
<path style="stroke:none;" d="M 2.75 -1.921875 L 2.75 -2.5 L 0.109375 -2.5 L 0.109375 -1.921875 Z M 2.75 -1.921875 "/>
</symbol>
<symbol overflow="visible" id="glyph2-9">
<path style="stroke:none;" d="M 4.109375 -2.171875 C 4.109375 -2.515625 4.109375 -3.265625 3.71875 -3.859375 C 3.3125 -4.46875 2.703125 -4.578125 2.34375 -4.578125 C 1.25 -4.578125 0.34375 -3.53125 0.34375 -2.25 C 0.34375 -0.9375 1.296875 0.109375 2.5 0.109375 C 3.125 0.109375 3.6875 -0.125 4.078125 -0.40625 L 4.015625 -1.046875 C 3.390625 -0.53125 2.734375 -0.5 2.5 -0.5 C 1.703125 -0.5 1.078125 -1.203125 1.046875 -2.171875 Z M 1.09375 -2.71875 C 1.25 -3.484375 1.78125 -3.96875 2.34375 -3.96875 C 2.859375 -3.96875 3.421875 -3.640625 3.546875 -2.71875 Z M 1.09375 -2.71875 "/>
</symbol>
<symbol overflow="visible" id="glyph2-10">
<path style="stroke:none;" d="M 1.546875 -6.890625 L 0.8125 -6.890625 L 0.8125 0 L 1.546875 0 Z M 1.546875 -6.890625 "/>
</symbol>
<symbol overflow="visible" id="glyph2-11">
<path style="stroke:none;" d="M 4.4375 -4.40625 L 3.6875 -4.40625 L 2.90625 -2.34375 C 2.6875 -1.796875 2.390625 -1 2.3125 -0.53125 L 2.296875 -0.53125 C 2.234375 -0.890625 1.984375 -1.5625 1.875 -1.84375 L 0.921875 -4.40625 L 0.140625 -4.40625 L 1.84375 0 L 2.71875 0 Z M 4.4375 -4.40625 "/>
</symbol>
<symbol overflow="visible" id="glyph2-12">
<path style="stroke:none;" d="M 4.65625 -2.1875 C 4.65625 -3.515625 3.671875 -4.578125 2.484375 -4.578125 C 1.265625 -4.578125 0.296875 -3.484375 0.296875 -2.1875 C 0.296875 -0.875 1.3125 0.109375 2.46875 0.109375 C 3.671875 0.109375 4.65625 -0.890625 4.65625 -2.1875 Z M 2.46875 -0.53125 C 1.78125 -0.53125 1.078125 -1.078125 1.078125 -2.28125 C 1.078125 -3.484375 1.828125 -3.96875 2.46875 -3.96875 C 3.171875 -3.96875 3.890625 -3.453125 3.890625 -2.28125 C 3.890625 -1.109375 3.203125 -0.53125 2.46875 -0.53125 Z M 2.46875 -0.53125 "/>
</symbol>
<symbol overflow="visible" id="glyph2-13">
<path style="stroke:none;" d="M 4.328125 -2.96875 C 4.328125 -3.625 4.171875 -4.515625 2.96875 -4.515625 C 2.0625 -4.515625 1.578125 -3.84375 1.515625 -3.765625 L 1.515625 -4.46875 L 0.8125 -4.46875 L 0.8125 0 L 1.578125 0 L 1.578125 -2.4375 C 1.578125 -3.09375 1.828125 -3.921875 2.578125 -3.921875 C 3.53125 -3.921875 3.546875 -3.203125 3.546875 -2.890625 L 3.546875 0 L 4.328125 0 Z M 4.328125 -2.96875 "/>
</symbol>
</g>
<clipPath id="clip1">
  <path d="M 0 61 L 94 61 L 94 153.46875 L 0 153.46875 Z M 0 61 "/>
</clipPath>
</defs>
<g id="surface1">
<path style=" stroke:none;fill-rule:nonzero;fill:rgb(0%,0%,0%);fill-opacity:1;" d="M 73.703125 20.257812 L 69.5625 11.976562 L 65.421875 20.257812 L 69.5625 20.257812 "/>
<path style="fill:none;stroke-width:17.0071;stroke-linecap:butt;stroke-linejoin:miter;stroke:rgb(0%,0%,0%);stroke-opacity:1;stroke-miterlimit:10;" d="M 697.465534 681.628854 L 697.465534 1335.62029 " transform="matrix(0.0997361,0,0,-0.0997361,0,153.467386)"/>
<path style=" stroke:none;fill-rule:nonzero;fill:rgb(0%,0%,0%);fill-opacity:1;" d="M 185.675781 89.625 L 193.957031 85.484375 L 185.675781 81.34375 L 185.675781 85.484375 "/>
<path style="fill:none;stroke-width:17.0071;stroke-linecap:butt;stroke-linejoin:miter;stroke:rgb(0%,0%,0%);stroke-opacity:1;stroke-miterlimit:10;" d="M 357.310089 681.628854 L 1861.670554 681.628854 " transform="matrix(0.0997361,0,0,-0.0997361,0,153.467386)"/>
<path style=" stroke:none;fill-rule:nonzero;fill:rgb(0%,0%,0%);fill-opacity:1;" d="M 15.945312 133.242188 L 13.019531 142.027344 L 21.800781 139.097656 L 18.875 136.171875 "/>
<g clip-path="url(#clip1)" clip-rule="nonzero">
<path style="fill:none;stroke-width:17.0071;stroke-linecap:butt;stroke-linejoin:miter;stroke:rgb(0%,0%,0%);stroke-opacity:1;stroke-miterlimit:10;" d="M 697.465534 681.628854 L 189.249408 173.412728 " transform="matrix(0.0997361,0,0,-0.0997361,0,153.467386)"/>
</g>
<g style="fill:rgb(0%,0%,0%);fill-opacity:1;">
  <use xlink:href="#glyph0-1" x="3.414406" y="150.673608"/>
</g>
<g style="fill:rgb(0%,0%,0%);fill-opacity:1;">
  <use xlink:href="#glyph0-2" x="201.555151" y="87.159259"/>
</g>
<g style="fill:rgb(0%,0%,0%);fill-opacity:1;">
  <use xlink:href="#glyph0-3" x="65.97089" y="9.315623"/>
</g>
<path style="fill:none;stroke-width:17.0071;stroke-linecap:butt;stroke-linejoin:miter;stroke:rgb(0%,0%,0%);stroke-opacity:1;stroke-miterlimit:10;" d="M 1264.391276 1248.554595 L 697.465534 681.628854 " transform="matrix(0.0997361,0,0,-0.0997361,0,153.467386)"/>
<path style="fill:none;stroke-width:17.0071;stroke-linecap:butt;stroke-linejoin:miter;stroke:rgb(0%,0%,0%);stroke-opacity:1;stroke-miterlimit:10;" d="M 697.465534 114.703112 L 697.465534 681.628854 " transform="matrix(0.0997361,0,0,-0.0997361,0,153.467386)"/>
<path style="fill:none;stroke-width:11.3366;stroke-linecap:round;stroke-linejoin:miter;stroke:rgb(100%,0%,0%);stroke-opacity:1;stroke-dasharray:0,40.7161;stroke-dashoffset:35.04781;stroke-miterlimit:10;" d="M 1604.546721 1248.554595 L 1604.546721 341.473409 " transform="matrix(0.0997361,0,0,-0.0997361,0,153.467386)"/>
<path style="fill:none;stroke-width:11.3366;stroke-linecap:butt;stroke-linejoin:miter;stroke:rgb(0%,0%,0%);stroke-opacity:1;stroke-miterlimit:10;" d="M 980.908822 568.243706 C 1094.29397 624.955863 1094.29397 780.835963 980.908822 851.726159 " transform="matrix(0.0997361,0,0,-0.0997361,0,153.467386)"/>
<path style=" stroke:none;fill-rule:nonzero;fill:rgb(100%,0%,0%);fill-opacity:1;" d="M 70.988281 87.769531 C 72.25 86.980469 72.632812 85.316406 71.84375 84.054688 C 71.058594 82.792969 69.394531 82.410156 68.132812 83.199219 C 66.871094 83.988281 66.488281 85.648438 67.277344 86.910156 C 68.066406 88.171875 69.726562 88.554688 70.988281 87.769531 "/>
<path style=" stroke:none;fill-rule:nonzero;fill:rgb(100%,0%,0%);fill-opacity:1;" d="M 155.203125 36.839844 L 160.03125 28.941406 L 150.8125 29.816406 L 153.007812 33.328125 "/>
<path style="fill:none;stroke-width:17.0071;stroke-linecap:butt;stroke-linejoin:miter;stroke:rgb(100%,0%,0%);stroke-opacity:1;stroke-miterlimit:10;" d="M 716.735134 693.691937 L 1534.126514 1204.571341 " transform="matrix(0.0997361,0,0,-0.0997361,0,153.467386)"/>
<g style="fill:rgb(0%,0%,0%);fill-opacity:1;">
  <use xlink:href="#glyph0-4" x="110.607347" y="77.765683"/>
</g>
<path style="fill:none;stroke-width:11.3366;stroke-linecap:butt;stroke-linejoin:miter;stroke:rgb(0%,0%,0%);stroke-opacity:1;stroke-miterlimit:10;" d="M 1321.064267 454.858557 C 1434.449415 511.570714 1434.449415 624.955863 1321.064267 681.628854 " transform="matrix(0.0997361,0,0,-0.0997361,0,153.467386)"/>
<path style=" stroke:none;fill-rule:nonzero;fill:rgb(100%,0%,0%);fill-opacity:1;" d="M 150.824219 120.378906 L 160.03125 119.410156 L 153.730469 112.625 L 152.277344 116.503906 "/>
<path style="fill:none;stroke-width:17.0071;stroke-linecap:butt;stroke-linejoin:miter;stroke:rgb(100%,0%,0%);stroke-opacity:1;stroke-dasharray:52.1024,31.2615;stroke-miterlimit:10;" d="M 697.465534 681.628854 L 1526.8025 370.612805 " transform="matrix(0.0997361,0,0,-0.0997361,0,153.467386)"/>
<g style="fill:rgb(0%,0%,0%);fill-opacity:1;">
  <use xlink:href="#glyph0-5" x="145.251683" y="101.699657"/>
</g>
<g style="fill:rgb(0%,0%,0%);fill-opacity:1;">
  <use xlink:href="#glyph1-1" x="160.837046" y="26.876529"/>
</g>
<g style="fill:rgb(0%,0%,0%);fill-opacity:1;">
  <use xlink:href="#glyph0-5" x="166.342399" y="26.876529"/>
</g>
<g style="fill:rgb(0%,0%,0%);fill-opacity:1;">
  <use xlink:href="#glyph0-6" x="173.284172" y="26.876529"/>
</g>
<g style="fill:rgb(0%,0%,0%);fill-opacity:1;">
  <use xlink:href="#glyph0-4" x="179.627532" y="26.876529"/>
</g>
<g style="fill:rgb(0%,0%,0%);fill-opacity:1;">
  <use xlink:href="#glyph1-2" x="187.885798" y="26.876529"/>
</g>
<g style="fill:rgb(0%,0%,0%);fill-opacity:1;">
  <use xlink:href="#glyph2-1" x="140.490899" y="9.794426"/>
</g>
<g style="fill:rgb(0%,0%,0%);fill-opacity:1;">
  <use xlink:href="#glyph2-2" x="145.278232" y="9.794426"/>
</g>
<g style="fill:rgb(0%,0%,0%);fill-opacity:1;">
  <use xlink:href="#glyph2-3" x="149.586821" y="9.794426"/>
</g>
<g style="fill:rgb(0%,0%,0%);fill-opacity:1;">
  <use xlink:href="#glyph2-4" x="151.98049" y="9.794426"/>
</g>
<g style="fill:rgb(0%,0%,0%);fill-opacity:1;">
  <use xlink:href="#glyph2-5" x="159.879594" y="9.794426"/>
</g>
<g style="fill:rgb(0%,0%,0%);fill-opacity:1;">
  <use xlink:href="#glyph2-6" x="165.025975" y="9.794426"/>
</g>
<g style="fill:rgb(0%,0%,0%);fill-opacity:1;">
  <use xlink:href="#glyph2-7" x="168.616479" y="9.794426"/>
</g>
<g style="fill:rgb(0%,0%,0%);fill-opacity:1;">
  <use xlink:href="#glyph2-8" x="173.76286" y="9.794426"/>
</g>
<g style="fill:rgb(0%,0%,0%);fill-opacity:1;">
  <use xlink:href="#glyph2-9" x="177.113996" y="9.794426"/>
</g>
<g style="fill:rgb(0%,0%,0%);fill-opacity:1;">
  <use xlink:href="#glyph2-10" x="181.542281" y="9.794426"/>
</g>
<g style="fill:rgb(0%,0%,0%);fill-opacity:1;">
  <use xlink:href="#glyph2-9" x="183.93595" y="9.794426"/>
</g>
<g style="fill:rgb(0%,0%,0%);fill-opacity:1;">
  <use xlink:href="#glyph2-11" x="188.364235" y="9.794426"/>
</g>
<g style="fill:rgb(0%,0%,0%);fill-opacity:1;">
  <use xlink:href="#glyph2-1" x="192.912203" y="9.794426"/>
</g>
<g style="fill:rgb(0%,0%,0%);fill-opacity:1;">
  <use xlink:href="#glyph2-6" x="197.699535" y="9.794426"/>
</g>
<g style="fill:rgb(0%,0%,0%);fill-opacity:1;">
  <use xlink:href="#glyph2-3" x="201.290039" y="9.794426"/>
</g>
<g style="fill:rgb(0%,0%,0%);fill-opacity:1;">
  <use xlink:href="#glyph2-12" x="203.683709" y="9.794426"/>
</g>
<g style="fill:rgb(0%,0%,0%);fill-opacity:1;">
  <use xlink:href="#glyph2-13" x="208.71042" y="9.794426"/>
</g>
</g>
</svg>
