<?xml version="1.0" encoding="UTF-8"?>
<svg xmlns="http://www.w3.org/2000/svg" xmlns:xlink="http://www.w3.org/1999/xlink" width="413.86pt" height="215.43pt" viewBox="0 0 413.86 215.43" version="1.2">
<defs>
<g>
<symbol overflow="visible" id="glyph1-0">
<path style="stroke:none;" d=""/>
</symbol>
<symbol overflow="visible" id="glyph1-1">
<path style="stroke:none;" d="M 4.65625 3.484375 C 4.65625 3.4375 4.65625 3.40625 4.40625 3.15625 C 2.984375 1.71875 2.171875 -0.640625 2.171875 -3.5625 C 2.171875 -6.34375 2.84375 -8.734375 4.515625 -10.421875 C 4.65625 -10.546875 4.65625 -10.578125 4.65625 -10.625 C 4.65625 -10.703125 4.578125 -10.734375 4.515625 -10.734375 C 4.34375 -10.734375 3.15625 -9.703125 2.46875 -8.296875 C 1.734375 -6.859375 1.40625 -5.328125 1.40625 -3.5625 C 1.40625 -2.296875 1.609375 -0.59375 2.34375 0.9375 C 3.1875 2.65625 4.359375 3.59375 4.515625 3.59375 C 4.578125 3.59375 4.65625 3.5625 4.65625 3.484375 Z M 4.65625 3.484375 "/>
</symbol>
<symbol overflow="visible" id="glyph1-2">
<path style="stroke:none;" d="M 4.03125 -3.5625 C 4.03125 -4.65625 3.890625 -6.421875 3.09375 -8.09375 C 2.25 -9.796875 1.078125 -10.734375 0.921875 -10.734375 C 0.859375 -10.734375 0.78125 -10.703125 0.78125 -10.625 C 0.78125 -10.578125 0.78125 -10.546875 1.03125 -10.3125 C 2.46875 -8.859375 3.265625 -6.5 3.265625 -3.578125 C 3.265625 -0.796875 2.59375 1.59375 0.9375 3.28125 C 0.78125 3.40625 0.78125 3.4375 0.78125 3.484375 C 0.78125 3.5625 0.859375 3.59375 0.921875 3.59375 C 1.109375 3.59375 2.28125 2.5625 2.984375 1.15625 C 3.703125 -0.296875 4.03125 -1.84375 4.03125 -3.5625 Z M 4.03125 -3.5625 "/>
</symbol>
<symbol overflow="visible" id="glyph1-3">
<path style="stroke:none;" d="M 5.703125 -3.3125 L 9.65625 -3.3125 C 9.859375 -3.3125 10.125 -3.3125 10.125 -3.5625 C 10.125 -3.828125 9.875 -3.828125 9.65625 -3.828125 L 5.703125 -3.828125 L 5.703125 -7.78125 C 5.703125 -7.984375 5.703125 -8.25 5.453125 -8.25 C 5.1875 -8.25 5.1875 -8 5.1875 -7.78125 L 5.1875 -3.828125 L 1.234375 -3.828125 C 1.03125 -3.828125 0.765625 -3.828125 0.765625 -3.578125 C 0.765625 -3.3125 1.015625 -3.3125 1.234375 -3.3125 L 5.1875 -3.3125 L 5.1875 0.640625 C 5.1875 0.84375 5.1875 1.109375 5.4375 1.109375 C 5.703125 1.109375 5.703125 0.859375 5.703125 0.640625 Z M 5.703125 -3.3125 "/>
</symbol>
<symbol overflow="visible" id="glyph2-0">
<path style="stroke:none;" d=""/>
</symbol>
<symbol overflow="visible" id="glyph2-1">
<path style="stroke:none;" d="M 6.34375 -7.203125 C 6.34375 -8.65625 5.875 -10.078125 4.703125 -10.078125 C 2.703125 -10.078125 0.578125 -5.875 0.578125 -2.734375 C 0.578125 -2.078125 0.71875 0.140625 2.21875 0.140625 C 4.171875 0.140625 6.34375 -3.953125 6.34375 -7.203125 Z M 2 -5.1875 C 2.21875 -6.03125 2.515625 -7.234375 3.09375 -8.25 C 3.5625 -9.109375 4.0625 -9.796875 4.6875 -9.796875 C 5.171875 -9.796875 5.484375 -9.390625 5.484375 -8.015625 C 5.484375 -7.5 5.4375 -6.78125 5.03125 -5.1875 Z M 4.921875 -4.75 C 4.5625 -3.34375 4.265625 -2.453125 3.75 -1.546875 C 3.328125 -0.8125 2.828125 -0.140625 2.234375 -0.140625 C 1.796875 -0.140625 1.4375 -0.484375 1.4375 -1.90625 C 1.4375 -2.828125 1.65625 -3.8125 1.890625 -4.75 Z M 4.921875 -4.75 "/>
</symbol>
<symbol overflow="visible" id="glyph2-2">
<path style="stroke:none;" d="M 2.796875 0.0625 C 2.796875 -0.765625 2.515625 -1.390625 1.9375 -1.390625 C 1.46875 -1.390625 1.25 -1.015625 1.25 -0.703125 C 1.25 -0.390625 1.453125 0 1.953125 0 C 2.125 0 2.296875 -0.0625 2.421875 -0.1875 C 2.453125 -0.21875 2.46875 -0.21875 2.46875 -0.21875 C 2.5 -0.21875 2.5 -0.015625 2.5 0.0625 C 2.5 0.53125 2.421875 1.453125 1.59375 2.390625 C 1.4375 2.5625 1.4375 2.59375 1.4375 2.625 C 1.4375 2.6875 1.5 2.765625 1.578125 2.765625 C 1.6875 2.765625 2.796875 1.703125 2.796875 0.0625 Z M 2.796875 0.0625 "/>
</symbol>
<symbol overflow="visible" id="glyph2-3">
<path style="stroke:none;" d="M 6.15625 -9.796875 C 6.15625 -9.9375 6.046875 -9.9375 6.015625 -9.9375 C 5.875 -9.9375 5.875 -9.90625 5.8125 -9.65625 L 5.03125 -6.578125 C 5 -6.390625 4.984375 -6.390625 4.96875 -6.375 C 4.953125 -6.34375 4.859375 -6.328125 4.828125 -6.328125 C 2.46875 -6.125 0.671875 -4.1875 0.671875 -2.40625 C 0.671875 -0.859375 1.859375 0.078125 3.34375 0.171875 C 3.234375 0.609375 3.140625 1.078125 3.015625 1.515625 C 2.8125 2.28125 2.703125 2.75 2.703125 2.8125 C 2.703125 2.828125 2.703125 2.921875 2.84375 2.921875 C 2.890625 2.921875 2.953125 2.921875 2.984375 2.859375 C 3 2.828125 3.09375 2.484375 3.15625 2.296875 L 3.671875 0.171875 C 6.125 0.046875 7.984375 -1.953125 7.984375 -3.765625 C 7.984375 -5.203125 6.90625 -6.234375 5.3125 -6.34375 Z M 5.21875 -6.046875 C 6.171875 -6 7.109375 -5.46875 7.109375 -4.0625 C 7.109375 -2.453125 5.984375 -0.296875 3.75 -0.125 Z M 3.421875 -0.109375 C 2.71875 -0.15625 1.546875 -0.53125 1.546875 -2.109375 C 1.546875 -3.90625 2.84375 -5.90625 4.90625 -6.046875 Z M 3.421875 -0.109375 "/>
</symbol>
<symbol overflow="visible" id="glyph2-4">
<path style="stroke:none;" d="M 4.921875 -0.875 C 5.234375 -0.015625 6.125 0.140625 6.671875 0.140625 C 7.75 0.140625 8.40625 -0.796875 8.796875 -1.796875 C 9.125 -2.625 9.65625 -4.515625 9.65625 -5.359375 C 9.65625 -6.21875 9.21875 -6.3125 9.09375 -6.3125 C 8.75 -6.3125 8.4375 -5.96875 8.4375 -5.6875 C 8.4375 -5.515625 8.53125 -5.40625 8.609375 -5.359375 C 8.734375 -5.21875 9.109375 -4.84375 9.109375 -4.09375 C 9.109375 -3.609375 8.703125 -2.265625 8.40625 -1.59375 C 8 -0.71875 7.46875 -0.140625 6.734375 -0.140625 C 5.921875 -0.140625 5.671875 -0.75 5.671875 -1.40625 C 5.671875 -1.8125 5.796875 -2.3125 5.859375 -2.5625 L 6.453125 -4.96875 C 6.53125 -5.25 6.65625 -5.75 6.65625 -5.8125 C 6.65625 -6.03125 6.484375 -6.171875 6.265625 -6.171875 C 5.859375 -6.171875 5.75 -5.8125 5.671875 -5.46875 C 5.53125 -4.90625 4.921875 -2.484375 4.859375 -2.171875 C 4.8125 -1.9375 4.8125 -1.78125 4.8125 -1.453125 C 4.8125 -1.109375 4.34375 -0.578125 4.34375 -0.546875 C 4.171875 -0.390625 3.953125 -0.140625 3.5 -0.140625 C 2.375 -0.140625 2.375 -1.21875 2.375 -1.453125 C 2.375 -1.921875 2.46875 -2.546875 3.125 -4.25 C 3.296875 -4.6875 3.359375 -4.875 3.359375 -5.171875 C 3.359375 -5.765625 2.9375 -6.3125 2.234375 -6.3125 C 0.921875 -6.3125 0.390625 -4.234375 0.390625 -4.125 C 0.390625 -4.0625 0.4375 -4 0.546875 -4 C 0.671875 -4 0.6875 -4.046875 0.75 -4.25 C 1.109375 -5.515625 1.65625 -6.03125 2.1875 -6.03125 C 2.328125 -6.03125 2.5625 -6.015625 2.5625 -5.546875 C 2.5625 -5.484375 2.5625 -5.1875 2.3125 -4.546875 C 1.640625 -2.765625 1.5 -2.171875 1.5 -1.625 C 1.5 -0.125 2.734375 0.140625 3.46875 0.140625 C 3.703125 0.140625 4.34375 0.140625 4.921875 -0.875 Z M 4.921875 -0.875 "/>
</symbol>
<symbol overflow="visible" id="glyph2-5">
<path style="stroke:none;" d="M 4.84375 -1.8125 C 4.78125 -1.59375 4.75 -1.53125 4.5625 -1.3125 C 3.984375 -0.5625 3.375 -0.28125 2.9375 -0.28125 C 2.46875 -0.28125 2.015625 -0.65625 2.015625 -1.640625 C 2.015625 -2.40625 2.453125 -4 2.765625 -4.65625 C 3.171875 -5.453125 3.828125 -6.03125 4.421875 -6.03125 C 5.375 -6.03125 5.546875 -4.859375 5.546875 -4.765625 L 5.515625 -4.5625 Z M 5.71875 -5.375 C 5.53125 -5.78125 5.140625 -6.3125 4.421875 -6.3125 C 2.859375 -6.3125 1.09375 -4.34375 1.09375 -2.21875 C 1.09375 -0.734375 1.984375 0 2.90625 0 C 3.65625 0 4.34375 -0.59375 4.59375 -0.890625 L 4.28125 0.40625 C 4.078125 1.1875 4 1.546875 3.484375 2.046875 C 2.890625 2.640625 2.34375 2.640625 2.03125 2.640625 C 1.609375 2.640625 1.25 2.609375 0.890625 2.484375 C 1.34375 2.359375 1.453125 1.953125 1.453125 1.796875 C 1.453125 1.578125 1.28125 1.34375 0.96875 1.34375 C 0.625 1.34375 0.25 1.625 0.25 2.109375 C 0.25 2.6875 0.84375 2.921875 2.0625 2.921875 C 3.90625 2.921875 4.859375 1.734375 5.046875 0.953125 L 6.640625 -5.453125 C 6.6875 -5.625 6.6875 -5.65625 6.6875 -5.6875 C 6.6875 -5.875 6.53125 -6.046875 6.3125 -6.046875 C 5.96875 -6.046875 5.765625 -5.75 5.71875 -5.375 Z M 5.71875 -5.375 "/>
</symbol>
<symbol overflow="visible" id="glyph3-0">
<path style="stroke:none;" d=""/>
</symbol>
<symbol overflow="visible" id="glyph3-1">
<path style="stroke:none;" d="M 4.578125 -3.1875 C 4.578125 -3.96875 4.515625 -4.765625 4.171875 -5.5 C 3.71875 -6.453125 2.90625 -6.625 2.484375 -6.625 C 1.890625 -6.625 1.15625 -6.359375 0.75 -5.4375 C 0.4375 -4.75 0.390625 -3.96875 0.390625 -3.1875 C 0.390625 -2.4375 0.421875 -1.546875 0.828125 -0.78125 C 1.265625 0.015625 1.984375 0.21875 2.46875 0.21875 C 3.015625 0.21875 3.765625 0.015625 4.203125 -0.9375 C 4.515625 -1.625 4.578125 -2.390625 4.578125 -3.1875 Z M 2.46875 0 C 2.09375 0 1.5 -0.25 1.328125 -1.203125 C 1.21875 -1.796875 1.21875 -2.71875 1.21875 -3.296875 C 1.21875 -3.9375 1.21875 -4.59375 1.296875 -5.125 C 1.484375 -6.3125 2.21875 -6.40625 2.46875 -6.40625 C 2.796875 -6.40625 3.453125 -6.21875 3.640625 -5.234375 C 3.75 -4.6875 3.75 -3.921875 3.75 -3.296875 C 3.75 -2.546875 3.75 -1.875 3.640625 -1.25 C 3.484375 -0.296875 2.921875 0 2.46875 0 Z M 2.46875 0 "/>
</symbol>
<symbol overflow="visible" id="glyph3-2">
<path style="stroke:none;" d="M 2.921875 -6.359375 C 2.921875 -6.59375 2.921875 -6.625 2.6875 -6.625 C 2.078125 -5.984375 1.203125 -5.984375 0.890625 -5.984375 L 0.890625 -5.671875 C 1.078125 -5.671875 1.671875 -5.671875 2.1875 -5.9375 L 2.1875 -0.78125 C 2.1875 -0.421875 2.15625 -0.3125 1.265625 -0.3125 L 0.9375 -0.3125 L 0.9375 0 C 1.296875 -0.03125 2.15625 -0.03125 2.546875 -0.03125 C 2.953125 -0.03125 3.8125 -0.03125 4.15625 0 L 4.15625 -0.3125 L 3.84375 -0.3125 C 2.953125 -0.3125 2.921875 -0.421875 2.921875 -0.78125 Z M 2.921875 -6.359375 "/>
</symbol>
<symbol overflow="visible" id="glyph4-0">
<path style="stroke:none;" d=""/>
</symbol>
<symbol overflow="visible" id="glyph4-1">
<path style="stroke:none;" d="M 7.515625 -5.75 C 7.609375 -6.140625 7.796875 -6.453125 8.59375 -6.484375 C 8.640625 -6.484375 8.75 -6.484375 8.75 -6.671875 C 8.75 -6.6875 8.75 -6.78125 8.625 -6.78125 C 8.296875 -6.78125 7.953125 -6.75 7.625 -6.75 C 7.28125 -6.75 6.9375 -6.78125 6.609375 -6.78125 C 6.546875 -6.78125 6.421875 -6.78125 6.421875 -6.59375 C 6.421875 -6.484375 6.53125 -6.484375 6.609375 -6.484375 C 7.171875 -6.46875 7.28125 -6.265625 7.28125 -6.046875 C 7.28125 -6.015625 7.265625 -5.859375 7.25 -5.828125 L 6.140625 -1.40625 L 3.9375 -6.59375 C 3.859375 -6.78125 3.859375 -6.78125 3.625 -6.78125 L 2.296875 -6.78125 C 2.09375 -6.78125 2 -6.78125 2 -6.59375 C 2 -6.484375 2.09375 -6.484375 2.28125 -6.484375 C 2.328125 -6.484375 2.96875 -6.484375 2.96875 -6.390625 L 1.625 -1.046875 C 1.53125 -0.65625 1.359375 -0.34375 0.5625 -0.3125 C 0.5 -0.3125 0.390625 -0.296875 0.390625 -0.109375 C 0.390625 -0.046875 0.4375 0 0.515625 0 C 0.828125 0 1.1875 -0.03125 1.515625 -0.03125 C 1.84375 -0.03125 2.203125 0 2.53125 0 C 2.578125 0 2.71875 0 2.71875 -0.203125 C 2.71875 -0.296875 2.625 -0.3125 2.515625 -0.3125 C 1.9375 -0.328125 1.859375 -0.546875 1.859375 -0.75 C 1.859375 -0.8125 1.875 -0.859375 1.890625 -0.96875 L 3.203125 -6.21875 C 3.25 -6.15625 3.25 -6.140625 3.296875 -6.046875 L 5.78125 -0.1875 C 5.84375 -0.015625 5.875 0 5.96875 0 C 6.078125 0 6.078125 -0.03125 6.125 -0.203125 Z M 7.515625 -5.75 "/>
</symbol>
<symbol overflow="visible" id="glyph5-0">
<path style="stroke:none;" d=""/>
</symbol>
<symbol overflow="visible" id="glyph5-1">
<path style="stroke:none;" d="M 6.546875 -2.28125 C 6.71875 -2.28125 6.890625 -2.28125 6.890625 -2.484375 C 6.890625 -2.6875 6.71875 -2.6875 6.546875 -2.6875 L 1.171875 -2.6875 C 1 -2.6875 0.828125 -2.6875 0.828125 -2.484375 C 0.828125 -2.28125 1 -2.28125 1.171875 -2.28125 Z M 6.546875 -2.28125 "/>
</symbol>
<symbol overflow="visible" id="glyph6-0">
<path style="stroke:none;" d=""/>
</symbol>
<symbol overflow="visible" id="glyph6-1">
<path style="stroke:none;" d="M 3.421875 -3.390625 C 3.25 -3.71875 2.96875 -3.953125 2.5625 -3.953125 C 1.53125 -3.953125 0.375 -2.71875 0.375 -1.34375 C 0.375 -0.359375 1 0.09375 1.59375 0.09375 C 2.1875 0.09375 2.65625 -0.390625 2.796875 -0.546875 C 2.890625 -0.0625 3.34375 0.09375 3.625 0.09375 C 3.890625 0.09375 4.109375 -0.015625 4.3125 -0.390625 C 4.46875 -0.6875 4.59375 -1.25 4.59375 -1.28125 C 4.59375 -1.328125 4.5625 -1.390625 4.484375 -1.390625 C 4.375 -1.390625 4.359375 -1.34375 4.328125 -1.171875 C 4.125 -0.390625 3.9375 -0.125 3.65625 -0.125 C 3.4375 -0.125 3.375 -0.34375 3.375 -0.53125 C 3.375 -0.703125 3.421875 -0.890625 3.5 -1.203125 L 3.734375 -2.125 C 3.796875 -2.34375 3.953125 -3.015625 3.984375 -3.140625 C 4.015625 -3.265625 4.078125 -3.484375 4.078125 -3.515625 C 4.078125 -3.65625 3.953125 -3.765625 3.796875 -3.765625 C 3.6875 -3.765625 3.453125 -3.703125 3.421875 -3.390625 Z M 2.828125 -1.09375 C 2.78125 -0.921875 2.78125 -0.90625 2.640625 -0.734375 C 2.328125 -0.359375 1.953125 -0.125 1.625 -0.125 C 1.1875 -0.125 1.03125 -0.578125 1.03125 -0.96875 C 1.03125 -1.40625 1.296875 -2.4375 1.515625 -2.859375 C 1.796875 -3.390625 2.203125 -3.734375 2.5625 -3.734375 C 3.15625 -3.734375 3.296875 -3.015625 3.296875 -2.953125 C 3.296875 -2.90625 3.28125 -2.84375 3.265625 -2.8125 Z M 2.828125 -1.09375 "/>
</symbol>
<symbol overflow="visible" id="glyph6-2">
<path style="stroke:none;" d="M 4.171875 -4.421875 C 4.171875 -5.34375 3.859375 -6.296875 3.03125 -6.296875 C 1.734375 -6.296875 0.359375 -3.75 0.359375 -1.765625 C 0.359375 -1.125 0.5625 0.09375 1.5 0.09375 C 2.796875 0.09375 4.171875 -2.421875 4.171875 -4.421875 Z M 1.34375 -3.25 C 1.515625 -3.953125 1.703125 -4.609375 2.078125 -5.21875 C 2.28125 -5.578125 2.625 -6.078125 3.03125 -6.078125 C 3.515625 -6.078125 3.546875 -5.3125 3.546875 -4.96875 C 3.546875 -4.4375 3.40625 -3.8125 3.265625 -3.25 Z M 3.1875 -2.953125 C 3.046875 -2.390625 2.875 -1.71875 2.515625 -1.09375 C 2.28125 -0.671875 1.9375 -0.125 1.5 -0.125 C 1.125 -0.125 0.984375 -0.59375 0.984375 -1.25 C 0.984375 -1.8125 1.140625 -2.390625 1.265625 -2.953125 Z M 3.1875 -2.953125 "/>
</symbol>
<symbol overflow="visible" id="glyph6-3">
<path style="stroke:none;" d="M 1.625 -0.140625 C 1.625 0.15625 1.625 0.890625 0.96875 1.515625 C 0.90625 1.578125 0.90625 1.578125 0.90625 1.625 C 0.90625 1.6875 0.96875 1.71875 1.03125 1.71875 C 1.125 1.71875 1.84375 1.03125 1.84375 -0.015625 C 1.84375 -0.578125 1.65625 -0.96875 1.265625 -0.96875 C 0.96875 -0.96875 0.78125 -0.734375 0.78125 -0.484375 C 0.78125 -0.234375 0.96875 0 1.265625 0 C 1.40625 0 1.53125 -0.046875 1.625 -0.140625 Z M 1.625 -0.140625 "/>
</symbol>
<symbol overflow="visible" id="glyph6-4">
<path style="stroke:none;" d="M 4 -5.96875 C 4 -6 4.015625 -6.0625 4.015625 -6.09375 C 4.015625 -6.1875 3.953125 -6.203125 3.890625 -6.203125 C 3.796875 -6.203125 3.796875 -6.171875 3.75 -6.015625 L 3.234375 -3.953125 C 1.6875 -3.890625 0.453125 -2.671875 0.453125 -1.53125 C 0.453125 -0.703125 1.0625 0.03125 2.21875 0.109375 C 2.140625 0.390625 2.078125 0.671875 2.015625 0.953125 C 1.890625 1.4375 1.8125 1.703125 1.8125 1.734375 C 1.8125 1.765625 1.828125 1.828125 1.9375 1.828125 C 2.03125 1.828125 2.046875 1.8125 2.09375 1.59375 L 2.46875 0.109375 C 4.015625 0.046875 5.265625 -1.1875 5.265625 -2.328125 C 5.265625 -3.046875 4.75 -3.875 3.5 -3.953125 Z M 2.265625 -0.109375 C 1.625 -0.15625 1.046875 -0.53125 1.046875 -1.34375 C 1.046875 -2.34375 1.78125 -3.609375 3.1875 -3.734375 Z M 3.4375 -3.734375 C 4.078125 -3.6875 4.640625 -3.34375 4.640625 -2.5 C 4.640625 -1.359375 3.796875 -0.21875 2.53125 -0.109375 Z M 3.4375 -3.734375 "/>
</symbol>
<symbol overflow="visible" id="glyph7-0">
<path style="stroke:none;" d=""/>
</symbol>
<symbol overflow="visible" id="glyph7-1">
<path style="stroke:none;" d="M 5.25 -3.421875 C 5.3125 -3.671875 5.4375 -3.8125 5.890625 -3.84375 C 5.921875 -3.84375 6.015625 -3.84375 6.015625 -3.984375 C 6.015625 -4.046875 5.984375 -4.078125 5.921875 -4.078125 C 5.78125 -4.078125 5.4375 -4.046875 5.28125 -4.046875 L 4.953125 -4.0625 C 4.859375 -4.0625 4.734375 -4.078125 4.625 -4.078125 C 4.53125 -4.078125 4.5 -4 4.5 -3.921875 C 4.5 -3.84375 4.59375 -3.84375 4.640625 -3.84375 C 4.921875 -3.828125 5.03125 -3.75 5.03125 -3.59375 C 5.03125 -3.578125 5.03125 -3.546875 5.015625 -3.5 L 4.359375 -0.890625 L 2.734375 -3.96875 C 2.671875 -4.078125 2.671875 -4.078125 2.53125 -4.078125 L 1.671875 -4.078125 C 1.546875 -4.078125 1.46875 -4.078125 1.46875 -3.921875 C 1.46875 -3.84375 1.546875 -3.84375 1.6875 -3.84375 C 1.71875 -3.84375 1.921875 -3.84375 2.0625 -3.8125 L 1.28125 -0.65625 C 1.21875 -0.4375 1.125 -0.25 0.625 -0.234375 C 0.5625 -0.234375 0.5 -0.203125 0.5 -0.078125 C 0.5 -0.0625 0.515625 0 0.609375 0 C 0.75 0 1.09375 -0.03125 1.234375 -0.03125 L 1.5625 -0.015625 C 1.671875 -0.015625 1.796875 0 1.90625 0 C 2.03125 0 2.03125 -0.125 2.03125 -0.15625 C 2.015625 -0.234375 1.953125 -0.234375 1.890625 -0.234375 C 1.609375 -0.25 1.5 -0.328125 1.5 -0.484375 C 1.5 -0.515625 1.5 -0.53125 1.515625 -0.609375 L 2.28125 -3.65625 L 4.15625 -0.09375 C 4.203125 -0.015625 4.203125 0 4.296875 0 C 4.390625 0 4.40625 -0.03125 4.421875 -0.140625 Z M 5.25 -3.421875 "/>
</symbol>
<symbol overflow="visible" id="glyph8-0">
<path style="stroke:none;" d=""/>
</symbol>
<symbol overflow="visible" id="glyph8-1">
<path style="stroke:none;" d="M 4.75 -1.34375 C 4.84375 -1.34375 5 -1.34375 5 -1.5 C 5 -1.640625 4.84375 -1.640625 4.75 -1.640625 L 0.984375 -1.640625 C 0.890625 -1.640625 0.75 -1.640625 0.75 -1.5 C 0.75 -1.34375 0.890625 -1.34375 0.984375 -1.34375 Z M 4.75 -1.34375 "/>
</symbol>
<symbol overflow="visible" id="glyph9-0">
<path style="stroke:none;" d=""/>
</symbol>
<symbol overflow="visible" id="glyph9-1">
<path style="stroke:none;" d="M 2.140625 -3.796875 C 2.140625 -3.96875 2.125 -3.96875 1.9375 -3.96875 C 1.546875 -3.59375 0.9375 -3.59375 0.71875 -3.59375 L 0.71875 -3.359375 C 0.875 -3.359375 1.265625 -3.359375 1.625 -3.515625 L 1.625 -0.5 C 1.625 -0.3125 1.625 -0.234375 1.015625 -0.234375 L 0.765625 -0.234375 L 0.765625 0 C 1.09375 -0.03125 1.546875 -0.03125 1.890625 -0.03125 C 2.21875 -0.03125 2.6875 -0.03125 3.015625 0 L 3.015625 -0.234375 L 2.75 -0.234375 C 2.140625 -0.234375 2.140625 -0.3125 2.140625 -0.5 Z M 2.140625 -3.796875 "/>
</symbol>
<symbol overflow="visible" id="glyph9-2">
<path style="stroke:none;" d="M 3.28125 -1.90625 C 3.28125 -2.34375 3.28125 -3.96875 1.828125 -3.96875 C 0.359375 -3.96875 0.359375 -2.34375 0.359375 -1.90625 C 0.359375 -1.46875 0.359375 0.125 1.828125 0.125 C 3.28125 0.125 3.28125 -1.46875 3.28125 -1.90625 Z M 1.828125 -0.0625 C 1.5625 -0.0625 1.15625 -0.1875 1.015625 -0.6875 C 0.921875 -1.03125 0.921875 -1.609375 0.921875 -1.984375 C 0.921875 -2.375 0.921875 -2.84375 1.015625 -3.15625 C 1.15625 -3.703125 1.609375 -3.78125 1.828125 -3.78125 C 2.09375 -3.78125 2.484375 -3.640625 2.625 -3.1875 C 2.703125 -2.875 2.71875 -2.4375 2.71875 -1.984375 C 2.71875 -1.59375 2.71875 -1 2.609375 -0.65625 C 2.453125 -0.140625 2.015625 -0.0625 1.828125 -0.0625 Z M 1.828125 -0.0625 "/>
</symbol>
<symbol overflow="visible" id="glyph10-0">
<path style="stroke:none;" d=""/>
</symbol>
<symbol overflow="visible" id="glyph10-1">
<path style="stroke:none;" d="M 3.046875 2.125 C 3.046875 2.078125 3.015625 2.0625 2.96875 2 C 1.8125 0.9375 1.46875 -0.671875 1.46875 -2.234375 C 1.46875 -3.625 1.734375 -5.296875 3 -6.5 C 3.03125 -6.53125 3.046875 -6.5625 3.046875 -6.609375 C 3.046875 -6.671875 3 -6.703125 2.9375 -6.703125 C 2.828125 -6.703125 2.03125 -6.0625 1.546875 -5.078125 C 1.125 -4.234375 0.90625 -3.3125 0.90625 -2.25 C 0.90625 -1.59375 0.984375 -0.578125 1.46875 0.46875 C 2 1.578125 2.828125 2.21875 2.9375 2.21875 C 3 2.21875 3.046875 2.1875 3.046875 2.125 Z M 3.046875 2.125 "/>
</symbol>
<symbol overflow="visible" id="glyph10-2">
<path style="stroke:none;" d="M 2.65625 -2.25 C 2.65625 -2.96875 2.5625 -3.953125 2.09375 -4.953125 C 1.5625 -6.046875 0.734375 -6.703125 0.625 -6.703125 C 0.53125 -6.703125 0.515625 -6.625 0.515625 -6.609375 C 0.515625 -6.5625 0.53125 -6.53125 0.59375 -6.46875 C 1.125 -6 2.09375 -4.796875 2.09375 -2.25 C 2.09375 -0.96875 1.875 0.8125 0.578125 2.015625 C 0.546875 2.046875 0.515625 2.078125 0.515625 2.125 C 0.515625 2.15625 0.53125 2.21875 0.625 2.21875 C 0.734375 2.21875 1.53125 1.578125 2.015625 0.609375 C 2.453125 -0.25 2.65625 -1.171875 2.65625 -2.25 Z M 2.65625 -2.25 "/>
</symbol>
<symbol overflow="visible" id="glyph11-0">
<path style="stroke:none;" d=""/>
</symbol>
<symbol overflow="visible" id="glyph11-1">
<path style="stroke:none;" d="M 6.578125 -1.3125 C 6.578125 -1.640625 6.578125 -1.71875 6.390625 -1.71875 C 5.515625 -1.734375 4.09375 -1.84375 2.8125 -2.46875 C 1.265625 -3.25 0.671875 -4.15625 0.3125 -4.703125 C 0.265625 -4.78125 0.1875 -4.78125 0 -4.78125 C -0.328125 -4.78125 -0.34375 -4.765625 -0.34375 -4.40625 L -0.34375 -4.171875 C 1.609375 -0.671875 4.828125 0 6.28125 0 C 6.578125 0 6.578125 -0.015625 6.578125 -0.40625 Z M 6.578125 -1.3125 "/>
</symbol>
<symbol overflow="visible" id="glyph11-2">
<path style="stroke:none;" d="M 6.78125 2.46875 C 4.84375 -1.046875 1.625 -1.71875 0.15625 -1.71875 C -0.140625 -1.71875 -0.140625 -1.703125 -0.140625 -1.3125 L -0.140625 -0.40625 C -0.140625 -0.078125 -0.140625 0 0.0625 0 C 0.9375 0.015625 2.34375 0.125 3.640625 0.765625 C 5.1875 1.53125 5.765625 2.4375 6.125 2.984375 C 6.171875 3.0625 6.25 3.0625 6.4375 3.0625 C 6.765625 3.0625 6.78125 3.046875 6.78125 2.6875 Z M 6.78125 2.46875 "/>
</symbol>
<symbol overflow="visible" id="glyph11-3">
<path style="stroke:none;" d="M 6.578125 -1.3125 C 6.578125 -1.703125 6.578125 -1.71875 6.28125 -1.71875 C 4.828125 -1.71875 1.609375 -1.03125 -0.34375 2.46875 L -0.34375 2.6875 C -0.34375 3.046875 -0.328125 3.0625 0 3.0625 C 0.265625 3.0625 0.28125 3.046875 0.359375 2.953125 C 1.53125 1.078125 3.5 0.0625 6.40625 0 C 6.578125 0 6.578125 -0.09375 6.578125 -0.40625 Z M 6.578125 -1.3125 "/>
</symbol>
<symbol overflow="visible" id="glyph11-4">
<path style="stroke:none;" d="M 6.78125 -4.40625 C 6.78125 -4.765625 6.765625 -4.78125 6.4375 -4.78125 C 6.171875 -4.78125 6.15625 -4.765625 6.078125 -4.671875 C 4.90625 -2.796875 2.9375 -1.78125 0.03125 -1.71875 C -0.140625 -1.71875 -0.140625 -1.625 -0.140625 -1.3125 L -0.140625 -0.40625 C -0.140625 -0.015625 -0.140625 0 0.15625 0 C 1.625 0 4.84375 -0.6875 6.78125 -4.171875 Z M 6.78125 -4.40625 "/>
</symbol>
<symbol overflow="visible" id="glyph12-0">
<path style="stroke:none;" d=""/>
</symbol>
<symbol overflow="visible" id="glyph12-1">
<path style="stroke:none;" d="M 10.3125 -5.390625 C 10.40625 -5.640625 10.453125 -5.734375 11.28125 -5.734375 L 11.28125 -6.359375 C 10.859375 -6.328125 10.671875 -6.328125 10.15625 -6.328125 C 9.578125 -6.328125 9.390625 -6.328125 8.875 -6.359375 L 8.875 -5.734375 C 9 -5.734375 9.703125 -5.734375 9.703125 -5.546875 C 9.703125 -5.53125 9.703125 -5.53125 9.640625 -5.375 L 8.140625 -1.65625 L 6.5 -5.734375 L 7.3125 -5.734375 L 7.3125 -6.359375 C 6.96875 -6.328125 6.125 -6.328125 5.734375 -6.328125 C 5.015625 -6.328125 4.984375 -6.328125 4.265625 -6.359375 L 4.265625 -5.734375 L 5.109375 -5.734375 C 5.15625 -5.625 5.21875 -5.4375 5.28125 -5.3125 C 5.328125 -5.21875 5.46875 -4.875 5.46875 -4.8125 C 5.46875 -4.78125 5.421875 -4.6875 5.40625 -4.640625 L 4.328125 -1.9375 L 2.78125 -5.734375 L 3.59375 -5.734375 L 3.59375 -6.359375 C 3.265625 -6.328125 2.296875 -6.328125 1.90625 -6.328125 C 1.453125 -6.328125 0.765625 -6.328125 0.328125 -6.359375 L 0.328125 -5.734375 L 1.171875 -5.734375 L 3.359375 -0.28125 C 3.46875 -0.03125 3.515625 0.078125 3.828125 0.078125 C 4 0.078125 4.171875 0.078125 4.28125 -0.21875 L 5.796875 -4 L 7.3125 -0.25 C 7.4375 0.078125 7.59375 0.078125 7.765625 0.078125 C 8.09375 0.078125 8.125 -0.015625 8.234375 -0.265625 Z M 10.3125 -5.390625 "/>
</symbol>
<symbol overflow="visible" id="glyph12-2">
<path style="stroke:none;" d="M 6.578125 -4.28125 C 6.578125 -5.59375 5.53125 -6.484375 3.515625 -6.484375 C 2.71875 -6.484375 1.03125 -6.40625 1.03125 -5.203125 C 1.03125 -4.609375 1.484375 -4.34375 1.875 -4.34375 C 2.296875 -4.34375 2.71875 -4.65625 2.71875 -5.203125 C 2.71875 -5.46875 2.625 -5.71875 2.375 -5.875 C 2.84375 -6.015625 3.1875 -6.015625 3.46875 -6.015625 C 4.4375 -6.015625 5.03125 -5.46875 5.03125 -4.296875 L 5.03125 -3.71875 C 2.765625 -3.71875 0.484375 -3.09375 0.484375 -1.5 C 0.484375 -0.203125 2.140625 0.078125 3.140625 0.078125 C 4.234375 0.078125 4.9375 -0.515625 5.21875 -1.140625 C 5.21875 -0.609375 5.21875 0 6.671875 0 L 7.40625 0 C 7.703125 0 7.8125 0 7.8125 -0.3125 C 7.8125 -0.609375 7.6875 -0.609375 7.484375 -0.609375 C 6.578125 -0.625 6.578125 -0.859375 6.578125 -1.1875 Z M 5.03125 -1.984375 C 5.03125 -0.640625 3.828125 -0.390625 3.359375 -0.390625 C 2.65625 -0.390625 2.078125 -0.859375 2.078125 -1.515625 C 2.078125 -2.8125 3.625 -3.265625 5.03125 -3.328125 Z M 5.03125 -1.984375 "/>
</symbol>
<symbol overflow="visible" id="glyph13-0">
<path style="stroke:none;" d=""/>
</symbol>
<symbol overflow="visible" id="glyph13-1">
<path style="stroke:none;" d="M 8.828125 -6.890625 C 8.953125 -7.40625 9.140625 -7.765625 10.046875 -7.796875 C 10.078125 -7.796875 10.234375 -7.8125 10.234375 -8.015625 C 10.234375 -8.140625 10.125 -8.140625 10.078125 -8.140625 C 9.828125 -8.140625 9.234375 -8.125 8.984375 -8.125 L 8.421875 -8.125 C 8.25 -8.125 8.03125 -8.140625 7.875 -8.140625 C 7.796875 -8.140625 7.65625 -8.140625 7.65625 -7.921875 C 7.65625 -7.796875 7.75 -7.796875 7.828125 -7.796875 C 8.546875 -7.765625 8.59375 -7.5 8.59375 -7.28125 C 8.59375 -7.171875 8.578125 -7.140625 8.546875 -6.96875 L 7.203125 -1.59375 L 4.65625 -7.9375 C 4.5625 -8.125 4.546875 -8.140625 4.296875 -8.140625 L 2.84375 -8.140625 C 2.59375 -8.140625 2.484375 -8.140625 2.484375 -7.921875 C 2.484375 -7.796875 2.578125 -7.796875 2.796875 -7.796875 C 2.859375 -7.796875 3.5625 -7.796875 3.5625 -7.6875 C 3.5625 -7.671875 3.546875 -7.578125 3.53125 -7.53125 L 1.9375 -1.21875 C 1.796875 -0.625 1.515625 -0.375 0.734375 -0.34375 C 0.671875 -0.34375 0.546875 -0.328125 0.546875 -0.125 C 0.546875 0 0.671875 0 0.703125 0 C 0.9375 0 1.546875 -0.03125 1.78125 -0.03125 L 2.359375 -0.03125 C 2.53125 -0.03125 2.734375 0 2.890625 0 C 2.984375 0 3.109375 0 3.109375 -0.21875 C 3.109375 -0.328125 3 -0.34375 2.9375 -0.34375 C 2.546875 -0.359375 2.171875 -0.421875 2.171875 -0.859375 C 2.171875 -0.953125 2.1875 -1.0625 2.21875 -1.15625 L 3.828125 -7.53125 C 3.90625 -7.421875 3.90625 -7.390625 3.953125 -7.28125 L 6.78125 -0.21875 C 6.84375 -0.078125 6.859375 0 6.96875 0 C 7.09375 0 7.109375 -0.03125 7.15625 -0.234375 Z M 8.828125 -6.890625 "/>
</symbol>
<symbol overflow="visible" id="glyph14-0">
<path style="stroke:none;" d=""/>
</symbol>
<symbol overflow="visible" id="glyph14-1">
<path style="stroke:none;" d="M 1.5625 -6.890625 L 0.8125 -6.890625 L 0.8125 0 L 1.59375 0 L 1.59375 -0.453125 C 1.828125 -0.234375 2.25 0.109375 2.921875 0.109375 C 3.921875 0.109375 4.765625 -0.890625 4.765625 -2.21875 C 4.765625 -3.453125 4.09375 -4.515625 3.15625 -4.515625 C 2.765625 -4.515625 2.15625 -4.421875 1.5625 -3.9375 Z M 1.59375 -3.328125 C 1.75 -3.5625 2.109375 -3.921875 2.65625 -3.921875 C 3.234375 -3.921875 4 -3.484375 4 -2.21875 C 4 -0.921875 3.15625 -0.5 2.546875 -0.5 C 2.171875 -0.5 1.84375 -0.671875 1.59375 -1.140625 Z M 1.59375 -3.328125 "/>
</symbol>
<symbol overflow="visible" id="glyph14-2">
<path style="stroke:none;" d="M 4.109375 -2.171875 C 4.109375 -2.515625 4.109375 -3.265625 3.71875 -3.859375 C 3.3125 -4.46875 2.703125 -4.578125 2.34375 -4.578125 C 1.25 -4.578125 0.34375 -3.53125 0.34375 -2.25 C 0.34375 -0.9375 1.296875 0.109375 2.5 0.109375 C 3.125 0.109375 3.6875 -0.125 4.078125 -0.40625 L 4.015625 -1.046875 C 3.390625 -0.53125 2.734375 -0.5 2.5 -0.5 C 1.703125 -0.5 1.078125 -1.203125 1.046875 -2.171875 Z M 1.09375 -2.71875 C 1.25 -3.484375 1.78125 -3.96875 2.34375 -3.96875 C 2.859375 -3.96875 3.421875 -3.640625 3.546875 -2.71875 Z M 1.09375 -2.71875 "/>
</symbol>
<symbol overflow="visible" id="glyph14-3">
<path style="stroke:none;" d="M 3.96875 -2.875 C 3.96875 -3.890625 3.234375 -4.578125 2.328125 -4.578125 C 1.671875 -4.578125 1.234375 -4.421875 0.765625 -4.15625 L 0.828125 -3.5 C 1.34375 -3.859375 1.84375 -4 2.328125 -4 C 2.796875 -4 3.1875 -3.59375 3.1875 -2.859375 L 3.1875 -2.4375 C 1.703125 -2.421875 0.4375 -2 0.4375 -1.125 C 0.4375 -0.703125 0.703125 0.109375 1.5625 0.109375 C 1.703125 0.109375 2.640625 0.09375 3.21875 -0.359375 L 3.21875 0 L 3.96875 0 Z M 3.1875 -1.3125 C 3.1875 -1.125 3.1875 -0.875 2.859375 -0.6875 C 2.5625 -0.5 2.1875 -0.5 2.078125 -0.5 C 1.59375 -0.5 1.15625 -0.71875 1.15625 -1.140625 C 1.15625 -1.84375 2.765625 -1.90625 3.1875 -1.921875 Z M 3.1875 -1.3125 "/>
</symbol>
<symbol overflow="visible" id="glyph14-4">
<path style="stroke:none;" d="M 7.078125 -2.96875 C 7.078125 -3.625 6.921875 -4.515625 5.71875 -4.515625 C 5.125 -4.515625 4.609375 -4.25 4.25 -3.703125 C 3.984375 -4.46875 3.296875 -4.515625 2.96875 -4.515625 C 2.25 -4.515625 1.78125 -4.109375 1.515625 -3.75 L 1.515625 -4.46875 L 0.8125 -4.46875 L 0.8125 0 L 1.578125 0 L 1.578125 -2.4375 C 1.578125 -3.109375 1.84375 -3.921875 2.578125 -3.921875 C 3.515625 -3.921875 3.5625 -3.265625 3.5625 -2.890625 L 3.5625 0 L 4.328125 0 L 4.328125 -2.4375 C 4.328125 -3.109375 4.59375 -3.921875 5.34375 -3.921875 C 6.265625 -3.921875 6.3125 -3.265625 6.3125 -2.890625 L 6.3125 0 L 7.078125 0 Z M 7.078125 -2.96875 "/>
</symbol>
<symbol overflow="visible" id="glyph14-5">
<path style="stroke:none;" d="M 1.75 -3.828125 L 2.84375 -3.828125 L 2.84375 -4.40625 L 1.71875 -4.40625 L 1.71875 -5.59375 C 1.71875 -6.328125 2.390625 -6.40625 2.640625 -6.40625 C 2.84375 -6.40625 3.109375 -6.375 3.453125 -6.234375 L 3.453125 -6.890625 C 3.328125 -6.921875 3.015625 -7 2.65625 -7 C 1.71875 -7 1 -6.296875 1 -5.3125 L 1 -4.40625 L 0.265625 -4.40625 L 0.265625 -3.828125 L 1 -3.828125 L 1 0 L 1.75 0 Z M 1.75 -3.828125 "/>
</symbol>
<symbol overflow="visible" id="glyph14-6">
<path style="stroke:none;" d="M 4.65625 -2.1875 C 4.65625 -3.515625 3.671875 -4.578125 2.484375 -4.578125 C 1.265625 -4.578125 0.296875 -3.484375 0.296875 -2.1875 C 0.296875 -0.875 1.3125 0.109375 2.46875 0.109375 C 3.671875 0.109375 4.65625 -0.890625 4.65625 -2.1875 Z M 2.46875 -0.53125 C 1.78125 -0.53125 1.078125 -1.078125 1.078125 -2.28125 C 1.078125 -3.484375 1.828125 -3.96875 2.46875 -3.96875 C 3.171875 -3.96875 3.890625 -3.453125 3.890625 -2.28125 C 3.890625 -1.109375 3.203125 -0.53125 2.46875 -0.53125 Z M 2.46875 -0.53125 "/>
</symbol>
<symbol overflow="visible" id="glyph14-7">
<path style="stroke:none;" d="M 1.5625 -2.125 C 1.5625 -3.125 2.28125 -3.828125 3.25 -3.859375 L 3.25 -4.515625 C 2.359375 -4.515625 1.8125 -4.03125 1.515625 -3.5625 L 1.515625 -4.46875 L 0.8125 -4.46875 L 0.8125 0 L 1.5625 0 Z M 1.5625 -2.125 "/>
</symbol>
<symbol overflow="visible" id="glyph14-8">
<path style="stroke:none;" d="M 1.625 -6.75 L 0.734375 -6.75 L 0.734375 -5.875 L 1.625 -5.875 Z M 1.546875 -4.40625 L 0.8125 -4.40625 L 0.8125 0 L 1.546875 0 Z M 1.546875 -4.40625 "/>
</symbol>
<symbol overflow="visible" id="glyph14-9">
<path style="stroke:none;" d="M 4.328125 -2.96875 C 4.328125 -3.625 4.171875 -4.515625 2.96875 -4.515625 C 2.0625 -4.515625 1.578125 -3.84375 1.515625 -3.765625 L 1.515625 -4.46875 L 0.8125 -4.46875 L 0.8125 0 L 1.578125 0 L 1.578125 -2.4375 C 1.578125 -3.09375 1.828125 -3.921875 2.578125 -3.921875 C 3.53125 -3.921875 3.546875 -3.203125 3.546875 -2.890625 L 3.546875 0 L 4.328125 0 Z M 4.328125 -2.96875 "/>
</symbol>
<symbol overflow="visible" id="glyph14-10">
<path style="stroke:none;" d="M 3.5 -3.890625 C 3.71875 -3.890625 4 -3.921875 4.234375 -3.921875 C 4.40625 -3.921875 4.796875 -3.890625 4.8125 -3.890625 L 4.703125 -4.515625 C 4.015625 -4.515625 3.4375 -4.328125 3.140625 -4.203125 C 2.9375 -4.375 2.59375 -4.515625 2.203125 -4.515625 C 1.34375 -4.515625 0.609375 -3.8125 0.609375 -2.90625 C 0.609375 -2.53125 0.75 -2.171875 0.9375 -1.921875 C 0.65625 -1.515625 0.65625 -1.125 0.65625 -1.078125 C 0.65625 -0.8125 0.75 -0.53125 0.921875 -0.3125 C 0.390625 -0.015625 0.28125 0.453125 0.28125 0.703125 C 0.28125 1.453125 1.265625 2.046875 2.46875 2.046875 C 3.703125 2.046875 4.6875 1.453125 4.6875 0.703125 C 4.6875 -0.6875 3.015625 -0.6875 2.640625 -0.6875 L 1.765625 -0.6875 C 1.625 -0.6875 1.1875 -0.6875 1.1875 -1.21875 C 1.1875 -1.328125 1.21875 -1.484375 1.296875 -1.5625 C 1.5 -1.421875 1.828125 -1.28125 2.203125 -1.28125 C 3.09375 -1.28125 3.78125 -2.015625 3.78125 -2.90625 C 3.78125 -3.375 3.5625 -3.75 3.453125 -3.890625 Z M 2.203125 -1.84375 C 1.828125 -1.84375 1.3125 -2.078125 1.3125 -2.90625 C 1.3125 -3.734375 1.828125 -3.953125 2.203125 -3.953125 C 2.625 -3.953125 3.09375 -3.671875 3.09375 -2.90625 C 3.09375 -2.125 2.625 -1.84375 2.203125 -1.84375 Z M 2.640625 0.03125 C 2.859375 0.03125 3.984375 0.03125 3.984375 0.71875 C 3.984375 1.15625 3.296875 1.484375 2.484375 1.484375 C 1.671875 1.484375 0.96875 1.171875 0.96875 0.703125 C 0.96875 0.671875 0.96875 0.03125 1.75 0.03125 Z M 2.640625 0.03125 "/>
</symbol>
<symbol overflow="visible" id="glyph14-11">
<path style="stroke:none;" d="M 6.640625 -4.40625 L 5.90625 -4.40625 L 5.28125 -2.3125 C 5.171875 -1.953125 4.875 -0.96875 4.8125 -0.53125 C 4.765625 -0.84375 4.515625 -1.734375 4.359375 -2.296875 L 3.703125 -4.40625 L 3.015625 -4.40625 L 2.4375 -2.546875 C 2.328125 -2.203125 2 -1.046875 1.953125 -0.546875 C 1.890625 -1.03125 1.5625 -2.140625 1.40625 -2.6875 L 0.890625 -4.40625 L 0.140625 -4.40625 L 1.5 0 L 2.28125 0 C 2.328125 -0.15625 2.6875 -1.265625 2.90625 -2.046875 C 3.046875 -2.5 3.3125 -3.484375 3.34375 -3.859375 L 3.359375 -3.859375 C 3.375 -3.578125 3.546875 -2.890625 3.671875 -2.46875 L 4.40625 0 L 5.28125 0 Z M 6.640625 -4.40625 "/>
</symbol>
<symbol overflow="visible" id="glyph14-12">
<path style="stroke:none;" d="M 4.328125 -2.96875 C 4.328125 -3.625 4.171875 -4.515625 2.96875 -4.515625 C 2.34375 -4.515625 1.875 -4.21875 1.546875 -3.8125 L 1.546875 -6.890625 L 0.8125 -6.890625 L 0.8125 0 L 1.578125 0 L 1.578125 -2.4375 C 1.578125 -3.09375 1.828125 -3.921875 2.578125 -3.921875 C 3.53125 -3.921875 3.546875 -3.203125 3.546875 -2.890625 L 3.546875 0 L 4.328125 0 Z M 4.328125 -2.96875 "/>
</symbol>
<symbol overflow="visible" id="glyph14-13">
<path style="stroke:none;" d="M 1.734375 -3.828125 L 3.140625 -3.828125 L 3.140625 -4.40625 L 1.734375 -4.40625 L 1.734375 -5.671875 L 1.046875 -5.671875 L 1.046875 -4.40625 L 0.1875 -4.40625 L 0.1875 -3.828125 L 1.03125 -3.828125 L 1.03125 -1.1875 C 1.03125 -0.59375 1.15625 0.109375 1.84375 0.109375 C 2.546875 0.109375 3.046875 -0.140625 3.296875 -0.265625 L 3.140625 -0.859375 C 2.875 -0.640625 2.5625 -0.53125 2.25 -0.53125 C 1.875 -0.53125 1.734375 -0.828125 1.734375 -1.34375 Z M 1.734375 -3.828125 "/>
</symbol>
<symbol overflow="visible" id="glyph14-14">
<path style="stroke:none;" d="M 3.40625 -4.265625 C 2.890625 -4.5 2.484375 -4.578125 1.984375 -4.578125 C 1.734375 -4.578125 0.328125 -4.578125 0.328125 -3.28125 C 0.328125 -2.796875 0.609375 -2.46875 0.859375 -2.28125 C 1.171875 -2.0625 1.390625 -2.03125 1.9375 -1.921875 C 2.296875 -1.84375 2.875 -1.734375 2.875 -1.203125 C 2.875 -0.515625 2.09375 -0.515625 1.9375 -0.515625 C 1.140625 -0.515625 0.578125 -0.890625 0.390625 -1 L 0.28125 -0.328125 C 0.59375 -0.171875 1.140625 0.109375 1.953125 0.109375 C 2.125 0.109375 2.671875 0.109375 3.09375 -0.203125 C 3.40625 -0.453125 3.578125 -0.84375 3.578125 -1.265625 C 3.578125 -1.8125 3.203125 -2.15625 3.1875 -2.1875 C 2.796875 -2.53125 2.53125 -2.59375 2.03125 -2.6875 C 1.484375 -2.796875 1.03125 -2.890625 1.03125 -3.375 C 1.03125 -4 1.75 -4 1.875 -4 C 2.203125 -4 2.71875 -3.953125 3.296875 -3.625 Z M 3.40625 -4.265625 "/>
</symbol>
<symbol overflow="visible" id="glyph14-15">
<path style="stroke:none;" d="M 4.4375 -4.40625 L 3.6875 -4.40625 C 2.390625 -1.25 2.375 -0.796875 2.359375 -0.5625 C 2.296875 -1.234375 1.5 -3.078125 1.453125 -3.171875 L 0.921875 -4.40625 L 0.140625 -4.40625 L 2.0625 0 C 1.953125 0.3125 1.75 0.8125 1.703125 0.890625 C 1.453125 1.46875 1.28125 1.46875 1.140625 1.46875 C 0.984375 1.46875 0.671875 1.4375 0.375 1.3125 L 0.421875 1.953125 C 0.640625 2 0.921875 2.03125 1.140625 2.03125 C 1.484375 2.03125 1.859375 1.921875 2.265625 0.90625 Z M 4.4375 -4.40625 "/>
</symbol>
<symbol overflow="visible" id="glyph14-16">
<path style="stroke:none;" d="M 1.59375 -0.453125 C 1.890625 -0.171875 2.328125 0.109375 2.9375 0.109375 C 3.890625 0.109375 4.765625 -0.859375 4.765625 -2.21875 C 4.765625 -3.40625 4.140625 -4.515625 3.1875 -4.515625 C 2.59375 -4.515625 2.015625 -4.3125 1.5625 -3.921875 L 1.5625 -4.40625 L 0.8125 -4.40625 L 0.8125 1.921875 L 1.59375 1.921875 Z M 1.59375 -3.3125 C 1.828125 -3.65625 2.21875 -3.890625 2.640625 -3.890625 C 3.40625 -3.890625 4 -3.125 4 -2.21875 C 4 -1.1875 3.296875 -0.5 2.546875 -0.5 C 2.15625 -0.5 1.890625 -0.703125 1.6875 -0.96875 C 1.59375 -1.109375 1.59375 -1.140625 1.59375 -1.3125 Z M 1.59375 -3.3125 "/>
</symbol>
<symbol overflow="visible" id="glyph14-17">
<path style="stroke:none;" d="M 3.96875 -4.03125 L 3.96875 -4.40625 L 0.421875 -4.40625 L 0.421875 -3.828125 L 1.796875 -3.828125 C 1.921875 -3.828125 2.03125 -3.828125 2.15625 -3.828125 L 2.9375 -3.828125 L 0.28125 -0.40625 L 0.28125 0 L 4 0 L 4 -0.609375 L 2.53125 -0.609375 C 2.421875 -0.609375 2.296875 -0.609375 2.171875 -0.609375 L 1.328125 -0.609375 Z M 3.96875 -4.03125 "/>
</symbol>
<symbol overflow="visible" id="glyph14-18">
<path style="stroke:none;" d="M 4.328125 -4.40625 L 3.546875 -4.40625 L 3.546875 -1.53125 C 3.546875 -0.78125 2.984375 -0.4375 2.359375 -0.4375 C 1.65625 -0.4375 1.578125 -0.703125 1.578125 -1.125 L 1.578125 -4.40625 L 0.8125 -4.40625 L 0.8125 -1.078125 C 0.8125 -0.375 1.03125 0.109375 1.859375 0.109375 C 2.390625 0.109375 3.09375 -0.046875 3.578125 -0.484375 L 3.578125 0 L 4.328125 0 Z M 4.328125 -4.40625 "/>
</symbol>
<symbol overflow="visible" id="glyph14-19">
<path style="stroke:none;" d="M 2.75 -1.921875 L 2.75 -2.5 L 0.109375 -2.5 L 0.109375 -1.921875 Z M 2.75 -1.921875 "/>
</symbol>
<symbol overflow="visible" id="glyph14-20">
<path style="stroke:none;" d="M 1.546875 -6.890625 L 0.8125 -6.890625 L 0.8125 0 L 1.546875 0 Z M 1.546875 -6.890625 "/>
</symbol>
<symbol overflow="visible" id="glyph14-21">
<path style="stroke:none;" d="M 4.4375 -4.40625 L 3.6875 -4.40625 L 2.90625 -2.34375 C 2.6875 -1.796875 2.390625 -1 2.3125 -0.53125 L 2.296875 -0.53125 C 2.234375 -0.890625 1.984375 -1.5625 1.875 -1.84375 L 0.921875 -4.40625 L 0.140625 -4.40625 L 1.84375 0 L 2.71875 0 Z M 4.4375 -4.40625 "/>
</symbol>
<symbol overflow="visible" id="glyph0-0">
<path style="stroke:none;" d="M 1.132812 0 C 1.132812 -0.625 0.625 -1.132812 0 -1.132812 C -0.625 -1.132812 -1.132812 -0.625 -1.132812 0 C -1.132812 0.625 -0.625 1.132812 0 1.132812 C 0.625 1.132812 1.132812 0.625 1.132812 0 "/>
</symbol>
</g>
</defs>
<g id="surface1">
<path style="fill:none;stroke-width:11.3366;stroke-linecap:butt;stroke-linejoin:miter;stroke:rgb(0%,0%,0%);stroke-opacity:1;stroke-miterlimit:10;" d="M 2079.357506 1728.371334 L 2079.357506 1501.601037 L 1625.816913 1501.601037 " transform="matrix(0.0997361,0,0,-0.0997361,0.47625,214.861504)"/>
<path style="fill:none;stroke-width:11.3366;stroke-linecap:butt;stroke-linejoin:miter;stroke:rgb(0%,0%,0%);stroke-opacity:1;stroke-miterlimit:10;" d="M 1965.972358 1728.371334 L 2079.357506 1614.986186 L 2192.742654 1728.371334 " transform="matrix(0.0997361,0,0,-0.0997361,0.47625,214.861504)"/>
<path style="fill:none;stroke-width:11.3366;stroke-linecap:butt;stroke-linejoin:miter;stroke:rgb(0%,0%,0%);stroke-opacity:1;stroke-miterlimit:10;" d="M 2079.357506 1048.060444 L 2079.357506 821.290148 L 1625.816913 821.290148 " transform="matrix(0.0997361,0,0,-0.0997361,0.47625,214.861504)"/>
<path style="fill:none;stroke-width:11.3366;stroke-linecap:butt;stroke-linejoin:miter;stroke:rgb(0%,0%,0%);stroke-opacity:1;stroke-miterlimit:10;" d="M 1965.972358 1048.060444 L 2079.357506 934.675296 L 2192.742654 1048.060444 " transform="matrix(0.0997361,0,0,-0.0997361,0.47625,214.861504)"/>
<g style="fill:rgb(0%,0%,0%);fill-opacity:1;">
  <use xlink:href="#glyph0-0" x="207.877493" y="76.377914"/>
</g>
<g style="fill:rgb(0%,0%,0%);fill-opacity:1;">
  <use xlink:href="#glyph0-0" x="207.877493" y="87.747831"/>
</g>
<g style="fill:rgb(0%,0%,0%);fill-opacity:1;">
  <use xlink:href="#glyph0-0" x="207.877493" y="99.018011"/>
</g>
<path style=" stroke:none;fill-rule:nonzero;fill:rgb(0%,0%,0%);fill-opacity:1;" d="M 257.441406 82.578125 L 253.097656 87.714844 L 259.8125 88.109375 L 258.628906 85.34375 "/>
<path style="fill:none;stroke-width:11.3366;stroke-linecap:butt;stroke-linejoin:miter;stroke:rgb(0%,0%,0%);stroke-opacity:1;stroke-miterlimit:10;" d="M 2588.356949 1298.604414 L 3326.594137 1614.986186 " transform="matrix(0.0997361,0,0,-0.0997361,0.47625,214.861504)"/>
<path style=" stroke:none;fill-rule:nonzero;fill:rgb(0%,0%,0%);fill-opacity:1;" d="M 268.75 105.195312 L 264.40625 110.332031 L 271.125 110.726562 L 269.9375 107.960938 "/>
<path style="fill:none;stroke-width:11.3366;stroke-linecap:butt;stroke-linejoin:miter;stroke:rgb(0%,0%,0%);stroke-opacity:1;stroke-miterlimit:10;" d="M 2701.742097 1071.834118 L 3439.979286 1388.215889 " transform="matrix(0.0997361,0,0,-0.0997361,0.47625,214.861504)"/>
<path style=" stroke:none;fill-rule:nonzero;fill:rgb(0%,0%,0%);fill-opacity:1;" d="M 246.132812 59.960938 L 241.789062 65.097656 L 248.503906 65.492188 L 247.320312 62.726562 "/>
<path style="fill:none;stroke-width:11.3366;stroke-linecap:butt;stroke-linejoin:miter;stroke:rgb(0%,0%,0%);stroke-opacity:1;stroke-miterlimit:10;" d="M 2474.971801 1525.374711 L 3213.208989 1841.756482 " transform="matrix(0.0997361,0,0,-0.0997361,0.47625,214.861504)"/>
<g style="fill:rgb(0%,0%,0%);fill-opacity:1;">
  <use xlink:href="#glyph1-1" x="355.680426" y="23.453944"/>
</g>
<g style="fill:rgb(0%,0%,0%);fill-opacity:1;">
  <use xlink:href="#glyph2-1" x="361.185779" y="23.453944"/>
</g>
<g style="fill:rgb(0%,0%,0%);fill-opacity:1;">
  <use xlink:href="#glyph2-2" x="368.12754" y="23.453944"/>
</g>
<g style="fill:rgb(0%,0%,0%);fill-opacity:1;">
  <use xlink:href="#glyph2-3" x="374.470886" y="23.453944"/>
</g>
<g style="fill:rgb(0%,0%,0%);fill-opacity:1;">
  <use xlink:href="#glyph1-2" x="382.729178" y="23.453944"/>
</g>
<path style=" stroke:none;fill-rule:nonzero;fill:rgb(0%,0%,0%);fill-opacity:1;" d="M 234.828125 37.34375 L 230.480469 42.480469 L 237.195312 42.875 L 236.011719 40.109375 "/>
<path style="fill:none;stroke-width:11.3366;stroke-linecap:butt;stroke-linejoin:miter;stroke:rgb(0%,0%,0%);stroke-opacity:1;stroke-miterlimit:10;" d="M 2361.586652 1752.145008 L 3099.823841 2068.526779 " transform="matrix(0.0997361,0,0,-0.0997361,0.47625,214.861504)"/>
<g style="fill:rgb(0%,0%,0%);fill-opacity:1;">
  <use xlink:href="#glyph2-4" x="132.230645" y="67.012693"/>
</g>
<g style="fill:rgb(0%,0%,0%);fill-opacity:1;">
  <use xlink:href="#glyph3-1" x="142.283746" y="69.167153"/>
</g>
<g style="fill:rgb(0%,0%,0%);fill-opacity:1;">
  <use xlink:href="#glyph2-4" x="123.852812" y="134.505576"/>
</g>
<g style="fill:rgb(0%,0%,0%);fill-opacity:1;">
  <use xlink:href="#glyph4-1" x="133.905912" y="136.660035"/>
</g>
<g style="fill:rgb(0%,0%,0%);fill-opacity:1;">
  <use xlink:href="#glyph5-1" x="143.001766" y="136.660035"/>
</g>
<g style="fill:rgb(0%,0%,0%);fill-opacity:1;">
  <use xlink:href="#glyph3-2" x="150.781183" y="136.660035"/>
</g>
<path style="fill:none;stroke-width:11.3366;stroke-linecap:butt;stroke-linejoin:miter;stroke:rgb(0%,0%,0%);stroke-opacity:1;stroke-miterlimit:10;" d="M 1172.276319 1501.601037 L 945.466857 1501.601037 L 945.466857 1274.830741 " transform="matrix(0.0997361,0,0,-0.0997361,0.47625,214.861504)"/>
<path style="fill:none;stroke-width:11.3366;stroke-linecap:butt;stroke-linejoin:miter;stroke:rgb(0%,0%,0%);stroke-opacity:1;stroke-miterlimit:10;" d="M 1172.276319 821.290148 L 945.466857 821.290148 L 945.466857 1048.060444 " transform="matrix(0.0997361,0,0,-0.0997361,0.47625,214.861504)"/>
<g style="fill:rgb(0%,0%,0%);fill-opacity:1;">
  <use xlink:href="#glyph1-3" x="89.269814" y="102.614495"/>
</g>
<path style="fill:none;stroke-width:11.3366;stroke-linecap:butt;stroke-linejoin:miter;stroke:rgb(0%,0%,0%);stroke-opacity:1;stroke-miterlimit:10;" d="M 1048.903878 1161.445593 C 1048.903878 1218.549408 1002.609838 1264.843448 945.466857 1264.843448 C 888.363041 1264.843448 842.069002 1218.549408 842.069002 1161.445593 C 842.069002 1104.302611 888.363041 1058.008571 945.466857 1058.008571 C 1002.609838 1058.008571 1048.903878 1104.302611 1048.903878 1161.445593 Z M 1048.903878 1161.445593 " transform="matrix(0.0997361,0,0,-0.0997361,0.47625,214.861504)"/>
<path style=" stroke:none;fill-rule:nonzero;fill:rgb(0%,0%,0%);fill-opacity:1;" d="M 66.867188 96.015625 L 60.847656 99.023438 L 66.867188 102.03125 L 66.867188 99.023438 "/>
<path style="fill:none;stroke-width:11.3366;stroke-linecap:butt;stroke-linejoin:miter;stroke:rgb(0%,0%,0%);stroke-opacity:1;stroke-miterlimit:10;" d="M 832.120875 1161.445593 L 665.665994 1161.445593 " transform="matrix(0.0997361,0,0,-0.0997361,0.47625,214.861504)"/>
<g style="fill:rgb(0%,0%,0%);fill-opacity:1;">
  <use xlink:href="#glyph2-5" x="15.580087" y="102.614495"/>
</g>
<g style="fill:rgb(0%,0%,0%);fill-opacity:1;">
  <use xlink:href="#glyph1-1" x="22.761087" y="102.614495"/>
</g>
<g style="fill:rgb(0%,0%,0%);fill-opacity:1;">
  <use xlink:href="#glyph2-1" x="28.266441" y="102.614495"/>
</g>
<g style="fill:rgb(0%,0%,0%);fill-opacity:1;">
  <use xlink:href="#glyph2-2" x="35.20821" y="102.614495"/>
</g>
<g style="fill:rgb(0%,0%,0%);fill-opacity:1;">
  <use xlink:href="#glyph2-3" x="41.55157" y="102.614495"/>
</g>
<g style="fill:rgb(0%,0%,0%);fill-opacity:1;">
  <use xlink:href="#glyph1-2" x="49.80984" y="102.614495"/>
</g>
<g style="fill:rgb(0%,0%,0%);fill-opacity:1;">
  <use xlink:href="#glyph6-1" x="168.282377" y="145.307036"/>
</g>
<g style="fill:rgb(0%,0%,0%);fill-opacity:1;">
  <use xlink:href="#glyph7-1" x="173.189314" y="146.26427"/>
</g>
<g style="fill:rgb(0%,0%,0%);fill-opacity:1;">
  <use xlink:href="#glyph8-1" x="179.53269" y="146.26427"/>
</g>
<g style="fill:rgb(0%,0%,0%);fill-opacity:1;">
  <use xlink:href="#glyph9-1" x="185.277649" y="146.26427"/>
</g>
<g style="fill:rgb(0%,0%,0%);fill-opacity:1;">
  <use xlink:href="#glyph10-1" x="189.466177" y="145.307036"/>
</g>
<g style="fill:rgb(0%,0%,0%);fill-opacity:1;">
  <use xlink:href="#glyph6-2" x="193.056677" y="145.307036"/>
</g>
<g style="fill:rgb(0%,0%,0%);fill-opacity:1;">
  <use xlink:href="#glyph6-3" x="197.604799" y="145.307036"/>
</g>
<g style="fill:rgb(0%,0%,0%);fill-opacity:1;">
  <use xlink:href="#glyph6-4" x="201.674112" y="145.307036"/>
</g>
<g style="fill:rgb(0%,0%,0%);fill-opacity:1;">
  <use xlink:href="#glyph10-2" x="207.17951" y="145.307036"/>
</g>
<g style="fill:rgb(0%,0%,0%);fill-opacity:1;">
  <use xlink:href="#glyph6-1" x="168.282426" y="77.454964"/>
</g>
<g style="fill:rgb(0%,0%,0%);fill-opacity:1;">
  <use xlink:href="#glyph9-2" x="173.189363" y="78.412197"/>
</g>
<g style="fill:rgb(0%,0%,0%);fill-opacity:1;">
  <use xlink:href="#glyph10-1" x="177.258676" y="77.454964"/>
</g>
<g style="fill:rgb(0%,0%,0%);fill-opacity:1;">
  <use xlink:href="#glyph6-2" x="180.849176" y="77.454964"/>
</g>
<g style="fill:rgb(0%,0%,0%);fill-opacity:1;">
  <use xlink:href="#glyph6-3" x="185.397298" y="77.454964"/>
</g>
<g style="fill:rgb(0%,0%,0%);fill-opacity:1;">
  <use xlink:href="#glyph6-4" x="189.586211" y="77.454964"/>
</g>
<g style="fill:rgb(0%,0%,0%);fill-opacity:1;">
  <use xlink:href="#glyph10-2" x="195.091593" y="77.454964"/>
</g>
<g style="fill:rgb(0%,0%,0%);fill-opacity:1;">
  <use xlink:href="#glyph11-1" x="119.066146" y="156.405072"/>
</g>
<path style=" stroke:none;fill-rule:nonzero;fill:rgb(0%,0%,0%);fill-opacity:1;" d="M 125.515625 154.621094 L 133.652344 154.621094 L 133.652344 156.417969 L 125.515625 156.417969 Z M 125.515625 154.621094 "/>
<g style="fill:rgb(0%,0%,0%);fill-opacity:1;">
  <use xlink:href="#glyph11-2" x="133.666845" y="156.404873"/>
</g>
<g style="fill:rgb(0%,0%,0%);fill-opacity:1;">
  <use xlink:href="#glyph11-3" x="140.129729" y="156.404873"/>
</g>
<path style=" stroke:none;fill-rule:nonzero;fill:rgb(0%,0%,0%);fill-opacity:1;" d="M 146.582031 154.621094 L 154.71875 154.621094 L 154.71875 156.417969 L 146.582031 156.417969 Z M 146.582031 154.621094 "/>
<g style="fill:rgb(0%,0%,0%);fill-opacity:1;">
  <use xlink:href="#glyph11-4" x="154.731112" y="156.404873"/>
</g>
<g style="fill:rgb(0%,0%,0%);fill-opacity:1;">
  <use xlink:href="#glyph12-1" x="134.026094" y="175.642273"/>
</g>
<g style="fill:rgb(0%,0%,0%);fill-opacity:1;">
  <use xlink:href="#glyph0-0" x="140.057017" y="87.747831"/>
</g>
<g style="fill:rgb(0%,0%,0%);fill-opacity:1;">
  <use xlink:href="#glyph0-0" x="140.057017" y="99.018011"/>
</g>
<g style="fill:rgb(0%,0%,0%);fill-opacity:1;">
  <use xlink:href="#glyph0-0" x="140.057017" y="110.288192"/>
</g>
<path style="fill:none;stroke-width:11.3366;stroke-linecap:butt;stroke-linejoin:miter;stroke:rgb(100%,100%,100%);stroke-opacity:1;stroke-miterlimit:10;" d="M 44.064719 1076.416523 L 44.064719 33.233992 L 4114.611127 33.233992 L 4114.611127 2119.559887 L 44.064719 2119.559887 Z M 44.064719 1076.416523 " transform="matrix(0.0997361,0,0,-0.0997361,0.47625,214.861504)"/>
<path style="fill:none;stroke-width:11.3366;stroke-linecap:butt;stroke-linejoin:miter;stroke:rgb(0%,0%,0%);stroke-opacity:1;stroke-miterlimit:10;" d="M 1177.916202 1501.601037 L 1177.916202 1393.894938 L 1620.137864 1393.894938 L 1620.137864 1609.307137 L 1177.916202 1609.307137 Z M 1177.916202 1501.601037 " transform="matrix(0.0997361,0,0,-0.0997361,0.47625,214.861504)"/>
<path style="fill:none;stroke-width:11.3366;stroke-linecap:butt;stroke-linejoin:miter;stroke:rgb(0%,0%,0%);stroke-opacity:1;stroke-miterlimit:10;" d="M 1177.916202 821.290148 L 1177.916202 713.544882 L 1620.137864 713.544882 L 1620.137864 928.996247 L 1177.916202 928.996247 Z M 1177.916202 821.290148 " transform="matrix(0.0997361,0,0,-0.0997361,0.47625,214.861504)"/>
<g style="fill:rgb(0%,0%,0%);fill-opacity:1;">
  <use xlink:href="#glyph11-1" x="169.954832" y="156.404873"/>
</g>
<path style=" stroke:none;fill-rule:nonzero;fill:rgb(0%,0%,0%);fill-opacity:1;" d="M 176.40625 154.621094 L 184.542969 154.621094 L 184.542969 156.417969 L 176.40625 156.417969 Z M 176.40625 154.621094 "/>
<g style="fill:rgb(0%,0%,0%);fill-opacity:1;">
  <use xlink:href="#glyph11-2" x="184.555201" y="156.404873"/>
</g>
<g style="fill:rgb(0%,0%,0%);fill-opacity:1;">
  <use xlink:href="#glyph11-3" x="191.018085" y="156.404873"/>
</g>
<path style=" stroke:none;fill-rule:nonzero;fill:rgb(0%,0%,0%);fill-opacity:1;" d="M 197.46875 154.621094 L 205.605469 154.621094 L 205.605469 156.417969 L 197.46875 156.417969 Z M 197.46875 154.621094 "/>
<g style="fill:rgb(0%,0%,0%);fill-opacity:1;">
  <use xlink:href="#glyph11-4" x="205.619468" y="156.404873"/>
</g>
<g style="fill:rgb(0%,0%,0%);fill-opacity:1;">
  <use xlink:href="#glyph12-2" x="170.792116" y="176.121106"/>
</g>
<g style="fill:rgb(0%,0%,0%);fill-opacity:1;">
  <use xlink:href="#glyph1-1" x="178.571533" y="176.121106"/>
</g>
<g style="fill:rgb(0%,0%,0%);fill-opacity:1;">
  <use xlink:href="#glyph2-1" x="184.076886" y="176.121106"/>
</g>
<g style="fill:rgb(0%,0%,0%);fill-opacity:1;">
  <use xlink:href="#glyph2-2" x="191.018659" y="176.121106"/>
</g>
<g style="fill:rgb(0%,0%,0%);fill-opacity:1;">
  <use xlink:href="#glyph2-3" x="197.362019" y="176.121106"/>
</g>
<g style="fill:rgb(0%,0%,0%);fill-opacity:1;">
  <use xlink:href="#glyph1-2" x="205.620285" y="176.121106"/>
</g>
<g style="fill:rgb(0%,0%,0%);fill-opacity:1;">
  <use xlink:href="#glyph13-1" x="213.904227" y="91.784849"/>
</g>
<g style="fill:rgb(0%,0%,0%);fill-opacity:1;">
  <use xlink:href="#glyph14-1" x="113.080992" y="193.112749"/>
</g>
<g style="fill:rgb(0%,0%,0%);fill-opacity:1;">
  <use xlink:href="#glyph14-2" x="118.466742" y="193.112749"/>
</g>
<g style="fill:rgb(0%,0%,0%);fill-opacity:1;">
  <use xlink:href="#glyph14-3" x="122.895027" y="193.112749"/>
</g>
<g style="fill:rgb(0%,0%,0%);fill-opacity:1;">
  <use xlink:href="#glyph14-4" x="127.68236" y="193.112749"/>
</g>
<g style="fill:rgb(0%,0%,0%);fill-opacity:1;">
  <use xlink:href="#glyph14-5" x="135.581452" y="193.112749"/>
</g>
<g style="fill:rgb(0%,0%,0%);fill-opacity:1;">
  <use xlink:href="#glyph14-6" x="138.57353" y="193.112749"/>
</g>
<g style="fill:rgb(0%,0%,0%);fill-opacity:1;">
  <use xlink:href="#glyph14-7" x="143.361018" y="193.112749"/>
</g>
<g style="fill:rgb(0%,0%,0%);fill-opacity:1;">
  <use xlink:href="#glyph14-4" x="146.712143" y="193.112749"/>
</g>
<g style="fill:rgb(0%,0%,0%);fill-opacity:1;">
  <use xlink:href="#glyph14-8" x="154.611248" y="193.112749"/>
</g>
<g style="fill:rgb(0%,0%,0%);fill-opacity:1;">
  <use xlink:href="#glyph14-9" x="157.004917" y="193.112749"/>
</g>
<g style="fill:rgb(0%,0%,0%);fill-opacity:1;">
  <use xlink:href="#glyph14-10" x="162.151297" y="193.112749"/>
</g>
<g style="fill:rgb(0%,0%,0%);fill-opacity:1;">
  <use xlink:href="#glyph14-11" x="124.690076" y="204.421128"/>
</g>
<g style="fill:rgb(0%,0%,0%);fill-opacity:1;">
  <use xlink:href="#glyph14-2" x="131.272662" y="204.421128"/>
</g>
<g style="fill:rgb(0%,0%,0%);fill-opacity:1;">
  <use xlink:href="#glyph14-8" x="135.700947" y="204.421128"/>
</g>
<g style="fill:rgb(0%,0%,0%);fill-opacity:1;">
  <use xlink:href="#glyph14-10" x="138.094616" y="204.421128"/>
</g>
<g style="fill:rgb(0%,0%,0%);fill-opacity:1;">
  <use xlink:href="#glyph14-12" x="143.121316" y="204.421128"/>
</g>
<g style="fill:rgb(0%,0%,0%);fill-opacity:1;">
  <use xlink:href="#glyph14-13" x="148.267696" y="204.421128"/>
</g>
<g style="fill:rgb(0%,0%,0%);fill-opacity:1;">
  <use xlink:href="#glyph14-14" x="151.8582" y="204.421128"/>
</g>
<g style="fill:rgb(0%,0%,0%);fill-opacity:1;">
  <use xlink:href="#glyph14-3" x="180.725414" y="193.112749"/>
</g>
<g style="fill:rgb(0%,0%,0%);fill-opacity:1;">
  <use xlink:href="#glyph14-7" x="185.273536" y="193.112749"/>
</g>
<g style="fill:rgb(0%,0%,0%);fill-opacity:1;">
  <use xlink:href="#glyph14-7" x="188.624661" y="193.112749"/>
</g>
<g style="fill:rgb(0%,0%,0%);fill-opacity:1;">
  <use xlink:href="#glyph14-3" x="191.975787" y="193.112749"/>
</g>
<g style="fill:rgb(0%,0%,0%);fill-opacity:1;">
  <use xlink:href="#glyph14-15" x="196.523836" y="193.112749"/>
</g>
<g style="fill:rgb(0%,0%,0%);fill-opacity:1;">
  <use xlink:href="#glyph14-7" x="173.185593" y="204.421128"/>
</g>
<g style="fill:rgb(0%,0%,0%);fill-opacity:1;">
  <use xlink:href="#glyph14-2" x="176.536719" y="204.421128"/>
</g>
<g style="fill:rgb(0%,0%,0%);fill-opacity:1;">
  <use xlink:href="#glyph14-14" x="180.965004" y="204.421128"/>
</g>
<g style="fill:rgb(0%,0%,0%);fill-opacity:1;">
  <use xlink:href="#glyph14-16" x="184.794878" y="204.421128"/>
</g>
<g style="fill:rgb(0%,0%,0%);fill-opacity:1;">
  <use xlink:href="#glyph14-6" x="190.180469" y="204.421128"/>
</g>
<g style="fill:rgb(0%,0%,0%);fill-opacity:1;">
  <use xlink:href="#glyph14-9" x="195.207168" y="204.421128"/>
</g>
<g style="fill:rgb(0%,0%,0%);fill-opacity:1;">
  <use xlink:href="#glyph14-14" x="200.353549" y="204.421128"/>
</g>
<g style="fill:rgb(0%,0%,0%);fill-opacity:1;">
  <use xlink:href="#glyph14-2" x="204.183423" y="204.421128"/>
</g>
<g style="fill:rgb(0%,0%,0%);fill-opacity:1;">
  <use xlink:href="#glyph14-1" x="11.302914" y="119.606437"/>
</g>
<g style="fill:rgb(0%,0%,0%);fill-opacity:1;">
  <use xlink:href="#glyph14-2" x="16.688664" y="119.606437"/>
</g>
<g style="fill:rgb(0%,0%,0%);fill-opacity:1;">
  <use xlink:href="#glyph14-3" x="21.116947" y="119.606437"/>
</g>
<g style="fill:rgb(0%,0%,0%);fill-opacity:1;">
  <use xlink:href="#glyph14-4" x="25.90428" y="119.606437"/>
</g>
<g style="fill:rgb(0%,0%,0%);fill-opacity:1;">
  <use xlink:href="#glyph14-5" x="33.803378" y="119.606437"/>
</g>
<g style="fill:rgb(0%,0%,0%);fill-opacity:1;">
  <use xlink:href="#glyph14-6" x="36.795462" y="119.606437"/>
</g>
<g style="fill:rgb(0%,0%,0%);fill-opacity:1;">
  <use xlink:href="#glyph14-7" x="41.582953" y="119.606437"/>
</g>
<g style="fill:rgb(0%,0%,0%);fill-opacity:1;">
  <use xlink:href="#glyph14-4" x="44.934088" y="119.606437"/>
</g>
<g style="fill:rgb(0%,0%,0%);fill-opacity:1;">
  <use xlink:href="#glyph14-8" x="52.833186" y="119.606437"/>
</g>
<g style="fill:rgb(0%,0%,0%);fill-opacity:1;">
  <use xlink:href="#glyph14-9" x="55.226855" y="119.606437"/>
</g>
<g style="fill:rgb(0%,0%,0%);fill-opacity:1;">
  <use xlink:href="#glyph14-10" x="60.373235" y="119.606437"/>
</g>
<g style="fill:rgb(0%,0%,0%);fill-opacity:1;">
  <use xlink:href="#glyph14-10" x="29.614664" y="130.914816"/>
</g>
<g style="fill:rgb(0%,0%,0%);fill-opacity:1;">
  <use xlink:href="#glyph14-3" x="34.641363" y="130.914816"/>
</g>
<g style="fill:rgb(0%,0%,0%);fill-opacity:1;">
  <use xlink:href="#glyph14-8" x="39.428695" y="130.914816"/>
</g>
<g style="fill:rgb(0%,0%,0%);fill-opacity:1;">
  <use xlink:href="#glyph14-9" x="41.822361" y="130.914816"/>
</g>
<g style="fill:rgb(0%,0%,0%);fill-opacity:1;">
  <use xlink:href="#glyph13-1" x="146.052584" y="103.09273"/>
</g>
<g style="fill:rgb(0%,0%,0%);fill-opacity:1;">
  <use xlink:href="#glyph14-3" x="335.33377" y="42.480402"/>
</g>
<g style="fill:rgb(0%,0%,0%);fill-opacity:1;">
  <use xlink:href="#glyph14-17" x="340.121115" y="42.480402"/>
</g>
<g style="fill:rgb(0%,0%,0%);fill-opacity:1;">
  <use xlink:href="#glyph14-8" x="344.429717" y="42.480402"/>
</g>
<g style="fill:rgb(0%,0%,0%);fill-opacity:1;">
  <use xlink:href="#glyph14-4" x="346.823373" y="42.480402"/>
</g>
<g style="fill:rgb(0%,0%,0%);fill-opacity:1;">
  <use xlink:href="#glyph14-18" x="354.722477" y="42.480402"/>
</g>
<g style="fill:rgb(0%,0%,0%);fill-opacity:1;">
  <use xlink:href="#glyph14-13" x="359.86887" y="42.480402"/>
</g>
<g style="fill:rgb(0%,0%,0%);fill-opacity:1;">
  <use xlink:href="#glyph14-12" x="363.459374" y="42.480402"/>
</g>
<g style="fill:rgb(0%,0%,0%);fill-opacity:1;">
  <use xlink:href="#glyph14-19" x="368.605743" y="42.480402"/>
</g>
<g style="fill:rgb(0%,0%,0%);fill-opacity:1;">
  <use xlink:href="#glyph14-2" x="371.956891" y="42.480402"/>
</g>
<g style="fill:rgb(0%,0%,0%);fill-opacity:1;">
  <use xlink:href="#glyph14-20" x="376.385164" y="42.480402"/>
</g>
<g style="fill:rgb(0%,0%,0%);fill-opacity:1;">
  <use xlink:href="#glyph14-2" x="378.778821" y="42.480402"/>
</g>
<g style="fill:rgb(0%,0%,0%);fill-opacity:1;">
  <use xlink:href="#glyph14-21" x="383.207118" y="42.480402"/>
</g>
<g style="fill:rgb(0%,0%,0%);fill-opacity:1;">
  <use xlink:href="#glyph14-3" x="387.755073" y="42.480402"/>
</g>
<g style="fill:rgb(0%,0%,0%);fill-opacity:1;">
  <use xlink:href="#glyph14-13" x="392.542418" y="42.480402"/>
</g>
<g style="fill:rgb(0%,0%,0%);fill-opacity:1;">
  <use xlink:href="#glyph14-8" x="396.132922" y="42.480402"/>
</g>
<g style="fill:rgb(0%,0%,0%);fill-opacity:1;">
  <use xlink:href="#glyph14-6" x="398.526579" y="42.480402"/>
</g>
<g style="fill:rgb(0%,0%,0%);fill-opacity:1;">
  <use xlink:href="#glyph14-9" x="403.553291" y="42.480402"/>
</g>
</g>
</svg>
