<?xml version="1.0" encoding="UTF-8" standalone="no"?>
<svg
   xmlns:dc="http://purl.org/dc/elements/1.1/"
   xmlns:cc="http://creativecommons.org/ns#"
   xmlns:rdf="http://www.w3.org/1999/02/22-rdf-syntax-ns#"
   xmlns:svg="http://www.w3.org/2000/svg"
   xmlns="http://www.w3.org/2000/svg"
   xmlns:xlink="http://www.w3.org/1999/xlink"
   id="svg440"
   version="1.2"
   viewBox="0 0 232.44 111.12"
   height="111.12pt"
   width="232.44pt">
  <metadata
     id="metadata444">
    <rdf:RDF>
      <cc:Work
         rdf:about="">
        <dc:format>image/svg+xml</dc:format>
        <dc:type
           rdf:resource="http://purl.org/dc/dcmitype/StillImage" />
        <dc:title></dc:title>
      </cc:Work>
    </rdf:RDF>
  </metadata>
  <defs
     id="defs67">
    <g
       id="g62">
      <symbol
         id="glyph0-0"
         overflow="visible">
        <path
           id="path2"
           d=""
           style="stroke:none;" />
      </symbol>
      <symbol
         id="glyph0-1"
         overflow="visible">
        <path
           id="path5"
           d="M 1.75 -3.84375 L 2.84375 -3.84375 L 2.84375 -4.421875 L 1.71875 -4.421875 L 1.71875 -5.609375 C 1.71875 -6.34375 2.390625 -6.421875 2.65625 -6.421875 C 2.84375 -6.421875 3.125 -6.40625 3.453125 -6.25 L 3.453125 -6.921875 C 3.34375 -6.953125 3.03125 -7.03125 2.65625 -7.03125 C 1.71875 -7.03125 1 -6.3125 1 -5.328125 L 1 -4.421875 L 0.265625 -4.421875 L 0.265625 -3.84375 L 1 -3.84375 L 1 0 L 1.75 0 Z M 1.75 -3.84375 "
           style="stroke:none;" />
      </symbol>
      <symbol
         id="glyph0-2"
         overflow="visible">
        <path
           id="path8"
           d="M 4.34375 -4.421875 L 3.5625 -4.421875 L 3.5625 -1.53125 C 3.5625 -0.78125 3 -0.4375 2.359375 -0.4375 C 1.65625 -0.4375 1.578125 -0.703125 1.578125 -1.125 L 1.578125 -4.421875 L 0.8125 -4.421875 L 0.8125 -1.09375 C 0.8125 -0.375 1.03125 0.109375 1.859375 0.109375 C 2.390625 0.109375 3.09375 -0.046875 3.59375 -0.484375 L 3.59375 0 L 4.34375 0 Z M 4.34375 -4.421875 "
           style="stroke:none;" />
      </symbol>
      <symbol
         id="glyph0-3"
         overflow="visible">
        <path
           id="path11"
           d="M 1.5625 -6.921875 L 0.8125 -6.921875 L 0.8125 0 L 1.5625 0 Z M 1.5625 -6.921875 "
           style="stroke:none;" />
      </symbol>
      <symbol
         id="glyph0-4"
         overflow="visible">
        <path
           id="path14"
           d="M 2.75 -1.921875 L 2.75 -2.5 L 0.109375 -2.5 L 0.109375 -1.921875 Z M 2.75 -1.921875 "
           style="stroke:none;" />
      </symbol>
      <symbol
         id="glyph0-5"
         overflow="visible">
        <path
           id="path17"
           d="M 4.328125 -6.921875 L 3.578125 -6.921875 L 3.578125 -3.984375 C 3.046875 -4.421875 2.5 -4.53125 2.125 -4.53125 C 1.140625 -4.53125 0.359375 -3.5 0.359375 -2.21875 C 0.359375 -0.90625 1.125 0.109375 2.078125 0.109375 C 2.40625 0.109375 2.984375 0.015625 3.546875 -0.515625 L 3.546875 0 L 4.328125 0 Z M 3.546875 -1.390625 C 3.546875 -1.25 3.53125 -1.0625 3.21875 -0.78125 C 2.984375 -0.578125 2.734375 -0.5 2.484375 -0.5 C 1.859375 -0.5 1.140625 -0.96875 1.140625 -2.203125 C 1.140625 -3.515625 2 -3.921875 2.578125 -3.921875 C 3.03125 -3.921875 3.328125 -3.703125 3.546875 -3.375 Z M 3.546875 -1.390625 "
           style="stroke:none;" />
      </symbol>
      <symbol
         id="glyph0-6"
         overflow="visible">
        <path
           id="path20"
           d="M 1.59375 -0.453125 C 1.90625 -0.171875 2.34375 0.109375 2.9375 0.109375 C 3.90625 0.109375 4.78125 -0.875 4.78125 -2.21875 C 4.78125 -3.421875 4.15625 -4.53125 3.203125 -4.53125 C 2.609375 -4.53125 2.03125 -4.328125 1.5625 -3.9375 L 1.5625 -4.421875 L 0.8125 -4.421875 L 0.8125 1.9375 L 1.59375 1.9375 Z M 1.59375 -3.3125 C 1.828125 -3.671875 2.21875 -3.890625 2.65625 -3.890625 C 3.40625 -3.890625 4 -3.140625 4 -2.21875 C 4 -1.203125 3.296875 -0.5 2.546875 -0.5 C 2.15625 -0.5 1.890625 -0.703125 1.6875 -0.96875 C 1.59375 -1.109375 1.59375 -1.140625 1.59375 -1.3125 Z M 1.59375 -3.3125 "
           style="stroke:none;" />
      </symbol>
      <symbol
         id="glyph0-7"
         overflow="visible">
        <path
           id="path23"
           d="M 4.125 -2.1875 C 4.125 -2.515625 4.109375 -3.265625 3.734375 -3.875 C 3.3125 -4.484375 2.71875 -4.59375 2.359375 -4.59375 C 1.25 -4.59375 0.34375 -3.53125 0.34375 -2.25 C 0.34375 -0.9375 1.3125 0.109375 2.5 0.109375 C 3.125 0.109375 3.703125 -0.125 4.09375 -0.40625 L 4.03125 -1.0625 C 3.40625 -0.53125 2.734375 -0.5 2.515625 -0.5 C 1.71875 -0.5 1.078125 -1.203125 1.046875 -2.1875 Z M 1.09375 -2.734375 C 1.25 -3.484375 1.78125 -3.984375 2.359375 -3.984375 C 2.875 -3.984375 3.421875 -3.65625 3.5625 -2.734375 Z M 1.09375 -2.734375 "
           style="stroke:none;" />
      </symbol>
      <symbol
         id="glyph0-8"
         overflow="visible">
        <path
           id="path26"
           d="M 2.59375 -2.28125 L 4.421875 -4.421875 L 3.59375 -4.421875 L 2.265625 -2.78125 L 0.890625 -4.421875 L 0.0625 -4.421875 L 1.9375 -2.28125 L 0 0 L 0.8125 0 L 2.265625 -1.875 L 3.765625 0 L 4.578125 0 Z M 2.59375 -2.28125 "
           style="stroke:none;" />
      </symbol>
      <symbol
         id="glyph0-9"
         overflow="visible">
        <path
           id="path29"
           d="M 1.5625 -6.921875 L 0.8125 -6.921875 L 0.8125 0 L 1.59375 0 L 1.59375 -0.453125 C 1.828125 -0.234375 2.265625 0.109375 2.9375 0.109375 C 3.921875 0.109375 4.78125 -0.890625 4.78125 -2.21875 C 4.78125 -3.453125 4.109375 -4.53125 3.171875 -4.53125 C 2.78125 -4.53125 2.15625 -4.4375 1.5625 -3.953125 Z M 1.59375 -3.34375 C 1.75 -3.578125 2.109375 -3.921875 2.65625 -3.921875 C 3.25 -3.921875 4 -3.5 4 -2.21875 C 4 -0.921875 3.171875 -0.5 2.5625 -0.5 C 2.171875 -0.5 1.84375 -0.671875 1.59375 -1.140625 Z M 1.59375 -3.34375 "
           style="stroke:none;" />
      </symbol>
      <symbol
         id="glyph0-10"
         overflow="visible">
        <path
           id="path32"
           d="M 3.984375 -2.875 C 3.984375 -3.890625 3.25 -4.59375 2.328125 -4.59375 C 1.6875 -4.59375 1.234375 -4.4375 0.765625 -4.171875 L 0.828125 -3.515625 C 1.34375 -3.875 1.84375 -4 2.328125 -4 C 2.796875 -4 3.203125 -3.609375 3.203125 -2.875 L 3.203125 -2.4375 C 1.703125 -2.421875 0.4375 -2 0.4375 -1.125 C 0.4375 -0.703125 0.703125 0.109375 1.578125 0.109375 C 1.71875 0.109375 2.65625 0.09375 3.234375 -0.359375 L 3.234375 0 L 3.984375 0 Z M 3.203125 -1.3125 C 3.203125 -1.125 3.203125 -0.875 2.859375 -0.6875 C 2.578125 -0.515625 2.1875 -0.5 2.078125 -0.5 C 1.609375 -0.5 1.15625 -0.734375 1.15625 -1.140625 C 1.15625 -1.84375 2.765625 -1.90625 3.203125 -1.9375 Z M 3.203125 -1.3125 "
           style="stroke:none;" />
      </symbol>
      <symbol
         id="glyph0-11"
         overflow="visible">
        <path
           id="path35"
           d="M 3.421875 -4.28125 C 2.90625 -4.515625 2.5 -4.59375 1.984375 -4.59375 C 1.734375 -4.59375 0.328125 -4.59375 0.328125 -3.296875 C 0.328125 -2.796875 0.625 -2.484375 0.875 -2.296875 C 1.171875 -2.078125 1.390625 -2.03125 1.9375 -1.921875 C 2.296875 -1.859375 2.875 -1.734375 2.875 -1.203125 C 2.875 -0.515625 2.09375 -0.515625 1.9375 -0.515625 C 1.140625 -0.515625 0.578125 -0.890625 0.40625 -1 L 0.28125 -0.328125 C 0.59375 -0.171875 1.140625 0.109375 1.953125 0.109375 C 2.140625 0.109375 2.6875 0.109375 3.109375 -0.203125 C 3.421875 -0.453125 3.59375 -0.84375 3.59375 -1.28125 C 3.59375 -1.828125 3.21875 -2.15625 3.203125 -2.1875 C 2.8125 -2.546875 2.546875 -2.609375 2.046875 -2.6875 C 1.5 -2.796875 1.03125 -2.90625 1.03125 -3.390625 C 1.03125 -4 1.75 -4 1.890625 -4 C 2.203125 -4 2.734375 -3.96875 3.296875 -3.625 Z M 3.421875 -4.28125 "
           style="stroke:none;" />
      </symbol>
      <symbol
         id="glyph0-12"
         overflow="visible">
        <path
           id="path38"
           d="M 1.75 -3.84375 L 3.15625 -3.84375 L 3.15625 -4.421875 L 1.75 -4.421875 L 1.75 -5.6875 L 1.0625 -5.6875 L 1.0625 -4.421875 L 0.1875 -4.421875 L 0.1875 -3.84375 L 1.03125 -3.84375 L 1.03125 -1.1875 C 1.03125 -0.59375 1.171875 0.109375 1.859375 0.109375 C 2.546875 0.109375 3.0625 -0.140625 3.3125 -0.265625 L 3.15625 -0.859375 C 2.890625 -0.640625 2.578125 -0.53125 2.25 -0.53125 C 1.890625 -0.53125 1.75 -0.828125 1.75 -1.359375 Z M 1.75 -3.84375 "
           style="stroke:none;" />
      </symbol>
      <symbol
         id="glyph0-13"
         overflow="visible">
        <path
           id="path41"
           d="M 1.625 -6.78125 L 0.734375 -6.78125 L 0.734375 -5.890625 L 1.625 -5.890625 Z M 1.5625 -4.421875 L 0.8125 -4.421875 L 0.8125 0 L 1.5625 0 Z M 1.5625 -4.421875 "
           style="stroke:none;" />
      </symbol>
      <symbol
         id="glyph0-14"
         overflow="visible">
        <path
           id="path44"
           d="M 4.671875 -2.1875 C 4.671875 -3.53125 3.671875 -4.59375 2.5 -4.59375 C 1.265625 -4.59375 0.296875 -3.5 0.296875 -2.1875 C 0.296875 -0.875 1.3125 0.109375 2.484375 0.109375 C 3.671875 0.109375 4.671875 -0.890625 4.671875 -2.1875 Z M 2.484375 -0.53125 C 1.796875 -0.53125 1.078125 -1.09375 1.078125 -2.296875 C 1.078125 -3.5 1.828125 -3.984375 2.484375 -3.984375 C 3.1875 -3.984375 3.890625 -3.46875 3.890625 -2.296875 C 3.890625 -1.109375 3.21875 -0.53125 2.484375 -0.53125 Z M 2.484375 -0.53125 "
           style="stroke:none;" />
      </symbol>
      <symbol
         id="glyph0-15"
         overflow="visible">
        <path
           id="path47"
           d="M 4.34375 -2.96875 C 4.34375 -3.625 4.1875 -4.53125 2.96875 -4.53125 C 2.078125 -4.53125 1.578125 -3.859375 1.53125 -3.78125 L 1.53125 -4.484375 L 0.8125 -4.484375 L 0.8125 0 L 1.578125 0 L 1.578125 -2.4375 C 1.578125 -3.09375 1.828125 -3.921875 2.59375 -3.921875 C 3.546875 -3.921875 3.5625 -3.21875 3.5625 -2.90625 L 3.5625 0 L 4.34375 0 Z M 4.34375 -2.96875 "
           style="stroke:none;" />
      </symbol>
      <symbol
         id="glyph0-16"
         overflow="visible">
        <path
           id="path50"
           d="M 1.5625 -2.140625 C 1.5625 -3.125 2.28125 -3.84375 3.265625 -3.875 L 3.265625 -4.53125 C 2.375 -4.53125 1.828125 -4.03125 1.515625 -3.578125 L 1.515625 -4.484375 L 0.8125 -4.484375 L 0.8125 0 L 1.5625 0 Z M 1.5625 -2.140625 "
           style="stroke:none;" />
      </symbol>
      <symbol
         id="glyph0-17"
         overflow="visible">
        <path
           id="path53"
           d="M 4.09375 -4.171875 C 3.5 -4.5 3.15625 -4.59375 2.546875 -4.59375 C 1.171875 -4.59375 0.359375 -3.390625 0.359375 -2.21875 C 0.359375 -0.984375 1.265625 0.109375 2.515625 0.109375 C 3.046875 0.109375 3.59375 -0.03125 4.140625 -0.40625 L 4.078125 -1.0625 C 3.5625 -0.671875 3.03125 -0.53125 2.515625 -0.53125 C 1.6875 -0.53125 1.140625 -1.25 1.140625 -2.21875 C 1.140625 -3 1.5 -3.953125 2.5625 -3.953125 C 3.078125 -3.953125 3.421875 -3.875 3.96875 -3.515625 Z M 4.09375 -4.171875 "
           style="stroke:none;" />
      </symbol>
      <symbol
         id="glyph0-18"
         overflow="visible">
        <path
           id="path56"
           d="M 6.65625 -4.421875 L 5.9375 -4.421875 L 5.296875 -2.3125 C 5.1875 -1.953125 4.890625 -0.96875 4.828125 -0.53125 C 4.78125 -0.84375 4.53125 -1.734375 4.359375 -2.296875 L 3.71875 -4.421875 L 3.015625 -4.421875 L 2.453125 -2.546875 C 2.34375 -2.203125 2 -1.0625 1.96875 -0.546875 L 1.953125 -0.546875 C 1.90625 -1.03125 1.578125 -2.15625 1.421875 -2.703125 L 0.890625 -4.421875 L 0.140625 -4.421875 L 1.5 0 L 2.296875 0 C 2.34375 -0.15625 2.6875 -1.28125 2.90625 -2.046875 C 3.046875 -2.515625 3.328125 -3.5 3.359375 -3.875 L 3.375 -3.875 C 3.390625 -3.59375 3.5625 -2.90625 3.6875 -2.46875 L 4.421875 0 L 5.296875 0 Z M 6.65625 -4.421875 "
           style="stroke:none;" />
      </symbol>
      <symbol
         id="glyph0-19"
         overflow="visible">
        <path
           id="path59"
           d="M 2.796875 -2.71875 L 4.46875 -4.421875 L 3.578125 -4.421875 L 1.5625 -2.359375 L 1.5625 -6.921875 L 0.84375 -6.921875 L 0.84375 0 L 1.53125 0 L 1.53125 -1.40625 L 2.328125 -2.234375 L 3.875 0 L 4.6875 0 Z M 2.796875 -2.71875 "
           style="stroke:none;" />
      </symbol>
    </g>
    <clipPath
       id="clip1">
      <path
         id="path64"
         d="M 155 0 L 232.441406 0 L 232.441406 65 L 155 65 Z M 155 0 " />
    </clipPath>
  </defs>
  <g
     id="surface616">
    <path
       id="path69"
       transform="matrix(0.1,0,0,-0.1,0,111.12)"
       d="M 46.914062 254.910937 L 46.914062 36.66875 L 710.195312 36.66875 L 710.195312 473.192187 L 46.914062 473.192187 Z M 46.914062 254.910937 "
       style="fill:none;stroke-width:17.0071;stroke-linecap:butt;stroke-linejoin:miter;stroke:rgb(0%,0%,0%);stroke-opacity:1;stroke-miterlimit:10;" />
    <path
       id="path71"
       transform="matrix(0.1,0,0,-0.1,0,111.12)"
       d="M 378.554688 708.465625 L 378.554688 481.707812 "
       style="fill:none;stroke-width:17.0071;stroke-linecap:butt;stroke-linejoin:miter;stroke:rgb(0%,0%,0%);stroke-opacity:1;stroke-miterlimit:10;" />
    <path
       id="path73"
       transform="matrix(0.1,0,0,-0.1,0,111.12)"
       d="M 265.15625 708.465625 L 378.554688 595.067187 L 491.953125 708.465625 "
       style="fill:none;stroke-width:17.0071;stroke-linecap:butt;stroke-linejoin:miter;stroke:rgb(0%,0%,0%);stroke-opacity:1;stroke-miterlimit:10;" />
    <g
       id="g77"
       style="fill:rgb(0%,0%,0%);fill-opacity:1;">
      <use
         id="use75"
         y="82.4778"
         x="16.3758"
         xlink:href="#glyph0-1" />
    </g>
    <g
       id="g81"
       style="fill:rgb(0%,0%,0%);fill-opacity:1;">
      <use
         id="use79"
         y="82.4778"
         x="19.3758"
         xlink:href="#glyph0-2" />
    </g>
    <g
       id="g85"
       style="fill:rgb(0%,0%,0%);fill-opacity:1;">
      <use
         id="use83"
         y="82.4778"
         x="24.535799"
         xlink:href="#glyph0-3" />
    </g>
    <g
       id="g89"
       style="fill:rgb(0%,0%,0%);fill-opacity:1;">
      <use
         id="use87"
         y="82.4778"
         x="26.935798"
         xlink:href="#glyph0-3" />
    </g>
    <g
       id="g93"
       style="fill:rgb(0%,0%,0%);fill-opacity:1;">
      <use
         id="use91"
         y="82.4778"
         x="29.335798"
         xlink:href="#glyph0-4" />
    </g>
    <g
       id="g97"
       style="fill:rgb(0%,0%,0%);fill-opacity:1;">
      <use
         id="use95"
         y="82.4778"
         x="32.695798"
         xlink:href="#glyph0-5" />
    </g>
    <g
       id="g101"
       style="fill:rgb(0%,0%,0%);fill-opacity:1;">
      <use
         id="use99"
         y="82.4778"
         x="37.855798"
         xlink:href="#glyph0-2" />
    </g>
    <g
       id="g105"
       style="fill:rgb(0%,0%,0%);fill-opacity:1;">
      <use
         id="use103"
         y="82.4778"
         x="43.015795"
         xlink:href="#glyph0-6" />
    </g>
    <g
       id="g109"
       style="fill:rgb(0%,0%,0%);fill-opacity:1;">
      <use
         id="use107"
         y="82.4778"
         x="48.175795"
         xlink:href="#glyph0-3" />
    </g>
    <g
       id="g113"
       style="fill:rgb(0%,0%,0%);fill-opacity:1;">
      <use
         id="use111"
         y="82.4778"
         x="50.575794"
         xlink:href="#glyph0-7" />
    </g>
    <g
       id="g117"
       style="fill:rgb(0%,0%,0%);fill-opacity:1;">
      <use
         id="use115"
         y="82.4778"
         x="55.015796"
         xlink:href="#glyph0-8" />
    </g>
    <g
       id="g121"
       style="fill:rgb(0%,0%,0%);fill-opacity:1;">
      <use
         id="use119"
         y="94.7762"
         x="13.01564"
         xlink:href="#glyph0-9" />
    </g>
    <g
       id="g125"
       style="fill:rgb(0%,0%,0%);fill-opacity:1;">
      <use
         id="use123"
         y="94.7762"
         x="18.175639"
         xlink:href="#glyph0-10" />
    </g>
    <g
       id="g129"
       style="fill:rgb(0%,0%,0%);fill-opacity:1;">
      <use
         id="use127"
         y="94.7762"
         x="22.97564"
         xlink:href="#glyph0-11" />
    </g>
    <g
       id="g133"
       style="fill:rgb(0%,0%,0%);fill-opacity:1;">
      <use
         id="use131"
         y="94.7762"
         x="26.815641"
         xlink:href="#glyph0-7" />
    </g>
    <g
       id="g137"
       style="fill:rgb(0%,0%,0%);fill-opacity:1;">
      <use
         id="use135"
         y="94.7762"
         x="34.495721"
         xlink:href="#glyph0-11" />
    </g>
    <g
       id="g141"
       style="fill:rgb(0%,0%,0%);fill-opacity:1;">
      <use
         id="use139"
         y="94.7762"
         x="38.335719"
         xlink:href="#glyph0-12" />
    </g>
    <g
       id="g145"
       style="fill:rgb(0%,0%,0%);fill-opacity:1;">
      <use
         id="use143"
         y="94.7762"
         x="41.93572"
         xlink:href="#glyph0-10" />
    </g>
    <g
       id="g149"
       style="fill:rgb(0%,0%,0%);fill-opacity:1;">
      <use
         id="use147"
         y="94.7762"
         x="46.73572"
         xlink:href="#glyph0-12" />
    </g>
    <g
       id="g153"
       style="fill:rgb(0%,0%,0%);fill-opacity:1;">
      <use
         id="use151"
         y="94.7762"
         x="50.335721"
         xlink:href="#glyph0-13" />
    </g>
    <g
       id="g157"
       style="fill:rgb(0%,0%,0%);fill-opacity:1;">
      <use
         id="use155"
         y="94.7762"
         x="52.735717"
         xlink:href="#glyph0-14" />
    </g>
    <g
       id="g161"
       style="fill:rgb(0%,0%,0%);fill-opacity:1;">
      <use
         id="use159"
         y="94.7762"
         x="57.775722"
         xlink:href="#glyph0-15" />
    </g>
    <path
       id="path163"
       transform="matrix(0.1,0,0,-0.1,0,111.12)"
       d="M 1634.296875 254.910937 L 1634.296875 36.66875 L 2297.617188 36.66875 L 2297.617188 473.192187 L 1634.296875 473.192187 Z M 1634.296875 254.910937 "
       style="fill:none;stroke-width:17.0071;stroke-linecap:butt;stroke-linejoin:miter;stroke:rgb(0%,0%,0%);stroke-opacity:1;stroke-miterlimit:10;" />
    <path
       id="path165"
       transform="matrix(0.1,0,0,-0.1,0,111.12)"
       d="M 1965.976562 708.465625 L 1965.976562 481.707812 "
       style="fill:none;stroke-width:17.0071;stroke-linecap:butt;stroke-linejoin:miter;stroke:rgb(0%,0%,0%);stroke-opacity:1;stroke-miterlimit:10;" />
    <path
       id="path167"
       transform="matrix(0.1,0,0,-0.1,0,111.12)"
       d="M 1852.578125 708.465625 L 1965.976562 595.067187 L 2079.335938 708.465625 "
       style="fill:none;stroke-width:17.0071;stroke-linecap:butt;stroke-linejoin:miter;stroke:rgb(0%,0%,0%);stroke-opacity:1;stroke-miterlimit:10;" />
    <g
       id="g171"
       style="fill:rgb(0%,0%,0%);fill-opacity:1;">
      <use
         id="use169"
         y="82.4778"
         x="175.116"
         xlink:href="#glyph0-1" />
    </g>
    <g
       id="g175"
       style="fill:rgb(0%,0%,0%);fill-opacity:1;">
      <use
         id="use173"
         y="82.4778"
         x="178.115994"
         xlink:href="#glyph0-2" />
    </g>
    <g
       id="g179"
       style="fill:rgb(0%,0%,0%);fill-opacity:1;">
      <use
         id="use177"
         y="82.4778"
         x="183.275992"
         xlink:href="#glyph0-3" />
    </g>
    <g
       id="g183"
       style="fill:rgb(0%,0%,0%);fill-opacity:1;">
      <use
         id="use181"
         y="82.4778"
         x="185.675994"
         xlink:href="#glyph0-3" />
    </g>
    <g
       id="g187"
       style="fill:rgb(0%,0%,0%);fill-opacity:1;">
      <use
         id="use185"
         y="82.4778"
         x="188.075996"
         xlink:href="#glyph0-4" />
    </g>
    <g
       id="g191"
       style="fill:rgb(0%,0%,0%);fill-opacity:1;">
      <use
         id="use189"
         y="82.4778"
         x="191.435999"
         xlink:href="#glyph0-5" />
    </g>
    <g
       id="g195"
       style="fill:rgb(0%,0%,0%);fill-opacity:1;">
      <use
         id="use193"
         y="82.4778"
         x="196.595996"
         xlink:href="#glyph0-2" />
    </g>
    <g
       id="g199"
       style="fill:rgb(0%,0%,0%);fill-opacity:1;">
      <use
         id="use197"
         y="82.4778"
         x="201.756006"
         xlink:href="#glyph0-6" />
    </g>
    <g
       id="g203"
       style="fill:rgb(0%,0%,0%);fill-opacity:1;">
      <use
         id="use201"
         y="82.4778"
         x="206.916015"
         xlink:href="#glyph0-3" />
    </g>
    <g
       id="g207"
       style="fill:rgb(0%,0%,0%);fill-opacity:1;">
      <use
         id="use205"
         y="82.4778"
         x="209.316005"
         xlink:href="#glyph0-7" />
    </g>
    <g
       id="g211"
       style="fill:rgb(0%,0%,0%);fill-opacity:1;">
      <use
         id="use209"
         y="82.4778"
         x="213.755994"
         xlink:href="#glyph0-8" />
    </g>
    <g
       id="g215"
       style="fill:rgb(0%,0%,0%);fill-opacity:1;">
      <use
         id="use213"
         y="93.4563"
         x="188.1957"
         xlink:href="#glyph0-2" />
    </g>
    <g
       id="g219"
       style="fill:rgb(0%,0%,0%);fill-opacity:1;">
      <use
         id="use217"
         y="93.4563"
         x="193.355697"
         xlink:href="#glyph0-11" />
    </g>
    <g
       id="g223"
       style="fill:rgb(0%,0%,0%);fill-opacity:1;">
      <use
         id="use221"
         y="93.4563"
         x="197.195705"
         xlink:href="#glyph0-7" />
    </g>
    <g
       id="g227"
       style="fill:rgb(0%,0%,0%);fill-opacity:1;">
      <use
         id="use225"
         y="93.4563"
         x="201.635706"
         xlink:href="#glyph0-16" />
    </g>
    <path
       id="path229"
       d="M 159.945312 38.753906 L 168.25 34.605469 L 159.945312 30.453125 L 159.945312 34.605469 "
       style=" stroke:none;fill-rule:nonzero;fill:rgb(12.547302%,32.93457%,84.375%);fill-opacity:1;" />
    <path
       id="path231"
       transform="matrix(0.1,0,0,-0.1,0,111.12)"
       d="M 662.03125 765.145312 L 1599.453125 765.145312 "
       style="fill:none;stroke-width:17.0071;stroke-linecap:butt;stroke-linejoin:miter;stroke:rgb(12.547302%,32.93457%,84.375%);stroke-opacity:1;stroke-miterlimit:10;" />
    <path
       id="path233"
       d="M 74.503906 41.789062 L 66.203125 45.941406 L 74.503906 50.09375 L 74.503906 45.941406 "
       style=" stroke:none;fill-rule:nonzero;fill:rgb(100%,0%,0%);fill-opacity:1;" />
    <path
       id="path235"
       transform="matrix(0.1,0,0,-0.1,0,111.12)"
       d="M 1682.5 651.785937 L 745.039062 651.785937 "
       style="fill:none;stroke-width:17.0071;stroke-linecap:butt;stroke-linejoin:miter;stroke:rgb(100%,0%,0%);stroke-opacity:1;stroke-miterlimit:10;" />
    <path
       id="path237"
       d="M 50.710938 31.96875 L 54.863281 40.273438 L 59.015625 31.96875 L 54.863281 31.96875 "
       style=" stroke:none;fill-rule:nonzero;fill:rgb(0%,0%,0%);fill-opacity:1;" />
    <path
       id="path239"
       transform="matrix(0.1,0,0,-0.1,0,111.12)"
       d="M 208.476562 708.465625 L 207.1875 714.832812 L 204.453125 734.207812 L 202.96875 758.309375 L 203.789062 780.770312 L 206.796875 801.629687 L 211.875 820.8875 L 218.828125 838.582812 L 227.460938 854.676562 L 237.695312 869.207812 L 249.335938 882.215625 L 262.265625 893.7 L 276.25 903.660937 L 291.171875 912.1375 L 306.914062 919.16875 L 323.28125 924.676562 L 340.117188 928.778125 L 357.304688 931.434375 L 374.609375 932.684375 L 391.953125 932.528125 L 409.179688 930.965625 L 426.054688 928.035937 L 442.5 923.778125 L 458.320312 918.153125 L 473.398438 911.2 L 487.5 902.957812 L 500.546875 893.3875 L 512.382812 882.567187 L 522.8125 870.457812 L 531.679688 857.098437 L 538.867188 842.528125 L 544.179688 826.707812 L 547.5 809.676562 L 548.632812 796.04375 L 548.632812 791.5125 "
       style="fill:none;stroke-width:17.0071;stroke-linecap:butt;stroke-linejoin:miter;stroke:rgb(0%,0%,0%);stroke-opacity:1;stroke-dasharray:51.3943,30.8366;stroke-dashoffset:25.0003;stroke-miterlimit:10;" />
    <g
       id="g243"
       style="fill:rgb(0%,0%,0%);fill-opacity:1;">
      <use
         id="use241"
         y="9.737"
         x="5.21563"
         xlink:href="#glyph0-11" />
    </g>
    <g
       id="g247"
       style="fill:rgb(0%,0%,0%);fill-opacity:1;">
      <use
         id="use245"
         y="9.737"
         x="9.055629"
         xlink:href="#glyph0-7" />
    </g>
    <g
       id="g251"
       style="fill:rgb(0%,0%,0%);fill-opacity:1;">
      <use
         id="use249"
         y="9.737"
         x="13.495629"
         xlink:href="#glyph0-3" />
    </g>
    <g
       id="g255"
       style="fill:rgb(0%,0%,0%);fill-opacity:1;">
      <use
         id="use253"
         y="9.737"
         x="15.895628"
         xlink:href="#glyph0-1" />
    </g>
    <g
       id="g259"
       style="fill:rgb(0%,0%,0%);fill-opacity:1;">
      <use
         id="use257"
         y="9.737"
         x="18.895629"
         xlink:href="#glyph0-4" />
    </g>
    <g
       id="g263"
       style="fill:rgb(0%,0%,0%);fill-opacity:1;">
      <use
         id="use261"
         y="9.737"
         x="22.255627"
         xlink:href="#glyph0-13" />
    </g>
    <g
       id="g267"
       style="fill:rgb(0%,0%,0%);fill-opacity:1;">
      <use
         id="use265"
         y="9.737"
         x="24.655627"
         xlink:href="#glyph0-15" />
    </g>
    <g
       id="g271"
       style="fill:rgb(0%,0%,0%);fill-opacity:1;">
      <use
         id="use269"
         y="9.737"
         x="29.815627"
         xlink:href="#glyph0-12" />
    </g>
    <g
       id="g275"
       style="fill:rgb(0%,0%,0%);fill-opacity:1;">
      <use
         id="use273"
         y="9.737"
         x="33.415628"
         xlink:href="#glyph0-7" />
    </g>
    <g
       id="g279"
       style="fill:rgb(0%,0%,0%);fill-opacity:1;">
      <use
         id="use277"
         y="9.737"
         x="37.855626"
         xlink:href="#glyph0-16" />
    </g>
    <g
       id="g283"
       style="fill:rgb(0%,0%,0%);fill-opacity:1;">
      <use
         id="use281"
         y="9.737"
         x="41.215628"
         xlink:href="#glyph0-1" />
    </g>
    <g
       id="g287"
       style="fill:rgb(0%,0%,0%);fill-opacity:1;">
      <use
         id="use285"
         y="9.737"
         x="44.215628"
         xlink:href="#glyph0-7" />
    </g>
    <g
       id="g291"
       style="fill:rgb(0%,0%,0%);fill-opacity:1;">
      <use
         id="use289"
         y="9.737"
         x="48.655627"
         xlink:href="#glyph0-16" />
    </g>
    <g
       id="g295"
       style="fill:rgb(0%,0%,0%);fill-opacity:1;">
      <use
         id="use293"
         y="9.737"
         x="52.015625"
         xlink:href="#glyph0-7" />
    </g>
    <g
       id="g299"
       style="fill:rgb(0%,0%,0%);fill-opacity:1;">
      <use
         id="use297"
         y="9.737"
         x="56.455626"
         xlink:href="#glyph0-15" />
    </g>
    <g
       id="g303"
       style="fill:rgb(0%,0%,0%);fill-opacity:1;">
      <use
         id="use301"
         y="9.737"
         x="61.615624"
         xlink:href="#glyph0-17" />
    </g>
    <g
       id="g307"
       style="fill:rgb(0%,0%,0%);fill-opacity:1;">
      <use
         id="use305"
         y="9.737"
         x="66.055625"
         xlink:href="#glyph0-7" />
    </g>
    <path
       id="path309"
       d="M 175.4375 31.96875 L 179.589844 40.273438 L 183.738281 31.96875 L 179.589844 31.96875 "
       style=" stroke:none;fill-rule:nonzero;fill:rgb(0%,0%,0%);fill-opacity:1;" />
    <g
       id="g313"
       clip-rule="nonzero"
       clip-path="url(#clip1)">
      <path
         id="path311"
         transform="matrix(0.1,0,0,-0.1,0,111.12)"
         d="M 2136.054688 708.465625 L 2137.304688 714.832812 L 2140.039062 734.207812 L 2141.5625 758.309375 L 2140.703125 780.770312 L 2137.695312 801.629687 L 2132.617188 820.8875 L 2125.703125 838.582812 L 2117.03125 854.676562 L 2106.796875 869.207812 L 2095.15625 882.215625 L 2082.265625 893.7 L 2068.242188 903.660937 L 2053.320312 912.1375 L 2037.578125 919.16875 L 2021.210938 924.676562 L 2004.375 928.778125 L 1987.226562 931.434375 L 1969.882812 932.684375 L 1952.539062 932.528125 L 1935.351562 930.965625 L 1918.4375 928.035937 L 1902.03125 923.778125 L 1886.171875 918.153125 L 1871.132812 911.2 L 1856.992188 902.957812 L 1843.945312 893.3875 L 1832.148438 882.567187 L 1821.71875 870.457812 L 1812.8125 857.098437 L 1805.625 842.528125 L 1800.3125 826.707812 L 1796.992188 809.676562 L 1795.898438 796.04375 L 1795.898438 791.5125 "
         style="fill:none;stroke-width:17.0071;stroke-linecap:butt;stroke-linejoin:miter;stroke:rgb(0%,0%,0%);stroke-opacity:1;stroke-dasharray:51.3942,30.8365;stroke-dashoffset:25.0003;stroke-miterlimit:10;" />
    </g>
    <g
       id="g317"
       style="fill:rgb(0%,0%,0%);fill-opacity:1;">
      <use
         id="use315"
         y="9.737"
         x="163.956"
         xlink:href="#glyph0-11" />
    </g>
    <g
       id="g321"
       style="fill:rgb(0%,0%,0%);fill-opacity:1;">
      <use
         id="use319"
         y="9.737"
         x="167.796008"
         xlink:href="#glyph0-7" />
    </g>
    <g
       id="g325"
       style="fill:rgb(0%,0%,0%);fill-opacity:1;">
      <use
         id="use323"
         y="9.737"
         x="172.236009"
         xlink:href="#glyph0-3" />
    </g>
    <g
       id="g329"
       style="fill:rgb(0%,0%,0%);fill-opacity:1;">
      <use
         id="use327"
         y="9.737"
         x="174.636011"
         xlink:href="#glyph0-1" />
    </g>
    <g
       id="g333"
       style="fill:rgb(0%,0%,0%);fill-opacity:1;">
      <use
         id="use331"
         y="9.737"
         x="177.635994"
         xlink:href="#glyph0-4" />
    </g>
    <g
       id="g337"
       style="fill:rgb(0%,0%,0%);fill-opacity:1;">
      <use
         id="use335"
         y="9.737"
         x="180.996009"
         xlink:href="#glyph0-13" />
    </g>
    <g
       id="g341"
       style="fill:rgb(0%,0%,0%);fill-opacity:1;">
      <use
         id="use339"
         y="9.737"
         x="183.396011"
         xlink:href="#glyph0-15" />
    </g>
    <g
       id="g345"
       style="fill:rgb(0%,0%,0%);fill-opacity:1;">
      <use
         id="use343"
         y="9.737"
         x="188.556008"
         xlink:href="#glyph0-12" />
    </g>
    <g
       id="g349"
       style="fill:rgb(0%,0%,0%);fill-opacity:1;">
      <use
         id="use347"
         y="9.737"
         x="192.156013"
         xlink:href="#glyph0-7" />
    </g>
    <g
       id="g353"
       style="fill:rgb(0%,0%,0%);fill-opacity:1;">
      <use
         id="use351"
         y="9.737"
         x="196.596014"
         xlink:href="#glyph0-16" />
    </g>
    <g
       id="g357"
       style="fill:rgb(0%,0%,0%);fill-opacity:1;">
      <use
         id="use355"
         y="9.737"
         x="199.956006"
         xlink:href="#glyph0-1" />
    </g>
    <g
       id="g361"
       style="fill:rgb(0%,0%,0%);fill-opacity:1;">
      <use
         id="use359"
         y="9.737"
         x="202.956001"
         xlink:href="#glyph0-7" />
    </g>
    <g
       id="g365"
       style="fill:rgb(0%,0%,0%);fill-opacity:1;">
      <use
         id="use363"
         y="9.737"
         x="207.39599"
         xlink:href="#glyph0-16" />
    </g>
    <g
       id="g369"
       style="fill:rgb(0%,0%,0%);fill-opacity:1;">
      <use
         id="use367"
         y="9.737"
         x="210.755994"
         xlink:href="#glyph0-7" />
    </g>
    <g
       id="g373"
       style="fill:rgb(0%,0%,0%);fill-opacity:1;">
      <use
         id="use371"
         y="9.737"
         x="215.195984"
         xlink:href="#glyph0-15" />
    </g>
    <g
       id="g377"
       style="fill:rgb(0%,0%,0%);fill-opacity:1;">
      <use
         id="use375"
         y="9.737"
         x="220.355993"
         xlink:href="#glyph0-17" />
    </g>
    <g
       id="g381"
       style="fill:rgb(0%,0%,0%);fill-opacity:1;">
      <use
         id="use379"
         y="9.737"
         x="224.795982"
         xlink:href="#glyph0-7" />
    </g>
    <g
       id="g385"
       style="fill:rgb(0%,0%,0%);fill-opacity:1;">
      <use
         id="use383"
         y="26.7448"
         x="98.9861"
         xlink:href="#glyph0-5" />
    </g>
    <g
       id="g389"
       style="fill:rgb(0%,0%,0%);fill-opacity:1;">
      <use
         id="use387"
         y="26.7448"
         x="104.146097"
         xlink:href="#glyph0-14" />
    </g>
    <g
       id="g393"
       style="fill:rgb(0%,0%,0%);fill-opacity:1;">
      <use
         id="use391"
         y="26.7448"
         x="108.946253"
         xlink:href="#glyph0-18" />
    </g>
    <g
       id="g397"
       style="fill:rgb(0%,0%,0%);fill-opacity:1;">
      <use
         id="use395"
         y="26.7448"
         x="115.786258"
         xlink:href="#glyph0-15" />
    </g>
    <g
       id="g401"
       style="fill:rgb(0%,0%,0%);fill-opacity:1;">
      <use
         id="use399"
         y="26.7448"
         x="120.946255"
         xlink:href="#glyph0-3" />
    </g>
    <g
       id="g405"
       style="fill:rgb(0%,0%,0%);fill-opacity:1;">
      <use
         id="use403"
         y="26.7448"
         x="123.346258"
         xlink:href="#glyph0-13" />
    </g>
    <g
       id="g409"
       style="fill:rgb(0%,0%,0%);fill-opacity:1;">
      <use
         id="use407"
         y="26.7448"
         x="125.74626"
         xlink:href="#glyph0-15" />
    </g>
    <g
       id="g413"
       style="fill:rgb(0%,0%,0%);fill-opacity:1;">
      <use
         id="use411"
         y="26.7448"
         x="130.906257"
         xlink:href="#glyph0-19" />
    </g>
    <g
       id="g417"
       style="fill:rgb(0%,0%,0%);fill-opacity:1;">
      <use
         id="use415"
         y="59.8007"
         x="104.74587"
         xlink:href="#glyph0-2" />
    </g>
    <g
       id="g421"
       style="fill:rgb(0%,0%,0%);fill-opacity:1;">
      <use
         id="use419"
         y="59.8007"
         x="109.905867"
         xlink:href="#glyph0-6" />
    </g>
    <g
       id="g425"
       style="fill:rgb(0%,0%,0%);fill-opacity:1;">
      <use
         id="use423"
         y="59.8007"
         x="115.065864"
         xlink:href="#glyph0-3" />
    </g>
    <g
       id="g429"
       style="fill:rgb(0%,0%,0%);fill-opacity:1;">
      <use
         id="use427"
         y="59.8007"
         x="117.465867"
         xlink:href="#glyph0-13" />
    </g>
    <g
       id="g433"
       style="fill:rgb(0%,0%,0%);fill-opacity:1;">
      <use
         id="use431"
         y="59.8007"
         x="119.865869"
         xlink:href="#glyph0-15" />
    </g>
    <g
       id="g437"
       style="fill:rgb(0%,0%,0%);fill-opacity:1;">
      <use
         id="use435"
         y="59.8007"
         x="125.025866"
         xlink:href="#glyph0-19" />
    </g>
  </g>
</svg>
