<?xml version="1.0" encoding="UTF-8" standalone="no"?>
<svg
   xmlns:dc="http://purl.org/dc/elements/1.1/"
   xmlns:cc="http://creativecommons.org/ns#"
   xmlns:rdf="http://www.w3.org/1999/02/22-rdf-syntax-ns#"
   xmlns:svg="http://www.w3.org/2000/svg"
   xmlns="http://www.w3.org/2000/svg"
   xmlns:xlink="http://www.w3.org/1999/xlink"
   id="svg189"
   version="1.2"
   viewBox="0 0 134.22 135.35"
   height="135.35pt"
   width="134.22pt">
  <metadata
     id="metadata193">
    <rdf:RDF>
      <cc:Work
         rdf:about="">
        <dc:format>image/svg+xml</dc:format>
        <dc:type
           rdf:resource="http://purl.org/dc/dcmitype/StillImage" />
        <dc:title></dc:title>
      </cc:Work>
    </rdf:RDF>
  </metadata>
  <defs
     id="defs64">
    <g
       id="g62">
      <symbol
         id="glyph0-0"
         overflow="visible">
        <path
           id="path2"
           d=""
           style="stroke:none;" />
      </symbol>
      <symbol
         id="glyph0-1"
         overflow="visible">
        <path
           id="path5"
           d="M 1.75 -3.84375 L 2.84375 -3.84375 L 2.84375 -4.421875 L 1.71875 -4.421875 L 1.71875 -5.609375 C 1.71875 -6.34375 2.390625 -6.421875 2.65625 -6.421875 C 2.84375 -6.421875 3.125 -6.40625 3.453125 -6.25 L 3.453125 -6.921875 C 3.34375 -6.953125 3.03125 -7.03125 2.65625 -7.03125 C 1.71875 -7.03125 1 -6.3125 1 -5.328125 L 1 -4.421875 L 0.265625 -4.421875 L 0.265625 -3.84375 L 1 -3.84375 L 1 0 L 1.75 0 Z M 1.75 -3.84375 "
           style="stroke:none;" />
      </symbol>
      <symbol
         id="glyph0-2"
         overflow="visible">
        <path
           id="path8"
           d="M 1.5625 -2.140625 C 1.5625 -3.125 2.28125 -3.84375 3.265625 -3.875 L 3.265625 -4.53125 C 2.375 -4.53125 1.828125 -4.03125 1.515625 -3.578125 L 1.515625 -4.484375 L 0.8125 -4.484375 L 0.8125 0 L 1.5625 0 Z M 1.5625 -2.140625 "
           style="stroke:none;" />
      </symbol>
      <symbol
         id="glyph0-3"
         overflow="visible">
        <path
           id="path11"
           d="M 4.125 -2.1875 C 4.125 -2.515625 4.109375 -3.265625 3.734375 -3.875 C 3.3125 -4.484375 2.71875 -4.59375 2.359375 -4.59375 C 1.25 -4.59375 0.34375 -3.53125 0.34375 -2.25 C 0.34375 -0.9375 1.3125 0.109375 2.5 0.109375 C 3.125 0.109375 3.703125 -0.125 4.09375 -0.40625 L 4.03125 -1.0625 C 3.40625 -0.53125 2.734375 -0.5 2.515625 -0.5 C 1.71875 -0.5 1.078125 -1.203125 1.046875 -2.1875 Z M 1.09375 -2.734375 C 1.25 -3.484375 1.78125 -3.984375 2.359375 -3.984375 C 2.875 -3.984375 3.421875 -3.65625 3.5625 -2.734375 Z M 1.09375 -2.734375 "
           style="stroke:none;" />
      </symbol>
      <symbol
         id="glyph0-4"
         overflow="visible">
        <path
           id="path14"
           d="M 4.328125 -4.53125 L 3.578125 -4.53125 L 3.578125 -3.859375 C 3.484375 -3.984375 2.984375 -4.53125 2.21875 -4.53125 C 1.21875 -4.53125 0.359375 -3.546875 0.359375 -2.203125 C 0.359375 -0.9375 1.09375 0.109375 2.046875 0.109375 C 2.609375 0.109375 3.125 -0.125 3.546875 -0.5 L 3.546875 1.9375 L 4.328125 1.9375 Z M 3.578125 -1.390625 C 3.578125 -1.21875 3.578125 -1.203125 3.484375 -1.0625 C 3.21875 -0.671875 2.84375 -0.5 2.5 -0.5 C 1.734375 -0.5 1.140625 -1.28125 1.140625 -2.203125 C 1.140625 -3.21875 1.859375 -3.890625 2.578125 -3.890625 C 3.265625 -3.890625 3.578125 -3.1875 3.578125 -2.796875 Z M 3.578125 -1.390625 "
           style="stroke:none;" />
      </symbol>
      <symbol
         id="glyph0-5"
         overflow="visible">
        <path
           id="path17"
           d="M 4.34375 -4.421875 L 3.5625 -4.421875 L 3.5625 -1.53125 C 3.5625 -0.78125 3 -0.4375 2.359375 -0.4375 C 1.65625 -0.4375 1.578125 -0.703125 1.578125 -1.125 L 1.578125 -4.421875 L 0.8125 -4.421875 L 0.8125 -1.09375 C 0.8125 -0.375 1.03125 0.109375 1.859375 0.109375 C 2.390625 0.109375 3.09375 -0.046875 3.59375 -0.484375 L 3.59375 0 L 4.34375 0 Z M 4.34375 -4.421875 "
           style="stroke:none;" />
      </symbol>
      <symbol
         id="glyph0-6"
         overflow="visible">
        <path
           id="path20"
           d="M 4.34375 -2.96875 C 4.34375 -3.625 4.1875 -4.53125 2.96875 -4.53125 C 2.078125 -4.53125 1.578125 -3.859375 1.53125 -3.78125 L 1.53125 -4.484375 L 0.8125 -4.484375 L 0.8125 0 L 1.578125 0 L 1.578125 -2.4375 C 1.578125 -3.09375 1.828125 -3.921875 2.59375 -3.921875 C 3.546875 -3.921875 3.5625 -3.21875 3.5625 -2.90625 L 3.5625 0 L 4.34375 0 Z M 4.34375 -2.96875 "
           style="stroke:none;" />
      </symbol>
      <symbol
         id="glyph0-7"
         overflow="visible">
        <path
           id="path23"
           d="M 4.09375 -4.171875 C 3.5 -4.5 3.15625 -4.59375 2.546875 -4.59375 C 1.171875 -4.59375 0.359375 -3.390625 0.359375 -2.21875 C 0.359375 -0.984375 1.265625 0.109375 2.515625 0.109375 C 3.046875 0.109375 3.59375 -0.03125 4.140625 -0.40625 L 4.078125 -1.0625 C 3.5625 -0.671875 3.03125 -0.53125 2.515625 -0.53125 C 1.6875 -0.53125 1.140625 -1.25 1.140625 -2.21875 C 1.140625 -3 1.5 -3.953125 2.5625 -3.953125 C 3.078125 -3.953125 3.421875 -3.875 3.96875 -3.515625 Z M 4.09375 -4.171875 "
           style="stroke:none;" />
      </symbol>
      <symbol
         id="glyph0-8"
         overflow="visible">
        <path
           id="path26"
           d="M 4.453125 -4.421875 L 3.703125 -4.421875 C 2.40625 -1.25 2.375 -0.796875 2.375 -0.5625 L 2.359375 -0.5625 C 2.296875 -1.234375 1.5 -3.09375 1.46875 -3.1875 L 0.921875 -4.421875 L 0.140625 -4.421875 L 2.078125 0 C 1.953125 0.3125 1.75 0.8125 1.71875 0.890625 C 1.453125 1.46875 1.28125 1.46875 1.140625 1.46875 C 0.984375 1.46875 0.671875 1.4375 0.375 1.3125 L 0.421875 1.96875 C 0.640625 2.015625 0.921875 2.046875 1.140625 2.046875 C 1.5 2.046875 1.859375 1.921875 2.265625 0.90625 Z M 4.453125 -4.421875 "
           style="stroke:none;" />
      </symbol>
      <symbol
         id="glyph0-9"
         overflow="visible">
        <path
           id="path29"
           d="M 1.75 -3.84375 L 3.15625 -3.84375 L 3.15625 -4.421875 L 1.75 -4.421875 L 1.75 -5.6875 L 1.0625 -5.6875 L 1.0625 -4.421875 L 0.1875 -4.421875 L 0.1875 -3.84375 L 1.03125 -3.84375 L 1.03125 -1.1875 C 1.03125 -0.59375 1.171875 0.109375 1.859375 0.109375 C 2.546875 0.109375 3.0625 -0.140625 3.3125 -0.265625 L 3.15625 -0.859375 C 2.890625 -0.640625 2.578125 -0.53125 2.25 -0.53125 C 1.890625 -0.53125 1.75 -0.828125 1.75 -1.359375 Z M 1.75 -3.84375 "
           style="stroke:none;" />
      </symbol>
      <symbol
         id="glyph0-10"
         overflow="visible">
        <path
           id="path32"
           d="M 3.984375 -2.875 C 3.984375 -3.890625 3.25 -4.59375 2.328125 -4.59375 C 1.6875 -4.59375 1.234375 -4.4375 0.765625 -4.171875 L 0.828125 -3.515625 C 1.34375 -3.875 1.84375 -4 2.328125 -4 C 2.796875 -4 3.203125 -3.609375 3.203125 -2.875 L 3.203125 -2.4375 C 1.703125 -2.421875 0.4375 -2 0.4375 -1.125 C 0.4375 -0.703125 0.703125 0.109375 1.578125 0.109375 C 1.71875 0.109375 2.65625 0.09375 3.234375 -0.359375 L 3.234375 0 L 3.984375 0 Z M 3.203125 -1.3125 C 3.203125 -1.125 3.203125 -0.875 2.859375 -0.6875 C 2.578125 -0.515625 2.1875 -0.5 2.078125 -0.5 C 1.609375 -0.5 1.15625 -0.734375 1.15625 -1.140625 C 1.15625 -1.84375 2.765625 -1.90625 3.203125 -1.9375 Z M 3.203125 -1.3125 "
           style="stroke:none;" />
      </symbol>
      <symbol
         id="glyph0-11"
         overflow="visible">
        <path
           id="path35"
           d="M 3.421875 -4.28125 C 2.90625 -4.515625 2.5 -4.59375 1.984375 -4.59375 C 1.734375 -4.59375 0.328125 -4.59375 0.328125 -3.296875 C 0.328125 -2.796875 0.625 -2.484375 0.875 -2.296875 C 1.171875 -2.078125 1.390625 -2.03125 1.9375 -1.921875 C 2.296875 -1.859375 2.875 -1.734375 2.875 -1.203125 C 2.875 -0.515625 2.09375 -0.515625 1.9375 -0.515625 C 1.140625 -0.515625 0.578125 -0.890625 0.40625 -1 L 0.28125 -0.328125 C 0.59375 -0.171875 1.140625 0.109375 1.953125 0.109375 C 2.140625 0.109375 2.6875 0.109375 3.109375 -0.203125 C 3.421875 -0.453125 3.59375 -0.84375 3.59375 -1.28125 C 3.59375 -1.828125 3.21875 -2.15625 3.203125 -2.1875 C 2.8125 -2.546875 2.546875 -2.609375 2.046875 -2.6875 C 1.5 -2.796875 1.03125 -2.90625 1.03125 -3.390625 C 1.03125 -4 1.75 -4 1.890625 -4 C 2.203125 -4 2.734375 -3.96875 3.296875 -3.625 Z M 3.421875 -4.28125 "
           style="stroke:none;" />
      </symbol>
      <symbol
         id="glyph0-12"
         overflow="visible">
        <path
           id="path38"
           d="M 7.109375 -2.96875 C 7.109375 -3.640625 6.953125 -4.53125 5.734375 -4.53125 C 5.140625 -4.53125 4.625 -4.25 4.25 -3.71875 C 4 -4.46875 3.296875 -4.53125 2.984375 -4.53125 C 2.265625 -4.53125 1.796875 -4.125 1.53125 -3.765625 L 1.53125 -4.484375 L 0.8125 -4.484375 L 0.8125 0 L 1.578125 0 L 1.578125 -2.4375 C 1.578125 -3.125 1.859375 -3.921875 2.59375 -3.921875 C 3.515625 -3.921875 3.5625 -3.28125 3.5625 -2.90625 L 3.5625 0 L 4.34375 0 L 4.34375 -2.4375 C 4.34375 -3.125 4.609375 -3.921875 5.359375 -3.921875 C 6.28125 -3.921875 6.328125 -3.28125 6.328125 -2.90625 L 6.328125 0 L 7.109375 0 Z M 7.109375 -2.96875 "
           style="stroke:none;" />
      </symbol>
      <symbol
         id="glyph0-13"
         overflow="visible">
        <path
           id="path41"
           d="M 1.625 -6.78125 L 0.734375 -6.78125 L 0.734375 -5.890625 L 1.625 -5.890625 Z M 1.5625 -4.421875 L 0.8125 -4.421875 L 0.8125 0 L 1.5625 0 Z M 1.5625 -4.421875 "
           style="stroke:none;" />
      </symbol>
      <symbol
         id="glyph0-14"
         overflow="visible">
        <path
           id="path44"
           d="M 4.453125 -4.421875 L 3.703125 -4.421875 L 2.90625 -2.359375 C 2.703125 -1.796875 2.390625 -1 2.3125 -0.53125 L 2.296875 -0.53125 C 2.25 -0.890625 1.984375 -1.578125 1.890625 -1.84375 L 0.921875 -4.421875 L 0.140625 -4.421875 L 1.859375 0 L 2.734375 0 Z M 4.453125 -4.421875 "
           style="stroke:none;" />
      </symbol>
      <symbol
         id="glyph1-0"
         overflow="visible">
        <path
           id="path47"
           d=""
           style="stroke:none;" />
      </symbol>
      <symbol
         id="glyph1-1"
         overflow="visible">
        <path
           id="path50"
           d="M -3.84375 -1.75 L -3.84375 -3.15625 L -4.421875 -3.15625 L -4.421875 -1.75 L -5.6875 -1.75 L -5.6875 -1.0625 L -4.421875 -1.0625 L -4.421875 -0.1875 L -3.84375 -0.1875 L -3.84375 -1.03125 L -1.1875 -1.03125 C -0.59375 -1.03125 0.109375 -1.171875 0.109375 -1.859375 C 0.109375 -2.546875 -0.140625 -3.0625 -0.265625 -3.3125 L -0.859375 -3.15625 C -0.640625 -2.890625 -0.53125 -2.578125 -0.53125 -2.25 C -0.53125 -1.890625 -0.828125 -1.75 -1.359375 -1.75 Z M -3.84375 -1.75 "
           style="stroke:none;" />
      </symbol>
      <symbol
         id="glyph1-2"
         overflow="visible">
        <path
           id="path53"
           d="M -6.78125 -1.625 L -6.78125 -0.734375 L -5.890625 -0.734375 L -5.890625 -1.625 Z M -4.421875 -1.5625 L -4.421875 -0.8125 L 0 -0.8125 L 0 -1.5625 Z M -4.421875 -1.5625 "
           style="stroke:none;" />
      </symbol>
      <symbol
         id="glyph1-3"
         overflow="visible">
        <path
           id="path56"
           d="M -2.96875 -7.109375 C -3.640625 -7.109375 -4.53125 -6.953125 -4.53125 -5.734375 C -4.53125 -5.140625 -4.25 -4.625 -3.71875 -4.25 C -4.46875 -4 -4.53125 -3.296875 -4.53125 -2.984375 C -4.53125 -2.265625 -4.125 -1.796875 -3.765625 -1.53125 L -4.484375 -1.53125 L -4.484375 -0.8125 L 0 -0.8125 L 0 -1.578125 L -2.4375 -1.578125 C -3.125 -1.578125 -3.921875 -1.859375 -3.921875 -2.59375 C -3.921875 -3.515625 -3.28125 -3.5625 -2.90625 -3.5625 L 0 -3.5625 L 0 -4.34375 L -2.4375 -4.34375 C -3.125 -4.34375 -3.921875 -4.609375 -3.921875 -5.359375 C -3.921875 -6.28125 -3.28125 -6.328125 -2.90625 -6.328125 L 0 -6.328125 L 0 -7.109375 Z M -2.96875 -7.109375 "
           style="stroke:none;" />
      </symbol>
      <symbol
         id="glyph1-4"
         overflow="visible">
        <path
           id="path59"
           d="M -2.1875 -4.125 C -2.515625 -4.125 -3.265625 -4.109375 -3.875 -3.734375 C -4.484375 -3.3125 -4.59375 -2.71875 -4.59375 -2.359375 C -4.59375 -1.25 -3.53125 -0.34375 -2.25 -0.34375 C -0.9375 -0.34375 0.109375 -1.3125 0.109375 -2.5 C 0.109375 -3.125 -0.125 -3.703125 -0.40625 -4.09375 L -1.0625 -4.03125 C -0.53125 -3.40625 -0.5 -2.734375 -0.5 -2.515625 C -0.5 -1.71875 -1.203125 -1.078125 -2.1875 -1.046875 Z M -2.734375 -1.09375 C -3.484375 -1.25 -3.984375 -1.78125 -3.984375 -2.359375 C -3.984375 -2.875 -3.65625 -3.421875 -2.734375 -3.5625 Z M -2.734375 -1.09375 "
           style="stroke:none;" />
      </symbol>
    </g>
  </defs>
  <g
     id="surface570">
    <path
       id="path66"
       transform="matrix(0.1,0,0,-0.1,0,135.35)"
       d="M 184.375 753.03125 L 184.375 186.117188 L 1318.242188 186.117188 L 1318.242188 1319.945313 L 184.375 1319.945313 Z M 184.375 753.03125 "
       style="fill:none;stroke-width:11.3366;stroke-linecap:butt;stroke-linejoin:miter;stroke:rgb(0%,0%,0%);stroke-opacity:1;stroke-miterlimit:10;" />
    <g
       id="g70"
       style="fill:rgb(0%,0%,0%);fill-opacity:1;">
      <use
         id="use68"
         y="130.59883"
         x="55.3313"
         xlink:href="#glyph0-1" />
    </g>
    <g
       id="g74"
       style="fill:rgb(0%,0%,0%);fill-opacity:1;">
      <use
         id="use72"
         y="130.59883"
         x="58.3313"
         xlink:href="#glyph0-2" />
    </g>
    <g
       id="g78"
       style="fill:rgb(0%,0%,0%);fill-opacity:1;">
      <use
         id="use76"
         y="130.59883"
         x="61.691299"
         xlink:href="#glyph0-3" />
    </g>
    <g
       id="g82"
       style="fill:rgb(0%,0%,0%);fill-opacity:1;">
      <use
         id="use80"
         y="130.59883"
         x="66.1313"
         xlink:href="#glyph0-4" />
    </g>
    <g
       id="g86"
       style="fill:rgb(0%,0%,0%);fill-opacity:1;">
      <use
         id="use84"
         y="130.59883"
         x="71.291297"
         xlink:href="#glyph0-5" />
    </g>
    <g
       id="g90"
       style="fill:rgb(0%,0%,0%);fill-opacity:1;">
      <use
         id="use88"
         y="130.59883"
         x="76.451295"
         xlink:href="#glyph0-3" />
    </g>
    <g
       id="g94"
       style="fill:rgb(0%,0%,0%);fill-opacity:1;">
      <use
         id="use92"
         y="130.59883"
         x="80.891296"
         xlink:href="#glyph0-6" />
    </g>
    <g
       id="g98"
       style="fill:rgb(0%,0%,0%);fill-opacity:1;">
      <use
         id="use96"
         y="130.59883"
         x="86.051293"
         xlink:href="#glyph0-7" />
    </g>
    <g
       id="g102"
       style="fill:rgb(0%,0%,0%);fill-opacity:1;">
      <use
         id="use100"
         y="130.59883"
         x="90.491295"
         xlink:href="#glyph0-8" />
    </g>
    <path
       id="path104"
       d="M 18.4375 31.699219 L 18.4375 60.046875 L 131.824219 60.046875 L 131.824219 3.355469 L 18.4375 3.355469 "
       style=" stroke:none;fill-rule:nonzero;fill:rgb(49.804688%,49.804688%,100%);fill-opacity:1;" />
    <path
       id="path106"
       transform="matrix(0.1,0,0,-0.1,0,135.35)"
       d="M 184.375 1036.507813 L 184.375 753.03125 L 1318.242188 753.03125 L 1318.242188 1319.945313 L 184.375 1319.945313 Z M 184.375 1036.507813 "
       style="fill:none;stroke-width:11.3366;stroke-linecap:butt;stroke-linejoin:miter;stroke:rgb(0%,0%,0%);stroke-opacity:1;stroke-miterlimit:10;" />
    <path
       id="path108"
       d="M 18.4375 88.394531 L 18.4375 116.738281 L 131.824219 116.738281 L 131.824219 60.046875 L 18.4375 60.046875 "
       style=" stroke:none;fill-rule:nonzero;fill:rgb(100%,49.804688%,49.804688%);fill-opacity:1;" />
    <path
       id="path110"
       transform="matrix(0.1,0,0,-0.1,0,135.35)"
       d="M 184.375 469.554688 L 184.375 186.117188 L 1318.242188 186.117188 L 1318.242188 753.03125 L 184.375 753.03125 Z M 184.375 469.554688 "
       style="fill:none;stroke-width:11.3366;stroke-linecap:butt;stroke-linejoin:miter;stroke:rgb(0%,0%,0%);stroke-opacity:1;stroke-miterlimit:10;" />
    <g
       id="g114"
       style="fill:rgb(0%,0%,0%);fill-opacity:1;">
      <use
         id="use112"
         y="69.1672"
         x="10.4602"
         xlink:href="#glyph1-1" />
    </g>
    <g
       id="g118"
       style="fill:rgb(0%,0%,0%);fill-opacity:1;">
      <use
         id="use116"
         y="65.567202"
         x="10.4602"
         xlink:href="#glyph1-2" />
    </g>
    <g
       id="g122"
       style="fill:rgb(0%,0%,0%);fill-opacity:1;">
      <use
         id="use120"
         y="63.167199"
         x="10.4602"
         xlink:href="#glyph1-3" />
    </g>
    <g
       id="g126"
       style="fill:rgb(0%,0%,0%);fill-opacity:1;">
      <use
         id="use124"
         y="55.247195"
         x="10.4602"
         xlink:href="#glyph1-4" />
    </g>
    <g
       id="g130"
       style="fill:rgb(0%,0%,0%);fill-opacity:1;">
      <use
         id="use128"
         y="35.061"
         x="57.8512"
         xlink:href="#glyph0-9" />
    </g>
    <g
       id="g134"
       style="fill:rgb(0%,0%,0%);fill-opacity:1;">
      <use
         id="use132"
         y="35.061"
         x="61.451198"
         xlink:href="#glyph0-2" />
    </g>
    <g
       id="g138"
       style="fill:rgb(0%,0%,0%);fill-opacity:1;">
      <use
         id="use136"
         y="35.061"
         x="64.811196"
         xlink:href="#glyph0-10" />
    </g>
    <g
       id="g142"
       style="fill:rgb(0%,0%,0%);fill-opacity:1;">
      <use
         id="use140"
         y="35.061"
         x="69.611196"
         xlink:href="#glyph0-6" />
    </g>
    <g
       id="g146"
       style="fill:rgb(0%,0%,0%);fill-opacity:1;">
      <use
         id="use144"
         y="35.061"
         x="74.771199"
         xlink:href="#glyph0-11" />
    </g>
    <g
       id="g150"
       style="fill:rgb(0%,0%,0%);fill-opacity:1;">
      <use
         id="use148"
         y="35.061"
         x="78.611194"
         xlink:href="#glyph0-12" />
    </g>
    <g
       id="g154"
       style="fill:rgb(0%,0%,0%);fill-opacity:1;">
      <use
         id="use152"
         y="35.061"
         x="86.531198"
         xlink:href="#glyph0-13" />
    </g>
    <g
       id="g158"
       style="fill:rgb(0%,0%,0%);fill-opacity:1;">
      <use
         id="use156"
         y="35.061"
         x="88.931201"
         xlink:href="#glyph0-9" />
    </g>
    <g
       id="g162"
       style="fill:rgb(0%,0%,0%);fill-opacity:1;">
      <use
         id="use160"
         y="91.7536"
         x="61.09143"
         xlink:href="#glyph0-2" />
    </g>
    <g
       id="g166"
       style="fill:rgb(0%,0%,0%);fill-opacity:1;">
      <use
         id="use164"
         y="91.7536"
         x="64.451428"
         xlink:href="#glyph0-3" />
    </g>
    <g
       id="g170"
       style="fill:rgb(0%,0%,0%);fill-opacity:1;">
      <use
         id="use168"
         y="91.7536"
         x="68.89143"
         xlink:href="#glyph0-7" />
    </g>
    <g
       id="g174"
       style="fill:rgb(0%,0%,0%);fill-opacity:1;">
      <use
         id="use172"
         y="91.7536"
         x="73.331425"
         xlink:href="#glyph0-3" />
    </g>
    <g
       id="g178"
       style="fill:rgb(0%,0%,0%);fill-opacity:1;">
      <use
         id="use176"
         y="91.7536"
         x="77.771427"
         xlink:href="#glyph0-13" />
    </g>
    <g
       id="g182"
       style="fill:rgb(0%,0%,0%);fill-opacity:1;">
      <use
         id="use180"
         y="91.7536"
         x="80.171429"
         xlink:href="#glyph0-14" />
    </g>
    <g
       id="g186"
       style="fill:rgb(0%,0%,0%);fill-opacity:1;">
      <use
         id="use184"
         y="91.7536"
         x="84.731424"
         xlink:href="#glyph0-3" />
    </g>
  </g>
</svg>
