<?xml version="1.0"?>
<!DOCTYPE svg PUBLIC '-//W3C//DTD SVG 1.0//EN'
          'http://www.w3.org/TR/2001/REC-SVG-20010904/DTD/svg10.dtd'>
<svg xmlns:xlink="http://www.w3.org/1999/xlink" style="fill-opacity:1; color-rendering:auto; color-interpolation:auto; text-rendering:auto; stroke:black; stroke-linecap:square; stroke-miterlimit:10; shape-rendering:auto; stroke-opacity:1; fill:black; stroke-dasharray:none; font-weight:normal; stroke-width:1; font-family:'Dialog'; font-style:normal; stroke-linejoin:miter; font-size:12px; stroke-dashoffset:0; image-rendering:auto;" width="570" height="420" xmlns="http://www.w3.org/2000/svg"
><!--Generated by the Batik Graphics2D SVG Generator--><defs id="genericDefs"
  /><g
  ><defs id="defs1"
    ><clipPath clipPathUnits="userSpaceOnUse" id="clipPath1"
      ><path d="M0 0 L570 0 L570 420 L0 420 L0 0 Z"
      /></clipPath
    ></defs
    ><g style="fill:white; stroke:white;"
    ><rect x="0" y="0" width="570" style="clip-path:url(#clipPath1); stroke:none;" height="420"
    /></g
    ><g style="fill:white; text-rendering:optimizeSpeed; color-rendering:optimizeSpeed; image-rendering:optimizeSpeed; shape-rendering:crispEdges; stroke:white; color-interpolation:sRGB;"
    ><rect x="0" width="570" height="420" y="0" style="stroke:none;"
      /><path style="stroke:none;" d="M74 373 L516 373 L516 31 L74 31 Z"
    /></g
    ><g style="fill-opacity:0.251; color-rendering:optimizeQuality; color-interpolation:linearRGB; text-rendering:geometricPrecision; stroke:rgb(26,26,26); stroke-linecap:butt; stroke-miterlimit:1; stroke-opacity:0.251; fill:rgb(26,26,26); stroke-dasharray:1,3; stroke-width:0.6597; stroke-linejoin:bevel; image-rendering:optimizeQuality;"
    ><line y2="31" style="fill:none;" x1="86.6286" x2="86.6286" y1="373"
      /><line y2="31" style="fill:none;" x1="99.2571" x2="99.2571" y1="373"
      /><line y2="31" style="fill:none;" x1="111.8857" x2="111.8857" y1="373"
      /><line y2="31" style="fill:none;" x1="124.5143" x2="124.5143" y1="373"
      /><line y2="31" style="fill:none;" x1="149.7714" x2="149.7714" y1="373"
      /><line y2="31" style="fill:none;" x1="162.4" x2="162.4" y1="373"
      /><line y2="31" style="fill:none;" x1="175.0286" x2="175.0286" y1="373"
      /><line y2="31" style="fill:none;" x1="187.6572" x2="187.6572" y1="373"
      /><line y2="31" style="fill:none;" x1="212.9143" x2="212.9143" y1="373"
      /><line y2="31" style="fill:none;" x1="225.5429" x2="225.5429" y1="373"
      /><line y2="31" style="fill:none;" x1="238.1714" x2="238.1714" y1="373"
      /><line y2="31" style="fill:none;" x1="250.8" x2="250.8" y1="373"
      /><line y2="31" style="fill:none;" x1="276.0571" x2="276.0571" y1="373"
      /><line y2="31" style="fill:none;" x1="288.6857" x2="288.6857" y1="373"
      /><line y2="31" style="fill:none;" x1="301.3143" x2="301.3143" y1="373"
      /><line y2="31" style="fill:none;" x1="313.9429" x2="313.9429" y1="373"
      /><line y2="31" style="fill:none;" x1="339.2" x2="339.2" y1="373"
      /><line y2="31" style="fill:none;" x1="351.8286" x2="351.8286" y1="373"
      /><line y2="31" style="fill:none;" x1="364.4572" x2="364.4572" y1="373"
      /><line y2="31" style="fill:none;" x1="377.0857" x2="377.0857" y1="373"
      /><line y2="31" style="fill:none;" x1="402.3429" x2="402.3429" y1="373"
      /><line y2="31" style="fill:none;" x1="414.9714" x2="414.9714" y1="373"
      /><line y2="31" style="fill:none;" x1="427.6" x2="427.6" y1="373"
      /><line y2="31" style="fill:none;" x1="440.2286" x2="440.2286" y1="373"
      /><line y2="31" style="fill:none;" x1="465.4857" x2="465.4857" y1="373"
      /><line y2="31" style="fill:none;" x1="478.1143" x2="478.1143" y1="373"
      /><line y2="31" style="fill:none;" x1="490.7429" x2="490.7429" y1="373"
      /><line y2="31" style="fill:none;" x1="503.3714" x2="503.3714" y1="373"
    /></g
    ><g style="stroke-linecap:butt; fill-opacity:0.149; fill:rgb(38,38,38); text-rendering:geometricPrecision; image-rendering:optimizeQuality; color-rendering:optimizeQuality; stroke-linejoin:round; stroke:rgb(38,38,38); color-interpolation:linearRGB; stroke-width:0.6597; stroke-opacity:0.149;"
    ><line y2="31" style="fill:none;" x1="74" x2="74" y1="373"
      /><line y2="31" style="fill:none;" x1="137.1429" x2="137.1429" y1="373"
      /><line y2="31" style="fill:none;" x1="200.2857" x2="200.2857" y1="373"
      /><line y2="31" style="fill:none;" x1="263.4286" x2="263.4286" y1="373"
      /><line y2="31" style="fill:none;" x1="326.5714" x2="326.5714" y1="373"
      /><line y2="31" style="fill:none;" x1="389.7143" x2="389.7143" y1="373"
      /><line y2="31" style="fill:none;" x1="452.8571" x2="452.8571" y1="373"
      /><line y2="31" style="fill:none;" x1="516" x2="516" y1="373"
    /></g
    ><g style="fill-opacity:0.251; color-rendering:optimizeQuality; color-interpolation:linearRGB; text-rendering:geometricPrecision; stroke:rgb(26,26,26); stroke-linecap:butt; stroke-miterlimit:1; stroke-opacity:0.251; fill:rgb(26,26,26); stroke-dasharray:1,3; stroke-width:0.6597; stroke-linejoin:bevel; image-rendering:optimizeQuality;"
    ><line y2="355.9" style="fill:none;" x1="516" x2="74" y1="355.9"
      /><line y2="338.8" style="fill:none;" x1="516" x2="74" y1="338.8"
      /><line y2="321.7" style="fill:none;" x1="516" x2="74" y1="321.7"
      /><line y2="287.5" style="fill:none;" x1="516" x2="74" y1="287.5"
      /><line y2="270.4" style="fill:none;" x1="516" x2="74" y1="270.4"
      /><line y2="253.3" style="fill:none;" x1="516" x2="74" y1="253.3"
      /><line y2="219.1" style="fill:none;" x1="516" x2="74" y1="219.1"
      /><line y2="202" style="fill:none;" x1="516" x2="74" y1="202"
      /><line y2="184.9" style="fill:none;" x1="516" x2="74" y1="184.9"
      /><line y2="150.7" style="fill:none;" x1="516" x2="74" y1="150.7"
      /><line y2="133.6" style="fill:none;" x1="516" x2="74" y1="133.6"
      /><line y2="116.5" style="fill:none;" x1="516" x2="74" y1="116.5"
      /><line y2="82.3" style="fill:none;" x1="516" x2="74" y1="82.3"
      /><line y2="65.2" style="fill:none;" x1="516" x2="74" y1="65.2"
      /><line y2="48.1" style="fill:none;" x1="516" x2="74" y1="48.1"
    /></g
    ><g style="stroke-linecap:butt; fill-opacity:0.149; fill:rgb(38,38,38); text-rendering:geometricPrecision; image-rendering:optimizeQuality; color-rendering:optimizeQuality; stroke-linejoin:round; stroke:rgb(38,38,38); color-interpolation:linearRGB; stroke-width:0.6597; stroke-opacity:0.149;"
    ><line y2="373" style="fill:none;" x1="516" x2="74" y1="373"
      /><line y2="304.6" style="fill:none;" x1="516" x2="74" y1="304.6"
      /><line y2="236.2" style="fill:none;" x1="516" x2="74" y1="236.2"
      /><line y2="167.8" style="fill:none;" x1="516" x2="74" y1="167.8"
      /><line y2="99.4" style="fill:none;" x1="516" x2="74" y1="99.4"
      /><line y2="31" style="fill:none;" x1="516" x2="74" y1="31"
      /><line x1="74" x2="516" y1="373" style="stroke-linecap:square; fill-opacity:1; fill:none; stroke-opacity:1;" y2="373"
      /><line x1="74" x2="516" y1="31" style="stroke-linecap:square; fill-opacity:1; fill:none; stroke-opacity:1;" y2="31"
      /><line x1="74" x2="74" y1="373" style="stroke-linecap:square; fill-opacity:1; fill:none; stroke-opacity:1;" y2="368.58"
      /><line x1="137.1429" x2="137.1429" y1="373" style="stroke-linecap:square; fill-opacity:1; fill:none; stroke-opacity:1;" y2="368.58"
      /><line x1="200.2857" x2="200.2857" y1="373" style="stroke-linecap:square; fill-opacity:1; fill:none; stroke-opacity:1;" y2="368.58"
      /><line x1="263.4286" x2="263.4286" y1="373" style="stroke-linecap:square; fill-opacity:1; fill:none; stroke-opacity:1;" y2="368.58"
      /><line x1="326.5714" x2="326.5714" y1="373" style="stroke-linecap:square; fill-opacity:1; fill:none; stroke-opacity:1;" y2="368.58"
      /><line x1="389.7143" x2="389.7143" y1="373" style="stroke-linecap:square; fill-opacity:1; fill:none; stroke-opacity:1;" y2="368.58"
      /><line x1="452.8571" x2="452.8571" y1="373" style="stroke-linecap:square; fill-opacity:1; fill:none; stroke-opacity:1;" y2="368.58"
      /><line x1="516" x2="516" y1="373" style="stroke-linecap:square; fill-opacity:1; fill:none; stroke-opacity:1;" y2="368.58"
      /><line x1="74" x2="74" y1="31" style="stroke-linecap:square; fill-opacity:1; fill:none; stroke-opacity:1;" y2="35.42"
      /><line x1="137.1429" x2="137.1429" y1="31" style="stroke-linecap:square; fill-opacity:1; fill:none; stroke-opacity:1;" y2="35.42"
      /><line x1="200.2857" x2="200.2857" y1="31" style="stroke-linecap:square; fill-opacity:1; fill:none; stroke-opacity:1;" y2="35.42"
      /><line x1="263.4286" x2="263.4286" y1="31" style="stroke-linecap:square; fill-opacity:1; fill:none; stroke-opacity:1;" y2="35.42"
      /><line x1="326.5714" x2="326.5714" y1="31" style="stroke-linecap:square; fill-opacity:1; fill:none; stroke-opacity:1;" y2="35.42"
      /><line x1="389.7143" x2="389.7143" y1="31" style="stroke-linecap:square; fill-opacity:1; fill:none; stroke-opacity:1;" y2="35.42"
      /><line x1="452.8571" x2="452.8571" y1="31" style="stroke-linecap:square; fill-opacity:1; fill:none; stroke-opacity:1;" y2="35.42"
      /><line x1="516" x2="516" y1="31" style="stroke-linecap:square; fill-opacity:1; fill:none; stroke-opacity:1;" y2="35.42"
    /></g
    ><g transform="translate(74,378.8055)" style="font-size:15.8333px; fill:rgb(38,38,38); text-rendering:geometricPrecision; image-rendering:optimizeQuality; color-rendering:optimizeQuality; font-family:'mwa_cmr10'; stroke:rgb(38,38,38); color-interpolation:linearRGB;"
    ><path style="stroke:none;" d="M0.0417 13.6593 Q-1.9115 13.6593 -2.6224 12.0421 Q-3.3333 10.4249 -3.3333 8.1906 Q-3.3333 6.7999 -3.0755 5.5734 Q-2.8177 4.3468 -2.0677 3.4953 Q-1.3177 2.6437 0.0417 2.6437 Q1.1042 2.6437 1.776 3.1593 Q2.4479 3.6749 2.7995 4.4874 Q3.151 5.2999 3.276 6.2374 Q3.401 7.1749 3.401 8.1906 Q3.401 9.5656 3.151 10.7687 Q2.901 11.9718 2.1589 12.8156 Q1.4167 13.6593 0.0417 13.6593 ZM0.0417 13.2374 Q0.9323 13.2374 1.3698 12.3234 Q1.8073 11.4093 1.9089 10.2999 Q2.0104 9.1906 2.0104 7.9406 Q2.0104 6.7374 1.9089 5.7218 Q1.8073 4.7062 1.3776 3.8781 Q0.9479 3.0499 0.0417 3.0499 Q-0.8646 3.0499 -1.3021 3.8781 Q-1.7396 4.7062 -1.8411 5.7218 Q-1.9427 6.7374 -1.9427 7.9406 Q-1.9427 8.8312 -1.8958 9.6203 Q-1.849 10.4093 -1.6615 11.2453 Q-1.474 12.0812 -1.0599 12.6593 Q-0.6458 13.2374 0.0417 13.2374 Z"
    /></g
    ><g transform="translate(137.1429,378.8055)" style="font-size:15.8333px; fill:rgb(38,38,38); text-rendering:geometricPrecision; image-rendering:optimizeQuality; color-rendering:optimizeQuality; font-family:'mwa_cmr10'; stroke:rgb(38,38,38); color-interpolation:linearRGB;"
    ><path style="stroke:none;" d="M-10.3906 13.2999 L-10.3906 12.7374 Q-8.3906 12.7374 -8.3906 12.2218 L-8.3906 3.8312 Q-9.2188 4.2218 -10.4844 4.2218 L-10.4844 3.6593 Q-8.5156 3.6593 -7.5156 2.6437 L-7.2969 2.6437 Q-7.2344 2.6437 -7.1875 2.6828 Q-7.1406 2.7218 -7.1406 2.7843 L-7.1406 12.2218 Q-7.1406 12.7374 -5.1406 12.7374 L-5.1406 13.2999 L-10.3906 13.2999 Z"
      /><path style="stroke:none;" d="M0.0417 13.6593 Q-1.9115 13.6593 -2.6224 12.0421 Q-3.3333 10.4249 -3.3333 8.1906 Q-3.3333 6.7999 -3.0755 5.5734 Q-2.8177 4.3468 -2.0677 3.4953 Q-1.3177 2.6437 0.0417 2.6437 Q1.1042 2.6437 1.776 3.1593 Q2.4479 3.6749 2.7995 4.4874 Q3.151 5.2999 3.276 6.2374 Q3.401 7.1749 3.401 8.1906 Q3.401 9.5656 3.151 10.7687 Q2.901 11.9718 2.1589 12.8156 Q1.4167 13.6593 0.0417 13.6593 ZM0.0417 13.2374 Q0.9323 13.2374 1.3698 12.3234 Q1.8073 11.4093 1.9089 10.2999 Q2.0104 9.1906 2.0104 7.9406 Q2.0104 6.7374 1.9089 5.7218 Q1.8073 4.7062 1.3776 3.8781 Q0.9479 3.0499 0.0417 3.0499 Q-0.8646 3.0499 -1.3021 3.8781 Q-1.7396 4.7062 -1.8411 5.7218 Q-1.9427 6.7374 -1.9427 7.9406 Q-1.9427 8.8312 -1.8958 9.6203 Q-1.849 10.4093 -1.6615 11.2453 Q-1.474 12.0812 -1.0599 12.6593 Q-0.6458 13.2374 0.0417 13.2374 Z"
      /><path style="stroke:none;" d="M7.9584 13.6593 Q6.0052 13.6593 5.2943 12.0421 Q4.5834 10.4249 4.5834 8.1906 Q4.5834 6.7999 4.8412 5.5734 Q5.099 4.3468 5.849 3.4953 Q6.599 2.6437 7.9584 2.6437 Q9.0209 2.6437 9.6927 3.1593 Q10.3646 3.6749 10.7162 4.4874 Q11.0677 5.2999 11.1927 6.2374 Q11.3177 7.1749 11.3177 8.1906 Q11.3177 9.5656 11.0677 10.7687 Q10.8177 11.9718 10.0755 12.8156 Q9.3334 13.6593 7.9584 13.6593 ZM7.9584 13.2374 Q8.849 13.2374 9.2865 12.3234 Q9.724 11.4093 9.8255 10.2999 Q9.9271 9.1906 9.9271 7.9406 Q9.9271 6.7374 9.8255 5.7218 Q9.724 4.7062 9.2943 3.8781 Q8.8646 3.0499 7.9584 3.0499 Q7.0521 3.0499 6.6146 3.8781 Q6.1771 4.7062 6.0755 5.7218 Q5.974 6.7374 5.974 7.9406 Q5.974 8.8312 6.0209 9.6203 Q6.0677 10.4093 6.2552 11.2453 Q6.4427 12.0812 6.8568 12.6593 Q7.2709 13.2374 7.9584 13.2374 Z"
    /></g
    ><g transform="translate(200.2857,378.8055)" style="font-size:15.8333px; fill:rgb(38,38,38); text-rendering:geometricPrecision; image-rendering:optimizeQuality; color-rendering:optimizeQuality; font-family:'mwa_cmr10'; stroke:rgb(38,38,38); color-interpolation:linearRGB;"
    ><path style="stroke:none;" d="M-11.0781 13.2999 L-11.0781 12.8624 Q-11.0781 12.8312 -11.0469 12.7843 L-8.5625 10.0343 Q-8 9.4249 -7.6485 9.0109 Q-7.2969 8.5968 -6.9531 8.0578 Q-6.6094 7.5187 -6.4063 6.9562 Q-6.2031 6.3937 -6.2031 5.7687 Q-6.2031 5.1124 -6.4453 4.5187 Q-6.6875 3.9249 -7.1719 3.5656 Q-7.6563 3.2062 -8.3281 3.2062 Q-9.0313 3.2062 -9.586 3.6203 Q-10.1406 4.0343 -10.3594 4.7062 Q-10.2969 4.6906 -10.1875 4.6906 Q-9.8281 4.6906 -9.5781 4.9328 Q-9.3281 5.1749 -9.3281 5.5499 Q-9.3281 5.9249 -9.5781 6.1749 Q-9.8281 6.4249 -10.1875 6.4249 Q-10.5625 6.4249 -10.8203 6.1671 Q-11.0781 5.9093 -11.0781 5.5499 Q-11.0781 4.9562 -10.8516 4.4249 Q-10.625 3.8937 -10.1953 3.4874 Q-9.7656 3.0812 -9.2344 2.8624 Q-8.7031 2.6437 -8.0938 2.6437 Q-7.1875 2.6437 -6.3985 3.0265 Q-5.6094 3.4093 -5.1485 4.1203 Q-4.6875 4.8312 -4.6875 5.7687 Q-4.6875 6.4718 -4.9922 7.0968 Q-5.2969 7.7218 -5.7735 8.2296 Q-6.25 8.7374 -6.9922 9.3859 Q-7.7344 10.0343 -7.9688 10.2531 L-9.7813 12.0031 L-8.2344 12.0031 Q-7.1094 12.0031 -6.3438 11.9796 Q-5.5781 11.9562 -5.5313 11.9249 Q-5.3438 11.7218 -5.1563 10.4406 L-4.6875 10.4406 L-5.1406 13.2999 L-11.0781 13.2999 Z"
      /><path style="stroke:none;" d="M0.0417 13.6593 Q-1.9115 13.6593 -2.6224 12.0421 Q-3.3333 10.4249 -3.3333 8.1906 Q-3.3333 6.7999 -3.0755 5.5734 Q-2.8177 4.3468 -2.0677 3.4953 Q-1.3177 2.6437 0.0417 2.6437 Q1.1042 2.6437 1.776 3.1593 Q2.4479 3.6749 2.7995 4.4874 Q3.151 5.2999 3.276 6.2374 Q3.401 7.1749 3.401 8.1906 Q3.401 9.5656 3.151 10.7687 Q2.901 11.9718 2.1589 12.8156 Q1.4167 13.6593 0.0417 13.6593 ZM0.0417 13.2374 Q0.9323 13.2374 1.3698 12.3234 Q1.8073 11.4093 1.9089 10.2999 Q2.0104 9.1906 2.0104 7.9406 Q2.0104 6.7374 1.9089 5.7218 Q1.8073 4.7062 1.3776 3.8781 Q0.9479 3.0499 0.0417 3.0499 Q-0.8646 3.0499 -1.3021 3.8781 Q-1.7396 4.7062 -1.8411 5.7218 Q-1.9427 6.7374 -1.9427 7.9406 Q-1.9427 8.8312 -1.8958 9.6203 Q-1.849 10.4093 -1.6615 11.2453 Q-1.474 12.0812 -1.0599 12.6593 Q-0.6458 13.2374 0.0417 13.2374 Z"
      /><path style="stroke:none;" d="M7.9584 13.6593 Q6.0052 13.6593 5.2943 12.0421 Q4.5834 10.4249 4.5834 8.1906 Q4.5834 6.7999 4.8412 5.5734 Q5.099 4.3468 5.849 3.4953 Q6.599 2.6437 7.9584 2.6437 Q9.0209 2.6437 9.6927 3.1593 Q10.3646 3.6749 10.7162 4.4874 Q11.0677 5.2999 11.1927 6.2374 Q11.3177 7.1749 11.3177 8.1906 Q11.3177 9.5656 11.0677 10.7687 Q10.8177 11.9718 10.0755 12.8156 Q9.3334 13.6593 7.9584 13.6593 ZM7.9584 13.2374 Q8.849 13.2374 9.2865 12.3234 Q9.724 11.4093 9.8255 10.2999 Q9.9271 9.1906 9.9271 7.9406 Q9.9271 6.7374 9.8255 5.7218 Q9.724 4.7062 9.2943 3.8781 Q8.8646 3.0499 7.9584 3.0499 Q7.0521 3.0499 6.6146 3.8781 Q6.1771 4.7062 6.0755 5.7218 Q5.974 6.7374 5.974 7.9406 Q5.974 8.8312 6.0209 9.6203 Q6.0677 10.4093 6.2552 11.2453 Q6.4427 12.0812 6.8568 12.6593 Q7.2709 13.2374 7.9584 13.2374 Z"
    /></g
    ><g transform="translate(263.4286,378.8055)" style="font-size:15.8333px; fill:rgb(38,38,38); text-rendering:geometricPrecision; image-rendering:optimizeQuality; color-rendering:optimizeQuality; font-family:'mwa_cmr10'; stroke:rgb(38,38,38); color-interpolation:linearRGB;"
    ><path style="stroke:none;" d="M-10.3438 12.0656 Q-9.9688 12.6124 -9.336 12.8781 Q-8.7031 13.1437 -7.9844 13.1437 Q-7.0469 13.1437 -6.6563 12.3468 Q-6.2656 11.5499 -6.2656 10.5499 Q-6.2656 10.0968 -6.3516 9.6437 Q-6.4375 9.1906 -6.6328 8.7999 Q-6.8281 8.4093 -7.1641 8.1749 Q-7.5 7.9406 -8 7.9406 L-9.0625 7.9406 Q-9.2031 7.9406 -9.2031 7.7843 L-9.2031 7.6437 Q-9.2031 7.5187 -9.0625 7.5187 L-8.1719 7.4562 Q-7.6094 7.4562 -7.2422 7.0343 Q-6.875 6.6124 -6.7031 6.0031 Q-6.5313 5.3937 -6.5313 4.8468 Q-6.5313 4.0812 -6.8906 3.589 Q-7.25 3.0968 -7.9844 3.0968 Q-8.5938 3.0968 -9.1485 3.3312 Q-9.7031 3.5656 -10.0313 4.0343 Q-10 4.0187 -9.9766 4.0187 Q-9.9531 4.0187 -9.9219 4.0187 Q-9.5625 4.0187 -9.3203 4.2687 Q-9.0781 4.5187 -9.0781 4.8624 Q-9.0781 5.2062 -9.3203 5.4562 Q-9.5625 5.7062 -9.9219 5.7062 Q-10.2656 5.7062 -10.5156 5.4562 Q-10.7656 5.2062 -10.7656 4.8624 Q-10.7656 4.1749 -10.3516 3.6671 Q-9.9375 3.1593 -9.2891 2.9015 Q-8.6406 2.6437 -7.9844 2.6437 Q-7.5 2.6437 -6.961 2.7843 Q-6.4219 2.9249 -5.9844 3.1984 Q-5.5469 3.4718 -5.2656 3.8937 Q-4.9844 4.3156 -4.9844 4.8468 Q-4.9844 5.5187 -5.2891 6.089 Q-5.5938 6.6593 -6.1172 7.0734 Q-6.6406 7.4874 -7.2656 7.6906 Q-6.5625 7.8312 -5.9375 8.2218 Q-5.3125 8.6124 -4.9375 9.2218 Q-4.5625 9.8312 -4.5625 10.5343 Q-4.5625 11.4093 -5.0469 12.1281 Q-5.5313 12.8468 -6.3203 13.2531 Q-7.1094 13.6593 -7.9844 13.6593 Q-8.7344 13.6593 -9.4844 13.3703 Q-10.2344 13.0812 -10.7188 12.5109 Q-11.2031 11.9406 -11.2031 11.1437 Q-11.2031 10.7374 -10.9375 10.4718 Q-10.6719 10.2062 -10.2656 10.2062 Q-10.0156 10.2062 -9.7969 10.3312 Q-9.5781 10.4562 -9.461 10.6749 Q-9.3438 10.8937 -9.3438 11.1437 Q-9.3438 11.5343 -9.6172 11.7999 Q-9.8906 12.0656 -10.2656 12.0656 L-10.3438 12.0656 Z"
      /><path style="stroke:none;" d="M0.0417 13.6593 Q-1.9115 13.6593 -2.6224 12.0421 Q-3.3333 10.4249 -3.3333 8.1906 Q-3.3333 6.7999 -3.0755 5.5734 Q-2.8177 4.3468 -2.0677 3.4953 Q-1.3177 2.6437 0.0417 2.6437 Q1.1042 2.6437 1.776 3.1593 Q2.4479 3.6749 2.7995 4.4874 Q3.151 5.2999 3.276 6.2374 Q3.401 7.1749 3.401 8.1906 Q3.401 9.5656 3.151 10.7687 Q2.901 11.9718 2.1589 12.8156 Q1.4167 13.6593 0.0417 13.6593 ZM0.0417 13.2374 Q0.9323 13.2374 1.3698 12.3234 Q1.8073 11.4093 1.9089 10.2999 Q2.0104 9.1906 2.0104 7.9406 Q2.0104 6.7374 1.9089 5.7218 Q1.8073 4.7062 1.3776 3.8781 Q0.9479 3.0499 0.0417 3.0499 Q-0.8646 3.0499 -1.3021 3.8781 Q-1.7396 4.7062 -1.8411 5.7218 Q-1.9427 6.7374 -1.9427 7.9406 Q-1.9427 8.8312 -1.8958 9.6203 Q-1.849 10.4093 -1.6615 11.2453 Q-1.474 12.0812 -1.0599 12.6593 Q-0.6458 13.2374 0.0417 13.2374 Z"
      /><path style="stroke:none;" d="M7.9584 13.6593 Q6.0052 13.6593 5.2943 12.0421 Q4.5834 10.4249 4.5834 8.1906 Q4.5834 6.7999 4.8412 5.5734 Q5.099 4.3468 5.849 3.4953 Q6.599 2.6437 7.9584 2.6437 Q9.0209 2.6437 9.6927 3.1593 Q10.3646 3.6749 10.7162 4.4874 Q11.0677 5.2999 11.1927 6.2374 Q11.3177 7.1749 11.3177 8.1906 Q11.3177 9.5656 11.0677 10.7687 Q10.8177 11.9718 10.0755 12.8156 Q9.3334 13.6593 7.9584 13.6593 ZM7.9584 13.2374 Q8.849 13.2374 9.2865 12.3234 Q9.724 11.4093 9.8255 10.2999 Q9.9271 9.1906 9.9271 7.9406 Q9.9271 6.7374 9.8255 5.7218 Q9.724 4.7062 9.2943 3.8781 Q8.8646 3.0499 7.9584 3.0499 Q7.0521 3.0499 6.6146 3.8781 Q6.1771 4.7062 6.0755 5.7218 Q5.974 6.7374 5.974 7.9406 Q5.974 8.8312 6.0209 9.6203 Q6.0677 10.4093 6.2552 11.2453 Q6.4427 12.0812 6.8568 12.6593 Q7.2709 13.2374 7.9584 13.2374 Z"
    /></g
    ><g transform="translate(326.5714,378.8055)" style="font-size:15.8333px; fill:rgb(38,38,38); text-rendering:geometricPrecision; image-rendering:optimizeQuality; color-rendering:optimizeQuality; font-family:'mwa_cmr10'; stroke:rgb(38,38,38); color-interpolation:linearRGB;"
    ><path style="stroke:none;" d="M-11.4219 10.6593 L-11.4219 10.0968 L-6.4844 2.7218 Q-6.4219 2.6437 -6.3125 2.6437 L-6.0781 2.6437 Q-5.9063 2.6437 -5.9063 2.8156 L-5.9063 10.0968 L-4.3281 10.0968 L-4.3281 10.6593 L-5.9063 10.6593 L-5.9063 12.2218 Q-5.9063 12.5499 -5.4375 12.6437 Q-4.9688 12.7374 -4.3438 12.7374 L-4.3438 13.2999 L-8.75 13.2999 L-8.75 12.7374 Q-8.1406 12.7374 -7.6719 12.6437 Q-7.2031 12.5499 -7.2031 12.2218 L-7.2031 10.6593 L-11.4219 10.6593 ZM-10.8906 10.0968 L-7.1094 10.0968 L-7.1094 4.4249 L-10.8906 10.0968 Z"
      /><path style="stroke:none;" d="M0.0417 13.6593 Q-1.9115 13.6593 -2.6224 12.0421 Q-3.3333 10.4249 -3.3333 8.1906 Q-3.3333 6.7999 -3.0755 5.5734 Q-2.8177 4.3468 -2.0677 3.4953 Q-1.3177 2.6437 0.0417 2.6437 Q1.1042 2.6437 1.776 3.1593 Q2.4479 3.6749 2.7995 4.4874 Q3.151 5.2999 3.276 6.2374 Q3.401 7.1749 3.401 8.1906 Q3.401 9.5656 3.151 10.7687 Q2.901 11.9718 2.1589 12.8156 Q1.4167 13.6593 0.0417 13.6593 ZM0.0417 13.2374 Q0.9323 13.2374 1.3698 12.3234 Q1.8073 11.4093 1.9089 10.2999 Q2.0104 9.1906 2.0104 7.9406 Q2.0104 6.7374 1.9089 5.7218 Q1.8073 4.7062 1.3776 3.8781 Q0.9479 3.0499 0.0417 3.0499 Q-0.8646 3.0499 -1.3021 3.8781 Q-1.7396 4.7062 -1.8411 5.7218 Q-1.9427 6.7374 -1.9427 7.9406 Q-1.9427 8.8312 -1.8958 9.6203 Q-1.849 10.4093 -1.6615 11.2453 Q-1.474 12.0812 -1.0599 12.6593 Q-0.6458 13.2374 0.0417 13.2374 Z"
      /><path style="stroke:none;" d="M7.9584 13.6593 Q6.0052 13.6593 5.2943 12.0421 Q4.5834 10.4249 4.5834 8.1906 Q4.5834 6.7999 4.8412 5.5734 Q5.099 4.3468 5.849 3.4953 Q6.599 2.6437 7.9584 2.6437 Q9.0209 2.6437 9.6927 3.1593 Q10.3646 3.6749 10.7162 4.4874 Q11.0677 5.2999 11.1927 6.2374 Q11.3177 7.1749 11.3177 8.1906 Q11.3177 9.5656 11.0677 10.7687 Q10.8177 11.9718 10.0755 12.8156 Q9.3334 13.6593 7.9584 13.6593 ZM7.9584 13.2374 Q8.849 13.2374 9.2865 12.3234 Q9.724 11.4093 9.8255 10.2999 Q9.9271 9.1906 9.9271 7.9406 Q9.9271 6.7374 9.8255 5.7218 Q9.724 4.7062 9.2943 3.8781 Q8.8646 3.0499 7.9584 3.0499 Q7.0521 3.0499 6.6146 3.8781 Q6.1771 4.7062 6.0755 5.7218 Q5.974 6.7374 5.974 7.9406 Q5.974 8.8312 6.0209 9.6203 Q6.0677 10.4093 6.2552 11.2453 Q6.4427 12.0812 6.8568 12.6593 Q7.2709 13.2374 7.9584 13.2374 Z"
    /></g
    ><g transform="translate(389.7143,378.8055)" style="font-size:15.8333px; fill:rgb(38,38,38); text-rendering:geometricPrecision; image-rendering:optimizeQuality; color-rendering:optimizeQuality; font-family:'mwa_cmr10'; stroke:rgb(38,38,38); color-interpolation:linearRGB;"
    ><path style="stroke:none;" d="M-10.4844 11.4718 Q-10.3125 11.9406 -9.9766 12.3234 Q-9.6406 12.7062 -9.1719 12.9249 Q-8.7031 13.1437 -8.2031 13.1437 Q-7.0469 13.1437 -6.6094 12.2453 Q-6.1719 11.3468 -6.1719 10.0656 Q-6.1719 9.5031 -6.1953 9.1281 Q-6.2188 8.7531 -6.2969 8.3937 Q-6.4531 7.8312 -6.8203 7.4093 Q-7.1875 6.9874 -7.7344 6.9874 Q-8.2656 6.9874 -8.6563 7.1515 Q-9.0469 7.3156 -9.2891 7.5343 Q-9.5313 7.7531 -9.7188 7.9953 Q-9.9063 8.2374 -9.9531 8.2531 L-10.125 8.2531 Q-10.1719 8.2531 -10.2266 8.2062 Q-10.2813 8.1593 -10.2813 8.1124 L-10.2813 2.7687 Q-10.2813 2.7218 -10.2344 2.6828 Q-10.1875 2.6437 -10.125 2.6437 L-10.0781 2.6437 Q-9 3.1593 -7.7969 3.1593 Q-6.6094 3.1593 -5.5 2.6437 L-5.4531 2.6437 Q-5.4063 2.6437 -5.3594 2.6828 Q-5.3125 2.7218 -5.3125 2.7687 L-5.3125 2.9093 Q-5.3125 2.9874 -5.3438 2.9874 Q-5.8906 3.7218 -6.711 4.1281 Q-7.5313 4.5343 -8.4219 4.5343 Q-9.0625 4.5343 -9.7344 4.3468 L-9.7344 7.3781 Q-9.2031 6.9406 -8.7813 6.7609 Q-8.3594 6.5812 -7.7188 6.5812 Q-6.8281 6.5812 -6.1328 7.089 Q-5.4375 7.5968 -5.0625 8.4093 Q-4.6875 9.2218 -4.6875 10.0812 Q-4.6875 11.0343 -5.1563 11.8546 Q-5.625 12.6749 -6.4375 13.1671 Q-7.25 13.6593 -8.2031 13.6593 Q-9 13.6593 -9.6563 13.2453 Q-10.3125 12.8312 -10.6953 12.1437 Q-11.0781 11.4562 -11.0781 10.6906 Q-11.0781 10.3312 -10.8438 10.1046 Q-10.6094 9.8781 -10.25 9.8781 Q-9.9063 9.8781 -9.6641 10.1046 Q-9.4219 10.3312 -9.4219 10.6906 Q-9.4219 11.0343 -9.6641 11.2687 Q-9.9063 11.5031 -10.25 11.5031 Q-10.3125 11.5031 -10.3828 11.4953 Q-10.4531 11.4874 -10.4844 11.4718 Z"
      /><path style="stroke:none;" d="M0.0417 13.6593 Q-1.9115 13.6593 -2.6224 12.0421 Q-3.3333 10.4249 -3.3333 8.1906 Q-3.3333 6.7999 -3.0755 5.5734 Q-2.8177 4.3468 -2.0677 3.4953 Q-1.3177 2.6437 0.0417 2.6437 Q1.1042 2.6437 1.776 3.1593 Q2.4479 3.6749 2.7995 4.4874 Q3.151 5.2999 3.276 6.2374 Q3.401 7.1749 3.401 8.1906 Q3.401 9.5656 3.151 10.7687 Q2.901 11.9718 2.1589 12.8156 Q1.4167 13.6593 0.0417 13.6593 ZM0.0417 13.2374 Q0.9323 13.2374 1.3698 12.3234 Q1.8073 11.4093 1.9089 10.2999 Q2.0104 9.1906 2.0104 7.9406 Q2.0104 6.7374 1.9089 5.7218 Q1.8073 4.7062 1.3776 3.8781 Q0.9479 3.0499 0.0417 3.0499 Q-0.8646 3.0499 -1.3021 3.8781 Q-1.7396 4.7062 -1.8411 5.7218 Q-1.9427 6.7374 -1.9427 7.9406 Q-1.9427 8.8312 -1.8958 9.6203 Q-1.849 10.4093 -1.6615 11.2453 Q-1.474 12.0812 -1.0599 12.6593 Q-0.6458 13.2374 0.0417 13.2374 Z"
      /><path style="stroke:none;" d="M7.9584 13.6593 Q6.0052 13.6593 5.2943 12.0421 Q4.5834 10.4249 4.5834 8.1906 Q4.5834 6.7999 4.8412 5.5734 Q5.099 4.3468 5.849 3.4953 Q6.599 2.6437 7.9584 2.6437 Q9.0209 2.6437 9.6927 3.1593 Q10.3646 3.6749 10.7162 4.4874 Q11.0677 5.2999 11.1927 6.2374 Q11.3177 7.1749 11.3177 8.1906 Q11.3177 9.5656 11.0677 10.7687 Q10.8177 11.9718 10.0755 12.8156 Q9.3334 13.6593 7.9584 13.6593 ZM7.9584 13.2374 Q8.849 13.2374 9.2865 12.3234 Q9.724 11.4093 9.8255 10.2999 Q9.9271 9.1906 9.9271 7.9406 Q9.9271 6.7374 9.8255 5.7218 Q9.724 4.7062 9.2943 3.8781 Q8.8646 3.0499 7.9584 3.0499 Q7.0521 3.0499 6.6146 3.8781 Q6.1771 4.7062 6.0755 5.7218 Q5.974 6.7374 5.974 7.9406 Q5.974 8.8312 6.0209 9.6203 Q6.0677 10.4093 6.2552 11.2453 Q6.4427 12.0812 6.8568 12.6593 Q7.2709 13.2374 7.9584 13.2374 Z"
    /></g
    ><g transform="translate(452.8571,378.8055)" style="font-size:15.8333px; fill:rgb(38,38,38); text-rendering:geometricPrecision; image-rendering:optimizeQuality; color-rendering:optimizeQuality; font-family:'mwa_cmr10'; stroke:rgb(38,38,38); color-interpolation:linearRGB;"
    ><path style="stroke:none;" d="M-7.875 13.6593 Q-8.8594 13.6593 -9.5235 13.1281 Q-10.1875 12.5968 -10.5547 11.7531 Q-10.9219 10.9093 -11.0625 9.9874 Q-11.2031 9.0656 -11.2031 8.1281 Q-11.2031 6.8624 -10.711 5.589 Q-10.2188 4.3156 -9.2578 3.4796 Q-8.2969 2.6437 -6.9844 2.6437 Q-6.4375 2.6437 -5.9688 2.8468 Q-5.5 3.0499 -5.2266 3.4562 Q-4.9531 3.8624 -4.9531 4.4249 Q-4.9531 4.7531 -5.1797 4.9796 Q-5.4063 5.2062 -5.7344 5.2062 Q-6.0469 5.2062 -6.2735 4.9796 Q-6.5 4.7531 -6.5 4.4249 Q-6.5 4.1124 -6.2735 3.8859 Q-6.0469 3.6593 -5.7344 3.6593 L-5.6406 3.6593 Q-5.8438 3.3781 -6.2188 3.2374 Q-6.5938 3.0968 -6.9844 3.0968 Q-7.4688 3.0968 -7.8828 3.3078 Q-8.2969 3.5187 -8.625 3.8781 Q-8.9531 4.2374 -9.1719 4.6749 Q-9.3906 5.1124 -9.5078 5.6671 Q-9.625 6.2218 -9.6563 6.7062 Q-9.6875 7.1906 -9.6875 7.9249 Q-9.4063 7.2687 -8.8906 6.8468 Q-8.375 6.4249 -7.7344 6.4249 Q-7.0156 6.4249 -6.4297 6.714 Q-5.8438 7.0031 -5.4219 7.5187 Q-5 8.0343 -4.7813 8.6906 Q-4.5625 9.3468 -4.5625 10.0187 Q-4.5625 10.9562 -4.9766 11.7999 Q-5.3906 12.6437 -6.1485 13.1515 Q-6.9063 13.6593 -7.875 13.6593 ZM-7.875 13.1437 Q-7.25 13.1437 -6.875 12.8624 Q-6.5 12.5812 -6.3281 12.1124 Q-6.1563 11.6437 -6.1094 11.1749 Q-6.0625 10.7062 -6.0625 10.0187 Q-6.0625 9.1124 -6.1485 8.4718 Q-6.2344 7.8312 -6.6172 7.339 Q-7 6.8468 -7.7969 6.8468 Q-8.4375 6.8468 -8.8594 7.2843 Q-9.2813 7.7218 -9.4688 8.3937 Q-9.6563 9.0656 -9.6563 9.6749 Q-9.6563 9.8937 -9.6406 10.0031 Q-9.6406 10.0187 -9.6485 10.0343 Q-9.6563 10.0499 -9.6563 10.0812 Q-9.6563 10.7687 -9.5156 11.4718 Q-9.375 12.1749 -8.9766 12.6593 Q-8.5781 13.1437 -7.875 13.1437 Z"
      /><path style="stroke:none;" d="M0.0417 13.6593 Q-1.9115 13.6593 -2.6224 12.0421 Q-3.3333 10.4249 -3.3333 8.1906 Q-3.3333 6.7999 -3.0755 5.5734 Q-2.8177 4.3468 -2.0677 3.4953 Q-1.3177 2.6437 0.0417 2.6437 Q1.1042 2.6437 1.776 3.1593 Q2.4479 3.6749 2.7995 4.4874 Q3.151 5.2999 3.276 6.2374 Q3.401 7.1749 3.401 8.1906 Q3.401 9.5656 3.151 10.7687 Q2.901 11.9718 2.1589 12.8156 Q1.4167 13.6593 0.0417 13.6593 ZM0.0417 13.2374 Q0.9323 13.2374 1.3698 12.3234 Q1.8073 11.4093 1.9089 10.2999 Q2.0104 9.1906 2.0104 7.9406 Q2.0104 6.7374 1.9089 5.7218 Q1.8073 4.7062 1.3776 3.8781 Q0.9479 3.0499 0.0417 3.0499 Q-0.8646 3.0499 -1.3021 3.8781 Q-1.7396 4.7062 -1.8411 5.7218 Q-1.9427 6.7374 -1.9427 7.9406 Q-1.9427 8.8312 -1.8958 9.6203 Q-1.849 10.4093 -1.6615 11.2453 Q-1.474 12.0812 -1.0599 12.6593 Q-0.6458 13.2374 0.0417 13.2374 Z"
      /><path style="stroke:none;" d="M7.9584 13.6593 Q6.0052 13.6593 5.2943 12.0421 Q4.5834 10.4249 4.5834 8.1906 Q4.5834 6.7999 4.8412 5.5734 Q5.099 4.3468 5.849 3.4953 Q6.599 2.6437 7.9584 2.6437 Q9.0209 2.6437 9.6927 3.1593 Q10.3646 3.6749 10.7162 4.4874 Q11.0677 5.2999 11.1927 6.2374 Q11.3177 7.1749 11.3177 8.1906 Q11.3177 9.5656 11.0677 10.7687 Q10.8177 11.9718 10.0755 12.8156 Q9.3334 13.6593 7.9584 13.6593 ZM7.9584 13.2374 Q8.849 13.2374 9.2865 12.3234 Q9.724 11.4093 9.8255 10.2999 Q9.9271 9.1906 9.9271 7.9406 Q9.9271 6.7374 9.8255 5.7218 Q9.724 4.7062 9.2943 3.8781 Q8.8646 3.0499 7.9584 3.0499 Q7.0521 3.0499 6.6146 3.8781 Q6.1771 4.7062 6.0755 5.7218 Q5.974 6.7374 5.974 7.9406 Q5.974 8.8312 6.0209 9.6203 Q6.0677 10.4093 6.2552 11.2453 Q6.4427 12.0812 6.8568 12.6593 Q7.2709 13.2374 7.9584 13.2374 Z"
    /></g
    ><g transform="translate(516,378.8055)" style="font-size:15.8333px; fill:rgb(38,38,38); text-rendering:geometricPrecision; image-rendering:optimizeQuality; color-rendering:optimizeQuality; font-family:'mwa_cmr10'; stroke:rgb(38,38,38); color-interpolation:linearRGB;"
    ><path style="stroke:none;" d="M-9.0938 12.8781 Q-9.0938 11.9874 -8.9375 11.1359 Q-8.7813 10.2843 -8.4766 9.4562 Q-8.1719 8.6281 -7.75 7.8234 Q-7.3281 7.0187 -6.8125 6.3156 L-5.3594 4.2843 L-7.1875 4.2843 Q-10.0313 4.2843 -10.1094 4.3624 Q-10.3281 4.6281 -10.5156 5.8468 L-10.9688 5.8468 L-10.4531 2.4874 L-9.9844 2.4874 L-9.9844 2.5343 Q-9.9844 2.8156 -9.0078 2.9015 Q-8.0313 2.9874 -7.0938 2.9874 L-4.1094 2.9874 L-4.1094 3.4093 Q-4.1094 3.4249 -4.1172 3.4328 Q-4.125 3.4406 -4.125 3.4562 L-6.3281 6.5499 Q-7.1406 7.7531 -7.3438 9.2218 Q-7.5469 10.6906 -7.5469 12.8781 Q-7.5469 13.1906 -7.7735 13.4249 Q-8 13.6593 -8.3125 13.6593 Q-8.6406 13.6593 -8.8672 13.4249 Q-9.0938 13.1906 -9.0938 12.8781 Z"
      /><path style="stroke:none;" d="M0.0417 13.6593 Q-1.9115 13.6593 -2.6224 12.0421 Q-3.3333 10.4249 -3.3333 8.1906 Q-3.3333 6.7999 -3.0755 5.5734 Q-2.8177 4.3468 -2.0677 3.4953 Q-1.3177 2.6437 0.0417 2.6437 Q1.1042 2.6437 1.776 3.1593 Q2.4479 3.6749 2.7995 4.4874 Q3.151 5.2999 3.276 6.2374 Q3.401 7.1749 3.401 8.1906 Q3.401 9.5656 3.151 10.7687 Q2.901 11.9718 2.1589 12.8156 Q1.4167 13.6593 0.0417 13.6593 ZM0.0417 13.2374 Q0.9323 13.2374 1.3698 12.3234 Q1.8073 11.4093 1.9089 10.2999 Q2.0104 9.1906 2.0104 7.9406 Q2.0104 6.7374 1.9089 5.7218 Q1.8073 4.7062 1.3776 3.8781 Q0.9479 3.0499 0.0417 3.0499 Q-0.8646 3.0499 -1.3021 3.8781 Q-1.7396 4.7062 -1.8411 5.7218 Q-1.9427 6.7374 -1.9427 7.9406 Q-1.9427 8.8312 -1.8958 9.6203 Q-1.849 10.4093 -1.6615 11.2453 Q-1.474 12.0812 -1.0599 12.6593 Q-0.6458 13.2374 0.0417 13.2374 Z"
      /><path style="stroke:none;" d="M7.9584 13.6593 Q6.0052 13.6593 5.2943 12.0421 Q4.5834 10.4249 4.5834 8.1906 Q4.5834 6.7999 4.8412 5.5734 Q5.099 4.3468 5.849 3.4953 Q6.599 2.6437 7.9584 2.6437 Q9.0209 2.6437 9.6927 3.1593 Q10.3646 3.6749 10.7162 4.4874 Q11.0677 5.2999 11.1927 6.2374 Q11.3177 7.1749 11.3177 8.1906 Q11.3177 9.5656 11.0677 10.7687 Q10.8177 11.9718 10.0755 12.8156 Q9.3334 13.6593 7.9584 13.6593 ZM7.9584 13.2374 Q8.849 13.2374 9.2865 12.3234 Q9.724 11.4093 9.8255 10.2999 Q9.9271 9.1906 9.9271 7.9406 Q9.9271 6.7374 9.8255 5.7218 Q9.724 4.7062 9.2943 3.8781 Q8.8646 3.0499 7.9584 3.0499 Q7.0521 3.0499 6.6146 3.8781 Q6.1771 4.7062 6.0755 5.7218 Q5.974 6.7374 5.974 7.9406 Q5.974 8.8312 6.0209 9.6203 Q6.0677 10.4093 6.2552 11.2453 Q6.4427 12.0812 6.8568 12.6593 Q7.2709 13.2374 7.9584 13.2374 Z"
    /></g
    ><g transform="translate(295.0002,399.1)" style="font-size:17.4167px; fill:rgb(38,38,38); text-rendering:geometricPrecision; image-rendering:optimizeQuality; color-rendering:optimizeQuality; font-family:'mwa_cmr10'; stroke:rgb(38,38,38); color-interpolation:linearRGB;"
    ><path style="stroke:none;" d="M-97.3565 14.6299 L-97.3565 14.0362 Q-95.5909 14.0362 -95.5909 13.0206 L-95.5909 3.7081 Q-96.1534 3.6143 -97.3565 3.6143 L-97.3565 3.0206 L-94.0909 3.0206 Q-94.0128 3.0206 -93.9815 3.0831 L-87.9659 11.9424 L-87.9659 4.6143 Q-87.9659 3.6143 -89.7159 3.6143 L-89.7159 3.0206 L-85.669 3.0206 L-85.669 3.6143 Q-87.419 3.6143 -87.419 4.6143 L-87.419 14.4737 Q-87.419 14.5362 -87.4815 14.5831 Q-87.544 14.6299 -87.5909 14.6299 L-87.794 14.6299 Q-87.8721 14.6299 -87.9034 14.5674 L-95.044 4.0518 L-95.044 13.0206 Q-95.044 14.0362 -93.294 14.0362 L-93.294 14.6299 L-97.3565 14.6299 Z"
      /><path style="stroke:none;" d="M-82.9815 12.5987 L-82.9815 8.8487 Q-82.9815 8.3956 -83.1143 8.1924 Q-83.2471 7.9893 -83.5049 7.9424 Q-83.7627 7.8956 -84.3096 7.8956 L-84.3096 7.3018 L-81.7315 7.1143 L-81.7315 12.5987 Q-81.7315 13.2706 -81.6377 13.6377 Q-81.544 14.0049 -81.2315 14.1924 Q-80.919 14.3799 -80.2315 14.3799 Q-79.3252 14.3799 -78.7862 13.6143 Q-78.2471 12.8487 -78.2471 11.8799 L-78.2471 8.8487 Q-78.2471 8.3956 -78.3877 8.1924 Q-78.5284 7.9893 -78.7784 7.9424 Q-79.0284 7.8956 -79.5752 7.8956 L-79.5752 7.3018 L-77.0127 7.1143 L-77.0127 13.0831 Q-77.0127 13.5362 -76.8721 13.7393 Q-76.7315 13.9424 -76.4737 13.9893 Q-76.2159 14.0362 -75.6846 14.0362 L-75.6846 14.6299 L-78.2002 14.8174 L-78.2002 13.3799 Q-78.5127 14.0206 -79.0752 14.419 Q-79.6377 14.8174 -80.3252 14.8174 Q-81.544 14.8174 -82.2627 14.3018 Q-82.9815 13.7862 -82.9815 12.5987 Z"
      /><path style="stroke:none;" d="M-74.6337 14.6299 L-74.6337 14.0362 Q-74.0399 14.0362 -73.6727 13.9424 Q-73.3055 13.8487 -73.3055 13.4893 L-73.3055 8.8487 Q-73.3055 8.3956 -73.4383 8.1924 Q-73.5712 7.9893 -73.829 7.9424 Q-74.0868 7.8956 -74.6337 7.8956 L-74.6337 7.3018 L-72.1649 7.1143 L-72.1649 8.7706 Q-71.8212 8.0518 -71.1493 7.5831 Q-70.4774 7.1143 -69.6962 7.1143 Q-67.743 7.1143 -67.3993 8.7081 Q-67.0555 8.0049 -66.3993 7.5596 Q-65.743 7.1143 -64.9618 7.1143 Q-64.1962 7.1143 -63.6649 7.3643 Q-63.1337 7.6143 -62.868 8.1221 Q-62.6024 8.6299 -62.6024 9.4112 L-62.6024 13.4893 Q-62.6024 13.8487 -62.2274 13.9424 Q-61.8524 14.0362 -61.2743 14.0362 L-61.2743 14.6299 L-65.1649 14.6299 L-65.1649 14.0362 Q-64.5868 14.0362 -64.2118 13.9424 Q-63.8368 13.8487 -63.8368 13.4893 L-63.8368 9.4581 Q-63.8368 8.5987 -64.079 8.0752 Q-64.3212 7.5518 -65.0712 7.5518 Q-66.0555 7.5518 -66.6962 8.3409 Q-67.3368 9.1299 -67.3368 10.1456 L-67.3368 13.4893 Q-67.3368 13.8487 -66.9618 13.9424 Q-66.5868 14.0362 -66.0087 14.0362 L-66.0087 14.6299 L-69.8993 14.6299 L-69.8993 14.0362 Q-69.3212 14.0362 -68.9462 13.9424 Q-68.5712 13.8487 -68.5712 13.4893 L-68.5712 9.4581 Q-68.5712 8.6299 -68.8133 8.0909 Q-69.0555 7.5518 -69.7899 7.5518 Q-70.7899 7.5518 -71.4227 8.3409 Q-72.0555 9.1299 -72.0555 10.1456 L-72.0555 13.4893 Q-72.0555 13.8487 -71.6805 13.9424 Q-71.3055 14.0362 -70.7274 14.0362 L-70.7274 14.6299 L-74.6337 14.6299 Z"
      /><path style="stroke:none;" d="M-59.3379 14.6299 L-59.3379 4.5674 Q-59.3379 4.1143 -59.4707 3.9112 Q-59.6035 3.7081 -59.8614 3.6612 Q-60.1192 3.6143 -60.666 3.6143 L-60.666 3.0206 L-58.1504 2.8331 L-58.1504 8.1612 Q-57.8692 7.8331 -57.4864 7.5987 Q-57.1035 7.3643 -56.6739 7.2393 Q-56.2442 7.1143 -55.8067 7.1143 Q-55.041 7.1143 -54.3848 7.4268 Q-53.7285 7.7393 -53.252 8.2784 Q-52.7754 8.8174 -52.502 9.5127 Q-52.2285 10.2081 -52.2285 10.9581 Q-52.2285 11.9893 -52.7285 12.8799 Q-53.2285 13.7706 -54.0957 14.294 Q-54.9629 14.8174 -56.0098 14.8174 Q-56.6504 14.8174 -57.2598 14.4893 Q-57.8692 14.1612 -58.2598 13.6143 L-58.8379 14.6299 L-59.3379 14.6299 ZM-58.1035 12.9581 Q-57.8223 13.5831 -57.291 13.9815 Q-56.7598 14.3799 -56.1035 14.3799 Q-55.2285 14.3799 -54.6817 13.8721 Q-54.1348 13.3643 -53.9239 12.5909 Q-53.7129 11.8174 -53.7129 10.9581 Q-53.7129 9.5206 -54.0879 8.7706 Q-54.2442 8.4424 -54.5332 8.1612 Q-54.8223 7.8799 -55.1739 7.7159 Q-55.5254 7.5518 -55.916 7.5518 Q-56.6035 7.5518 -57.1817 7.919 Q-57.7598 8.2862 -58.1035 8.8799 L-58.1035 12.9581 Z"
      /><path style="stroke:none;" d="M-46.7094 14.8174 Q-47.7407 14.8174 -48.6078 14.2784 Q-49.475 13.7393 -49.975 12.8252 Q-50.475 11.9112 -50.475 10.8956 Q-50.475 9.9112 -50.0219 9.0127 Q-49.5688 8.1143 -48.7563 7.5596 Q-47.9438 7.0049 -46.9438 7.0049 Q-46.1782 7.0049 -45.6 7.2706 Q-45.0219 7.5362 -44.6469 7.9971 Q-44.2719 8.4581 -44.0766 9.0909 Q-43.8813 9.7237 -43.8813 10.4737 Q-43.8813 10.7081 -44.0688 10.7081 L-48.9907 10.7081 L-48.9907 10.8799 Q-48.9907 12.3018 -48.4203 13.3096 Q-47.85 14.3174 -46.5532 14.3174 Q-46.0375 14.3174 -45.5922 14.0909 Q-45.1469 13.8643 -44.8188 13.4424 Q-44.4907 13.0206 -44.3813 12.5518 Q-44.3657 12.4893 -44.3188 12.4502 Q-44.2719 12.4112 -44.2094 12.4112 L-44.0688 12.4112 Q-43.8813 12.4112 -43.8813 12.6143 Q-44.1313 13.5831 -44.9282 14.2002 Q-45.725 14.8174 -46.7094 14.8174 ZM-48.975 10.2862 L-45.0844 10.2862 Q-45.0844 9.6456 -45.2641 8.9893 Q-45.4438 8.3331 -45.8578 7.8956 Q-46.2719 7.4581 -46.9438 7.4581 Q-47.9125 7.4581 -48.4438 8.3565 Q-48.975 9.2549 -48.975 10.2862 Z"
      /><path style="stroke:none;" d="M-42.7655 14.6299 L-42.7655 14.0362 Q-42.1874 14.0362 -41.8124 13.9424 Q-41.4374 13.8487 -41.4374 13.4893 L-41.4374 8.8487 Q-41.4374 8.3956 -41.5702 8.1924 Q-41.703 7.9893 -41.9608 7.9424 Q-42.2187 7.8956 -42.7655 7.8956 L-42.7655 7.3018 L-40.328 7.1143 L-40.328 8.7706 Q-40.0624 8.0362 -39.5546 7.5752 Q-39.0468 7.1143 -38.328 7.1143 Q-37.8124 7.1143 -37.414 7.4112 Q-37.0155 7.7081 -37.0155 8.2081 Q-37.0155 8.5049 -37.2343 8.7393 Q-37.453 8.9737 -37.7812 8.9737 Q-38.0937 8.9737 -38.3202 8.7471 Q-38.5468 8.5206 -38.5468 8.2081 Q-38.5468 7.7549 -38.2187 7.5518 L-38.328 7.5518 Q-39.0155 7.5518 -39.4452 8.0518 Q-39.8749 8.5518 -40.0624 9.294 Q-40.2499 10.0362 -40.2499 10.7081 L-40.2499 13.4893 Q-40.2499 14.0362 -38.5937 14.0362 L-38.5937 14.6299 L-42.7655 14.6299 Z"
      /><path style="stroke:none;" d="M-26.326 14.8174 Q-27.3416 14.8174 -28.2166 14.3018 Q-29.0916 13.7862 -29.5994 12.9112 Q-30.1072 12.0362 -30.1072 11.0049 Q-30.1072 10.2237 -29.826 9.5049 Q-29.5447 8.7862 -29.0291 8.2159 Q-28.5135 7.6456 -27.826 7.3252 Q-27.1385 7.0049 -26.326 7.0049 Q-25.2791 7.0049 -24.4197 7.5596 Q-23.5603 8.1143 -23.0603 9.0362 Q-22.5603 9.9581 -22.5603 11.0049 Q-22.5603 12.0362 -23.0681 12.9112 Q-23.576 13.7862 -24.4431 14.3018 Q-25.3103 14.8174 -26.326 14.8174 ZM-26.326 14.3174 Q-24.9666 14.3174 -24.5056 13.3331 Q-24.0447 12.3487 -24.0447 10.8174 Q-24.0447 9.9581 -24.1385 9.4034 Q-24.2322 8.8487 -24.5447 8.3799 Q-24.7322 8.0987 -25.0291 7.8877 Q-25.326 7.6768 -25.6541 7.5674 Q-25.9822 7.4581 -26.326 7.4581 Q-26.8572 7.4581 -27.3338 7.7002 Q-27.8103 7.9424 -28.1228 8.3799 Q-28.4353 8.8643 -28.5291 9.4424 Q-28.6228 10.0206 -28.6228 10.8174 Q-28.6228 11.7706 -28.451 12.5284 Q-28.2791 13.2862 -27.7791 13.8018 Q-27.2791 14.3174 -26.326 14.3174 Z"
      /><path style="stroke:none;" d="M-21.3207 14.6299 L-21.3207 14.0362 Q-20.7426 14.0362 -20.3676 13.9424 Q-19.9926 13.8487 -19.9926 13.4893 L-19.9926 7.8956 L-21.3051 7.8956 L-21.3051 7.3018 L-19.9926 7.3018 L-19.9926 5.2706 Q-19.9926 4.7237 -19.766 4.2471 Q-19.5395 3.7706 -19.1567 3.4112 Q-18.7738 3.0518 -18.2738 2.8487 Q-17.7738 2.6456 -17.227 2.6456 Q-16.6488 2.6456 -16.1879 2.9815 Q-15.727 3.3174 -15.727 3.8956 Q-15.727 4.2081 -15.9535 4.4268 Q-16.1801 4.6456 -16.4926 4.6456 Q-16.8207 4.6456 -17.0473 4.4268 Q-17.2738 4.2081 -17.2738 3.8956 Q-17.2738 3.3643 -16.8207 3.1768 Q-17.102 3.0831 -17.3051 3.0831 Q-17.8051 3.0831 -18.1567 3.4346 Q-18.5082 3.7862 -18.6879 4.294 Q-18.8676 4.8018 -18.8676 5.3018 L-18.8676 7.3018 L-16.8988 7.3018 L-16.8988 7.8956 L-18.8051 7.8956 L-18.8051 13.4893 Q-18.8051 13.8487 -18.3051 13.9424 Q-17.8051 14.0362 -17.1645 14.0362 L-17.1645 14.6299 L-21.3207 14.6299 Z"
      /><path style="stroke:none;" d="M-10.1465 14.6299 L-10.1465 14.0362 Q-8.3965 14.0362 -8.3965 13.0206 L-8.3965 4.1612 Q-8.3965 3.6143 -10.1465 3.6143 L-10.1465 3.0206 L-6.9278 3.0206 Q-6.7246 3.0206 -6.6621 3.2081 L-2.959 12.8331 L0.7441 3.2081 Q0.8222 3.0206 1.0254 3.0206 L4.2285 3.0206 L4.2285 3.6143 Q2.4785 3.6143 2.4785 4.1612 L2.4785 13.4893 Q2.4785 14.0362 4.2285 14.0362 L4.2285 14.6299 L-0.709 14.6299 L-0.709 14.0362 Q1.041 14.0362 1.041 13.4893 L1.041 3.5987 L-3.1465 14.4424 Q-3.2246 14.6299 -3.4278 14.6299 Q-3.6465 14.6299 -3.7246 14.4424 L-7.8496 3.7237 L-7.8496 13.0206 Q-7.8496 14.0362 -6.0996 14.0362 L-6.0996 14.6299 L-10.1465 14.6299 Z"
      /><path style="stroke:none;" d="M9.4594 14.8174 Q8.4282 14.8174 7.561 14.2784 Q6.6938 13.7393 6.1938 12.8252 Q5.6938 11.9112 5.6938 10.8956 Q5.6938 9.9112 6.1469 9.0127 Q6.6001 8.1143 7.4126 7.5596 Q8.2251 7.0049 9.2251 7.0049 Q9.9907 7.0049 10.5688 7.2706 Q11.1469 7.5362 11.5219 7.9971 Q11.8969 8.4581 12.0922 9.0909 Q12.2876 9.7237 12.2876 10.4737 Q12.2876 10.7081 12.1001 10.7081 L7.1782 10.7081 L7.1782 10.8799 Q7.1782 12.3018 7.7485 13.3096 Q8.3188 14.3174 9.6157 14.3174 Q10.1313 14.3174 10.5766 14.0909 Q11.0219 13.8643 11.3501 13.4424 Q11.6782 13.0206 11.7876 12.5518 Q11.8032 12.4893 11.8501 12.4502 Q11.8969 12.4112 11.9594 12.4112 L12.1001 12.4112 Q12.2876 12.4112 12.2876 12.6143 Q12.0376 13.5831 11.2407 14.2002 Q10.4438 14.8174 9.4594 14.8174 ZM7.1938 10.2862 L11.0844 10.2862 Q11.0844 9.6456 10.9047 8.9893 Q10.7251 8.3331 10.311 7.8956 Q9.8969 7.4581 9.2251 7.4581 Q8.2563 7.4581 7.7251 8.3565 Q7.1938 9.2549 7.1938 10.2862 Z"
      /><path style="stroke:none;" d="M13.6533 12.9581 Q13.6533 11.9424 14.4502 11.3096 Q15.247 10.6768 16.3564 10.419 Q17.4658 10.1612 18.4814 10.1612 L18.4814 9.4581 Q18.4814 8.9737 18.2627 8.5127 Q18.0439 8.0518 17.6377 7.7549 Q17.2314 7.4581 16.747 7.4581 Q15.6064 7.4581 15.0283 7.9581 Q15.3408 7.9581 15.5595 8.2081 Q15.7783 8.4581 15.7783 8.7706 Q15.7783 9.1143 15.5361 9.3565 Q15.2939 9.5987 14.9658 9.5987 Q14.622 9.5987 14.3799 9.3565 Q14.1377 9.1143 14.1377 8.7706 Q14.1377 7.8799 14.9502 7.4424 Q15.7627 7.0049 16.747 7.0049 Q17.4345 7.0049 18.1299 7.3018 Q18.8252 7.5987 19.2705 8.1456 Q19.7158 8.6924 19.7158 9.4268 L19.7158 13.2549 Q19.7158 13.5831 19.8564 13.8643 Q19.997 14.1456 20.2939 14.1456 Q20.5752 14.1456 20.7158 13.8643 Q20.8564 13.5831 20.8564 13.2549 L20.8564 12.1612 L21.3564 12.1612 L21.3564 13.2549 Q21.3564 13.6299 21.1533 13.9737 Q20.9502 14.3174 20.6142 14.5206 Q20.2783 14.7237 19.8877 14.7237 Q19.3877 14.7237 19.0283 14.3409 Q18.6689 13.9581 18.622 13.4268 Q18.3095 14.0674 17.7002 14.4424 Q17.0908 14.8174 16.3877 14.8174 Q15.7314 14.8174 15.1064 14.6299 Q14.4814 14.4424 14.0674 14.0284 Q13.6533 13.6143 13.6533 12.9581 ZM15.0283 12.9581 Q15.0283 13.5518 15.4658 13.9659 Q15.9033 14.3799 16.497 14.3799 Q17.0439 14.3799 17.497 14.0987 Q17.9502 13.8174 18.2158 13.3487 Q18.4814 12.8799 18.4814 12.3487 L18.4814 10.5831 Q17.7002 10.5831 16.8955 10.8409 Q16.0908 11.0987 15.5595 11.6377 Q15.0283 12.1768 15.0283 12.9581 Z"
      /><path style="stroke:none;" d="M22.2366 14.6768 L22.2366 11.9112 Q22.2366 11.7706 22.3929 11.7706 L22.596 11.7706 Q22.6898 11.7706 22.721 11.9112 Q23.2054 14.3799 25.0179 14.3799 Q25.8304 14.3799 26.3695 14.0127 Q26.9085 13.6456 26.9085 12.8799 Q26.9085 12.3331 26.4866 11.9424 Q26.0648 11.5518 25.4866 11.4112 L24.346 11.1924 Q23.7679 11.0674 23.2991 10.8096 Q22.8304 10.5518 22.5335 10.1221 Q22.2366 9.6924 22.2366 9.1299 Q22.2366 8.3799 22.6351 7.9034 Q23.0335 7.4268 23.6585 7.2159 Q24.2835 7.0049 25.0179 7.0049 Q25.8929 7.0049 26.5335 7.4737 L27.0335 7.0518 Q27.0335 7.0049 27.1116 7.0049 L27.2366 7.0049 Q27.2835 7.0049 27.3226 7.0518 Q27.3616 7.0987 27.3616 7.1456 L27.3616 9.3799 Q27.3616 9.5362 27.2366 9.5362 L27.0335 9.5362 Q26.8773 9.5362 26.8773 9.3799 Q26.8773 8.4893 26.3851 7.9502 Q25.8929 7.4112 25.0023 7.4112 Q24.2366 7.4112 23.6741 7.6924 Q23.1116 7.9737 23.1116 8.6612 Q23.1116 9.1299 23.5179 9.4346 Q23.9241 9.7393 24.471 9.8799 L25.6116 10.0831 Q26.2054 10.2237 26.7054 10.5362 Q27.2054 10.8487 27.5023 11.3331 Q27.7991 11.8174 27.7991 12.4268 Q27.7991 13.0362 27.5804 13.4893 Q27.3616 13.9424 26.9866 14.2393 Q26.6116 14.5362 26.096 14.6768 Q25.5804 14.8174 25.0179 14.8174 Q23.9554 14.8174 23.2054 14.1143 L22.5804 14.7862 Q22.5804 14.8174 22.4866 14.8174 L22.3929 14.8174 Q22.2366 14.8174 22.2366 14.6768 Z"
      /><path style="stroke:none;" d="M30.3722 12.5987 L30.3722 8.8487 Q30.3722 8.3956 30.2394 8.1924 Q30.1066 7.9893 29.8487 7.9424 Q29.5909 7.8956 29.0441 7.8956 L29.0441 7.3018 L31.6222 7.1143 L31.6222 12.5987 Q31.6222 13.2706 31.7159 13.6377 Q31.8097 14.0049 32.1222 14.1924 Q32.4347 14.3799 33.1222 14.3799 Q34.0284 14.3799 34.5675 13.6143 Q35.1066 12.8487 35.1066 11.8799 L35.1066 8.8487 Q35.1066 8.3956 34.9659 8.1924 Q34.8253 7.9893 34.5753 7.9424 Q34.3253 7.8956 33.7784 7.8956 L33.7784 7.3018 L36.3409 7.1143 L36.3409 13.0831 Q36.3409 13.5362 36.4816 13.7393 Q36.6222 13.9424 36.88 13.9893 Q37.1378 14.0362 37.6691 14.0362 L37.6691 14.6299 L35.1534 14.8174 L35.1534 13.3799 Q34.8409 14.0206 34.2784 14.419 Q33.7159 14.8174 33.0284 14.8174 Q31.8097 14.8174 31.0909 14.3018 Q30.3722 13.7862 30.3722 12.5987 Z"
      /><path style="stroke:none;" d="M38.6575 14.6299 L38.6575 14.0362 Q39.2356 14.0362 39.6106 13.9424 Q39.9856 13.8487 39.9856 13.4893 L39.9856 8.8487 Q39.9856 8.3956 39.8528 8.1924 Q39.72 7.9893 39.4622 7.9424 Q39.2044 7.8956 38.6575 7.8956 L38.6575 7.3018 L41.095 7.1143 L41.095 8.7706 Q41.3606 8.0362 41.8684 7.5752 Q42.3763 7.1143 43.095 7.1143 Q43.6106 7.1143 44.0091 7.4112 Q44.4075 7.7081 44.4075 8.2081 Q44.4075 8.5049 44.1888 8.7393 Q43.97 8.9737 43.6419 8.9737 Q43.3294 8.9737 43.1028 8.7471 Q42.8763 8.5206 42.8763 8.2081 Q42.8763 7.7549 43.2044 7.5518 L43.095 7.5518 Q42.4075 7.5518 41.9778 8.0518 Q41.5481 8.5518 41.3606 9.294 Q41.1731 10.0362 41.1731 10.7081 L41.1731 13.4893 Q41.1731 14.0362 42.8294 14.0362 L42.8294 14.6299 L38.6575 14.6299 Z"
      /><path style="stroke:none;" d="M49.2759 14.8174 Q48.2447 14.8174 47.3775 14.2784 Q46.5103 13.7393 46.0103 12.8252 Q45.5103 11.9112 45.5103 10.8956 Q45.5103 9.9112 45.9634 9.0127 Q46.4165 8.1143 47.229 7.5596 Q48.0415 7.0049 49.0415 7.0049 Q49.8072 7.0049 50.3853 7.2706 Q50.9634 7.5362 51.3384 7.9971 Q51.7134 8.4581 51.9087 9.0909 Q52.104 9.7237 52.104 10.4737 Q52.104 10.7081 51.9165 10.7081 L46.9947 10.7081 L46.9947 10.8799 Q46.9947 12.3018 47.565 13.3096 Q48.1353 14.3174 49.4322 14.3174 Q49.9478 14.3174 50.3931 14.0909 Q50.8384 13.8643 51.1665 13.4424 Q51.4947 13.0206 51.604 12.5518 Q51.6197 12.4893 51.6665 12.4502 Q51.7134 12.4112 51.7759 12.4112 L51.9165 12.4112 Q52.104 12.4112 52.104 12.6143 Q51.854 13.5831 51.0572 14.2002 Q50.2603 14.8174 49.2759 14.8174 ZM47.0103 10.2862 L50.9009 10.2862 Q50.9009 9.6456 50.7212 8.9893 Q50.5415 8.3331 50.1275 7.8956 Q49.7134 7.4581 49.0415 7.4581 Q48.0728 7.4581 47.5415 8.3565 Q47.0103 9.2549 47.0103 10.2862 Z"
      /><path style="stroke:none;" d="M53.2823 14.6299 L53.2823 14.0362 Q53.876 14.0362 54.2432 13.9424 Q54.6104 13.8487 54.6104 13.4893 L54.6104 8.8487 Q54.6104 8.3956 54.4776 8.1924 Q54.3448 7.9893 54.087 7.9424 Q53.8292 7.8956 53.2823 7.8956 L53.2823 7.3018 L55.751 7.1143 L55.751 8.7706 Q56.0948 8.0518 56.7667 7.5831 Q57.4385 7.1143 58.2198 7.1143 Q60.1729 7.1143 60.5167 8.7081 Q60.8604 8.0049 61.5167 7.5596 Q62.1729 7.1143 62.9542 7.1143 Q63.7198 7.1143 64.251 7.3643 Q64.7823 7.6143 65.0479 8.1221 Q65.3135 8.6299 65.3135 9.4112 L65.3135 13.4893 Q65.3135 13.8487 65.6885 13.9424 Q66.0635 14.0362 66.6417 14.0362 L66.6417 14.6299 L62.751 14.6299 L62.751 14.0362 Q63.3292 14.0362 63.7042 13.9424 Q64.0792 13.8487 64.0792 13.4893 L64.0792 9.4581 Q64.0792 8.5987 63.837 8.0752 Q63.5948 7.5518 62.8448 7.5518 Q61.8604 7.5518 61.2198 8.3409 Q60.5792 9.1299 60.5792 10.1456 L60.5792 13.4893 Q60.5792 13.8487 60.9542 13.9424 Q61.3292 14.0362 61.9073 14.0362 L61.9073 14.6299 L58.0167 14.6299 L58.0167 14.0362 Q58.5948 14.0362 58.9698 13.9424 Q59.3448 13.8487 59.3448 13.4893 L59.3448 9.4581 Q59.3448 8.6299 59.1026 8.0909 Q58.8604 7.5518 58.126 7.5518 Q57.126 7.5518 56.4932 8.3409 Q55.8604 9.1299 55.8604 10.1456 L55.8604 13.4893 Q55.8604 13.8487 56.2354 13.9424 Q56.6104 14.0362 57.1885 14.0362 L57.1885 14.6299 L53.2823 14.6299 Z"
      /><path style="stroke:none;" d="M71.5306 14.8174 Q70.4993 14.8174 69.6321 14.2784 Q68.765 13.7393 68.265 12.8252 Q67.765 11.9112 67.765 10.8956 Q67.765 9.9112 68.2181 9.0127 Q68.6712 8.1143 69.4837 7.5596 Q70.2962 7.0049 71.2962 7.0049 Q72.0618 7.0049 72.64 7.2706 Q73.2181 7.5362 73.5931 7.9971 Q73.9681 8.4581 74.1634 9.0909 Q74.3587 9.7237 74.3587 10.4737 Q74.3587 10.7081 74.1712 10.7081 L69.2493 10.7081 L69.2493 10.8799 Q69.2493 12.3018 69.8196 13.3096 Q70.39 14.3174 71.6868 14.3174 Q72.2025 14.3174 72.6478 14.0909 Q73.0931 13.8643 73.4212 13.4424 Q73.7493 13.0206 73.8587 12.5518 Q73.8743 12.4893 73.9212 12.4502 Q73.9681 12.4112 74.0306 12.4112 L74.1712 12.4112 Q74.3587 12.4112 74.3587 12.6143 Q74.1087 13.5831 73.3118 14.2002 Q72.515 14.8174 71.5306 14.8174 ZM69.265 10.2862 L73.1556 10.2862 Q73.1556 9.6456 72.9759 8.9893 Q72.7962 8.3331 72.3821 7.8956 Q71.9681 7.4581 71.2962 7.4581 Q70.3275 7.4581 69.7962 8.3565 Q69.265 9.2549 69.265 10.2862 Z"
      /><path style="stroke:none;" d="M75.5369 14.6299 L75.5369 14.0362 Q76.1307 14.0362 76.4979 13.9424 Q76.8651 13.8487 76.8651 13.4893 L76.8651 8.8487 Q76.8651 8.3956 76.7323 8.1924 Q76.5994 7.9893 76.3416 7.9424 Q76.0838 7.8956 75.5369 7.8956 L75.5369 7.3018 L78.0057 7.1143 L78.0057 8.7706 Q78.3494 8.0518 79.0213 7.5831 Q79.6932 7.1143 80.4744 7.1143 Q81.6463 7.1143 82.2401 7.6768 Q82.8338 8.2393 82.8338 9.4112 L82.8338 13.4893 Q82.8338 13.8487 83.2088 13.9424 Q83.5838 14.0362 84.1619 14.0362 L84.1619 14.6299 L80.2713 14.6299 L80.2713 14.0362 Q80.8494 14.0362 81.2244 13.9424 Q81.5994 13.8487 81.5994 13.4893 L81.5994 9.4581 Q81.5994 8.6299 81.3573 8.0909 Q81.1151 7.5518 80.3807 7.5518 Q79.3807 7.5518 78.7479 8.3409 Q78.1151 9.1299 78.1151 10.1456 L78.1151 13.4893 Q78.1151 13.8487 78.4901 13.9424 Q78.8651 14.0362 79.4432 14.0362 L79.4432 14.6299 L75.5369 14.6299 Z"
      /><path style="stroke:none;" d="M85.9635 12.5831 L85.9635 7.8956 L84.5572 7.8956 L84.5572 7.4581 Q85.6666 7.4581 86.19 6.419 Q86.7135 5.3799 86.7135 4.1768 L87.1978 4.1768 L87.1978 7.3018 L89.6041 7.3018 L89.6041 7.8956 L87.1978 7.8956 L87.1978 12.5518 Q87.1978 13.2549 87.4322 13.7862 Q87.6666 14.3174 88.2916 14.3174 Q88.8697 14.3174 89.1275 13.7627 Q89.3853 13.2081 89.3853 12.5518 L89.3853 11.5518 L89.8697 11.5518 L89.8697 12.5831 Q89.8697 13.1143 89.6744 13.6377 Q89.4791 14.1612 89.0963 14.4893 Q88.7135 14.8174 88.1666 14.8174 Q87.151 14.8174 86.5572 14.2081 Q85.9635 13.5987 85.9635 12.5831 Z"
      /><path style="stroke:none;" d="M91.5648 14.6768 L91.5648 11.9112 Q91.5648 11.7706 91.721 11.7706 L91.9241 11.7706 Q92.0179 11.7706 92.0491 11.9112 Q92.5335 14.3799 94.346 14.3799 Q95.1585 14.3799 95.6976 14.0127 Q96.2366 13.6456 96.2366 12.8799 Q96.2366 12.3331 95.8148 11.9424 Q95.3929 11.5518 94.8148 11.4112 L93.6741 11.1924 Q93.096 11.0674 92.6273 10.8096 Q92.1585 10.5518 91.8616 10.1221 Q91.5648 9.6924 91.5648 9.1299 Q91.5648 8.3799 91.9632 7.9034 Q92.3616 7.4268 92.9866 7.2159 Q93.6116 7.0049 94.346 7.0049 Q95.221 7.0049 95.8616 7.4737 L96.3616 7.0518 Q96.3616 7.0049 96.4398 7.0049 L96.5648 7.0049 Q96.6116 7.0049 96.6507 7.0518 Q96.6898 7.0987 96.6898 7.1456 L96.6898 9.3799 Q96.6898 9.5362 96.5648 9.5362 L96.3616 9.5362 Q96.2054 9.5362 96.2054 9.3799 Q96.2054 8.4893 95.7132 7.9502 Q95.221 7.4112 94.3304 7.4112 Q93.5648 7.4112 93.0023 7.6924 Q92.4398 7.9737 92.4398 8.6612 Q92.4398 9.1299 92.846 9.4346 Q93.2523 9.7393 93.7991 9.8799 L94.9398 10.0831 Q95.5335 10.2237 96.0335 10.5362 Q96.5335 10.8487 96.8304 11.3331 Q97.1273 11.8174 97.1273 12.4268 Q97.1273 13.0362 96.9085 13.4893 Q96.6898 13.9424 96.3148 14.2393 Q95.9398 14.5362 95.4241 14.6768 Q94.9085 14.8174 94.346 14.8174 Q93.2835 14.8174 92.5335 14.1143 L91.9085 14.7862 Q91.9085 14.8174 91.8148 14.8174 L91.721 14.8174 Q91.5648 14.8174 91.5648 14.6768 Z"
    /></g
    ><g style="fill:rgb(38,38,38); text-rendering:geometricPrecision; image-rendering:optimizeQuality; color-rendering:optimizeQuality; stroke-linejoin:round; stroke:rgb(38,38,38); color-interpolation:linearRGB; stroke-width:0.6597;"
    ><line y2="31" style="fill:none;" x1="74" x2="74" y1="373"
      /><line y2="31" style="fill:none;" x1="516" x2="516" y1="373"
      /><line y2="373" style="fill:none;" x1="74" x2="78.42" y1="373"
      /><line y2="304.6" style="fill:none;" x1="74" x2="78.42" y1="304.6"
      /><line y2="236.2" style="fill:none;" x1="74" x2="78.42" y1="236.2"
      /><line y2="167.8" style="fill:none;" x1="74" x2="78.42" y1="167.8"
      /><line y2="99.4" style="fill:none;" x1="74" x2="78.42" y1="99.4"
      /><line y2="31" style="fill:none;" x1="74" x2="78.42" y1="31"
      /><line y2="373" style="fill:none;" x1="516" x2="511.58" y1="373"
      /><line y2="304.6" style="fill:none;" x1="516" x2="511.58" y1="304.6"
      /><line y2="236.2" style="fill:none;" x1="516" x2="511.58" y1="236.2"
      /><line y2="167.8" style="fill:none;" x1="516" x2="511.58" y1="167.8"
      /><line y2="99.4" style="fill:none;" x1="516" x2="511.58" y1="99.4"
      /><line y2="31" style="fill:none;" x1="516" x2="511.58" y1="31"
    /></g
    ><g transform="translate(68.1944,373)" style="font-size:15.8333px; fill:rgb(38,38,38); text-rendering:geometricPrecision; image-rendering:optimizeQuality; color-rendering:optimizeQuality; font-family:'mwa_cmr10'; stroke:rgb(38,38,38); color-interpolation:linearRGB;"
    ><path style="stroke:none;" d="M-3.9167 4.1593 Q-5.8698 4.1593 -6.5808 2.5421 Q-7.2917 0.9249 -7.2917 -1.3094 Q-7.2917 -2.7001 -7.0339 -3.9266 Q-6.7761 -5.1532 -6.0261 -6.0047 Q-5.2761 -6.8563 -3.9167 -6.8563 Q-2.8542 -6.8563 -2.1823 -6.3407 Q-1.5104 -5.8251 -1.1589 -5.0126 Q-0.8073 -4.2001 -0.6823 -3.2626 Q-0.5573 -2.3251 -0.5573 -1.3094 Q-0.5573 0.0656 -0.8073 1.2687 Q-1.0573 2.4718 -1.7995 3.3156 Q-2.5417 4.1593 -3.9167 4.1593 ZM-3.9167 3.7374 Q-3.0261 3.7374 -2.5886 2.8234 Q-2.1511 1.9093 -2.0495 0.7999 Q-1.9479 -0.3094 -1.9479 -1.5594 Q-1.9479 -2.7626 -2.0495 -3.7782 Q-2.1511 -4.7938 -2.5808 -5.6219 Q-3.0104 -6.4501 -3.9167 -6.4501 Q-4.8229 -6.4501 -5.2604 -5.6219 Q-5.6979 -4.7938 -5.7995 -3.7782 Q-5.9011 -2.7626 -5.9011 -1.5594 Q-5.9011 -0.6688 -5.8542 0.1203 Q-5.8073 0.9093 -5.6198 1.7453 Q-5.4323 2.5812 -5.0183 3.1593 Q-4.6042 3.7374 -3.9167 3.7374 Z"
    /></g
    ><g transform="translate(68.1944,304.6)" style="font-size:15.8333px; fill:rgb(38,38,38); text-rendering:geometricPrecision; image-rendering:optimizeQuality; color-rendering:optimizeQuality; font-family:'mwa_cmr10'; stroke:rgb(38,38,38); color-interpolation:linearRGB;"
    ><path style="stroke:none;" d="M-16.2315 4.1593 Q-18.1847 4.1593 -18.8956 2.5421 Q-19.6065 0.9249 -19.6065 -1.3094 Q-19.6065 -2.7001 -19.3487 -3.9266 Q-19.0909 -5.1532 -18.3409 -6.0047 Q-17.5909 -6.8563 -16.2315 -6.8563 Q-15.169 -6.8563 -14.4972 -6.3407 Q-13.8253 -5.8251 -13.4737 -5.0126 Q-13.1222 -4.2001 -12.9972 -3.2626 Q-12.8722 -2.3251 -12.8722 -1.3094 Q-12.8722 0.0656 -13.1222 1.2687 Q-13.3722 2.4718 -14.1144 3.3156 Q-14.8565 4.1593 -16.2315 4.1593 ZM-16.2315 3.7374 Q-15.3409 3.7374 -14.9034 2.8234 Q-14.4659 1.9093 -14.3644 0.7999 Q-14.2628 -0.3094 -14.2628 -1.5594 Q-14.2628 -2.7626 -14.3644 -3.7782 Q-14.4659 -4.7938 -14.8956 -5.6219 Q-15.3253 -6.4501 -16.2315 -6.4501 Q-17.1378 -6.4501 -17.5753 -5.6219 Q-18.0128 -4.7938 -18.1144 -3.7782 Q-18.2159 -2.7626 -18.2159 -1.5594 Q-18.2159 -0.6688 -18.169 0.1203 Q-18.1222 0.9093 -17.9347 1.7453 Q-17.7472 2.5812 -17.3331 3.1593 Q-16.919 3.7374 -16.2315 3.7374 Z"
      /><path style="stroke:none;" d="M-10.9711 2.9093 Q-10.9711 2.5499 -10.7055 2.2921 Q-10.4399 2.0343 -10.0805 2.0343 Q-9.8617 2.0343 -9.6508 2.1515 Q-9.4399 2.2687 -9.3227 2.4796 Q-9.2055 2.6906 -9.2055 2.9093 Q-9.2055 3.2687 -9.4633 3.5343 Q-9.7211 3.7999 -10.0805 3.7999 Q-10.4399 3.7999 -10.7055 3.5343 Q-10.9711 3.2687 -10.9711 2.9093 Z"
      /><path style="stroke:none;" d="M-7.1198 3.7999 L-7.1198 3.3624 Q-7.1198 3.3312 -7.0886 3.2843 L-4.6042 0.5343 Q-4.0417 -0.0751 -3.6901 -0.4891 Q-3.3386 -0.9032 -2.9948 -1.4422 Q-2.6511 -1.9813 -2.4479 -2.5438 Q-2.2448 -3.1063 -2.2448 -3.7313 Q-2.2448 -4.3876 -2.487 -4.9813 Q-2.7292 -5.5751 -3.2136 -5.9344 Q-3.6979 -6.2938 -4.3698 -6.2938 Q-5.0729 -6.2938 -5.6276 -5.8797 Q-6.1823 -5.4657 -6.4011 -4.7938 Q-6.3386 -4.8094 -6.2292 -4.8094 Q-5.8698 -4.8094 -5.6198 -4.5672 Q-5.3698 -4.3251 -5.3698 -3.9501 Q-5.3698 -3.5751 -5.6198 -3.3251 Q-5.8698 -3.0751 -6.2292 -3.0751 Q-6.6042 -3.0751 -6.862 -3.3329 Q-7.1198 -3.5907 -7.1198 -3.9501 Q-7.1198 -4.5438 -6.8933 -5.0751 Q-6.6667 -5.6063 -6.237 -6.0126 Q-5.8073 -6.4188 -5.2761 -6.6376 Q-4.7448 -6.8563 -4.1354 -6.8563 Q-3.2292 -6.8563 -2.4401 -6.4735 Q-1.6511 -6.0907 -1.1901 -5.3797 Q-0.7292 -4.6688 -0.7292 -3.7313 Q-0.7292 -3.0282 -1.0339 -2.4032 Q-1.3386 -1.7782 -1.8151 -1.2704 Q-2.2917 -0.7626 -3.0339 -0.1141 Q-3.7761 0.5343 -4.0104 0.7531 L-5.8229 2.5031 L-4.2761 2.5031 Q-3.1511 2.5031 -2.3854 2.4796 Q-1.6198 2.4562 -1.5729 2.4249 Q-1.3854 2.2218 -1.1979 0.9406 L-0.7292 0.9406 L-1.1823 3.7999 L-7.1198 3.7999 Z"
    /></g
    ><g transform="translate(68.1944,236.2)" style="font-size:15.8333px; fill:rgb(38,38,38); text-rendering:geometricPrecision; image-rendering:optimizeQuality; color-rendering:optimizeQuality; font-family:'mwa_cmr10'; stroke:rgb(38,38,38); color-interpolation:linearRGB;"
    ><path style="stroke:none;" d="M-16.2315 4.1593 Q-18.1847 4.1593 -18.8956 2.5421 Q-19.6065 0.9249 -19.6065 -1.3094 Q-19.6065 -2.7001 -19.3487 -3.9266 Q-19.0909 -5.1532 -18.3409 -6.0047 Q-17.5909 -6.8563 -16.2315 -6.8563 Q-15.169 -6.8563 -14.4972 -6.3407 Q-13.8253 -5.8251 -13.4737 -5.0126 Q-13.1222 -4.2001 -12.9972 -3.2626 Q-12.8722 -2.3251 -12.8722 -1.3094 Q-12.8722 0.0656 -13.1222 1.2687 Q-13.3722 2.4718 -14.1144 3.3156 Q-14.8565 4.1593 -16.2315 4.1593 ZM-16.2315 3.7374 Q-15.3409 3.7374 -14.9034 2.8234 Q-14.4659 1.9093 -14.3644 0.7999 Q-14.2628 -0.3094 -14.2628 -1.5594 Q-14.2628 -2.7626 -14.3644 -3.7782 Q-14.4659 -4.7938 -14.8956 -5.6219 Q-15.3253 -6.4501 -16.2315 -6.4501 Q-17.1378 -6.4501 -17.5753 -5.6219 Q-18.0128 -4.7938 -18.1144 -3.7782 Q-18.2159 -2.7626 -18.2159 -1.5594 Q-18.2159 -0.6688 -18.169 0.1203 Q-18.1222 0.9093 -17.9347 1.7453 Q-17.7472 2.5812 -17.3331 3.1593 Q-16.919 3.7374 -16.2315 3.7374 Z"
      /><path style="stroke:none;" d="M-10.9711 2.9093 Q-10.9711 2.5499 -10.7055 2.2921 Q-10.4399 2.0343 -10.0805 2.0343 Q-9.8617 2.0343 -9.6508 2.1515 Q-9.4399 2.2687 -9.3227 2.4796 Q-9.2055 2.6906 -9.2055 2.9093 Q-9.2055 3.2687 -9.4633 3.5343 Q-9.7211 3.7999 -10.0805 3.7999 Q-10.4399 3.7999 -10.7055 3.5343 Q-10.9711 3.2687 -10.9711 2.9093 Z"
      /><path style="stroke:none;" d="M-7.4636 1.1593 L-7.4636 0.5968 L-2.5261 -6.7782 Q-2.4636 -6.8563 -2.3542 -6.8563 L-2.1198 -6.8563 Q-1.9479 -6.8563 -1.9479 -6.6844 L-1.9479 0.5968 L-0.3698 0.5968 L-0.3698 1.1593 L-1.9479 1.1593 L-1.9479 2.7218 Q-1.9479 3.0499 -1.4792 3.1437 Q-1.0104 3.2374 -0.3854 3.2374 L-0.3854 3.7999 L-4.7917 3.7999 L-4.7917 3.2374 Q-4.1823 3.2374 -3.7136 3.1437 Q-3.2448 3.0499 -3.2448 2.7218 L-3.2448 1.1593 L-7.4636 1.1593 ZM-6.9323 0.5968 L-3.1511 0.5968 L-3.1511 -5.0751 L-6.9323 0.5968 Z"
    /></g
    ><g transform="translate(68.1944,167.8)" style="font-size:15.8333px; fill:rgb(38,38,38); text-rendering:geometricPrecision; image-rendering:optimizeQuality; color-rendering:optimizeQuality; font-family:'mwa_cmr10'; stroke:rgb(38,38,38); color-interpolation:linearRGB;"
    ><path style="stroke:none;" d="M-16.2315 4.1593 Q-18.1847 4.1593 -18.8956 2.5421 Q-19.6065 0.9249 -19.6065 -1.3094 Q-19.6065 -2.7001 -19.3487 -3.9266 Q-19.0909 -5.1532 -18.3409 -6.0047 Q-17.5909 -6.8563 -16.2315 -6.8563 Q-15.169 -6.8563 -14.4972 -6.3407 Q-13.8253 -5.8251 -13.4737 -5.0126 Q-13.1222 -4.2001 -12.9972 -3.2626 Q-12.8722 -2.3251 -12.8722 -1.3094 Q-12.8722 0.0656 -13.1222 1.2687 Q-13.3722 2.4718 -14.1144 3.3156 Q-14.8565 4.1593 -16.2315 4.1593 ZM-16.2315 3.7374 Q-15.3409 3.7374 -14.9034 2.8234 Q-14.4659 1.9093 -14.3644 0.7999 Q-14.2628 -0.3094 -14.2628 -1.5594 Q-14.2628 -2.7626 -14.3644 -3.7782 Q-14.4659 -4.7938 -14.8956 -5.6219 Q-15.3253 -6.4501 -16.2315 -6.4501 Q-17.1378 -6.4501 -17.5753 -5.6219 Q-18.0128 -4.7938 -18.1144 -3.7782 Q-18.2159 -2.7626 -18.2159 -1.5594 Q-18.2159 -0.6688 -18.169 0.1203 Q-18.1222 0.9093 -17.9347 1.7453 Q-17.7472 2.5812 -17.3331 3.1593 Q-16.919 3.7374 -16.2315 3.7374 Z"
      /><path style="stroke:none;" d="M-10.9711 2.9093 Q-10.9711 2.5499 -10.7055 2.2921 Q-10.4399 2.0343 -10.0805 2.0343 Q-9.8617 2.0343 -9.6508 2.1515 Q-9.4399 2.2687 -9.3227 2.4796 Q-9.2055 2.6906 -9.2055 2.9093 Q-9.2055 3.2687 -9.4633 3.5343 Q-9.7211 3.7999 -10.0805 3.7999 Q-10.4399 3.7999 -10.7055 3.5343 Q-10.9711 3.2687 -10.9711 2.9093 Z"
      /><path style="stroke:none;" d="M-3.9167 4.1593 Q-4.9011 4.1593 -5.5651 3.6281 Q-6.2292 3.0968 -6.5964 2.2531 Q-6.9636 1.4093 -7.1042 0.4874 Q-7.2448 -0.4344 -7.2448 -1.3719 Q-7.2448 -2.6376 -6.7526 -3.911 Q-6.2604 -5.1844 -5.2995 -6.0204 Q-4.3386 -6.8563 -3.0261 -6.8563 Q-2.4792 -6.8563 -2.0104 -6.6532 Q-1.5417 -6.4501 -1.2683 -6.0438 Q-0.9948 -5.6376 -0.9948 -5.0751 Q-0.9948 -4.7469 -1.2214 -4.5204 Q-1.4479 -4.2938 -1.7761 -4.2938 Q-2.0886 -4.2938 -2.3151 -4.5204 Q-2.5417 -4.7469 -2.5417 -5.0751 Q-2.5417 -5.3876 -2.3151 -5.6141 Q-2.0886 -5.8407 -1.7761 -5.8407 L-1.6823 -5.8407 Q-1.8854 -6.1219 -2.2604 -6.2626 Q-2.6354 -6.4032 -3.0261 -6.4032 Q-3.5104 -6.4032 -3.9245 -6.1922 Q-4.3386 -5.9813 -4.6667 -5.6219 Q-4.9948 -5.2626 -5.2136 -4.8251 Q-5.4323 -4.3876 -5.5495 -3.8329 Q-5.6667 -3.2782 -5.6979 -2.7938 Q-5.7292 -2.3094 -5.7292 -1.5751 Q-5.4479 -2.2313 -4.9323 -2.6532 Q-4.4167 -3.0751 -3.7761 -3.0751 Q-3.0573 -3.0751 -2.4714 -2.786 Q-1.8854 -2.4969 -1.4636 -1.9813 Q-1.0417 -1.4657 -0.8229 -0.8094 Q-0.6042 -0.1532 -0.6042 0.5187 Q-0.6042 1.4562 -1.0183 2.2999 Q-1.4323 3.1437 -2.1901 3.6515 Q-2.9479 4.1593 -3.9167 4.1593 ZM-3.9167 3.6437 Q-3.2917 3.6437 -2.9167 3.3624 Q-2.5417 3.0812 -2.3698 2.6124 Q-2.1979 2.1437 -2.1511 1.6749 Q-2.1042 1.2062 -2.1042 0.5187 Q-2.1042 -0.3876 -2.1901 -1.0282 Q-2.2761 -1.6688 -2.6589 -2.161 Q-3.0417 -2.6532 -3.8386 -2.6532 Q-4.4792 -2.6532 -4.9011 -2.2157 Q-5.3229 -1.7782 -5.5104 -1.1063 Q-5.6979 -0.4344 -5.6979 0.1749 Q-5.6979 0.3937 -5.6823 0.5031 Q-5.6823 0.5187 -5.6901 0.5343 Q-5.6979 0.5499 -5.6979 0.5812 Q-5.6979 1.2687 -5.5573 1.9718 Q-5.4167 2.6749 -5.0183 3.1593 Q-4.6198 3.6437 -3.9167 3.6437 Z"
    /></g
    ><g transform="translate(68.1944,99.4)" style="font-size:15.8333px; fill:rgb(38,38,38); text-rendering:geometricPrecision; image-rendering:optimizeQuality; color-rendering:optimizeQuality; font-family:'mwa_cmr10'; stroke:rgb(38,38,38); color-interpolation:linearRGB;"
    ><path style="stroke:none;" d="M-16.2315 4.1593 Q-18.1847 4.1593 -18.8956 2.5421 Q-19.6065 0.9249 -19.6065 -1.3094 Q-19.6065 -2.7001 -19.3487 -3.9266 Q-19.0909 -5.1532 -18.3409 -6.0047 Q-17.5909 -6.8563 -16.2315 -6.8563 Q-15.169 -6.8563 -14.4972 -6.3407 Q-13.8253 -5.8251 -13.4737 -5.0126 Q-13.1222 -4.2001 -12.9972 -3.2626 Q-12.8722 -2.3251 -12.8722 -1.3094 Q-12.8722 0.0656 -13.1222 1.2687 Q-13.3722 2.4718 -14.1144 3.3156 Q-14.8565 4.1593 -16.2315 4.1593 ZM-16.2315 3.7374 Q-15.3409 3.7374 -14.9034 2.8234 Q-14.4659 1.9093 -14.3644 0.7999 Q-14.2628 -0.3094 -14.2628 -1.5594 Q-14.2628 -2.7626 -14.3644 -3.7782 Q-14.4659 -4.7938 -14.8956 -5.6219 Q-15.3253 -6.4501 -16.2315 -6.4501 Q-17.1378 -6.4501 -17.5753 -5.6219 Q-18.0128 -4.7938 -18.1144 -3.7782 Q-18.2159 -2.7626 -18.2159 -1.5594 Q-18.2159 -0.6688 -18.169 0.1203 Q-18.1222 0.9093 -17.9347 1.7453 Q-17.7472 2.5812 -17.3331 3.1593 Q-16.919 3.7374 -16.2315 3.7374 Z"
      /><path style="stroke:none;" d="M-10.9711 2.9093 Q-10.9711 2.5499 -10.7055 2.2921 Q-10.4399 2.0343 -10.0805 2.0343 Q-9.8617 2.0343 -9.6508 2.1515 Q-9.4399 2.2687 -9.3227 2.4796 Q-9.2055 2.6906 -9.2055 2.9093 Q-9.2055 3.2687 -9.4633 3.5343 Q-9.7211 3.7999 -10.0805 3.7999 Q-10.4399 3.7999 -10.7055 3.5343 Q-10.9711 3.2687 -10.9711 2.9093 Z"
      /><path style="stroke:none;" d="M-7.2448 1.3624 Q-7.2448 0.4093 -6.612 -0.3329 Q-5.9792 -1.0751 -4.9792 -1.5594 L-5.5729 -1.9501 Q-6.1198 -2.3094 -6.4636 -2.9032 Q-6.8073 -3.4969 -6.8073 -4.1532 Q-6.8073 -4.9188 -6.4089 -5.536 Q-6.0104 -6.1532 -5.3386 -6.5047 Q-4.6667 -6.8563 -3.9167 -6.8563 Q-3.1979 -6.8563 -2.5417 -6.5672 Q-1.8854 -6.2782 -1.4558 -5.7391 Q-1.0261 -5.2001 -1.0261 -4.4657 Q-1.0261 -3.9188 -1.2839 -3.4579 Q-1.5417 -2.9969 -1.9792 -2.6297 Q-2.4167 -2.2626 -2.9167 -2.0126 L-2.0104 -1.4188 Q-1.3698 -1.0126 -0.987 -0.3407 Q-0.6042 0.3312 -0.6042 1.0812 Q-0.6042 1.9406 -1.0651 2.6515 Q-1.5261 3.3624 -2.2917 3.7609 Q-3.0573 4.1593 -3.9167 4.1593 Q-4.7448 4.1593 -5.5104 3.8156 Q-6.2761 3.4718 -6.7604 2.839 Q-7.2448 2.2062 -7.2448 1.3624 ZM-6.3698 1.3624 Q-6.3698 2.0031 -6.0261 2.5265 Q-5.6823 3.0499 -5.112 3.3468 Q-4.5417 3.6437 -3.9167 3.6437 Q-2.9792 3.6437 -2.2214 3.0968 Q-1.4636 2.5499 -1.4636 1.6593 Q-1.4636 1.3468 -1.5886 1.0499 Q-1.7136 0.7531 -1.9245 0.5031 Q-2.1354 0.2531 -2.4011 0.0968 L-4.5573 -1.2938 Q-5.0573 -1.0282 -5.4714 -0.6219 Q-5.8854 -0.2157 -6.1276 0.2921 Q-6.3698 0.7999 -6.3698 1.3624 ZM-5.2761 -3.5126 L-3.3386 -2.2626 Q-2.6667 -2.6532 -2.237 -3.2079 Q-1.8073 -3.7626 -1.8073 -4.4657 Q-1.8073 -4.9969 -2.1042 -5.4501 Q-2.4011 -5.9032 -2.8854 -6.1532 Q-3.3698 -6.4032 -3.9323 -6.4032 Q-4.4167 -6.4032 -4.9089 -6.2157 Q-5.4011 -6.0282 -5.7214 -5.6532 Q-6.0417 -5.2782 -6.0417 -4.7782 Q-6.0417 -4.0282 -5.2761 -3.5126 Z"
    /></g
    ><g transform="translate(68.1944,31)" style="font-size:15.8333px; fill:rgb(38,38,38); text-rendering:geometricPrecision; image-rendering:optimizeQuality; color-rendering:optimizeQuality; font-family:'mwa_cmr10'; stroke:rgb(38,38,38); color-interpolation:linearRGB;"
    ><path style="stroke:none;" d="M-6.4323 3.7999 L-6.4323 3.2374 Q-4.4323 3.2374 -4.4323 2.7218 L-4.4323 -5.6688 Q-5.2604 -5.2782 -6.5261 -5.2782 L-6.5261 -5.8407 Q-4.5573 -5.8407 -3.5573 -6.8563 L-3.3386 -6.8563 Q-3.2761 -6.8563 -3.2292 -6.8172 Q-3.1823 -6.7782 -3.1823 -6.7157 L-3.1823 2.7218 Q-3.1823 3.2374 -1.1823 3.2374 L-1.1823 3.7999 L-6.4323 3.7999 Z"
    /></g
    ><g transform="translate(44.0046,201.9998) rotate(-90)" style="font-size:17.4167px; fill:rgb(38,38,38); text-rendering:geometricPrecision; image-rendering:optimizeQuality; color-rendering:optimizeQuality; font-family:'mwa_cmr10'; stroke:rgb(38,38,38); color-interpolation:linearRGB;"
    ><path style="stroke:none;" d="M-85.5308 -8.0826 Q-84.9526 -7.3482 -84.0776 -6.9185 Q-83.2026 -6.4888 -82.2651 -6.4888 Q-81.4839 -6.4888 -80.812 -6.8013 Q-80.1401 -7.1138 -79.6323 -7.6685 Q-79.1245 -8.2232 -78.8589 -8.9341 Q-78.5933 -9.6451 -78.5933 -10.4263 Q-78.5933 -10.5513 -78.437 -10.5513 L-78.2339 -10.5513 Q-78.0933 -10.5513 -78.0933 -10.3951 Q-78.0933 -9.5044 -78.437 -8.6763 Q-78.7808 -7.8482 -79.4058 -7.2232 Q-80.0308 -6.5982 -80.8354 -6.2466 Q-81.6401 -5.8951 -82.5308 -5.8951 Q-83.7495 -5.8951 -84.8354 -6.3873 Q-85.9214 -6.8794 -86.7339 -7.7388 Q-87.5464 -8.5982 -87.9995 -9.731 Q-88.4526 -10.8638 -88.4526 -12.0826 Q-88.4526 -13.3013 -87.9995 -14.4263 Q-87.5464 -15.5513 -86.7339 -16.4185 Q-85.9214 -17.2857 -84.8354 -17.7701 Q-83.7495 -18.2544 -82.5308 -18.2544 Q-81.6558 -18.2544 -80.8589 -17.8794 Q-80.062 -17.5044 -79.4683 -16.8169 L-78.4683 -18.2076 Q-78.3745 -18.2544 -78.3589 -18.2544 L-78.2339 -18.2544 Q-78.187 -18.2544 -78.1401 -18.2154 Q-78.0933 -18.1763 -78.0933 -18.1138 L-78.0933 -13.5201 Q-78.0933 -13.3794 -78.2339 -13.3794 L-78.5464 -13.3794 Q-78.7026 -13.3794 -78.7026 -13.5201 Q-78.7026 -14.0201 -78.8979 -14.6216 Q-79.0933 -15.2232 -79.3901 -15.7701 Q-79.687 -16.3169 -80.0933 -16.7232 Q-81.0464 -17.6607 -82.2808 -17.6607 Q-83.2183 -17.6607 -84.0776 -17.2388 Q-84.937 -16.8169 -85.5308 -16.0669 Q-86.1558 -15.2701 -86.3979 -14.2544 Q-86.6401 -13.2388 -86.6401 -12.0826 Q-86.6401 -10.9263 -86.3979 -9.9029 Q-86.1558 -8.8794 -85.5308 -8.0826 Z"
      /><path style="stroke:none;" d="M-74.9989 -8.3013 L-74.9989 -12.0513 Q-74.9989 -12.5044 -75.1317 -12.7076 Q-75.2645 -12.9107 -75.5224 -12.9576 Q-75.7802 -13.0044 -76.327 -13.0044 L-76.327 -13.5982 L-73.7489 -13.7857 L-73.7489 -8.3013 Q-73.7489 -7.6294 -73.6552 -7.2623 Q-73.5614 -6.8951 -73.2489 -6.7076 Q-72.9364 -6.5201 -72.2489 -6.5201 Q-71.3427 -6.5201 -70.8036 -7.2857 Q-70.2645 -8.0513 -70.2645 -9.0201 L-70.2645 -12.0513 Q-70.2645 -12.5044 -70.4052 -12.7076 Q-70.5458 -12.9107 -70.7958 -12.9576 Q-71.0458 -13.0044 -71.5927 -13.0044 L-71.5927 -13.5982 L-69.0302 -13.7857 L-69.0302 -7.8169 Q-69.0302 -7.3638 -68.8895 -7.1607 Q-68.7489 -6.9576 -68.4911 -6.9107 Q-68.2333 -6.8638 -67.702 -6.8638 L-67.702 -6.2701 L-70.2177 -6.0826 L-70.2177 -7.5201 Q-70.5302 -6.8794 -71.0927 -6.481 Q-71.6552 -6.0826 -72.3427 -6.0826 Q-73.5614 -6.0826 -74.2802 -6.5982 Q-74.9989 -7.1138 -74.9989 -8.3013 Z"
      /><path style="stroke:none;" d="M-66.6511 -6.2701 L-66.6511 -6.8638 Q-66.0573 -6.8638 -65.6901 -6.9576 Q-65.323 -7.0513 -65.323 -7.4107 L-65.323 -12.0513 Q-65.323 -12.5044 -65.4558 -12.7076 Q-65.5886 -12.9107 -65.8464 -12.9576 Q-66.1042 -13.0044 -66.6511 -13.0044 L-66.6511 -13.5982 L-64.1823 -13.7857 L-64.1823 -12.1294 Q-63.8386 -12.8482 -63.1667 -13.3169 Q-62.4948 -13.7857 -61.7136 -13.7857 Q-59.7605 -13.7857 -59.4167 -12.1919 Q-59.073 -12.8951 -58.4167 -13.3404 Q-57.7605 -13.7857 -56.9792 -13.7857 Q-56.2136 -13.7857 -55.6823 -13.5357 Q-55.1511 -13.2857 -54.8855 -12.7779 Q-54.6198 -12.2701 -54.6198 -11.4888 L-54.6198 -7.4107 Q-54.6198 -7.0513 -54.2448 -6.9576 Q-53.8698 -6.8638 -53.2917 -6.8638 L-53.2917 -6.2701 L-57.1823 -6.2701 L-57.1823 -6.8638 Q-56.6042 -6.8638 -56.2292 -6.9576 Q-55.8542 -7.0513 -55.8542 -7.4107 L-55.8542 -11.4419 Q-55.8542 -12.3013 -56.0964 -12.8248 Q-56.3386 -13.3482 -57.0886 -13.3482 Q-58.073 -13.3482 -58.7136 -12.5591 Q-59.3542 -11.7701 -59.3542 -10.7544 L-59.3542 -7.4107 Q-59.3542 -7.0513 -58.9792 -6.9576 Q-58.6042 -6.8638 -58.0261 -6.8638 L-58.0261 -6.2701 L-61.9167 -6.2701 L-61.9167 -6.8638 Q-61.3386 -6.8638 -60.9636 -6.9576 Q-60.5886 -7.0513 -60.5886 -7.4107 L-60.5886 -11.4419 Q-60.5886 -12.2701 -60.8308 -12.8091 Q-61.073 -13.3482 -61.8073 -13.3482 Q-62.8073 -13.3482 -63.4401 -12.5591 Q-64.073 -11.7701 -64.073 -10.7544 L-64.073 -7.4107 Q-64.073 -7.0513 -63.698 -6.9576 Q-63.323 -6.8638 -62.7448 -6.8638 L-62.7448 -6.2701 L-66.6511 -6.2701 Z"
      /><path style="stroke:none;" d="M-51.2928 -8.3013 L-51.2928 -12.0513 Q-51.2928 -12.5044 -51.4257 -12.7076 Q-51.5585 -12.9107 -51.8163 -12.9576 Q-52.0741 -13.0044 -52.621 -13.0044 L-52.621 -13.5982 L-50.0428 -13.7857 L-50.0428 -8.3013 Q-50.0428 -7.6294 -49.9491 -7.2623 Q-49.8553 -6.8951 -49.5428 -6.7076 Q-49.2303 -6.5201 -48.5428 -6.5201 Q-47.6366 -6.5201 -47.0975 -7.2857 Q-46.5585 -8.0513 -46.5585 -9.0201 L-46.5585 -12.0513 Q-46.5585 -12.5044 -46.6991 -12.7076 Q-46.8397 -12.9107 -47.0897 -12.9576 Q-47.3397 -13.0044 -47.8866 -13.0044 L-47.8866 -13.5982 L-45.3241 -13.7857 L-45.3241 -7.8169 Q-45.3241 -7.3638 -45.1835 -7.1607 Q-45.0428 -6.9576 -44.785 -6.9107 Q-44.5272 -6.8638 -43.996 -6.8638 L-43.996 -6.2701 L-46.5116 -6.0826 L-46.5116 -7.5201 Q-46.8241 -6.8794 -47.3866 -6.481 Q-47.9491 -6.0826 -48.6366 -6.0826 Q-49.8553 -6.0826 -50.5741 -6.5982 Q-51.2928 -7.1138 -51.2928 -8.3013 Z"
      /><path style="stroke:none;" d="M-42.9294 -6.2701 L-42.9294 -6.8638 Q-42.3356 -6.8638 -41.9684 -6.9576 Q-41.6013 -7.0513 -41.6013 -7.4107 L-41.6013 -16.3326 Q-41.6013 -16.7857 -41.7341 -16.9888 Q-41.8669 -17.1919 -42.1247 -17.2388 Q-42.3825 -17.2857 -42.9294 -17.2857 L-42.9294 -17.8794 L-40.3981 -18.0669 L-40.3981 -7.4107 Q-40.3981 -7.0513 -40.0231 -6.9576 Q-39.6481 -6.8638 -39.0856 -6.8638 L-39.0856 -6.2701 L-42.9294 -6.2701 Z"
      /><path style="stroke:none;" d="M-37.9195 -7.9419 Q-37.9195 -8.9576 -37.1227 -9.5904 Q-36.3258 -10.2232 -35.2164 -10.481 Q-34.107 -10.7388 -33.0914 -10.7388 L-33.0914 -11.4419 Q-33.0914 -11.9263 -33.3102 -12.3873 Q-33.5289 -12.8482 -33.9352 -13.1451 Q-34.3414 -13.4419 -34.8258 -13.4419 Q-35.9664 -13.4419 -36.5445 -12.9419 Q-36.232 -12.9419 -36.0133 -12.6919 Q-35.7945 -12.4419 -35.7945 -12.1294 Q-35.7945 -11.7857 -36.0367 -11.5435 Q-36.2789 -11.3013 -36.607 -11.3013 Q-36.9508 -11.3013 -37.193 -11.5435 Q-37.4352 -11.7857 -37.4352 -12.1294 Q-37.4352 -13.0201 -36.6227 -13.4576 Q-35.8102 -13.8951 -34.8258 -13.8951 Q-34.1383 -13.8951 -33.443 -13.5982 Q-32.7477 -13.3013 -32.3023 -12.7544 Q-31.857 -12.2076 -31.857 -11.4732 L-31.857 -7.6451 Q-31.857 -7.3169 -31.7164 -7.0357 Q-31.5758 -6.7544 -31.2789 -6.7544 Q-30.9977 -6.7544 -30.857 -7.0357 Q-30.7164 -7.3169 -30.7164 -7.6451 L-30.7164 -8.7388 L-30.2164 -8.7388 L-30.2164 -7.6451 Q-30.2164 -7.2701 -30.4195 -6.9263 Q-30.6227 -6.5826 -30.9586 -6.3794 Q-31.2945 -6.1763 -31.6852 -6.1763 Q-32.1852 -6.1763 -32.5445 -6.5591 Q-32.9039 -6.9419 -32.9508 -7.4732 Q-33.2633 -6.8326 -33.8727 -6.4576 Q-34.482 -6.0826 -35.1852 -6.0826 Q-35.8414 -6.0826 -36.4664 -6.2701 Q-37.0914 -6.4576 -37.5055 -6.8716 Q-37.9195 -7.2857 -37.9195 -7.9419 ZM-36.5445 -7.9419 Q-36.5445 -7.3482 -36.107 -6.9341 Q-35.6695 -6.5201 -35.0758 -6.5201 Q-34.5289 -6.5201 -34.0758 -6.8013 Q-33.6227 -7.0826 -33.357 -7.5513 Q-33.0914 -8.0201 -33.0914 -8.5513 L-33.0914 -10.3169 Q-33.8727 -10.3169 -34.6773 -10.0591 Q-35.482 -9.8013 -36.0133 -9.2623 Q-36.5445 -8.7232 -36.5445 -7.9419 Z"
      /><path style="stroke:none;" d="M-28.1643 -8.3169 L-28.1643 -13.0044 L-29.5705 -13.0044 L-29.5705 -13.4419 Q-28.4612 -13.4419 -27.9377 -14.481 Q-27.4143 -15.5201 -27.4143 -16.7232 L-26.9299 -16.7232 L-26.9299 -13.5982 L-24.5237 -13.5982 L-24.5237 -13.0044 L-26.9299 -13.0044 L-26.9299 -8.3482 Q-26.9299 -7.6451 -26.6955 -7.1138 Q-26.4612 -6.5826 -25.8362 -6.5826 Q-25.258 -6.5826 -25.0002 -7.1373 Q-24.7424 -7.6919 -24.7424 -8.3482 L-24.7424 -9.3482 L-24.258 -9.3482 L-24.258 -8.3169 Q-24.258 -7.7857 -24.4534 -7.2623 Q-24.6487 -6.7388 -25.0315 -6.4107 Q-25.4143 -6.0826 -25.9612 -6.0826 Q-26.9768 -6.0826 -27.5705 -6.6919 Q-28.1643 -7.3013 -28.1643 -8.3169 Z"
      /><path style="stroke:none;" d="M-22.6099 -6.2701 L-22.6099 -6.8638 Q-22.0161 -6.8638 -21.6489 -6.9576 Q-21.2818 -7.0513 -21.2818 -7.4107 L-21.2818 -12.0513 Q-21.2818 -12.7076 -21.5318 -12.856 Q-21.7818 -13.0044 -22.5318 -13.0044 L-22.5318 -13.5982 L-20.0786 -13.7857 L-20.0786 -7.4107 Q-20.0786 -7.0513 -19.7583 -6.9576 Q-19.438 -6.8638 -18.8911 -6.8638 L-18.8911 -6.2701 L-22.6099 -6.2701 ZM-21.8755 -16.7076 Q-21.8755 -17.0826 -21.5943 -17.3638 Q-21.313 -17.6451 -20.9536 -17.6451 Q-20.7036 -17.6451 -20.4849 -17.5201 Q-20.2661 -17.3951 -20.1411 -17.1685 Q-20.0161 -16.9419 -20.0161 -16.7076 Q-20.0161 -16.3326 -20.2974 -16.0513 Q-20.5786 -15.7701 -20.9536 -15.7701 Q-21.313 -15.7701 -21.5943 -16.0513 Q-21.8755 -16.3326 -21.8755 -16.7076 Z"
      /><path style="stroke:none;" d="M-14.1313 -6.2701 L-16.6157 -12.5201 Q-16.7719 -12.8326 -17.1 -12.9185 Q-17.4282 -13.0044 -17.9594 -13.0044 L-17.9594 -13.5982 L-14.3969 -13.5982 L-14.3969 -13.0044 Q-15.35 -13.0044 -15.35 -12.5982 Q-15.35 -12.5357 -15.3344 -12.4888 L-13.4282 -7.6919 L-11.7094 -12.0357 Q-11.6625 -12.1607 -11.6625 -12.3013 Q-11.6625 -12.6294 -11.9047 -12.8169 Q-12.1469 -13.0044 -12.475 -13.0044 L-12.475 -13.5982 L-9.6469 -13.5982 L-9.6469 -13.0044 Q-10.1782 -13.0044 -10.5688 -12.7623 Q-10.9594 -12.5201 -11.1782 -12.0513 L-13.475 -6.2701 Q-13.5375 -6.0826 -13.7407 -6.0826 L-13.8657 -6.0826 Q-14.0844 -6.0826 -14.1313 -6.2701 Z"
      /><path style="stroke:none;" d="M-5.3448 -6.0826 Q-6.376 -6.0826 -7.2432 -6.6216 Q-8.1104 -7.1607 -8.6104 -8.0748 Q-9.1104 -8.9888 -9.1104 -10.0044 Q-9.1104 -10.9888 -8.6573 -11.8873 Q-8.2042 -12.7857 -7.3917 -13.3404 Q-6.5792 -13.8951 -5.5792 -13.8951 Q-4.8135 -13.8951 -4.2354 -13.6294 Q-3.6573 -13.3638 -3.2823 -12.9029 Q-2.9073 -12.4419 -2.712 -11.8091 Q-2.5167 -11.1763 -2.5167 -10.4263 Q-2.5167 -10.1919 -2.7042 -10.1919 L-7.626 -10.1919 L-7.626 -10.0201 Q-7.626 -8.5982 -7.0557 -7.5904 Q-6.4854 -6.5826 -5.1885 -6.5826 Q-4.6729 -6.5826 -4.2276 -6.8091 Q-3.7823 -7.0357 -3.4542 -7.4576 Q-3.126 -7.8794 -3.0167 -8.3482 Q-3.001 -8.4107 -2.9542 -8.4498 Q-2.9073 -8.4888 -2.8448 -8.4888 L-2.7042 -8.4888 Q-2.5167 -8.4888 -2.5167 -8.2857 Q-2.7667 -7.3169 -3.5635 -6.6998 Q-4.3604 -6.0826 -5.3448 -6.0826 ZM-7.6104 -10.6138 L-3.7198 -10.6138 Q-3.7198 -11.2544 -3.8995 -11.9107 Q-4.0792 -12.5669 -4.4932 -13.0044 Q-4.9073 -13.4419 -5.5792 -13.4419 Q-6.5479 -13.4419 -7.0792 -12.5435 Q-7.6104 -11.6451 -7.6104 -10.6138 Z"
      /><path style="stroke:none;" d="M4.5296 -6.2701 L4.5296 -6.8638 Q6.2796 -6.8638 6.2796 -7.4107 L6.2796 -16.7388 Q6.2796 -17.2857 4.5296 -17.2857 L4.5296 -17.8794 L10.5765 -17.8794 Q11.514 -17.8794 12.4437 -17.4966 Q13.3734 -17.1138 13.9749 -16.3873 Q14.5765 -15.6607 14.5765 -14.6919 Q14.5765 -13.7388 13.9671 -13.0279 Q13.3577 -12.3169 12.4359 -11.9419 Q11.514 -11.5669 10.5765 -11.5669 L7.8577 -11.5669 L7.8577 -7.4107 Q7.8577 -6.8638 9.6077 -6.8638 L9.6077 -6.2701 L4.5296 -6.2701 ZM7.8109 -12.0826 L10.1234 -12.0826 Q11.0609 -12.0826 11.639 -12.3482 Q12.2171 -12.6138 12.4906 -13.1841 Q12.764 -13.7544 12.764 -14.6919 Q12.764 -16.0669 12.1546 -16.6763 Q11.5452 -17.2857 10.1234 -17.2857 L8.6702 -17.2857 Q8.3734 -17.2857 8.2015 -17.2623 Q8.0296 -17.2388 7.9202 -17.1138 Q7.8109 -16.9888 7.8109 -16.7388 L7.8109 -12.0826 Z"
      /><path style="stroke:none;" d="M16.2577 -6.2701 L16.2577 -6.8638 Q16.8358 -6.8638 17.2108 -6.9576 Q17.5858 -7.0513 17.5858 -7.4107 L17.5858 -12.0513 Q17.5858 -12.5044 17.453 -12.7076 Q17.3202 -12.9107 17.0623 -12.9576 Q16.8045 -13.0044 16.2577 -13.0044 L16.2577 -13.5982 L18.6952 -13.7857 L18.6952 -12.1294 Q18.9608 -12.8638 19.4686 -13.3248 Q19.9764 -13.7857 20.6952 -13.7857 Q21.2108 -13.7857 21.6092 -13.4888 Q22.0077 -13.1919 22.0077 -12.6919 Q22.0077 -12.3951 21.7889 -12.1607 Q21.5702 -11.9263 21.242 -11.9263 Q20.9295 -11.9263 20.703 -12.1529 Q20.4764 -12.3794 20.4764 -12.6919 Q20.4764 -13.1451 20.8045 -13.3482 L20.6952 -13.3482 Q20.0077 -13.3482 19.578 -12.8482 Q19.1483 -12.3482 18.9608 -11.606 Q18.7733 -10.8638 18.7733 -10.1919 L18.7733 -7.4107 Q18.7733 -6.8638 20.4295 -6.8638 L20.4295 -6.2701 L16.2577 -6.2701 Z"
      /><path style="stroke:none;" d="M26.8917 -6.0826 Q25.8761 -6.0826 25.0011 -6.5982 Q24.1261 -7.1138 23.6183 -7.9888 Q23.1104 -8.8638 23.1104 -9.8951 Q23.1104 -10.6763 23.3917 -11.3951 Q23.6729 -12.1138 24.1886 -12.6841 Q24.7042 -13.2544 25.3917 -13.5748 Q26.0792 -13.8951 26.8917 -13.8951 Q27.9386 -13.8951 28.7979 -13.3404 Q29.6573 -12.7857 30.1573 -11.8638 Q30.6573 -10.9419 30.6573 -9.8951 Q30.6573 -8.8638 30.1495 -7.9888 Q29.6417 -7.1138 28.7745 -6.5982 Q27.9073 -6.0826 26.8917 -6.0826 ZM26.8917 -6.5826 Q28.2511 -6.5826 28.712 -7.5669 Q29.1729 -8.5513 29.1729 -10.0826 Q29.1729 -10.9419 29.0792 -11.4966 Q28.9854 -12.0513 28.6729 -12.5201 Q28.4854 -12.8013 28.1886 -13.0123 Q27.8917 -13.2232 27.5636 -13.3326 Q27.2354 -13.4419 26.8917 -13.4419 Q26.3604 -13.4419 25.8839 -13.1998 Q25.4073 -12.9576 25.0948 -12.5201 Q24.7823 -12.0357 24.6886 -11.4576 Q24.5948 -10.8794 24.5948 -10.0826 Q24.5948 -9.1294 24.7667 -8.3716 Q24.9386 -7.6138 25.4386 -7.0982 Q25.9386 -6.5826 26.8917 -6.5826 Z"
      /><path style="stroke:none;" d="M33.1157 -6.2701 L33.1157 -16.3326 Q33.1157 -16.7857 32.9829 -16.9888 Q32.8501 -17.1919 32.5922 -17.2388 Q32.3344 -17.2857 31.7876 -17.2857 L31.7876 -17.8794 L34.3032 -18.0669 L34.3032 -12.7388 Q34.5844 -13.0669 34.9672 -13.3013 Q35.3501 -13.5357 35.7797 -13.6607 Q36.2094 -13.7857 36.6469 -13.7857 Q37.4126 -13.7857 38.0688 -13.4732 Q38.7251 -13.1607 39.2016 -12.6216 Q39.6782 -12.0826 39.9516 -11.3873 Q40.2251 -10.6919 40.2251 -9.9419 Q40.2251 -8.9107 39.7251 -8.0201 Q39.2251 -7.1294 38.3579 -6.606 Q37.4907 -6.0826 36.4438 -6.0826 Q35.8032 -6.0826 35.1938 -6.4107 Q34.5844 -6.7388 34.1938 -7.2857 L33.6157 -6.2701 L33.1157 -6.2701 ZM34.3501 -7.9419 Q34.6313 -7.3169 35.1626 -6.9185 Q35.6938 -6.5201 36.3501 -6.5201 Q37.2251 -6.5201 37.7719 -7.0279 Q38.3188 -7.5357 38.5297 -8.3091 Q38.7407 -9.0826 38.7407 -9.9419 Q38.7407 -11.3794 38.3657 -12.1294 Q38.2094 -12.4576 37.9204 -12.7388 Q37.6313 -13.0201 37.2797 -13.1841 Q36.9282 -13.3482 36.5376 -13.3482 Q35.8501 -13.3482 35.2719 -12.981 Q34.6938 -12.6138 34.3501 -12.0201 L34.3501 -7.9419 Z"
      /><path style="stroke:none;" d="M41.7135 -7.9419 Q41.7135 -8.9576 42.5104 -9.5904 Q43.3073 -10.2232 44.4166 -10.481 Q45.526 -10.7388 46.5416 -10.7388 L46.5416 -11.4419 Q46.5416 -11.9263 46.3229 -12.3873 Q46.1041 -12.8482 45.6979 -13.1451 Q45.2916 -13.4419 44.8073 -13.4419 Q43.6666 -13.4419 43.0885 -12.9419 Q43.401 -12.9419 43.6198 -12.6919 Q43.8385 -12.4419 43.8385 -12.1294 Q43.8385 -11.7857 43.5963 -11.5435 Q43.3541 -11.3013 43.026 -11.3013 Q42.6823 -11.3013 42.4401 -11.5435 Q42.1979 -11.7857 42.1979 -12.1294 Q42.1979 -13.0201 43.0104 -13.4576 Q43.8229 -13.8951 44.8073 -13.8951 Q45.4948 -13.8951 46.1901 -13.5982 Q46.8854 -13.3013 47.3307 -12.7544 Q47.776 -12.2076 47.776 -11.4732 L47.776 -7.6451 Q47.776 -7.3169 47.9166 -7.0357 Q48.0573 -6.7544 48.3541 -6.7544 Q48.6354 -6.7544 48.776 -7.0357 Q48.9166 -7.3169 48.9166 -7.6451 L48.9166 -8.7388 L49.4166 -8.7388 L49.4166 -7.6451 Q49.4166 -7.2701 49.2135 -6.9263 Q49.0104 -6.5826 48.6744 -6.3794 Q48.3385 -6.1763 47.9479 -6.1763 Q47.4479 -6.1763 47.0885 -6.5591 Q46.7291 -6.9419 46.6823 -7.4732 Q46.3698 -6.8326 45.7604 -6.4576 Q45.151 -6.0826 44.4479 -6.0826 Q43.7916 -6.0826 43.1666 -6.2701 Q42.5416 -6.4576 42.1276 -6.8716 Q41.7135 -7.2857 41.7135 -7.9419 ZM43.0885 -7.9419 Q43.0885 -7.3482 43.526 -6.9341 Q43.9635 -6.5201 44.5573 -6.5201 Q45.1041 -6.5201 45.5573 -6.8013 Q46.0104 -7.0826 46.276 -7.5513 Q46.5416 -8.0201 46.5416 -8.5513 L46.5416 -10.3169 Q45.7604 -10.3169 44.9557 -10.0591 Q44.151 -9.8013 43.6198 -9.2623 Q43.0885 -8.7232 43.0885 -7.9419 Z"
      /><path style="stroke:none;" d="M51.5 -6.2701 L51.5 -16.3326 Q51.5 -16.7857 51.3672 -16.9888 Q51.2344 -17.1919 50.9766 -17.2388 Q50.7187 -17.2857 50.1719 -17.2857 L50.1719 -17.8794 L52.6875 -18.0669 L52.6875 -12.7388 Q52.9687 -13.0669 53.3516 -13.3013 Q53.7344 -13.5357 54.1641 -13.6607 Q54.5937 -13.7857 55.0312 -13.7857 Q55.7969 -13.7857 56.4531 -13.4732 Q57.1094 -13.1607 57.5859 -12.6216 Q58.0625 -12.0826 58.3359 -11.3873 Q58.6094 -10.6919 58.6094 -9.9419 Q58.6094 -8.9107 58.1094 -8.0201 Q57.6094 -7.1294 56.7422 -6.606 Q55.875 -6.0826 54.8281 -6.0826 Q54.1875 -6.0826 53.5781 -6.4107 Q52.9687 -6.7388 52.5781 -7.2857 L52 -6.2701 L51.5 -6.2701 ZM52.7344 -7.9419 Q53.0156 -7.3169 53.5469 -6.9185 Q54.0781 -6.5201 54.7344 -6.5201 Q55.6094 -6.5201 56.1562 -7.0279 Q56.7031 -7.5357 56.9141 -8.3091 Q57.125 -9.0826 57.125 -9.9419 Q57.125 -11.3794 56.75 -12.1294 Q56.5937 -12.4576 56.3047 -12.7388 Q56.0156 -13.0201 55.6641 -13.1841 Q55.3125 -13.3482 54.9219 -13.3482 Q54.2344 -13.3482 53.6562 -12.981 Q53.0781 -12.6138 52.7344 -12.0201 L52.7344 -7.9419 Z"
      /><path style="stroke:none;" d="M59.9259 -6.2701 L59.9259 -6.8638 Q60.5197 -6.8638 60.8869 -6.9576 Q61.2541 -7.0513 61.2541 -7.4107 L61.2541 -12.0513 Q61.2541 -12.7076 61.0041 -12.856 Q60.7541 -13.0044 60.0041 -13.0044 L60.0041 -13.5982 L62.4572 -13.7857 L62.4572 -7.4107 Q62.4572 -7.0513 62.7775 -6.9576 Q63.0978 -6.8638 63.6447 -6.8638 L63.6447 -6.2701 L59.9259 -6.2701 ZM60.6603 -16.7076 Q60.6603 -17.0826 60.9416 -17.3638 Q61.2228 -17.6451 61.5822 -17.6451 Q61.8322 -17.6451 62.0509 -17.5201 Q62.2697 -17.3951 62.3947 -17.1685 Q62.5197 -16.9419 62.5197 -16.7076 Q62.5197 -16.3326 62.2384 -16.0513 Q61.9572 -15.7701 61.5822 -15.7701 Q61.2228 -15.7701 60.9416 -16.0513 Q60.6603 -16.3326 60.6603 -16.7076 Z"
      /><path style="stroke:none;" d="M64.7639 -6.2701 L64.7639 -6.8638 Q65.3577 -6.8638 65.7249 -6.9576 Q66.092 -7.0513 66.092 -7.4107 L66.092 -16.3326 Q66.092 -16.7857 65.9592 -16.9888 Q65.8264 -17.1919 65.5686 -17.2388 Q65.3108 -17.2857 64.7639 -17.2857 L64.7639 -17.8794 L67.2952 -18.0669 L67.2952 -7.4107 Q67.2952 -7.0513 67.6702 -6.9576 Q68.0452 -6.8638 68.6077 -6.8638 L68.6077 -6.2701 L64.7639 -6.2701 Z"
      /><path style="stroke:none;" d="M69.6019 -6.2701 L69.6019 -6.8638 Q70.1956 -6.8638 70.5628 -6.9576 Q70.93 -7.0513 70.93 -7.4107 L70.93 -12.0513 Q70.93 -12.7076 70.68 -12.856 Q70.43 -13.0044 69.68 -13.0044 L69.68 -13.5982 L72.1331 -13.7857 L72.1331 -7.4107 Q72.1331 -7.0513 72.4535 -6.9576 Q72.7738 -6.8638 73.3206 -6.8638 L73.3206 -6.2701 L69.6019 -6.2701 ZM70.3363 -16.7076 Q70.3363 -17.0826 70.6175 -17.3638 Q70.8988 -17.6451 71.2581 -17.6451 Q71.5081 -17.6451 71.7269 -17.5201 Q71.9456 -17.3951 72.0706 -17.1685 Q72.1956 -16.9419 72.1956 -16.7076 Q72.1956 -16.3326 71.9144 -16.0513 Q71.6331 -15.7701 71.2581 -15.7701 Q70.8988 -15.7701 70.6175 -16.0513 Q70.3363 -16.3326 70.3363 -16.7076 Z"
      /><path style="stroke:none;" d="M75.6586 -8.3169 L75.6586 -13.0044 L74.2524 -13.0044 L74.2524 -13.4419 Q75.3618 -13.4419 75.8852 -14.481 Q76.4086 -15.5201 76.4086 -16.7232 L76.893 -16.7232 L76.893 -13.5982 L79.2993 -13.5982 L79.2993 -13.0044 L76.893 -13.0044 L76.893 -8.3482 Q76.893 -7.6451 77.1274 -7.1138 Q77.3618 -6.5826 77.9868 -6.5826 Q78.5649 -6.5826 78.8227 -7.1373 Q79.0805 -7.6919 79.0805 -8.3482 L79.0805 -9.3482 L79.5649 -9.3482 L79.5649 -8.3169 Q79.5649 -7.7857 79.3696 -7.2623 Q79.1743 -6.7388 78.7914 -6.4107 Q78.4086 -6.0826 77.8618 -6.0826 Q76.8461 -6.0826 76.2524 -6.6919 Q75.6586 -7.3013 75.6586 -8.3169 Z"
      /><path style="stroke:none;" d="M81.3855 -3.4732 Q81.7136 -3.2232 82.1042 -3.2232 Q83.1667 -3.2232 83.8542 -4.8482 L84.4324 -6.2701 L81.8855 -12.5201 Q81.7292 -12.8326 81.4011 -12.9185 Q81.073 -13.0044 80.5417 -13.0044 L80.5417 -13.5982 L84.1042 -13.5982 L84.1042 -13.0044 Q83.1667 -13.0044 83.1667 -12.5982 Q83.1667 -12.5357 83.1824 -12.4888 L85.073 -7.8482 L86.7761 -12.0357 Q86.823 -12.1607 86.823 -12.3169 Q86.823 -12.5357 86.7136 -12.6841 Q86.6042 -12.8326 86.4245 -12.9185 Q86.2449 -13.0044 86.0261 -13.0044 L86.0261 -13.5982 L88.8542 -13.5982 L88.8542 -13.0044 Q88.323 -13.0044 87.9324 -12.7623 Q87.5417 -12.5201 87.323 -12.0513 L84.3855 -4.8482 Q84.1511 -4.3013 83.8386 -3.8404 Q83.5261 -3.3794 83.0808 -3.0826 Q82.6355 -2.7857 82.1042 -2.7857 Q81.4792 -2.7857 81.0105 -3.1919 Q80.5417 -3.5982 80.5417 -4.2076 Q80.5417 -4.5201 80.7527 -4.7388 Q80.9636 -4.9576 81.2917 -4.9576 Q81.4949 -4.9576 81.6667 -4.8638 Q81.8386 -4.7701 81.9324 -4.606 Q82.0261 -4.4419 82.0261 -4.2076 Q82.0261 -3.9419 81.8464 -3.7232 Q81.6667 -3.5044 81.3855 -3.4732 Z"
    /></g
    ><g style="stroke-linecap:butt; text-rendering:geometricPrecision; color-rendering:optimizeQuality; image-rendering:optimizeQuality; stroke-linejoin:round; color-interpolation:linearRGB; stroke-width:2.6389;"
    ><path d="M74.6314 373 L74.6314 368.6089 L75.2629 364.8933 L75.8943 361.3467 L76.5257 357.4622 L77.1571 354.0844 L77.7886 350.3689 L78.42 346.9911 L79.0514 343.7822 L79.6829 340.9111 L80.3143 338.5467 L80.9457 336.1822 L81.5771 331.6222 L82.2086 328.4133 L82.84 325.2044 L83.4714 322.1645 L84.1029 319.2933 L84.7343 315.9156 L85.3657 312.8755 L85.9971 310.1733 L86.6286 307.1333 L87.26 303.7556 L87.8914 300.04 L88.5229 298.1822 L89.1543 295.6489 L89.7857 293.6222 L90.4171 290.4133 L91.0486 287.7111 L91.68 285.6844 L92.3114 282.6444 L92.9429 280.1111 L93.5743 277.24 L94.2057 274.8755 L94.8371 272.5111 L95.4686 269.4711 L96.1 267.1067 L96.7314 265.2489 L97.3629 262.04 L97.9943 259 L98.6257 256.2978 L99.2571 253.0889 L99.8886 250.3867 L100.52 247.3467 L101.1514 244.9822 L101.7829 243.9689 L102.4143 241.9422 L103.0457 239.7467 L103.6771 237.2133 L104.3086 235.8622 L104.94 234.5111 L105.5714 232.8222 L106.2029 230.2889 L106.8343 227.7556 L107.4657 225.0533 L108.0971 222.3511 L108.7286 220.4933 L109.36 219.3111 L109.9914 216.7778 L110.6229 214.7511 L111.2543 213.9067 L111.8857 212.8933 L112.5171 210.5289 L113.1486 208.5022 L113.78 207.1511 L114.4114 205.9689 L115.0429 204.28 L115.6743 203.0978 L116.3057 201.4089 L116.9371 199.2133 L117.5686 198.3689 L118.2 197.0178 L118.8314 196.1733 L119.4629 193.8089 L120.0943 192.12 L120.7257 189.9244 L121.3571 188.4044 L121.9886 186.7155 L122.62 184.6889 L123.2514 182.4933 L123.8829 181.1422 L124.5143 179.2844 L125.1457 177.7645 L125.7771 176.7511 L126.4086 175.5689 L127.04 175.0622 L127.6714 174.2178 L128.3029 172.8667 L128.9343 171.5155 L129.5657 170.6711 L130.1971 168.1378 L130.8286 167.1244 L131.46 165.9422 L132.0914 164.4222 L132.7229 163.0711 L133.3543 162.3956 L133.9857 160.7067 L134.6171 159.1867 L135.2486 157.8356 L135.88 156.6533 L136.5114 155.9778 L137.1429 154.6267 L137.7743 154.2889 L138.4057 151.08 L139.0371 149.2222 L139.6686 148.04 L140.3 146.6889 L140.9314 145.5067 L141.5629 144.4933 L142.1943 143.1422 L142.8257 141.7911 L143.4571 141.1156 L144.0886 139.5956 L144.72 137.4 L145.3514 137.2311 L145.9829 136.0489 L146.6143 135.0356 L147.2457 133.8533 L147.8771 133.0089 L148.5086 132.1644 L149.14 131.32 L149.7714 130.6445 L150.4029 130.1378 L151.0343 128.6178 L151.6657 128.1111 L152.2971 127.4356 L152.9286 127.0978 L153.56 126.0844 L154.1914 124.5644 L154.8229 122.8755 L155.4543 121.8622 L156.0857 121.1867 L156.7171 120.5111 L157.3486 119.8356 L157.98 119.16 L158.6114 117.9778 L159.2429 116.7956 L159.8743 115.2755 L160.5057 114.4311 L161.1371 113.9244 L161.7686 113.2489 L162.4 112.5733 L163.0314 112.0667 L163.6629 111.0533 L164.2943 110.8844 L164.9257 110.5467 L165.5571 109.5333 L166.1886 109.0267 L166.82 108.3511 L167.4514 107 L168.0829 105.6489 L168.7143 104.9733 L169.3457 104.4667 L169.9771 103.6222 L170.6086 103.1156 L171.24 102.6089 L171.8714 102.1022 L172.5029 101.2578 L173.1343 100.7511 L173.7657 99.7378 L175.0286 98.8933 L175.66 98.2178 L176.2914 97.7111 L176.9229 97.0356 L177.5543 96.0222 L178.1857 95.5155 L178.8171 94.84 L179.4486 93.9956 L180.08 93.8267 L180.7114 93.1511 L181.3428 92.8133 L182.6057 92.3067 L183.2371 91.4622 L184.5 91.2933 L185.1314 90.4489 L185.7629 90.1111 L186.3943 89.6045 L187.0257 89.2667 L188.2886 88.4222 L188.92 87.7467 L189.5514 87.24 L190.1829 86.7333 L190.8143 86.3956 L191.4457 85.72 L192.0771 84.8755 L192.7086 84.2 L193.34 83.6933 L193.9714 82.68 L194.6029 82.0045 L195.2343 81.6667 L195.8657 80.9911 L196.4971 80.6533 L197.1286 79.9778 L197.76 79.4711 L198.3914 78.4578 L199.0229 77.7822 L199.6543 77.2756 L200.2857 76.4311 L201.5486 76.0933 L202.18 75.2489 L202.8114 74.2356 L203.4429 73.3911 L204.0743 73.0533 L204.7057 72.8844 L205.3371 72.04 L205.9686 71.5333 L206.6 71.3644 L207.2314 71.0267 L207.8629 70.6889 L208.4943 70.3511 L209.7571 69.3378 L210.3886 69 L211.02 68.6622 L211.6514 67.8178 L212.2829 67.3111 L213.5457 67.1422 L214.1771 66.9733 L214.8086 66.2978 L215.44 65.6222 L216.0714 65.2844 L216.7029 64.9467 L217.3343 64.7778 L217.9657 64.6089 L218.5971 64.1022 L219.2286 63.9333 L219.86 63.7645 L220.4914 63.4267 L221.1229 63.0889 L222.3857 62.5822 L223.0171 62.2444 L223.6486 62.0756 L224.28 61.5689 L224.9114 61.4 L225.5429 61.2311 L226.8057 61.0622 L227.4371 60.7244 L228.7 60.5556 L229.3314 60.3867 L229.9629 59.88 L230.5943 59.5422 L231.2257 59.0355 L231.8571 58.6978 L233.12 58.1911 L233.7514 58.0222 L235.0143 57.3467 L235.6457 57.0089 L236.2771 56.6711 L236.9086 56.3333 L238.1714 55.9956 L238.8029 55.4889 L239.4343 55.1511 L240.0657 54.8133 L240.6971 54.4756 L241.3286 53.9689 L241.96 53.8 L242.5914 53.4622 L243.2229 53.2933 L243.8543 52.9556 L244.4857 52.7867 L245.1171 52.28 L245.7486 51.9422 L246.38 51.6044 L247.6429 51.2667 L248.2743 51.0978 L248.9057 50.5911 L249.5371 50.4222 L250.1686 50.0844 L251.4314 49.5778 L252.0629 49.4089 L253.3257 49.24 L253.9571 49.0711 L256.4828 48.9022 L257.1143 48.5644 L257.7457 48.3956 L259.0086 48.2267 L261.5343 48.0578 L262.7971 47.72 L264.06 47.5511 L264.6914 47.3822 L265.3228 47.2133 L266.5857 46.7067 L267.8486 46.3689 L268.48 46.2 L269.1114 45.6933 L270.3743 45.5244 L272.2686 45.3556 L273.5314 45.0178 L274.1629 44.8489 L274.7943 44.3422 L275.4257 44.1733 L276.0571 44.0044 L276.6886 43.8355 L277.9514 43.4978 L280.4771 43.3289 L281.1086 43.16 L283.6343 42.9911 L284.2657 42.8222 L284.8972 42.4844 L285.5286 42.1467 L286.16 41.9778 L286.7914 41.8089 L287.4229 41.4711 L289.9486 41.3022 L290.58 41.1333 L291.2114 40.9645 L293.1057 40.6267 L293.7372 40.4578 L295 40.2889 L296.8943 39.9511 L297.5257 39.7822 L298.7886 39.6133 L300.0514 39.4444 L302.5771 39.2756 L303.2086 39.1067 L308.8914 38.9378 L312.68 38.7689 L314.5743 38.6 L316.4686 38.0933 L318.3629 37.5867 L321.52 37.4178 L322.1514 37.2489 L323.4143 37.08 L324.6772 36.9111 L325.94 36.7422 L329.0971 36.4044 L329.7286 36.0667 L330.9914 35.7289 L333.5172 35.56 L336.0428 35.2222 L336.6743 35.0533 L337.3057 34.8844 L338.5686 34.7156 L341.7257 34.5467 L342.3571 34.3778 L345.5143 34.2089 L350.5657 34.04 L353.0914 33.7022 L354.3543 33.5333 L354.9857 33.3645 L359.4057 33.1956 L361.3 33.0267 L373.2971 32.8578 L384.0314 32.6889 L385.2943 32.52 L402.9743 32.3511 L414.34 32.1822 L424.4429 32.0133 L439.5971 31.8444 L468.6429 31" style="fill:none; fill-rule:evenodd;"
    /></g
  ></g
></svg
>
