<?xml version="1.0" encoding="UTF-8" standalone="no"?>
<svg
   xmlns:dc="http://purl.org/dc/elements/1.1/"
   xmlns:cc="http://creativecommons.org/ns#"
   xmlns:rdf="http://www.w3.org/1999/02/22-rdf-syntax-ns#"
   xmlns:svg="http://www.w3.org/2000/svg"
   xmlns="http://www.w3.org/2000/svg"
   xmlns:xlink="http://www.w3.org/1999/xlink"
   id="svg951"
   version="1.2"
   viewBox="0 0 437.81 266.86"
   height="266.86pt"
   width="437.81pt">
  <metadata
     id="metadata955">
    <rdf:RDF>
      <cc:Work
         rdf:about="">
        <dc:format>image/svg+xml</dc:format>
        <dc:type
           rdf:resource="http://purl.org/dc/dcmitype/StillImage" />
        <dc:title></dc:title>
      </cc:Work>
    </rdf:RDF>
  </metadata>
  <defs
     id="defs118">
    <g
       id="g113">
      <symbol
         id="glyph0-0"
         overflow="visible">
        <path
           id="path2"
           d=""
           style="stroke:none;" />
      </symbol>
      <symbol
         id="glyph0-1"
         overflow="visible">
        <path
           id="path5"
           d="M 3.765625 -6.921875 L 2.875 -6.921875 L 0.28125 0 L 1.015625 0 L 1.78125 -2.03125 L 4.6875 -2.03125 L 5.4375 0 L 6.359375 0 Z M 4.46875 -2.59375 L 2 -2.59375 L 2.640625 -4.390625 C 2.84375 -4.984375 3.15625 -5.828125 3.234375 -6.203125 C 3.265625 -6.0625 3.328125 -5.8125 3.5625 -5.15625 Z M 4.46875 -2.59375 "
           style="stroke:none;" />
      </symbol>
      <symbol
         id="glyph0-2"
         overflow="visible">
        <path
           id="path8"
           d="M 4.34375 -2.96875 C 4.34375 -3.625 4.1875 -4.53125 2.96875 -4.53125 C 2.078125 -4.53125 1.578125 -3.859375 1.53125 -3.78125 L 1.53125 -4.484375 L 0.8125 -4.484375 L 0.8125 0 L 1.578125 0 L 1.578125 -2.4375 C 1.578125 -3.09375 1.828125 -3.921875 2.59375 -3.921875 C 3.546875 -3.921875 3.5625 -3.21875 3.5625 -2.90625 L 3.5625 0 L 4.34375 0 Z M 4.34375 -2.96875 "
           style="stroke:none;" />
      </symbol>
      <symbol
         id="glyph0-3"
         overflow="visible">
        <path
           id="path11"
           d="M 3.984375 -2.875 C 3.984375 -3.890625 3.25 -4.59375 2.328125 -4.59375 C 1.6875 -4.59375 1.234375 -4.4375 0.765625 -4.171875 L 0.828125 -3.515625 C 1.34375 -3.875 1.84375 -4 2.328125 -4 C 2.796875 -4 3.203125 -3.609375 3.203125 -2.875 L 3.203125 -2.4375 C 1.703125 -2.421875 0.4375 -2 0.4375 -1.125 C 0.4375 -0.703125 0.703125 0.109375 1.578125 0.109375 C 1.71875 0.109375 2.65625 0.09375 3.234375 -0.359375 L 3.234375 0 L 3.984375 0 Z M 3.203125 -1.3125 C 3.203125 -1.125 3.203125 -0.875 2.859375 -0.6875 C 2.578125 -0.515625 2.1875 -0.5 2.078125 -0.5 C 1.609375 -0.5 1.15625 -0.734375 1.15625 -1.140625 C 1.15625 -1.84375 2.765625 -1.90625 3.203125 -1.9375 Z M 3.203125 -1.3125 "
           style="stroke:none;" />
      </symbol>
      <symbol
         id="glyph0-4"
         overflow="visible">
        <path
           id="path14"
           d="M 1.5625 -6.921875 L 0.8125 -6.921875 L 0.8125 0 L 1.5625 0 Z M 1.5625 -6.921875 "
           style="stroke:none;" />
      </symbol>
      <symbol
         id="glyph0-5"
         overflow="visible">
        <path
           id="path17"
           d="M 4.671875 -2.1875 C 4.671875 -3.53125 3.671875 -4.59375 2.5 -4.59375 C 1.265625 -4.59375 0.296875 -3.5 0.296875 -2.1875 C 0.296875 -0.875 1.3125 0.109375 2.484375 0.109375 C 3.671875 0.109375 4.671875 -0.890625 4.671875 -2.1875 Z M 2.484375 -0.53125 C 1.796875 -0.53125 1.078125 -1.09375 1.078125 -2.296875 C 1.078125 -3.5 1.828125 -3.984375 2.484375 -3.984375 C 3.1875 -3.984375 3.890625 -3.46875 3.890625 -2.296875 C 3.890625 -1.109375 3.21875 -0.53125 2.484375 -0.53125 Z M 2.484375 -0.53125 "
           style="stroke:none;" />
      </symbol>
      <symbol
         id="glyph0-6"
         overflow="visible">
        <path
           id="path20"
           d="M 3.515625 -3.890625 C 3.734375 -3.890625 4 -3.9375 4.25 -3.9375 C 4.421875 -3.9375 4.8125 -3.90625 4.828125 -3.90625 L 4.71875 -4.53125 C 4.03125 -4.53125 3.453125 -4.34375 3.15625 -4.21875 C 2.9375 -4.390625 2.609375 -4.53125 2.203125 -4.53125 C 1.34375 -4.53125 0.625 -3.8125 0.625 -2.90625 C 0.625 -2.546875 0.75 -2.1875 0.953125 -1.921875 C 0.65625 -1.515625 0.65625 -1.125 0.65625 -1.078125 C 0.65625 -0.8125 0.75 -0.53125 0.921875 -0.3125 C 0.40625 -0.015625 0.28125 0.453125 0.28125 0.703125 C 0.28125 1.453125 1.265625 2.046875 2.484375 2.046875 C 3.703125 2.046875 4.6875 1.46875 4.6875 0.703125 C 4.6875 -0.6875 3.03125 -0.6875 2.640625 -0.6875 L 1.765625 -0.6875 C 1.640625 -0.6875 1.1875 -0.6875 1.1875 -1.21875 C 1.1875 -1.328125 1.21875 -1.484375 1.296875 -1.578125 C 1.5 -1.421875 1.828125 -1.28125 2.203125 -1.28125 C 3.09375 -1.28125 3.796875 -2.03125 3.796875 -2.90625 C 3.796875 -3.390625 3.578125 -3.765625 3.46875 -3.90625 Z M 2.203125 -1.859375 C 1.828125 -1.859375 1.3125 -2.078125 1.3125 -2.90625 C 1.3125 -3.734375 1.828125 -3.96875 2.203125 -3.96875 C 2.625 -3.96875 3.09375 -3.6875 3.09375 -2.90625 C 3.09375 -2.140625 2.625 -1.859375 2.203125 -1.859375 Z M 2.65625 0.03125 C 2.875 0.03125 4 0.03125 4 0.71875 C 4 1.15625 3.3125 1.484375 2.5 1.484375 C 1.6875 1.484375 0.984375 1.171875 0.984375 0.703125 C 0.984375 0.671875 0.984375 0.03125 1.75 0.03125 Z M 2.65625 0.03125 "
           style="stroke:none;" />
      </symbol>
      <symbol
         id="glyph0-7"
         overflow="visible">
        <path
           id="path23"
           d="M 3.515625 -2.875 C 4.75 -2.875 5.796875 -3.78125 5.796875 -4.90625 C 5.796875 -5.96875 4.8125 -6.921875 3.4375 -6.921875 L 0.953125 -6.921875 L 0.953125 0 L 1.84375 0 L 1.84375 -2.875 Z M 3.21875 -6.359375 C 4.3125 -6.359375 5 -5.75 5 -4.90625 C 5 -4.109375 4.359375 -3.453125 3.21875 -3.453125 L 1.8125 -3.453125 L 1.8125 -6.359375 Z M 3.21875 -6.359375 "
           style="stroke:none;" />
      </symbol>
      <symbol
         id="glyph0-8"
         overflow="visible">
        <path
           id="path26"
           d="M 1.5625 -2.140625 C 1.5625 -3.125 2.28125 -3.84375 3.265625 -3.875 L 3.265625 -4.53125 C 2.375 -4.53125 1.828125 -4.03125 1.515625 -3.578125 L 1.515625 -4.484375 L 0.8125 -4.484375 L 0.8125 0 L 1.5625 0 Z M 1.5625 -2.140625 "
           style="stroke:none;" />
      </symbol>
      <symbol
         id="glyph0-9"
         overflow="visible">
        <path
           id="path29"
           d="M 4.125 -2.1875 C 4.125 -2.515625 4.109375 -3.265625 3.734375 -3.875 C 3.3125 -4.484375 2.71875 -4.59375 2.359375 -4.59375 C 1.25 -4.59375 0.34375 -3.53125 0.34375 -2.25 C 0.34375 -0.9375 1.3125 0.109375 2.5 0.109375 C 3.125 0.109375 3.703125 -0.125 4.09375 -0.40625 L 4.03125 -1.0625 C 3.40625 -0.53125 2.734375 -0.5 2.515625 -0.5 C 1.71875 -0.5 1.078125 -1.203125 1.046875 -2.1875 Z M 1.09375 -2.734375 C 1.25 -3.484375 1.78125 -3.984375 2.359375 -3.984375 C 2.875 -3.984375 3.421875 -3.65625 3.5625 -2.734375 Z M 1.09375 -2.734375 "
           style="stroke:none;" />
      </symbol>
      <symbol
         id="glyph0-10"
         overflow="visible">
        <path
           id="path32"
           d="M 4.09375 -4.171875 C 3.5 -4.5 3.15625 -4.59375 2.546875 -4.59375 C 1.171875 -4.59375 0.359375 -3.390625 0.359375 -2.21875 C 0.359375 -0.984375 1.265625 0.109375 2.515625 0.109375 C 3.046875 0.109375 3.59375 -0.03125 4.140625 -0.40625 L 4.078125 -1.0625 C 3.5625 -0.671875 3.03125 -0.53125 2.515625 -0.53125 C 1.6875 -0.53125 1.140625 -1.25 1.140625 -2.21875 C 1.140625 -3 1.5 -3.953125 2.5625 -3.953125 C 3.078125 -3.953125 3.421875 -3.875 3.96875 -3.515625 Z M 4.09375 -4.171875 "
           style="stroke:none;" />
      </symbol>
      <symbol
         id="glyph0-11"
         overflow="visible">
        <path
           id="path35"
           d="M 4.328125 -6.921875 L 3.578125 -6.921875 L 3.578125 -3.984375 C 3.046875 -4.421875 2.5 -4.53125 2.125 -4.53125 C 1.140625 -4.53125 0.359375 -3.5 0.359375 -2.21875 C 0.359375 -0.90625 1.125 0.109375 2.078125 0.109375 C 2.40625 0.109375 2.984375 0.015625 3.546875 -0.515625 L 3.546875 0 L 4.328125 0 Z M 3.546875 -1.390625 C 3.546875 -1.25 3.53125 -1.0625 3.21875 -0.78125 C 2.984375 -0.578125 2.734375 -0.5 2.484375 -0.5 C 1.859375 -0.5 1.140625 -0.96875 1.140625 -2.203125 C 1.140625 -3.515625 2 -3.921875 2.578125 -3.921875 C 3.03125 -3.921875 3.328125 -3.703125 3.546875 -3.375 Z M 3.546875 -1.390625 "
           style="stroke:none;" />
      </symbol>
      <symbol
         id="glyph0-12"
         overflow="visible">
        <path
           id="path38"
           d="M 0.953125 -6.921875 L 0.953125 0 L 3.578125 0 C 5.28125 0 6.625 -1.515625 6.625 -3.40625 C 6.625 -5.328125 5.28125 -6.921875 3.5625 -6.921875 Z M 1.8125 -0.5625 L 1.8125 -6.359375 L 3.34375 -6.359375 C 4.734375 -6.359375 5.765625 -5.15625 5.765625 -3.40625 C 5.765625 -1.703125 4.734375 -0.5625 3.34375 -0.5625 Z M 1.8125 -0.5625 "
           style="stroke:none;" />
      </symbol>
      <symbol
         id="glyph0-13"
         overflow="visible">
        <path
           id="path41"
           d="M 1.625 -6.78125 L 0.734375 -6.78125 L 0.734375 -5.890625 L 1.625 -5.890625 Z M 1.5625 -4.421875 L 0.8125 -4.421875 L 0.8125 0 L 1.5625 0 Z M 1.5625 -4.421875 "
           style="stroke:none;" />
      </symbol>
      <symbol
         id="glyph0-14"
         overflow="visible">
        <path
           id="path44"
           d="M 1.75 -3.84375 L 3.15625 -3.84375 L 3.15625 -4.421875 L 1.75 -4.421875 L 1.75 -5.6875 L 1.0625 -5.6875 L 1.0625 -4.421875 L 0.1875 -4.421875 L 0.1875 -3.84375 L 1.03125 -3.84375 L 1.03125 -1.1875 C 1.03125 -0.59375 1.171875 0.109375 1.859375 0.109375 C 2.546875 0.109375 3.0625 -0.140625 3.3125 -0.265625 L 3.15625 -0.859375 C 2.890625 -0.640625 2.578125 -0.53125 2.25 -0.53125 C 1.890625 -0.53125 1.75 -0.828125 1.75 -1.359375 Z M 1.75 -3.84375 "
           style="stroke:none;" />
      </symbol>
      <symbol
         id="glyph0-15"
         overflow="visible">
        <path
           id="path47"
           d="M 5.796875 -1.140625 C 5.21875 -0.75 4.875 -0.53125 3.890625 -0.53125 C 2.453125 -0.53125 1.5625 -2.03125 1.5625 -3.46875 C 1.5625 -4.828125 2.375 -6.390625 3.90625 -6.390625 C 4.609375 -6.390625 5.0625 -6.21875 5.609375 -5.875 L 5.75 -6.6875 C 5.328125 -6.890625 4.5625 -7.03125 3.921875 -7.03125 C 2.078125 -7.03125 0.65625 -5.46875 0.65625 -3.375 C 0.65625 -1.796875 1.84375 0.109375 3.921875 0.109375 C 4.828125 0.109375 5.21875 -0.046875 5.859375 -0.453125 Z M 5.796875 -1.140625 "
           style="stroke:none;" />
      </symbol>
      <symbol
         id="glyph0-16"
         overflow="visible">
        <path
           id="path50"
           d="M 7.109375 -2.96875 C 7.109375 -3.640625 6.953125 -4.53125 5.734375 -4.53125 C 5.140625 -4.53125 4.625 -4.25 4.25 -3.71875 C 4 -4.46875 3.296875 -4.53125 2.984375 -4.53125 C 2.265625 -4.53125 1.796875 -4.125 1.53125 -3.765625 L 1.53125 -4.484375 L 0.8125 -4.484375 L 0.8125 0 L 1.578125 0 L 1.578125 -2.4375 C 1.578125 -3.125 1.859375 -3.921875 2.59375 -3.921875 C 3.515625 -3.921875 3.5625 -3.28125 3.5625 -2.90625 L 3.5625 0 L 4.34375 0 L 4.34375 -2.4375 C 4.34375 -3.125 4.609375 -3.921875 5.359375 -3.921875 C 6.28125 -3.921875 6.328125 -3.28125 6.328125 -2.90625 L 6.328125 0 L 7.109375 0 Z M 7.109375 -2.96875 "
           style="stroke:none;" />
      </symbol>
      <symbol
         id="glyph0-17"
         overflow="visible">
        <path
           id="path53"
           d="M 1.5625 -6.921875 L 0.8125 -6.921875 L 0.8125 0 L 1.59375 0 L 1.59375 -0.453125 C 1.828125 -0.234375 2.265625 0.109375 2.9375 0.109375 C 3.921875 0.109375 4.78125 -0.890625 4.78125 -2.21875 C 4.78125 -3.453125 4.109375 -4.53125 3.171875 -4.53125 C 2.78125 -4.53125 2.15625 -4.4375 1.5625 -3.953125 Z M 1.59375 -3.34375 C 1.75 -3.578125 2.109375 -3.921875 2.65625 -3.921875 C 3.25 -3.921875 4 -3.5 4 -2.21875 C 4 -0.921875 3.171875 -0.5 2.5625 -0.5 C 2.171875 -0.5 1.84375 -0.671875 1.59375 -1.140625 Z M 1.59375 -3.34375 "
           style="stroke:none;" />
      </symbol>
      <symbol
         id="glyph0-18"
         overflow="visible">
        <path
           id="path56"
           d="M 3.84375 -6.21875 L 4.71875 -6.21875 C 4.84375 -6.21875 4.96875 -6.203125 5.078125 -6.203125 L 6.421875 -6.203125 L 6.421875 -6.859375 L 0.359375 -6.859375 L 0.359375 -6.203125 L 1.6875 -6.203125 C 1.8125 -6.203125 1.9375 -6.21875 2.046875 -6.21875 L 2.953125 -6.21875 L 2.953125 0 L 3.84375 0 Z M 3.84375 -6.21875 "
           style="stroke:none;" />
      </symbol>
      <symbol
         id="glyph0-19"
         overflow="visible">
        <path
           id="path59"
           d="M 3.421875 -4.28125 C 2.90625 -4.515625 2.5 -4.59375 1.984375 -4.59375 C 1.734375 -4.59375 0.328125 -4.59375 0.328125 -3.296875 C 0.328125 -2.796875 0.625 -2.484375 0.875 -2.296875 C 1.171875 -2.078125 1.390625 -2.03125 1.9375 -1.921875 C 2.296875 -1.859375 2.875 -1.734375 2.875 -1.203125 C 2.875 -0.515625 2.09375 -0.515625 1.9375 -0.515625 C 1.140625 -0.515625 0.578125 -0.890625 0.40625 -1 L 0.28125 -0.328125 C 0.59375 -0.171875 1.140625 0.109375 1.953125 0.109375 C 2.140625 0.109375 2.6875 0.109375 3.109375 -0.203125 C 3.421875 -0.453125 3.59375 -0.84375 3.59375 -1.28125 C 3.59375 -1.828125 3.21875 -2.15625 3.203125 -2.1875 C 2.8125 -2.546875 2.546875 -2.609375 2.046875 -2.6875 C 1.5 -2.796875 1.03125 -2.90625 1.03125 -3.390625 C 1.03125 -4 1.75 -4 1.890625 -4 C 2.203125 -4 2.734375 -3.96875 3.296875 -3.625 Z M 3.421875 -4.28125 "
           style="stroke:none;" />
      </symbol>
      <symbol
         id="glyph0-20"
         overflow="visible">
        <path
           id="path62"
           d="M 4.171875 -3.25 C 5.203125 -3.546875 5.875 -4.25 5.875 -5.0625 C 5.875 -6.046875 4.78125 -6.921875 3.359375 -6.921875 L 0.953125 -6.921875 L 0.953125 0 L 1.8125 0 L 1.8125 -3.15625 L 3.390625 -3.15625 L 5.265625 0 L 6.15625 0 Z M 1.8125 -3.765625 L 1.8125 -6.359375 L 3.25 -6.359375 C 4.40625 -6.359375 5.0625 -5.765625 5.0625 -5.0625 C 5.0625 -4.359375 4.421875 -3.765625 3.25 -3.765625 Z M 1.8125 -3.765625 "
           style="stroke:none;" />
      </symbol>
      <symbol
         id="glyph0-21"
         overflow="visible">
        <path
           id="path65"
           d="M 4.828125 -3.140625 L 4.828125 -3.75 L 1.828125 -3.75 L 1.828125 -6.25 L 3.125 -6.25 C 3.25 -6.25 3.375 -6.234375 3.484375 -6.234375 L 5.25 -6.234375 L 5.25 -6.890625 L 0.9375 -6.890625 L 0.9375 0 L 1.828125 0 L 1.828125 -3.140625 Z M 4.828125 -3.140625 "
           style="stroke:none;" />
      </symbol>
      <symbol
         id="glyph0-22"
         overflow="visible">
        <path
           id="path68"
           d="M 4.453125 -4.421875 L 3.703125 -4.421875 L 2.90625 -2.359375 C 2.703125 -1.796875 2.390625 -1 2.3125 -0.53125 L 2.296875 -0.53125 C 2.25 -0.890625 1.984375 -1.578125 1.890625 -1.84375 L 0.921875 -4.421875 L 0.140625 -4.421875 L 1.859375 0 L 2.734375 0 Z M 4.453125 -4.421875 "
           style="stroke:none;" />
      </symbol>
      <symbol
         id="glyph0-23"
         overflow="visible">
        <path
           id="path71"
           d="M 4.640625 -6.640625 C 4.09375 -6.96875 3.53125 -7.140625 2.8125 -7.140625 C 1.421875 -7.140625 0.5625 -6.15625 0.5625 -5.171875 C 0.5625 -4.75 0.703125 -4.328125 1.09375 -3.90625 C 1.515625 -3.453125 1.953125 -3.34375 2.546875 -3.203125 C 3.390625 -2.984375 3.484375 -2.953125 3.765625 -2.71875 C 3.96875 -2.546875 4.1875 -2.21875 4.1875 -1.78125 C 4.1875 -1.125 3.640625 -0.46875 2.734375 -0.46875 C 2.328125 -0.46875 1.421875 -0.5625 0.59375 -1.28125 L 0.4375 -0.46875 C 1.3125 0.078125 2.109375 0.21875 2.734375 0.21875 C 4.0625 0.21875 4.96875 -0.78125 4.96875 -1.890625 C 4.96875 -2.53125 4.671875 -3.015625 4.453125 -3.25 C 3.984375 -3.75 3.65625 -3.84375 2.734375 -4.0625 C 2.15625 -4.203125 2 -4.25 1.6875 -4.5 C 1.625 -4.5625 1.34375 -4.859375 1.34375 -5.296875 C 1.34375 -5.875 1.890625 -6.484375 2.796875 -6.484375 C 3.640625 -6.484375 4.109375 -6.15625 4.484375 -5.84375 Z M 4.640625 -6.640625 "
           style="stroke:none;" />
      </symbol>
      <symbol
         id="glyph0-24"
         overflow="visible">
        <path
           id="path74"
           d="M 1.828125 -6.921875 L 0.9375 -6.921875 L 0.9375 0 L 1.828125 0 Z M 1.828125 -6.921875 "
           style="stroke:none;" />
      </symbol>
      <symbol
         id="glyph0-25"
         overflow="visible">
        <path
           id="path77"
           d="M 1.796875 -0.828125 L 0.96875 -0.828125 L 0.96875 0 L 1.796875 0 Z M 1.796875 -0.828125 "
           style="stroke:none;" />
      </symbol>
      <symbol
         id="glyph0-26"
         overflow="visible">
        <path
           id="path80"
           d="M 1.75 -3.84375 L 2.84375 -3.84375 L 2.84375 -4.421875 L 1.71875 -4.421875 L 1.71875 -5.609375 C 1.71875 -6.34375 2.390625 -6.421875 2.65625 -6.421875 C 2.84375 -6.421875 3.125 -6.40625 3.453125 -6.25 L 3.453125 -6.921875 C 3.34375 -6.953125 3.03125 -7.03125 2.65625 -7.03125 C 1.71875 -7.03125 1 -6.3125 1 -5.328125 L 1 -4.421875 L 0.265625 -4.421875 L 0.265625 -3.84375 L 1 -3.84375 L 1 0 L 1.75 0 Z M 1.75 -3.84375 "
           style="stroke:none;" />
      </symbol>
      <symbol
         id="glyph0-27"
         overflow="visible">
        <path
           id="path83"
           d="M 2.75 -1.921875 L 2.75 -2.5 L 0.109375 -2.5 L 0.109375 -1.921875 Z M 2.75 -1.921875 "
           style="stroke:none;" />
      </symbol>
      <symbol
         id="glyph1-0"
         overflow="visible">
        <path
           id="path86"
           d=""
           style="stroke:none;" />
      </symbol>
      <symbol
         id="glyph1-1"
         overflow="visible">
        <path
           id="path89"
           d="M 4.078125 -2.296875 L 6.859375 -2.296875 C 7 -2.296875 7.1875 -2.296875 7.1875 -2.5 C 7.1875 -2.6875 7 -2.6875 6.859375 -2.6875 L 4.078125 -2.6875 L 4.078125 -5.484375 C 4.078125 -5.625 4.078125 -5.8125 3.875 -5.8125 C 3.671875 -5.8125 3.671875 -5.625 3.671875 -5.484375 L 3.671875 -2.6875 L 0.890625 -2.6875 C 0.75 -2.6875 0.5625 -2.6875 0.5625 -2.5 C 0.5625 -2.296875 0.75 -2.296875 0.890625 -2.296875 L 3.671875 -2.296875 L 3.671875 0.5 C 3.671875 0.640625 3.671875 0.828125 3.875 0.828125 C 4.078125 0.828125 4.078125 0.640625 4.078125 0.5 Z M 4.078125 -2.296875 "
           style="stroke:none;" />
      </symbol>
      <symbol
         id="glyph2-0"
         overflow="visible">
        <path
           id="path92"
           d=""
           style="stroke:none;" />
      </symbol>
      <symbol
         id="glyph2-1"
         overflow="visible">
        <path
           id="path95"
           d="M 7.53125 -5.765625 C 7.640625 -6.15625 7.8125 -6.46875 8.609375 -6.5 C 8.65625 -6.5 8.78125 -6.515625 8.78125 -6.703125 C 8.78125 -6.703125 8.78125 -6.8125 8.65625 -6.8125 C 8.328125 -6.8125 7.96875 -6.78125 7.640625 -6.78125 C 7.3125 -6.78125 6.953125 -6.8125 6.625 -6.8125 C 6.5625 -6.8125 6.453125 -6.8125 6.453125 -6.609375 C 6.453125 -6.5 6.546875 -6.5 6.625 -6.5 C 7.203125 -6.484375 7.3125 -6.28125 7.3125 -6.0625 C 7.3125 -6.03125 7.28125 -5.875 7.28125 -5.859375 L 6.15625 -1.421875 L 3.953125 -6.625 C 3.875 -6.796875 3.875 -6.8125 3.640625 -6.8125 L 2.296875 -6.8125 C 2.109375 -6.8125 2.015625 -6.8125 2.015625 -6.609375 C 2.015625 -6.5 2.109375 -6.5 2.296875 -6.5 C 2.34375 -6.5 2.96875 -6.5 2.96875 -6.40625 L 1.640625 -1.0625 C 1.53125 -0.65625 1.359375 -0.34375 0.5625 -0.3125 C 0.5 -0.3125 0.390625 -0.296875 0.390625 -0.109375 C 0.390625 -0.046875 0.4375 0 0.515625 0 C 0.84375 0 1.1875 -0.03125 1.515625 -0.03125 C 1.859375 -0.03125 2.21875 0 2.546875 0 C 2.59375 0 2.71875 0 2.71875 -0.203125 C 2.71875 -0.296875 2.625 -0.3125 2.515625 -0.3125 C 1.9375 -0.328125 1.859375 -0.546875 1.859375 -0.75 C 1.859375 -0.8125 1.875 -0.875 1.90625 -0.984375 L 3.21875 -6.234375 C 3.265625 -6.1875 3.265625 -6.15625 3.3125 -6.0625 L 5.796875 -0.1875 C 5.859375 -0.015625 5.890625 0 5.984375 0 C 6.09375 0 6.09375 -0.03125 6.140625 -0.203125 Z M 7.53125 -5.765625 "
           style="stroke:none;" />
      </symbol>
      <symbol
         id="glyph3-0"
         overflow="visible">
        <path
           id="path98"
           d=""
           style="stroke:none;" />
      </symbol>
      <symbol
         id="glyph3-1"
         overflow="visible">
        <path
           id="path101"
           d="M 1.40625 -2.75 L 2.484375 -2.75 L 2.484375 -3 L 1.40625 -3 L 1.40625 -4.28125 L 1.15625 -4.28125 C 1.15625 -3.65625 0.875 -2.96875 0.203125 -2.953125 L 0.203125 -2.75 L 0.84375 -2.75 L 0.84375 -0.875 C 0.84375 -0.09375 1.4375 0.0625 1.828125 0.0625 C 2.296875 0.0625 2.609375 -0.328125 2.609375 -0.875 L 2.609375 -1.265625 L 2.375 -1.265625 L 2.375 -0.890625 C 2.375 -0.40625 2.15625 -0.15625 1.875 -0.15625 C 1.40625 -0.15625 1.40625 -0.734375 1.40625 -0.859375 Z M 1.40625 -2.75 "
           style="stroke:none;" />
      </symbol>
      <symbol
         id="glyph3-2"
         overflow="visible">
        <path
           id="path104"
           d="M 1.390625 -1.59375 C 1.390625 -2.171875 1.65625 -2.875 2.328125 -2.875 C 2.265625 -2.828125 2.203125 -2.734375 2.203125 -2.625 C 2.203125 -2.390625 2.390625 -2.3125 2.515625 -2.3125 C 2.6875 -2.3125 2.84375 -2.421875 2.84375 -2.625 C 2.84375 -2.859375 2.609375 -3.078125 2.28125 -3.078125 C 1.9375 -3.078125 1.546875 -2.859375 1.34375 -2.328125 L 1.34375 -3.078125 L 0.34375 -3 L 0.34375 -2.75 C 0.8125 -2.75 0.859375 -2.703125 0.859375 -2.359375 L 0.859375 -0.546875 C 0.859375 -0.25 0.796875 -0.25 0.34375 -0.25 L 0.34375 0 C 0.375 0 0.84375 -0.03125 1.140625 -0.03125 C 1.4375 -0.03125 1.734375 -0.015625 2.046875 0 L 2.046875 -0.25 L 1.90625 -0.25 C 1.390625 -0.25 1.390625 -0.328125 1.390625 -0.5625 Z M 1.390625 -1.59375 "
           style="stroke:none;" />
      </symbol>
      <symbol
         id="glyph4-0"
         overflow="visible">
        <path
           id="path107"
           d=""
           style="stroke:none;" />
      </symbol>
      <symbol
         id="glyph4-1"
         overflow="visible">
        <path
           id="path110"
           d="M 3.875 -2.765625 L 1.890625 -4.75 C 1.765625 -4.875 1.75 -4.890625 1.671875 -4.890625 C 1.5625 -4.890625 1.46875 -4.8125 1.46875 -4.6875 C 1.46875 -4.625 1.484375 -4.609375 1.59375 -4.5 L 3.59375 -2.5 L 1.59375 -0.484375 C 1.484375 -0.375 1.46875 -0.359375 1.46875 -0.296875 C 1.46875 -0.171875 1.5625 -0.09375 1.671875 -0.09375 C 1.75 -0.09375 1.765625 -0.109375 1.890625 -0.234375 L 3.875 -2.21875 L 5.9375 -0.15625 C 5.953125 -0.140625 6.015625 -0.09375 6.078125 -0.09375 C 6.203125 -0.09375 6.28125 -0.171875 6.28125 -0.296875 C 6.28125 -0.3125 6.28125 -0.34375 6.25 -0.40625 C 6.234375 -0.421875 4.65625 -1.984375 4.15625 -2.5 L 5.984375 -4.3125 C 6.03125 -4.375 6.1875 -4.5 6.234375 -4.5625 C 6.234375 -4.578125 6.28125 -4.625 6.28125 -4.6875 C 6.28125 -4.8125 6.203125 -4.890625 6.078125 -4.890625 C 6 -4.890625 5.96875 -4.859375 5.859375 -4.75 Z M 3.875 -2.765625 "
           style="stroke:none;" />
      </symbol>
    </g>
    <clipPath
       id="clip1">
      <path
         id="path115"
         d="M 250 231 L 293 231 L 293 266.859375 L 250 266.859375 Z M 250 231 " />
    </clipPath>
  </defs>
  <g
     id="surface736">
    <path
       id="path120"
       transform="matrix(0.1,0,0,-0.1,0,266.86)"
       d="M 1814.296875 2126.295313 L 1814.296875 1735.123438 L 2483.28125 1735.123438 L 2483.28125 2517.467188 L 1814.296875 2517.467188 Z M 1814.296875 2126.295313 "
       style="fill:none;stroke-width:11.3366;stroke-linecap:butt;stroke-linejoin:miter;stroke:rgb(0%,0%,0%);stroke-opacity:1;stroke-miterlimit:10;" />
    <path
       id="path122"
       transform="matrix(0.1,0,0,-0.1,0,266.86)"
       d="M 2488.945312 2409.771875 L 2885.78125 2409.771875 L 2885.78125 2636.529688 "
       style="fill:none;stroke-width:11.3366;stroke-linecap:butt;stroke-linejoin:miter;stroke:rgb(0%,0%,0%);stroke-opacity:1;stroke-miterlimit:10;" />
    <path
       id="path124"
       transform="matrix(0.1,0,0,-0.1,0,266.86)"
       d="M 2772.421875 2636.529688 L 2885.78125 2523.13125 L 2999.179688 2636.529688 "
       style="fill:none;stroke-width:11.3366;stroke-linecap:butt;stroke-linejoin:miter;stroke:rgb(0%,0%,0%);stroke-opacity:1;stroke-miterlimit:10;" />
    <path
       id="path126"
       transform="matrix(0.1,0,0,-0.1,0,266.86)"
       d="M 2488.945312 1842.81875 L 2885.78125 1842.81875 L 2885.78125 2069.615625 "
       style="fill:none;stroke-width:11.3366;stroke-linecap:butt;stroke-linejoin:miter;stroke:rgb(0%,0%,0%);stroke-opacity:1;stroke-miterlimit:10;" />
    <path
       id="path128"
       transform="matrix(0.1,0,0,-0.1,0,266.86)"
       d="M 2772.421875 2069.615625 L 2885.78125 1956.217188 L 2999.179688 2069.615625 "
       style="fill:none;stroke-width:11.3366;stroke-linecap:butt;stroke-linejoin:miter;stroke:rgb(0%,0%,0%);stroke-opacity:1;stroke-miterlimit:10;" />
    <g
       id="g132"
       style="fill:rgb(0%,0%,0%);fill-opacity:1;">
      <use
         id="use130"
         y="51.081"
         x="200.479"
         xlink:href="#glyph0-1" />
    </g>
    <g
       id="g136"
       style="fill:rgb(0%,0%,0%);fill-opacity:1;">
      <use
         id="use134"
         y="51.081"
         x="207.079011"
         xlink:href="#glyph0-2" />
    </g>
    <g
       id="g140"
       style="fill:rgb(0%,0%,0%);fill-opacity:1;">
      <use
         id="use138"
         y="51.081"
         x="212.23902"
         xlink:href="#glyph0-3" />
    </g>
    <g
       id="g144"
       style="fill:rgb(0%,0%,0%);fill-opacity:1;">
      <use
         id="use142"
         y="51.081"
         x="217.039032"
         xlink:href="#glyph0-4" />
    </g>
    <g
       id="g148"
       style="fill:rgb(0%,0%,0%);fill-opacity:1;">
      <use
         id="use146"
         y="51.081"
         x="219.439022"
         xlink:href="#glyph0-5" />
    </g>
    <g
       id="g152"
       style="fill:rgb(0%,0%,0%);fill-opacity:1;">
      <use
         id="use150"
         y="51.081"
         x="224.479009"
         xlink:href="#glyph0-6" />
    </g>
    <g
       id="g156"
       style="fill:rgb(0%,0%,0%);fill-opacity:1;">
      <use
         id="use154"
         y="63.3798"
         x="196.51923"
         xlink:href="#glyph0-7" />
    </g>
    <g
       id="g160"
       style="fill:rgb(0%,0%,0%);fill-opacity:1;">
      <use
         id="use158"
         y="63.3798"
         x="202.879227"
         xlink:href="#glyph0-8" />
    </g>
    <g
       id="g164"
       style="fill:rgb(0%,0%,0%);fill-opacity:1;">
      <use
         id="use162"
         y="63.3798"
         x="206.239232"
         xlink:href="#glyph0-9" />
    </g>
    <g
       id="g168"
       style="fill:rgb(0%,0%,0%);fill-opacity:1;">
      <use
         id="use166"
         y="63.3798"
         x="210.679245"
         xlink:href="#glyph0-10" />
    </g>
    <g
       id="g172"
       style="fill:rgb(0%,0%,0%);fill-opacity:1;">
      <use
         id="use170"
         y="63.3798"
         x="215.119235"
         xlink:href="#glyph0-5" />
    </g>
    <g
       id="g176"
       style="fill:rgb(0%,0%,0%);fill-opacity:1;">
      <use
         id="use174"
         y="63.3798"
         x="220.399309"
         xlink:href="#glyph0-11" />
    </g>
    <g
       id="g180"
       style="fill:rgb(0%,0%,0%);fill-opacity:1;">
      <use
         id="use178"
         y="63.3798"
         x="225.559319"
         xlink:href="#glyph0-9" />
    </g>
    <g
       id="g184"
       style="fill:rgb(0%,0%,0%);fill-opacity:1;">
      <use
         id="use182"
         y="63.3798"
         x="229.999308"
         xlink:href="#glyph0-8" />
    </g>
    <path
       id="path186"
       transform="matrix(0.1,0,0,-0.1,0,266.86)"
       d="M 680.429688 2126.295313 L 680.429688 1735.123438 L 1349.414062 1735.123438 L 1349.414062 2517.467188 L 680.429688 2517.467188 Z M 680.429688 2126.295313 "
       style="fill:none;stroke-width:11.3366;stroke-linecap:butt;stroke-linejoin:miter;stroke:rgb(0%,0%,0%);stroke-opacity:1;stroke-miterlimit:10;" />
    <g
       id="g190"
       style="fill:rgb(0%,0%,0%);fill-opacity:1;">
      <use
         id="use188"
         y="51.081"
         x="87.6938"
         xlink:href="#glyph0-12" />
    </g>
    <g
       id="g194"
       style="fill:rgb(0%,0%,0%);fill-opacity:1;">
      <use
         id="use192"
         y="51.081"
         x="94.893802"
         xlink:href="#glyph0-13" />
    </g>
    <g
       id="g198"
       style="fill:rgb(0%,0%,0%);fill-opacity:1;">
      <use
         id="use196"
         y="51.081"
         x="97.293805"
         xlink:href="#glyph0-6" />
    </g>
    <g
       id="g202"
       style="fill:rgb(0%,0%,0%);fill-opacity:1;">
      <use
         id="use200"
         y="51.081"
         x="102.333804"
         xlink:href="#glyph0-13" />
    </g>
    <g
       id="g206"
       style="fill:rgb(0%,0%,0%);fill-opacity:1;">
      <use
         id="use204"
         y="51.081"
         x="104.733806"
         xlink:href="#glyph0-14" />
    </g>
    <g
       id="g210"
       style="fill:rgb(0%,0%,0%);fill-opacity:1;">
      <use
         id="use208"
         y="51.081"
         x="108.333811"
         xlink:href="#glyph0-3" />
    </g>
    <g
       id="g214"
       style="fill:rgb(0%,0%,0%);fill-opacity:1;">
      <use
         id="use212"
         y="51.081"
         x="113.13381"
         xlink:href="#glyph0-4" />
    </g>
    <g
       id="g218"
       style="fill:rgb(0%,0%,0%);fill-opacity:1;">
      <use
         id="use216"
         y="63.3798"
         x="83.13364"
         xlink:href="#glyph0-7" />
    </g>
    <g
       id="g222"
       style="fill:rgb(0%,0%,0%);fill-opacity:1;">
      <use
         id="use220"
         y="63.3798"
         x="89.493637"
         xlink:href="#glyph0-8" />
    </g>
    <g
       id="g226"
       style="fill:rgb(0%,0%,0%);fill-opacity:1;">
      <use
         id="use224"
         y="63.3798"
         x="92.853642"
         xlink:href="#glyph0-9" />
    </g>
    <g
       id="g230"
       style="fill:rgb(0%,0%,0%);fill-opacity:1;">
      <use
         id="use228"
         y="63.3798"
         x="97.293637"
         xlink:href="#glyph0-10" />
    </g>
    <g
       id="g234"
       style="fill:rgb(0%,0%,0%);fill-opacity:1;">
      <use
         id="use232"
         y="63.3798"
         x="101.733639"
         xlink:href="#glyph0-5" />
    </g>
    <g
       id="g238"
       style="fill:rgb(0%,0%,0%);fill-opacity:1;">
      <use
         id="use236"
         y="63.3798"
         x="107.013713"
         xlink:href="#glyph0-11" />
    </g>
    <g
       id="g242"
       style="fill:rgb(0%,0%,0%);fill-opacity:1;">
      <use
         id="use240"
         y="63.3798"
         x="112.17371"
         xlink:href="#glyph0-9" />
    </g>
    <g
       id="g246"
       style="fill:rgb(0%,0%,0%);fill-opacity:1;">
      <use
         id="use244"
         y="63.3798"
         x="116.613712"
         xlink:href="#glyph0-8" />
    </g>
    <g
       id="g250"
       style="fill:rgb(0%,0%,0%);fill-opacity:1;">
      <use
         id="use248"
         y="233.4588"
         x="81.6938"
         xlink:href="#glyph0-15" />
    </g>
    <g
       id="g254"
       style="fill:rgb(0%,0%,0%);fill-opacity:1;">
      <use
         id="use252"
         y="233.4588"
         x="88.053799"
         xlink:href="#glyph0-5" />
    </g>
    <g
       id="g258"
       style="fill:rgb(0%,0%,0%);fill-opacity:1;">
      <use
         id="use256"
         y="233.4588"
         x="93.093804"
         xlink:href="#glyph0-16" />
    </g>
    <g
       id="g262"
       style="fill:rgb(0%,0%,0%);fill-opacity:1;">
      <use
         id="use260"
         y="233.4588"
         x="101.013808"
         xlink:href="#glyph0-17" />
    </g>
    <g
       id="g266"
       style="fill:rgb(0%,0%,0%);fill-opacity:1;">
      <use
         id="use264"
         y="233.4588"
         x="106.173806"
         xlink:href="#glyph0-13" />
    </g>
    <g
       id="g270"
       style="fill:rgb(0%,0%,0%);fill-opacity:1;">
      <use
         id="use268"
         y="233.4588"
         x="108.573808"
         xlink:href="#glyph0-2" />
    </g>
    <g
       id="g274"
       style="fill:rgb(0%,0%,0%);fill-opacity:1;">
      <use
         id="use272"
         y="233.4588"
         x="113.733817"
         xlink:href="#glyph0-9" />
    </g>
    <g
       id="g278"
       style="fill:rgb(0%,0%,0%);fill-opacity:1;">
      <use
         id="use276"
         y="233.4588"
         x="118.173807"
         xlink:href="#glyph0-8" />
    </g>
    <g
       id="g282"
       style="fill:rgb(0%,0%,0%);fill-opacity:1;">
      <use
         id="use280"
         y="233.4588"
         x="195.07931"
         xlink:href="#glyph0-15" />
    </g>
    <g
       id="g286"
       style="fill:rgb(0%,0%,0%);fill-opacity:1;">
      <use
         id="use284"
         y="233.4588"
         x="201.439309"
         xlink:href="#glyph0-5" />
    </g>
    <g
       id="g290"
       style="fill:rgb(0%,0%,0%);fill-opacity:1;">
      <use
         id="use288"
         y="233.4588"
         x="206.479321"
         xlink:href="#glyph0-16" />
    </g>
    <g
       id="g294"
       style="fill:rgb(0%,0%,0%);fill-opacity:1;">
      <use
         id="use292"
         y="233.4588"
         x="214.399325"
         xlink:href="#glyph0-17" />
    </g>
    <g
       id="g298"
       style="fill:rgb(0%,0%,0%);fill-opacity:1;">
      <use
         id="use296"
         y="233.4588"
         x="219.559334"
         xlink:href="#glyph0-13" />
    </g>
    <g
       id="g302"
       style="fill:rgb(0%,0%,0%);fill-opacity:1;">
      <use
         id="use300"
         y="233.4588"
         x="221.959324"
         xlink:href="#glyph0-2" />
    </g>
    <g
       id="g306"
       style="fill:rgb(0%,0%,0%);fill-opacity:1;">
      <use
         id="use304"
         y="233.4588"
         x="227.119309"
         xlink:href="#glyph0-9" />
    </g>
    <g
       id="g310"
       style="fill:rgb(0%,0%,0%);fill-opacity:1;">
      <use
         id="use308"
         y="233.4588"
         x="231.559323"
         xlink:href="#glyph0-8" />
    </g>
    <path
       id="path312"
       d="M 61.441406 40.238281 L 67.476562 37.222656 L 61.441406 34.203125 L 61.441406 37.222656 "
       style=" stroke:none;fill-rule:nonzero;fill:rgb(0%,0%,0%);fill-opacity:1;" />
    <path
       id="path314"
       transform="matrix(0.1,0,0,-0.1,0,266.86)"
       d="M 448.007812 2296.373438 L 614.414062 2296.373438 "
       style="fill:none;stroke-width:11.3366;stroke-linecap:butt;stroke-linejoin:miter;stroke:rgb(0%,0%,0%);stroke-opacity:1;stroke-miterlimit:10;" />
    <path
       id="path316"
       d="M 61.441406 74.253906 L 67.476562 71.238281 L 61.441406 68.222656 L 61.441406 71.238281 "
       style=" stroke:none;fill-rule:nonzero;fill:rgb(0%,0%,0%);fill-opacity:1;" />
    <path
       id="path318"
       transform="matrix(0.1,0,0,-0.1,0,266.86)"
       d="M 448.007812 1956.217188 L 614.414062 1956.217188 "
       style="fill:none;stroke-width:11.3366;stroke-linecap:butt;stroke-linejoin:miter;stroke:rgb(0%,0%,0%);stroke-opacity:1;stroke-miterlimit:10;" />
    <g
       id="g322"
       style="fill:rgb(0%,0%,0%);fill-opacity:1;">
      <use
         id="use320"
         y="52.041"
         x="3.64375"
         xlink:href="#glyph0-18" />
    </g>
    <g
       id="g326"
       style="fill:rgb(0%,0%,0%);fill-opacity:1;">
      <use
         id="use324"
         y="52.041"
         x="9.64375"
         xlink:href="#glyph0-8" />
    </g>
    <g
       id="g330"
       style="fill:rgb(0%,0%,0%);fill-opacity:1;">
      <use
         id="use328"
         y="52.041"
         x="13.00375"
         xlink:href="#glyph0-3" />
    </g>
    <g
       id="g334"
       style="fill:rgb(0%,0%,0%);fill-opacity:1;">
      <use
         id="use332"
         y="52.041"
         x="17.803751"
         xlink:href="#glyph0-2" />
    </g>
    <g
       id="g338"
       style="fill:rgb(0%,0%,0%);fill-opacity:1;">
      <use
         id="use336"
         y="52.041"
         x="22.963749"
         xlink:href="#glyph0-19" />
    </g>
    <g
       id="g342"
       style="fill:rgb(0%,0%,0%);fill-opacity:1;">
      <use
         id="use340"
         y="52.041"
         x="26.803748"
         xlink:href="#glyph0-16" />
    </g>
    <g
       id="g346"
       style="fill:rgb(0%,0%,0%);fill-opacity:1;">
      <use
         id="use344"
         y="52.041"
         x="34.723749"
         xlink:href="#glyph0-13" />
    </g>
    <g
       id="g350"
       style="fill:rgb(0%,0%,0%);fill-opacity:1;">
      <use
         id="use348"
         y="52.041"
         x="37.123748"
         xlink:href="#glyph0-14" />
    </g>
    <g
       id="g354"
       style="fill:rgb(0%,0%,0%);fill-opacity:1;">
      <use
         id="use352"
         y="63.3801"
         x="11.92344"
         xlink:href="#glyph0-12" />
    </g>
    <g
       id="g358"
       style="fill:rgb(0%,0%,0%);fill-opacity:1;">
      <use
         id="use356"
         y="63.3801"
         x="19.123441"
         xlink:href="#glyph0-3" />
    </g>
    <g
       id="g362"
       style="fill:rgb(0%,0%,0%);fill-opacity:1;">
      <use
         id="use360"
         y="63.3801"
         x="23.923439"
         xlink:href="#glyph0-14" />
    </g>
    <g
       id="g366"
       style="fill:rgb(0%,0%,0%);fill-opacity:1;">
      <use
         id="use364"
         y="63.3801"
         x="27.52344"
         xlink:href="#glyph0-3" />
    </g>
    <path
       id="path368"
       transform="matrix(0.1,0,0,-0.1,0,266.86)"
       d="M 1814.296875 425.514063 L 1814.296875 34.342188 L 2483.28125 34.342188 L 2483.28125 816.685938 L 1814.296875 816.685938 Z M 1814.296875 425.514063 "
       style="fill:none;stroke-width:11.3366;stroke-linecap:butt;stroke-linejoin:miter;stroke:rgb(0%,0%,0%);stroke-opacity:1;stroke-miterlimit:10;" />
    <path
       id="path370"
       transform="matrix(0.1,0,0,-0.1,0,266.86)"
       d="M 2772.421875 935.748438 L 2885.78125 822.35 L 2999.179688 935.748438 "
       style="fill:none;stroke-width:11.3366;stroke-linecap:butt;stroke-linejoin:miter;stroke:rgb(0%,0%,0%);stroke-opacity:1;stroke-miterlimit:10;" />
    <path
       id="path372"
       transform="matrix(0.1,0,0,-0.1,0,266.86)"
       d="M 2772.421875 368.834375 L 2885.78125 255.435938 L 2999.179688 368.834375 "
       style="fill:none;stroke-width:11.3366;stroke-linecap:butt;stroke-linejoin:miter;stroke:rgb(0%,0%,0%);stroke-opacity:1;stroke-miterlimit:10;" />
    <g
       id="g376"
       style="fill:rgb(0%,0%,0%);fill-opacity:1;">
      <use
         id="use374"
         y="221.1596"
         x="200.479"
         xlink:href="#glyph0-1" />
    </g>
    <g
       id="g380"
       style="fill:rgb(0%,0%,0%);fill-opacity:1;">
      <use
         id="use378"
         y="221.1596"
         x="207.079011"
         xlink:href="#glyph0-2" />
    </g>
    <g
       id="g384"
       style="fill:rgb(0%,0%,0%);fill-opacity:1;">
      <use
         id="use382"
         y="221.1596"
         x="212.23902"
         xlink:href="#glyph0-3" />
    </g>
    <g
       id="g388"
       style="fill:rgb(0%,0%,0%);fill-opacity:1;">
      <use
         id="use386"
         y="221.1596"
         x="217.039032"
         xlink:href="#glyph0-4" />
    </g>
    <g
       id="g392"
       style="fill:rgb(0%,0%,0%);fill-opacity:1;">
      <use
         id="use390"
         y="221.1596"
         x="219.439022"
         xlink:href="#glyph0-5" />
    </g>
    <g
       id="g396"
       style="fill:rgb(0%,0%,0%);fill-opacity:1;">
      <use
         id="use394"
         y="221.1596"
         x="224.479009"
         xlink:href="#glyph0-6" />
    </g>
    <path
       id="path398"
       transform="matrix(0.1,0,0,-0.1,0,266.86)"
       d="M 680.429688 425.514063 L 680.429688 34.342188 L 1349.414062 34.342188 L 1349.414062 816.685938 L 680.429688 816.685938 Z M 680.429688 425.514063 "
       style="fill:none;stroke-width:11.3366;stroke-linecap:butt;stroke-linejoin:miter;stroke:rgb(0%,0%,0%);stroke-opacity:1;stroke-miterlimit:10;" />
    <g
       id="g402"
       style="fill:rgb(0%,0%,0%);fill-opacity:1;">
      <use
         id="use400"
         y="221.1596"
         x="87.6938"
         xlink:href="#glyph0-12" />
    </g>
    <g
       id="g406"
       style="fill:rgb(0%,0%,0%);fill-opacity:1;">
      <use
         id="use404"
         y="221.1596"
         x="94.893802"
         xlink:href="#glyph0-13" />
    </g>
    <g
       id="g410"
       style="fill:rgb(0%,0%,0%);fill-opacity:1;">
      <use
         id="use408"
         y="221.1596"
         x="97.293805"
         xlink:href="#glyph0-6" />
    </g>
    <g
       id="g414"
       style="fill:rgb(0%,0%,0%);fill-opacity:1;">
      <use
         id="use412"
         y="221.1596"
         x="102.333804"
         xlink:href="#glyph0-13" />
    </g>
    <g
       id="g418"
       style="fill:rgb(0%,0%,0%);fill-opacity:1;">
      <use
         id="use416"
         y="221.1596"
         x="104.733806"
         xlink:href="#glyph0-14" />
    </g>
    <g
       id="g422"
       style="fill:rgb(0%,0%,0%);fill-opacity:1;">
      <use
         id="use420"
         y="221.1596"
         x="108.333811"
         xlink:href="#glyph0-3" />
    </g>
    <g
       id="g426"
       style="fill:rgb(0%,0%,0%);fill-opacity:1;">
      <use
         id="use424"
         y="221.1596"
         x="113.13381"
         xlink:href="#glyph0-4" />
    </g>
    <path
       id="path428"
       transform="matrix(0.1,0,0,-0.1,0,266.86)"
       d="M 1474.140625 652.271875 L 1474.140625 544.576563 L 1689.570312 544.576563 L 1689.570312 760.00625 L 1474.140625 760.00625 Z M 1474.140625 652.271875 "
       style="fill:none;stroke-width:11.3366;stroke-linecap:butt;stroke-linejoin:miter;stroke:rgb(0%,0%,0%);stroke-opacity:1;stroke-miterlimit:10;" />
    <g
       id="g432"
       style="fill:rgb(0%,0%,0%);fill-opacity:1;">
      <use
         id="use430"
         y="205.112"
         x="152.187"
         xlink:href="#glyph0-20" />
    </g>
    <g
       id="g436"
       style="fill:rgb(0%,0%,0%);fill-opacity:1;">
      <use
         id="use434"
         y="205.112"
         x="158.667004"
         xlink:href="#glyph0-21" />
    </g>
    <path
       id="path438"
       transform="matrix(0.1,0,0,-0.1,0,266.86)"
       d="M 1474.140625 198.75625 L 1474.140625 91.021875 L 1689.570312 91.021875 L 1689.570312 306.451563 L 1474.140625 306.451563 Z M 1474.140625 198.75625 "
       style="fill:none;stroke-width:11.3366;stroke-linecap:butt;stroke-linejoin:miter;stroke:rgb(0%,0%,0%);stroke-opacity:1;stroke-miterlimit:10;" />
    <g
       id="g442"
       style="fill:rgb(0%,0%,0%);fill-opacity:1;">
      <use
         id="use440"
         y="250.4659"
         x="152.187"
         xlink:href="#glyph0-20" />
    </g>
    <g
       id="g446"
       style="fill:rgb(0%,0%,0%);fill-opacity:1;">
      <use
         id="use444"
         y="250.4659"
         x="158.667004"
         xlink:href="#glyph0-21" />
    </g>
    <path
       id="path448"
       transform="matrix(0.1,0,0,-0.1,0,266.86)"
       d="M 1355.078125 652.271875 L 1468.476562 652.271875 "
       style="fill:none;stroke-width:11.3366;stroke-linecap:butt;stroke-linejoin:miter;stroke:rgb(0%,0%,0%);stroke-opacity:1;stroke-miterlimit:10;" />
    <path
       id="path450"
       transform="matrix(0.1,0,0,-0.1,0,266.86)"
       d="M 1695.234375 652.271875 L 1808.632812 652.271875 "
       style="fill:none;stroke-width:11.3366;stroke-linecap:butt;stroke-linejoin:miter;stroke:rgb(0%,0%,0%);stroke-opacity:1;stroke-miterlimit:10;" />
    <path
       id="path452"
       transform="matrix(0.1,0,0,-0.1,0,266.86)"
       d="M 1355.078125 198.75625 L 1468.476562 198.75625 "
       style="fill:none;stroke-width:11.3366;stroke-linecap:butt;stroke-linejoin:miter;stroke:rgb(0%,0%,0%);stroke-opacity:1;stroke-miterlimit:10;" />
    <path
       id="path454"
       transform="matrix(0.1,0,0,-0.1,0,266.86)"
       d="M 1695.234375 198.75625 L 1808.632812 198.75625 "
       style="fill:none;stroke-width:11.3366;stroke-linecap:butt;stroke-linejoin:miter;stroke:rgb(0%,0%,0%);stroke-opacity:1;stroke-miterlimit:10;" />
    <path
       id="path456"
       d="M 50.835938 204.285156 L 44.800781 207.300781 L 50.835938 210.320312 L 50.835938 207.300781 "
       style=" stroke:none;fill-rule:nonzero;fill:rgb(0%,0%,0%);fill-opacity:1;" />
    <path
       id="path458"
       transform="matrix(0.1,0,0,-0.1,0,266.86)"
       d="M 508.359375 595.592188 L 674.765625 595.592188 "
       style="fill:none;stroke-width:11.3366;stroke-linecap:butt;stroke-linejoin:miter;stroke:rgb(0%,0%,0%);stroke-opacity:1;stroke-miterlimit:10;" />
    <path
       id="path460"
       d="M 50.835938 238.300781 L 44.800781 241.316406 L 50.835938 244.335938 L 50.835938 241.316406 "
       style=" stroke:none;fill-rule:nonzero;fill:rgb(0%,0%,0%);fill-opacity:1;" />
    <path
       id="path462"
       transform="matrix(0.1,0,0,-0.1,0,266.86)"
       d="M 508.359375 255.435938 L 674.765625 255.435938 "
       style="fill:none;stroke-width:11.3366;stroke-linecap:butt;stroke-linejoin:miter;stroke:rgb(0%,0%,0%);stroke-opacity:1;stroke-miterlimit:10;" />
    <g
       id="g466"
       style="fill:rgb(0%,0%,0%);fill-opacity:1;">
      <use
         id="use464"
         y="222.1194"
         x="6.64375"
         xlink:href="#glyph0-20" />
    </g>
    <g
       id="g470"
       style="fill:rgb(0%,0%,0%);fill-opacity:1;">
      <use
         id="use468"
         y="222.1194"
         x="13.123748"
         xlink:href="#glyph0-9" />
    </g>
    <g
       id="g474"
       style="fill:rgb(0%,0%,0%);fill-opacity:1;">
      <use
         id="use472"
         y="222.1194"
         x="17.563748"
         xlink:href="#glyph0-10" />
    </g>
    <g
       id="g478"
       style="fill:rgb(0%,0%,0%);fill-opacity:1;">
      <use
         id="use476"
         y="222.1194"
         x="22.00375"
         xlink:href="#glyph0-9" />
    </g>
    <g
       id="g482"
       style="fill:rgb(0%,0%,0%);fill-opacity:1;">
      <use
         id="use480"
         y="222.1194"
         x="26.443748"
         xlink:href="#glyph0-13" />
    </g>
    <g
       id="g486"
       style="fill:rgb(0%,0%,0%);fill-opacity:1;">
      <use
         id="use484"
         y="222.1194"
         x="28.843747"
         xlink:href="#glyph0-22" />
    </g>
    <g
       id="g490"
       style="fill:rgb(0%,0%,0%);fill-opacity:1;">
      <use
         id="use488"
         y="222.1194"
         x="33.403749"
         xlink:href="#glyph0-9" />
    </g>
    <g
       id="g494"
       style="fill:rgb(0%,0%,0%);fill-opacity:1;">
      <use
         id="use492"
         y="233.4585"
         x="11.92344"
         xlink:href="#glyph0-12" />
    </g>
    <g
       id="g498"
       style="fill:rgb(0%,0%,0%);fill-opacity:1;">
      <use
         id="use496"
         y="233.4585"
         x="19.123441"
         xlink:href="#glyph0-3" />
    </g>
    <g
       id="g502"
       style="fill:rgb(0%,0%,0%);fill-opacity:1;">
      <use
         id="use500"
         y="233.4585"
         x="23.923439"
         xlink:href="#glyph0-14" />
    </g>
    <g
       id="g506"
       style="fill:rgb(0%,0%,0%);fill-opacity:1;">
      <use
         id="use504"
         y="233.4585"
         x="27.52344"
         xlink:href="#glyph0-3" />
    </g>
    <path
       id="path508"
       transform="matrix(0.1,0,0,-0.1,0,266.86)"
       d="M 2381.210938 1332.584375 L 2381.210938 1054.810938 L 2936.835938 1054.810938 L 2936.835938 1610.396875 L 2381.210938 1610.396875 Z M 2381.210938 1332.584375 "
       style="fill:none;stroke-width:11.3366;stroke-linecap:butt;stroke-linejoin:miter;stroke:rgb(0%,0%,0%);stroke-opacity:1;stroke-miterlimit:10;" />
    <g
       id="g512"
       style="fill:rgb(0%,0%,0%);fill-opacity:1;">
      <use
         id="use510"
         y="124.782"
         x="251.503"
         xlink:href="#glyph0-1" />
    </g>
    <g
       id="g516"
       style="fill:rgb(0%,0%,0%);fill-opacity:1;">
      <use
         id="use514"
         y="124.782"
         x="258.103011"
         xlink:href="#glyph0-2" />
    </g>
    <g
       id="g520"
       style="fill:rgb(0%,0%,0%);fill-opacity:1;">
      <use
         id="use518"
         y="124.782"
         x="263.26302"
         xlink:href="#glyph0-3" />
    </g>
    <g
       id="g524"
       style="fill:rgb(0%,0%,0%);fill-opacity:1;">
      <use
         id="use522"
         y="124.782"
         x="268.063032"
         xlink:href="#glyph0-4" />
    </g>
    <g
       id="g528"
       style="fill:rgb(0%,0%,0%);fill-opacity:1;">
      <use
         id="use526"
         y="124.782"
         x="270.463022"
         xlink:href="#glyph0-5" />
    </g>
    <g
       id="g532"
       style="fill:rgb(0%,0%,0%);fill-opacity:1;">
      <use
         id="use530"
         y="124.782"
         x="275.503009"
         xlink:href="#glyph0-6" />
    </g>
    <g
       id="g536"
       style="fill:rgb(0%,0%,0%);fill-opacity:1;">
      <use
         id="use534"
         y="137.0804"
         x="258.58308"
         xlink:href="#glyph0-23" />
    </g>
    <g
       id="g542"
       style="fill:rgb(0%,0%,0%);fill-opacity:1;">
      <use
         id="use538"
         y="137.0804"
         x="264.103068"
         xlink:href="#glyph0-24" />
      <use
         id="use540"
         y="137.0804"
         x="266.862719"
         xlink:href="#glyph0-15" />
    </g>
    <path
       id="path544"
       transform="matrix(0.1,0,0,-0.1,0,266.86)"
       d="M 2649.0625 708.990625 C 2649.0625 734.771875 2628.125 755.709375 2602.34375 755.709375 C 2576.523438 755.709375 2555.625 734.771875 2555.625 708.990625 C 2555.625 683.170313 2576.523438 662.232813 2602.34375 662.232813 C 2628.125 662.232813 2649.0625 683.170313 2649.0625 708.990625 Z M 2649.0625 708.990625 "
       style="fill:none;stroke-width:11.3366;stroke-linecap:butt;stroke-linejoin:miter;stroke:rgb(0%,0%,0%);stroke-opacity:1;stroke-miterlimit:10;" />
    <g
       id="g548"
       clip-rule="nonzero"
       clip-path="url(#clip1)">
      <path
         id="path546"
         transform="matrix(0.1,0,0,-0.1,0,266.86)"
         d="M 2762.460938 142.0375 C 2762.460938 167.857813 2741.523438 188.75625 2715.703125 188.75625 C 2689.921875 188.75625 2668.984375 167.857813 2668.984375 142.0375 C 2668.984375 116.25625 2689.921875 95.31875 2715.703125 95.31875 C 2741.523438 95.31875 2762.460938 116.25625 2762.460938 142.0375 Z M 2762.460938 142.0375 "
         style="fill:none;stroke-width:11.3366;stroke-linecap:butt;stroke-linejoin:miter;stroke:rgb(0%,0%,0%);stroke-opacity:1;stroke-miterlimit:10;" />
    </g>
    <path
       id="path550"
       transform="matrix(0.1,0,0,-0.1,0,266.86)"
       d="M 2885.78125 935.748438 L 2885.78125 708.990625 L 2659.023438 708.990625 "
       style="fill:none;stroke-width:11.3366;stroke-linecap:butt;stroke-linejoin:miter;stroke:rgb(0%,0%,0%);stroke-opacity:1;stroke-miterlimit:10;" />
    <path
       id="path552"
       transform="matrix(0.1,0,0,-0.1,0,266.86)"
       d="M 2885.78125 368.834375 L 2885.78125 142.0375 L 2772.421875 142.0375 "
       style="fill:none;stroke-width:11.3366;stroke-linecap:butt;stroke-linejoin:miter;stroke:rgb(0%,0%,0%);stroke-opacity:1;stroke-miterlimit:10;" />
    <path
       id="path554"
       transform="matrix(0.1,0,0,-0.1,0,266.86)"
       d="M 2545.625 708.990625 L 2488.945312 708.990625 "
       style="fill:none;stroke-width:11.3366;stroke-linecap:butt;stroke-linejoin:miter;stroke:rgb(0%,0%,0%);stroke-opacity:1;stroke-miterlimit:10;" />
    <path
       id="path556"
       transform="matrix(0.1,0,0,-0.1,0,266.86)"
       d="M 2659.023438 142.0375 L 2488.945312 142.0375 "
       style="fill:none;stroke-width:11.3366;stroke-linecap:butt;stroke-linejoin:miter;stroke:rgb(0%,0%,0%);stroke-opacity:1;stroke-miterlimit:10;" />
    <path
       id="path558"
       d="M 257.214844 184.257812 L 260.234375 190.292969 L 263.25 184.257812 L 260.234375 184.257812 "
       style=" stroke:none;fill-rule:nonzero;fill:rgb(0%,0%,0%);fill-opacity:1;" />
    <path
       id="path560"
       transform="matrix(0.1,0,0,-0.1,0,266.86)"
       d="M 2602.34375 1049.146875 L 2602.34375 826.021875 "
       style="fill:none;stroke-width:11.3366;stroke-linecap:butt;stroke-linejoin:miter;stroke:rgb(0%,0%,0%);stroke-opacity:1;stroke-miterlimit:10;" />
    <path
       id="path562"
       d="M 268.554688 240.953125 L 271.570312 246.984375 L 274.589844 240.953125 L 271.570312 240.953125 "
       style=" stroke:none;fill-rule:nonzero;fill:rgb(0%,0%,0%);fill-opacity:1;" />
    <path
       id="path564"
       transform="matrix(0.1,0,0,-0.1,0,266.86)"
       d="M 2715.703125 1049.146875 L 2715.703125 259.06875 "
       style="fill:none;stroke-width:11.3366;stroke-linecap:butt;stroke-linejoin:miter;stroke:rgb(0%,0%,0%);stroke-opacity:1;stroke-miterlimit:10;" />
    <path
       id="path566"
       d="M 258.101562 25.882812 C 258.101562 27.0625 259.054688 28.019531 260.234375 28.019531 C 261.410156 28.019531 262.367188 27.0625 262.367188 25.882812 C 262.367188 24.707031 261.410156 23.75 260.234375 23.75 C 259.054688 23.75 258.101562 24.707031 258.101562 25.882812 "
       style=" stroke:none;fill-rule:nonzero;fill:rgb(0%,0%,0%);fill-opacity:1;" />
    <path
       id="path568"
       d="M 257.214844 99.21875 L 260.234375 105.253906 L 263.25 99.21875 L 260.234375 99.21875 "
       style=" stroke:none;fill-rule:nonzero;fill:rgb(0%,0%,0%);fill-opacity:1;" />
    <path
       id="path570"
       transform="matrix(0.1,0,0,-0.1,0,266.86)"
       d="M 2602.34375 2391.25625 L 2602.34375 1676.4125 "
       style="fill:none;stroke-width:11.3366;stroke-linecap:butt;stroke-linejoin:miter;stroke:rgb(0%,0%,0%);stroke-opacity:1;stroke-miterlimit:10;" />
    <path
       id="path572"
       d="M 269.4375 82.578125 C 269.4375 83.753906 270.394531 84.710938 271.570312 84.710938 C 272.75 84.710938 273.707031 83.753906 273.707031 82.578125 C 273.707031 81.398438 272.75 80.441406 271.570312 80.441406 C 270.394531 80.441406 269.4375 81.398438 269.4375 82.578125 "
       style=" stroke:none;fill-rule:nonzero;fill:rgb(0%,0%,0%);fill-opacity:1;" />
    <path
       id="path574"
       d="M 268.554688 99.21875 L 271.570312 105.253906 L 274.589844 99.21875 L 271.570312 99.21875 "
       style=" stroke:none;fill-rule:nonzero;fill:rgb(0%,0%,0%);fill-opacity:1;" />
    <path
       id="path576"
       transform="matrix(0.1,0,0,-0.1,0,266.86)"
       d="M 2715.703125 1824.342188 L 2715.703125 1676.4125 "
       style="fill:none;stroke-width:11.3366;stroke-linecap:butt;stroke-linejoin:miter;stroke:rgb(0%,0%,0%);stroke-opacity:1;stroke-miterlimit:10;" />
    <g
       id="g580"
       style="fill:rgb(0%,0%,0%);fill-opacity:1;">
      <use
         id="use578"
         y="40.521"
         x="288.58"
         xlink:href="#glyph0-25" />
    </g>
    <g
       id="g584"
       style="fill:rgb(0%,0%,0%);fill-opacity:1;">
      <use
         id="use582"
         y="44.60108"
         x="288.58"
         xlink:href="#glyph0-25" />
    </g>
    <g
       id="g588"
       style="fill:rgb(0%,0%,0%);fill-opacity:1;">
      <use
         id="use586"
         y="48.56085"
         x="288.58"
         xlink:href="#glyph0-25" />
    </g>
    <g
       id="g592"
       style="fill:rgb(0%,0%,0%);fill-opacity:1;">
      <use
         id="use590"
         y="210.59985"
         x="288.58"
         xlink:href="#glyph0-25" />
    </g>
    <g
       id="g596"
       style="fill:rgb(0%,0%,0%);fill-opacity:1;">
      <use
         id="use594"
         y="214.67993"
         x="288.58"
         xlink:href="#glyph0-25" />
    </g>
    <g
       id="g600"
       style="fill:rgb(0%,0%,0%);fill-opacity:1;">
      <use
         id="use598"
         y="218.64009"
         x="288.58"
         xlink:href="#glyph0-25" />
    </g>
    <g
       id="g604"
       style="fill:rgb(0%,0%,0%);fill-opacity:1;">
      <use
         id="use602"
         y="198.48309"
         x="256.3933"
         xlink:href="#glyph1-1" />
    </g>
    <g
       id="g608"
       style="fill:rgb(0%,0%,0%);fill-opacity:1;">
      <use
         id="use606"
         y="255.17609"
         x="267.7324"
         xlink:href="#glyph1-1" />
    </g>
    <g
       id="g612"
       style="fill:rgb(0%,0%,0%);fill-opacity:1;">
      <use
         id="use610"
         y="47.12109"
         x="299.9187"
         xlink:href="#glyph2-1" />
    </g>
    <g
       id="g616"
       style="fill:rgb(0%,0%,0%);fill-opacity:1;">
      <use
         id="use614"
         y="48.56093"
         x="307.95854"
         xlink:href="#glyph3-1" />
    </g>
    <g
       id="g620"
       style="fill:rgb(0%,0%,0%);fill-opacity:1;">
      <use
         id="use618"
         y="217.19993"
         x="299.9187"
         xlink:href="#glyph2-1" />
    </g>
    <g
       id="g624"
       style="fill:rgb(0%,0%,0%);fill-opacity:1;">
      <use
         id="use622"
         y="218.64016"
         x="307.95854"
         xlink:href="#glyph3-2" />
    </g>
    <g
       id="g628"
       style="fill:rgb(0%,0%,0%);fill-opacity:1;">
      <use
         id="use626"
         y="153.24876"
         x="248.26244"
         xlink:href="#glyph2-1" />
    </g>
    <g
       id="g632"
       style="fill:rgb(0%,0%,0%);fill-opacity:1;">
      <use
         id="use630"
         y="154.6886"
         x="256.30267"
         xlink:href="#glyph3-2" />
    </g>
    <g
       id="g636"
       style="fill:rgb(0%,0%,0%);fill-opacity:1;">
      <use
         id="use634"
         y="153.24876"
         x="262.06244"
         xlink:href="#glyph4-1" />
    </g>
    <g
       id="g640"
       style="fill:rgb(0%,0%,0%);fill-opacity:1;">
      <use
         id="use638"
         y="153.24876"
         x="272.0226"
         xlink:href="#glyph2-1" />
    </g>
    <g
       id="g644"
       style="fill:rgb(0%,0%,0%);fill-opacity:1;">
      <use
         id="use642"
         y="154.6886"
         x="280.06244"
         xlink:href="#glyph3-1" />
    </g>
    <path
       id="path646"
       d="M 320.082031 184.332031 L 316.925781 190.292969 L 323.589844 189.242188 L 321.835938 186.785156 "
       style=" stroke:none;fill-rule:nonzero;fill:rgb(0%,0%,0%);fill-opacity:1;" />
    <path
       id="path648"
       d="M 324.992188 180.824219 L 321.835938 186.785156 L 328.503906 185.734375 L 326.746094 183.277344 "
       style=" stroke:none;fill-rule:nonzero;fill:rgb(0%,0%,0%);fill-opacity:1;" />
    <path
       id="path650"
       transform="matrix(0.1,0,0,-0.1,0,266.86)"
       d="M 3169.257812 1899.5375 C 3566.132812 1616.060938 3566.132812 1049.146875 3267.460938 835.826563 "
       style="fill:none;stroke-width:11.3366;stroke-linecap:butt;stroke-linejoin:miter;stroke:rgb(0%,0%,0%);stroke-opacity:1;stroke-miterlimit:10;" />
    <path
       id="path652"
       d="M 429.945312 45.910156 L 435.980469 42.890625 L 429.945312 39.875 L 429.945312 42.890625 "
       style=" stroke:none;fill-rule:nonzero;fill:rgb(0%,0%,0%);fill-opacity:1;" />
    <path
       id="path654"
       d="M 423.910156 45.910156 L 429.945312 42.890625 L 423.910156 39.875 L 423.910156 42.890625 "
       style=" stroke:none;fill-rule:nonzero;fill:rgb(0%,0%,0%);fill-opacity:1;" />
    <path
       id="path656"
       transform="matrix(0.1,0,0,-0.1,0,266.86)"
       d="M 3169.257812 2239.69375 L 4239.101562 2239.69375 "
       style="fill:none;stroke-width:11.3366;stroke-linecap:butt;stroke-linejoin:miter;stroke:rgb(0%,0%,0%);stroke-opacity:1;stroke-miterlimit:10;" />
    <path
       id="path658"
       d="M 322.960938 209.953125 L 316.925781 212.96875 L 322.960938 215.988281 L 322.960938 212.96875 "
       style=" stroke:none;fill-rule:nonzero;fill:rgb(0%,0%,0%);fill-opacity:1;" />
    <path
       id="path660"
       d="M 328.996094 209.953125 L 322.960938 212.96875 L 328.996094 215.988281 L 328.996094 212.96875 "
       style=" stroke:none;fill-rule:nonzero;fill:rgb(0%,0%,0%);fill-opacity:1;" />
    <path
       id="path662"
       transform="matrix(0.1,0,0,-0.1,0,266.86)"
       d="M 3289.960938 538.9125 L 4359.804688 538.9125 "
       style="fill:none;stroke-width:11.3366;stroke-linecap:butt;stroke-linejoin:miter;stroke:rgb(0%,0%,0%);stroke-opacity:1;stroke-miterlimit:10;" />
    <g
       id="g666"
       style="fill:rgb(0%,0%,0%);fill-opacity:1;">
      <use
         id="use664"
         y="137.08"
         x="357.027"
         xlink:href="#glyph0-23" />
    </g>
    <g
       id="g670"
       style="fill:rgb(0%,0%,0%);fill-opacity:1;">
      <use
         id="use668"
         y="137.08"
         x="362.546988"
         xlink:href="#glyph0-9" />
    </g>
    <g
       id="g674"
       style="fill:rgb(0%,0%,0%);fill-opacity:1;">
      <use
         id="use672"
         y="137.08"
         x="366.987002"
         xlink:href="#glyph0-4" />
    </g>
    <g
       id="g678"
       style="fill:rgb(0%,0%,0%);fill-opacity:1;">
      <use
         id="use676"
         y="137.08"
         x="369.386992"
         xlink:href="#glyph0-26" />
    </g>
    <g
       id="g682"
       style="fill:rgb(0%,0%,0%);fill-opacity:1;">
      <use
         id="use680"
         y="137.08"
         x="372.386998"
         xlink:href="#glyph0-27" />
    </g>
    <g
       id="g688"
       style="fill:rgb(0%,0%,0%);fill-opacity:1;">
      <use
         id="use684"
         y="137.08"
         x="375.746989"
         xlink:href="#glyph0-24" />
      <use
         id="use686"
         y="137.08"
         x="378.50664"
         xlink:href="#glyph0-2" />
    </g>
    <g
       id="g692"
       style="fill:rgb(0%,0%,0%);fill-opacity:1;">
      <use
         id="use690"
         y="137.08"
         x="383.666625"
         xlink:href="#glyph0-14" />
    </g>
    <g
       id="g696"
       style="fill:rgb(0%,0%,0%);fill-opacity:1;">
      <use
         id="use694"
         y="137.08"
         x="387.266629"
         xlink:href="#glyph0-9" />
    </g>
    <g
       id="g700"
       style="fill:rgb(0%,0%,0%);fill-opacity:1;">
      <use
         id="use698"
         y="137.08"
         x="391.706643"
         xlink:href="#glyph0-8" />
    </g>
    <g
       id="g704"
       style="fill:rgb(0%,0%,0%);fill-opacity:1;">
      <use
         id="use702"
         y="137.08"
         x="395.066623"
         xlink:href="#glyph0-26" />
    </g>
    <g
       id="g708"
       style="fill:rgb(0%,0%,0%);fill-opacity:1;">
      <use
         id="use706"
         y="137.08"
         x="398.06663"
         xlink:href="#glyph0-9" />
    </g>
    <g
       id="g712"
       style="fill:rgb(0%,0%,0%);fill-opacity:1;">
      <use
         id="use710"
         y="137.08"
         x="402.506643"
         xlink:href="#glyph0-8" />
    </g>
    <g
       id="g716"
       style="fill:rgb(0%,0%,0%);fill-opacity:1;">
      <use
         id="use714"
         y="137.08"
         x="405.866623"
         xlink:href="#glyph0-9" />
    </g>
    <g
       id="g720"
       style="fill:rgb(0%,0%,0%);fill-opacity:1;">
      <use
         id="use718"
         y="137.08"
         x="410.306637"
         xlink:href="#glyph0-2" />
    </g>
    <g
       id="g724"
       style="fill:rgb(0%,0%,0%);fill-opacity:1;">
      <use
         id="use722"
         y="137.08"
         x="415.466646"
         xlink:href="#glyph0-10" />
    </g>
    <g
       id="g728"
       style="fill:rgb(0%,0%,0%);fill-opacity:1;">
      <use
         id="use726"
         y="137.08"
         x="419.90666"
         xlink:href="#glyph0-9" />
    </g>
    <g
       id="g732"
       style="fill:rgb(0%,0%,0%);fill-opacity:1;">
      <use
         id="use730"
         y="34.073"
         x="338.9391"
         xlink:href="#glyph0-18" />
    </g>
    <g
       id="g736"
       style="fill:rgb(0%,0%,0%);fill-opacity:1;">
      <use
         id="use734"
         y="34.073"
         x="344.93911"
         xlink:href="#glyph0-8" />
    </g>
    <g
       id="g740"
       style="fill:rgb(0%,0%,0%);fill-opacity:1;">
      <use
         id="use738"
         y="34.073"
         x="348.299114"
         xlink:href="#glyph0-3" />
    </g>
    <g
       id="g744"
       style="fill:rgb(0%,0%,0%);fill-opacity:1;">
      <use
         id="use742"
         y="34.073"
         x="353.099126"
         xlink:href="#glyph0-2" />
    </g>
    <g
       id="g748"
       style="fill:rgb(0%,0%,0%);fill-opacity:1;">
      <use
         id="use746"
         y="34.073"
         x="358.259111"
         xlink:href="#glyph0-19" />
    </g>
    <g
       id="g752"
       style="fill:rgb(0%,0%,0%);fill-opacity:1;">
      <use
         id="use750"
         y="34.073"
         x="362.099118"
         xlink:href="#glyph0-16" />
    </g>
    <g
       id="g756"
       style="fill:rgb(0%,0%,0%);fill-opacity:1;">
      <use
         id="use754"
         y="34.073"
         x="370.019122"
         xlink:href="#glyph0-13" />
    </g>
    <g
       id="g760"
       style="fill:rgb(0%,0%,0%);fill-opacity:1;">
      <use
         id="use758"
         y="34.073"
         x="372.419112"
         xlink:href="#glyph0-14" />
    </g>
    <g
       id="g764"
       style="fill:rgb(0%,0%,0%);fill-opacity:1;">
      <use
         id="use762"
         y="34.073"
         x="379.259033"
         xlink:href="#glyph0-23" />
    </g>
    <g
       id="g768"
       style="fill:rgb(0%,0%,0%);fill-opacity:1;">
      <use
         id="use766"
         y="34.073"
         x="384.779021"
         xlink:href="#glyph0-13" />
    </g>
    <g
       id="g772"
       style="fill:rgb(0%,0%,0%);fill-opacity:1;">
      <use
         id="use770"
         y="34.073"
         x="387.179011"
         xlink:href="#glyph0-6" />
    </g>
    <g
       id="g776"
       style="fill:rgb(0%,0%,0%);fill-opacity:1;">
      <use
         id="use774"
         y="34.073"
         x="392.219022"
         xlink:href="#glyph0-2" />
    </g>
    <g
       id="g780"
       style="fill:rgb(0%,0%,0%);fill-opacity:1;">
      <use
         id="use778"
         y="34.073"
         x="397.379007"
         xlink:href="#glyph0-3" />
    </g>
    <g
       id="g784"
       style="fill:rgb(0%,0%,0%);fill-opacity:1;">
      <use
         id="use782"
         y="34.073"
         x="402.179018"
         xlink:href="#glyph0-4" />
    </g>
    <g
       id="g788"
       style="fill:rgb(0%,0%,0%);fill-opacity:1;">
      <use
         id="use786"
         y="34.073"
         x="404.579009"
         xlink:href="#glyph0-19" />
    </g>
    <g
       id="g792"
       style="fill:rgb(0%,0%,0%);fill-opacity:1;">
      <use
         id="use790"
         y="226.829"
         x="330.56801"
         xlink:href="#glyph0-12" />
    </g>
    <g
       id="g796"
       style="fill:rgb(0%,0%,0%);fill-opacity:1;">
      <use
         id="use794"
         y="226.829"
         x="337.768019"
         xlink:href="#glyph0-9" />
    </g>
    <g
       id="g800"
       style="fill:rgb(0%,0%,0%);fill-opacity:1;">
      <use
         id="use798"
         y="226.829"
         x="342.208008"
         xlink:href="#glyph0-19" />
    </g>
    <g
       id="g804"
       style="fill:rgb(0%,0%,0%);fill-opacity:1;">
      <use
         id="use802"
         y="226.829"
         x="346.048015"
         xlink:href="#glyph0-13" />
    </g>
    <g
       id="g808"
       style="fill:rgb(0%,0%,0%);fill-opacity:1;">
      <use
         id="use806"
         y="226.829"
         x="348.448005"
         xlink:href="#glyph0-8" />
    </g>
    <g
       id="g812"
       style="fill:rgb(0%,0%,0%);fill-opacity:1;">
      <use
         id="use810"
         y="226.829"
         x="351.807985"
         xlink:href="#glyph0-9" />
    </g>
    <g
       id="g816"
       style="fill:rgb(0%,0%,0%);fill-opacity:1;">
      <use
         id="use814"
         y="226.829"
         x="356.247999"
         xlink:href="#glyph0-11" />
    </g>
    <g
       id="g820"
       style="fill:rgb(0%,0%,0%);fill-opacity:1;">
      <use
         id="use818"
         y="226.829"
         x="364.648069"
         xlink:href="#glyph0-20" />
    </g>
    <g
       id="g824"
       style="fill:rgb(0%,0%,0%);fill-opacity:1;">
      <use
         id="use822"
         y="226.829"
         x="371.128073"
         xlink:href="#glyph0-9" />
    </g>
    <g
       id="g828"
       style="fill:rgb(0%,0%,0%);fill-opacity:1;">
      <use
         id="use826"
         y="226.829"
         x="375.568062"
         xlink:href="#glyph0-10" />
    </g>
    <g
       id="g832"
       style="fill:rgb(0%,0%,0%);fill-opacity:1;">
      <use
         id="use830"
         y="226.829"
         x="380.008076"
         xlink:href="#glyph0-9" />
    </g>
    <g
       id="g836"
       style="fill:rgb(0%,0%,0%);fill-opacity:1;">
      <use
         id="use834"
         y="226.829"
         x="384.448065"
         xlink:href="#glyph0-13" />
    </g>
    <g
       id="g840"
       style="fill:rgb(0%,0%,0%);fill-opacity:1;">
      <use
         id="use838"
         y="226.829"
         x="386.848055"
         xlink:href="#glyph0-22" />
    </g>
    <g
       id="g844"
       style="fill:rgb(0%,0%,0%);fill-opacity:1;">
      <use
         id="use842"
         y="226.829"
         x="391.408069"
         xlink:href="#glyph0-9" />
    </g>
    <g
       id="g848"
       style="fill:rgb(0%,0%,0%);fill-opacity:1;">
      <use
         id="use846"
         y="226.829"
         x="399.087899"
         xlink:href="#glyph0-23" />
    </g>
    <g
       id="g852"
       style="fill:rgb(0%,0%,0%);fill-opacity:1;">
      <use
         id="use850"
         y="226.829"
         x="404.607887"
         xlink:href="#glyph0-13" />
    </g>
    <g
       id="g856"
       style="fill:rgb(0%,0%,0%);fill-opacity:1;">
      <use
         id="use854"
         y="226.829"
         x="407.007877"
         xlink:href="#glyph0-6" />
    </g>
    <g
       id="g860"
       style="fill:rgb(0%,0%,0%);fill-opacity:1;">
      <use
         id="use858"
         y="226.829"
         x="412.047889"
         xlink:href="#glyph0-2" />
    </g>
    <g
       id="g864"
       style="fill:rgb(0%,0%,0%);fill-opacity:1;">
      <use
         id="use862"
         y="226.829"
         x="417.207898"
         xlink:href="#glyph0-3" />
    </g>
    <g
       id="g868"
       style="fill:rgb(0%,0%,0%);fill-opacity:1;">
      <use
         id="use866"
         y="226.829"
         x="422.007885"
         xlink:href="#glyph0-4" />
    </g>
    <g
       id="g872"
       style="fill:rgb(0%,0%,0%);fill-opacity:1;">
      <use
         id="use870"
         y="226.829"
         x="424.4079"
         xlink:href="#glyph0-19" />
    </g>
    <g
       id="g876"
       style="fill:rgb(0%,0%,0%);fill-opacity:1;">
      <use
         id="use874"
         y="221.93837"
         x="158.18601"
         xlink:href="#glyph0-25" />
    </g>
    <g
       id="g880"
       style="fill:rgb(0%,0%,0%);fill-opacity:1;">
      <use
         id="use878"
         y="226.01845"
         x="158.18601"
         xlink:href="#glyph0-25" />
    </g>
    <g
       id="g884"
       style="fill:rgb(0%,0%,0%);fill-opacity:1;">
      <use
         id="use882"
         y="229.97822"
         x="158.18601"
         xlink:href="#glyph0-25" />
    </g>
    <g
       id="g888"
       style="fill:rgb(0%,0%,0%);fill-opacity:1;">
      <use
         id="use886"
         y="51.85922"
         x="56.13801"
         xlink:href="#glyph0-25" />
    </g>
    <g
       id="g892"
       style="fill:rgb(0%,0%,0%);fill-opacity:1;">
      <use
         id="use890"
         y="55.9393"
         x="56.13801"
         xlink:href="#glyph0-25" />
    </g>
    <g
       id="g896"
       style="fill:rgb(0%,0%,0%);fill-opacity:1;">
      <use
         id="use894"
         y="59.89946"
         x="56.13801"
         xlink:href="#glyph0-25" />
    </g>
    <g
       id="g900"
       style="fill:rgb(0%,0%,0%);fill-opacity:1;">
      <use
         id="use898"
         y="221.93846"
         x="56.13801"
         xlink:href="#glyph0-25" />
    </g>
    <g
       id="g904"
       style="fill:rgb(0%,0%,0%);fill-opacity:1;">
      <use
         id="use902"
         y="226.01854"
         x="56.13801"
         xlink:href="#glyph0-25" />
    </g>
    <g
       id="g908"
       style="fill:rgb(0%,0%,0%);fill-opacity:1;">
      <use
         id="use906"
         y="229.97831"
         x="56.13801"
         xlink:href="#glyph0-25" />
    </g>
    <path
       id="path910"
       transform="matrix(0.1,0,0,-0.1,0,266.86)"
       d="M 1474.140625 2353.053125 L 1474.140625 2245.357813 L 1689.570312 2245.357813 L 1689.570312 2460.7875 L 1474.140625 2460.7875 Z M 1474.140625 2353.053125 "
       style="fill:none;stroke-width:11.3366;stroke-linecap:butt;stroke-linejoin:miter;stroke:rgb(0%,0%,0%);stroke-opacity:1;stroke-miterlimit:10;" />
    <g
       id="g914"
       style="fill:rgb(0%,0%,0%);fill-opacity:1;">
      <use
         id="use912"
         y="35.033"
         x="152.187"
         xlink:href="#glyph0-20" />
    </g>
    <g
       id="g918"
       style="fill:rgb(0%,0%,0%);fill-opacity:1;">
      <use
         id="use916"
         y="35.033"
         x="158.667004"
         xlink:href="#glyph0-21" />
    </g>
    <path
       id="path920"
       transform="matrix(0.1,0,0,-0.1,0,266.86)"
       d="M 1474.140625 1899.5375 L 1474.140625 1791.803125 L 1689.570312 1791.803125 L 1689.570312 2007.232813 L 1474.140625 2007.232813 Z M 1474.140625 1899.5375 "
       style="fill:none;stroke-width:11.3366;stroke-linecap:butt;stroke-linejoin:miter;stroke:rgb(0%,0%,0%);stroke-opacity:1;stroke-miterlimit:10;" />
    <g
       id="g924"
       style="fill:rgb(0%,0%,0%);fill-opacity:1;">
      <use
         id="use922"
         y="80.387"
         x="152.187"
         xlink:href="#glyph0-20" />
    </g>
    <g
       id="g928"
       style="fill:rgb(0%,0%,0%);fill-opacity:1;">
      <use
         id="use926"
         y="80.387"
         x="158.667004"
         xlink:href="#glyph0-21" />
    </g>
    <path
       id="path930"
       transform="matrix(0.1,0,0,-0.1,0,266.86)"
       d="M 1355.078125 2353.053125 L 1468.476562 2353.053125 "
       style="fill:none;stroke-width:11.3366;stroke-linecap:butt;stroke-linejoin:miter;stroke:rgb(0%,0%,0%);stroke-opacity:1;stroke-miterlimit:10;" />
    <path
       id="path932"
       transform="matrix(0.1,0,0,-0.1,0,266.86)"
       d="M 1695.234375 2353.053125 L 1808.632812 2353.053125 "
       style="fill:none;stroke-width:11.3366;stroke-linecap:butt;stroke-linejoin:miter;stroke:rgb(0%,0%,0%);stroke-opacity:1;stroke-miterlimit:10;" />
    <path
       id="path934"
       transform="matrix(0.1,0,0,-0.1,0,266.86)"
       d="M 1355.078125 1899.5375 L 1468.476562 1899.5375 "
       style="fill:none;stroke-width:11.3366;stroke-linecap:butt;stroke-linejoin:miter;stroke:rgb(0%,0%,0%);stroke-opacity:1;stroke-miterlimit:10;" />
    <path
       id="path936"
       transform="matrix(0.1,0,0,-0.1,0,266.86)"
       d="M 1695.234375 1899.5375 L 1808.632812 1899.5375 "
       style="fill:none;stroke-width:11.3366;stroke-linecap:butt;stroke-linejoin:miter;stroke:rgb(0%,0%,0%);stroke-opacity:1;stroke-miterlimit:10;" />
    <g
       id="g940"
       style="fill:rgb(0%,0%,0%);fill-opacity:1;">
      <use
         id="use938"
         y="51.86"
         x="158.187"
         xlink:href="#glyph0-25" />
    </g>
    <g
       id="g944"
       style="fill:rgb(0%,0%,0%);fill-opacity:1;">
      <use
         id="use942"
         y="55.94008"
         x="158.187"
         xlink:href="#glyph0-25" />
    </g>
    <g
       id="g948"
       style="fill:rgb(0%,0%,0%);fill-opacity:1;">
      <use
         id="use946"
         y="59.90024"
         x="158.187"
         xlink:href="#glyph0-25" />
    </g>
  </g>
</svg>
