<?xml version="1.0" encoding="UTF-8" standalone="no"?>
<svg
   xmlns:dc="http://purl.org/dc/elements/1.1/"
   xmlns:cc="http://creativecommons.org/ns#"
   xmlns:rdf="http://www.w3.org/1999/02/22-rdf-syntax-ns#"
   xmlns:svg="http://www.w3.org/2000/svg"
   xmlns="http://www.w3.org/2000/svg"
   xmlns:xlink="http://www.w3.org/1999/xlink"
   id="svg690"
   version="1.2"
   viewBox="0 0 386.79 174.47"
   height="174.47pt"
   width="386.79pt">
  <metadata
     id="metadata694">
    <rdf:RDF>
      <cc:Work
         rdf:about="">
        <dc:format>image/svg+xml</dc:format>
        <dc:type
           rdf:resource="http://purl.org/dc/dcmitype/StillImage" />
        <dc:title></dc:title>
      </cc:Work>
    </rdf:RDF>
  </metadata>
  <defs
     id="defs91">
    <g
       id="g83">
      <symbol
         id="glyph0-0"
         overflow="visible">
        <path
           id="path2"
           d=""
           style="stroke:none;" />
      </symbol>
      <symbol
         id="glyph0-1"
         overflow="visible">
        <path
           id="path5"
           d="M 0.953125 -6.921875 L 0.953125 0 L 3.578125 0 C 5.28125 0 6.625 -1.515625 6.625 -3.40625 C 6.625 -5.328125 5.28125 -6.921875 3.5625 -6.921875 Z M 1.8125 -0.5625 L 1.8125 -6.359375 L 3.34375 -6.359375 C 4.734375 -6.359375 5.765625 -5.15625 5.765625 -3.40625 C 5.765625 -1.703125 4.734375 -0.5625 3.34375 -0.5625 Z M 1.8125 -0.5625 "
           style="stroke:none;" />
      </symbol>
      <symbol
         id="glyph0-2"
         overflow="visible">
        <path
           id="path8"
           d="M 1.625 -6.78125 L 0.734375 -6.78125 L 0.734375 -5.890625 L 1.625 -5.890625 Z M 1.5625 -4.421875 L 0.8125 -4.421875 L 0.8125 0 L 1.5625 0 Z M 1.5625 -4.421875 "
           style="stroke:none;" />
      </symbol>
      <symbol
         id="glyph0-3"
         overflow="visible">
        <path
           id="path11"
           d="M 3.515625 -3.890625 C 3.734375 -3.890625 4 -3.9375 4.25 -3.9375 C 4.421875 -3.9375 4.8125 -3.90625 4.828125 -3.90625 L 4.71875 -4.53125 C 4.03125 -4.53125 3.453125 -4.34375 3.15625 -4.21875 C 2.9375 -4.390625 2.609375 -4.53125 2.203125 -4.53125 C 1.34375 -4.53125 0.625 -3.8125 0.625 -2.90625 C 0.625 -2.546875 0.75 -2.1875 0.953125 -1.921875 C 0.65625 -1.515625 0.65625 -1.125 0.65625 -1.078125 C 0.65625 -0.8125 0.75 -0.53125 0.921875 -0.3125 C 0.40625 -0.015625 0.28125 0.453125 0.28125 0.703125 C 0.28125 1.453125 1.265625 2.046875 2.484375 2.046875 C 3.703125 2.046875 4.6875 1.46875 4.6875 0.703125 C 4.6875 -0.6875 3.03125 -0.6875 2.640625 -0.6875 L 1.765625 -0.6875 C 1.640625 -0.6875 1.1875 -0.6875 1.1875 -1.21875 C 1.1875 -1.328125 1.21875 -1.484375 1.296875 -1.578125 C 1.5 -1.421875 1.828125 -1.28125 2.203125 -1.28125 C 3.09375 -1.28125 3.796875 -2.03125 3.796875 -2.90625 C 3.796875 -3.390625 3.578125 -3.765625 3.46875 -3.90625 Z M 2.203125 -1.859375 C 1.828125 -1.859375 1.3125 -2.078125 1.3125 -2.90625 C 1.3125 -3.734375 1.828125 -3.96875 2.203125 -3.96875 C 2.625 -3.96875 3.09375 -3.6875 3.09375 -2.90625 C 3.09375 -2.140625 2.625 -1.859375 2.203125 -1.859375 Z M 2.65625 0.03125 C 2.875 0.03125 4 0.03125 4 0.71875 C 4 1.15625 3.3125 1.484375 2.5 1.484375 C 1.6875 1.484375 0.984375 1.171875 0.984375 0.703125 C 0.984375 0.671875 0.984375 0.03125 1.75 0.03125 Z M 2.65625 0.03125 "
           style="stroke:none;" />
      </symbol>
      <symbol
         id="glyph0-4"
         overflow="visible">
        <path
           id="path14"
           d="M 1.75 -3.84375 L 3.15625 -3.84375 L 3.15625 -4.421875 L 1.75 -4.421875 L 1.75 -5.6875 L 1.0625 -5.6875 L 1.0625 -4.421875 L 0.1875 -4.421875 L 0.1875 -3.84375 L 1.03125 -3.84375 L 1.03125 -1.1875 C 1.03125 -0.59375 1.171875 0.109375 1.859375 0.109375 C 2.546875 0.109375 3.0625 -0.140625 3.3125 -0.265625 L 3.15625 -0.859375 C 2.890625 -0.640625 2.578125 -0.53125 2.25 -0.53125 C 1.890625 -0.53125 1.75 -0.828125 1.75 -1.359375 Z M 1.75 -3.84375 "
           style="stroke:none;" />
      </symbol>
      <symbol
         id="glyph0-5"
         overflow="visible">
        <path
           id="path17"
           d="M 3.984375 -2.875 C 3.984375 -3.890625 3.25 -4.59375 2.328125 -4.59375 C 1.6875 -4.59375 1.234375 -4.4375 0.765625 -4.171875 L 0.828125 -3.515625 C 1.34375 -3.875 1.84375 -4 2.328125 -4 C 2.796875 -4 3.203125 -3.609375 3.203125 -2.875 L 3.203125 -2.4375 C 1.703125 -2.421875 0.4375 -2 0.4375 -1.125 C 0.4375 -0.703125 0.703125 0.109375 1.578125 0.109375 C 1.71875 0.109375 2.65625 0.09375 3.234375 -0.359375 L 3.234375 0 L 3.984375 0 Z M 3.203125 -1.3125 C 3.203125 -1.125 3.203125 -0.875 2.859375 -0.6875 C 2.578125 -0.515625 2.1875 -0.5 2.078125 -0.5 C 1.609375 -0.5 1.15625 -0.734375 1.15625 -1.140625 C 1.15625 -1.84375 2.765625 -1.90625 3.203125 -1.9375 Z M 3.203125 -1.3125 "
           style="stroke:none;" />
      </symbol>
      <symbol
         id="glyph0-6"
         overflow="visible">
        <path
           id="path20"
           d="M 1.5625 -6.921875 L 0.8125 -6.921875 L 0.8125 0 L 1.5625 0 Z M 1.5625 -6.921875 "
           style="stroke:none;" />
      </symbol>
      <symbol
         id="glyph0-7"
         overflow="visible">
        <path
           id="path23"
           d="M 3.84375 -6.21875 L 4.71875 -6.21875 C 4.84375 -6.21875 4.96875 -6.203125 5.078125 -6.203125 L 6.421875 -6.203125 L 6.421875 -6.859375 L 0.359375 -6.859375 L 0.359375 -6.203125 L 1.6875 -6.203125 C 1.8125 -6.203125 1.9375 -6.21875 2.046875 -6.21875 L 2.953125 -6.21875 L 2.953125 0 L 3.84375 0 Z M 3.84375 -6.21875 "
           style="stroke:none;" />
      </symbol>
      <symbol
         id="glyph0-8"
         overflow="visible">
        <path
           id="path26"
           d="M 1.5625 -2.140625 C 1.5625 -3.125 2.28125 -3.84375 3.265625 -3.875 L 3.265625 -4.53125 C 2.375 -4.53125 1.828125 -4.03125 1.515625 -3.578125 L 1.515625 -4.484375 L 0.8125 -4.484375 L 0.8125 0 L 1.5625 0 Z M 1.5625 -2.140625 "
           style="stroke:none;" />
      </symbol>
      <symbol
         id="glyph0-9"
         overflow="visible">
        <path
           id="path29"
           d="M 4.34375 -2.96875 C 4.34375 -3.625 4.1875 -4.53125 2.96875 -4.53125 C 2.078125 -4.53125 1.578125 -3.859375 1.53125 -3.78125 L 1.53125 -4.484375 L 0.8125 -4.484375 L 0.8125 0 L 1.578125 0 L 1.578125 -2.4375 C 1.578125 -3.09375 1.828125 -3.921875 2.59375 -3.921875 C 3.546875 -3.921875 3.5625 -3.21875 3.5625 -2.90625 L 3.5625 0 L 4.34375 0 Z M 4.34375 -2.96875 "
           style="stroke:none;" />
      </symbol>
      <symbol
         id="glyph0-10"
         overflow="visible">
        <path
           id="path32"
           d="M 3.421875 -4.28125 C 2.90625 -4.515625 2.5 -4.59375 1.984375 -4.59375 C 1.734375 -4.59375 0.328125 -4.59375 0.328125 -3.296875 C 0.328125 -2.796875 0.625 -2.484375 0.875 -2.296875 C 1.171875 -2.078125 1.390625 -2.03125 1.9375 -1.921875 C 2.296875 -1.859375 2.875 -1.734375 2.875 -1.203125 C 2.875 -0.515625 2.09375 -0.515625 1.9375 -0.515625 C 1.140625 -0.515625 0.578125 -0.890625 0.40625 -1 L 0.28125 -0.328125 C 0.59375 -0.171875 1.140625 0.109375 1.953125 0.109375 C 2.140625 0.109375 2.6875 0.109375 3.109375 -0.203125 C 3.421875 -0.453125 3.59375 -0.84375 3.59375 -1.28125 C 3.59375 -1.828125 3.21875 -2.15625 3.203125 -2.1875 C 2.8125 -2.546875 2.546875 -2.609375 2.046875 -2.6875 C 1.5 -2.796875 1.03125 -2.90625 1.03125 -3.390625 C 1.03125 -4 1.75 -4 1.890625 -4 C 2.203125 -4 2.734375 -3.96875 3.296875 -3.625 Z M 3.421875 -4.28125 "
           style="stroke:none;" />
      </symbol>
      <symbol
         id="glyph0-11"
         overflow="visible">
        <path
           id="path35"
           d="M 7.109375 -2.96875 C 7.109375 -3.640625 6.953125 -4.53125 5.734375 -4.53125 C 5.140625 -4.53125 4.625 -4.25 4.25 -3.71875 C 4 -4.46875 3.296875 -4.53125 2.984375 -4.53125 C 2.265625 -4.53125 1.796875 -4.125 1.53125 -3.765625 L 1.53125 -4.484375 L 0.8125 -4.484375 L 0.8125 0 L 1.578125 0 L 1.578125 -2.4375 C 1.578125 -3.125 1.859375 -3.921875 2.59375 -3.921875 C 3.515625 -3.921875 3.5625 -3.28125 3.5625 -2.90625 L 3.5625 0 L 4.34375 0 L 4.34375 -2.4375 C 4.34375 -3.125 4.609375 -3.921875 5.359375 -3.921875 C 6.28125 -3.921875 6.328125 -3.28125 6.328125 -2.90625 L 6.328125 0 L 7.109375 0 Z M 7.109375 -2.96875 "
           style="stroke:none;" />
      </symbol>
      <symbol
         id="glyph0-12"
         overflow="visible">
        <path
           id="path38"
           d="M 4.125 -2.1875 C 4.125 -2.515625 4.109375 -3.265625 3.734375 -3.875 C 3.3125 -4.484375 2.71875 -4.59375 2.359375 -4.59375 C 1.25 -4.59375 0.34375 -3.53125 0.34375 -2.25 C 0.34375 -0.9375 1.3125 0.109375 2.5 0.109375 C 3.125 0.109375 3.703125 -0.125 4.09375 -0.40625 L 4.03125 -1.0625 C 3.40625 -0.53125 2.734375 -0.5 2.515625 -0.5 C 1.71875 -0.5 1.078125 -1.203125 1.046875 -2.1875 Z M 1.09375 -2.734375 C 1.25 -3.484375 1.78125 -3.984375 2.359375 -3.984375 C 2.875 -3.984375 3.421875 -3.65625 3.5625 -2.734375 Z M 1.09375 -2.734375 "
           style="stroke:none;" />
      </symbol>
      <symbol
         id="glyph0-13"
         overflow="visible">
        <path
           id="path41"
           d="M 4.171875 -3.25 C 5.203125 -3.546875 5.875 -4.25 5.875 -5.0625 C 5.875 -6.046875 4.78125 -6.921875 3.359375 -6.921875 L 0.953125 -6.921875 L 0.953125 0 L 1.8125 0 L 1.8125 -3.15625 L 3.390625 -3.15625 L 5.265625 0 L 6.15625 0 Z M 1.8125 -3.765625 L 1.8125 -6.359375 L 3.25 -6.359375 C 4.40625 -6.359375 5.0625 -5.765625 5.0625 -5.0625 C 5.0625 -4.359375 4.421875 -3.765625 3.25 -3.765625 Z M 1.8125 -3.765625 "
           style="stroke:none;" />
      </symbol>
      <symbol
         id="glyph0-14"
         overflow="visible">
        <path
           id="path44"
           d="M 4.828125 -3.140625 L 4.828125 -3.75 L 1.828125 -3.75 L 1.828125 -6.25 L 3.125 -6.25 C 3.25 -6.25 3.375 -6.234375 3.484375 -6.234375 L 5.25 -6.234375 L 5.25 -6.890625 L 0.9375 -6.890625 L 0.9375 0 L 1.828125 0 L 1.828125 -3.140625 Z M 4.828125 -3.140625 "
           style="stroke:none;" />
      </symbol>
      <symbol
         id="glyph0-15"
         overflow="visible">
        <path
           id="path47"
           d="M 4.09375 -4.171875 C 3.5 -4.5 3.15625 -4.59375 2.546875 -4.59375 C 1.171875 -4.59375 0.359375 -3.390625 0.359375 -2.21875 C 0.359375 -0.984375 1.265625 0.109375 2.515625 0.109375 C 3.046875 0.109375 3.59375 -0.03125 4.140625 -0.40625 L 4.078125 -1.0625 C 3.5625 -0.671875 3.03125 -0.53125 2.515625 -0.53125 C 1.6875 -0.53125 1.140625 -1.25 1.140625 -2.21875 C 1.140625 -3 1.5 -3.953125 2.5625 -3.953125 C 3.078125 -3.953125 3.421875 -3.875 3.96875 -3.515625 Z M 4.09375 -4.171875 "
           style="stroke:none;" />
      </symbol>
      <symbol
         id="glyph0-16"
         overflow="visible">
        <path
           id="path50"
           d="M 4.453125 -4.421875 L 3.703125 -4.421875 L 2.90625 -2.359375 C 2.703125 -1.796875 2.390625 -1 2.3125 -0.53125 L 2.296875 -0.53125 C 2.25 -0.890625 1.984375 -1.578125 1.890625 -1.84375 L 0.921875 -4.421875 L 0.140625 -4.421875 L 1.859375 0 L 2.734375 0 Z M 4.453125 -4.421875 "
           style="stroke:none;" />
      </symbol>
      <symbol
         id="glyph0-17"
         overflow="visible">
        <path
           id="path53"
           d="M 3.765625 -6.921875 L 2.875 -6.921875 L 0.28125 0 L 1.015625 0 L 1.78125 -2.03125 L 4.6875 -2.03125 L 5.4375 0 L 6.359375 0 Z M 4.46875 -2.59375 L 2 -2.59375 L 2.640625 -4.390625 C 2.84375 -4.984375 3.15625 -5.828125 3.234375 -6.203125 C 3.265625 -6.0625 3.328125 -5.8125 3.5625 -5.15625 Z M 4.46875 -2.59375 "
           style="stroke:none;" />
      </symbol>
      <symbol
         id="glyph0-18"
         overflow="visible">
        <path
           id="path56"
           d="M 4.671875 -2.1875 C 4.671875 -3.53125 3.671875 -4.59375 2.5 -4.59375 C 1.265625 -4.59375 0.296875 -3.5 0.296875 -2.1875 C 0.296875 -0.875 1.3125 0.109375 2.484375 0.109375 C 3.671875 0.109375 4.671875 -0.890625 4.671875 -2.1875 Z M 2.484375 -0.53125 C 1.796875 -0.53125 1.078125 -1.09375 1.078125 -2.296875 C 1.078125 -3.5 1.828125 -3.984375 2.484375 -3.984375 C 3.1875 -3.984375 3.890625 -3.46875 3.890625 -2.296875 C 3.890625 -1.109375 3.21875 -0.53125 2.484375 -0.53125 Z M 2.484375 -0.53125 "
           style="stroke:none;" />
      </symbol>
      <symbol
         id="glyph0-19"
         overflow="visible">
        <path
           id="path59"
           d="M 4.640625 -6.640625 C 4.09375 -6.96875 3.53125 -7.140625 2.8125 -7.140625 C 1.421875 -7.140625 0.5625 -6.15625 0.5625 -5.171875 C 0.5625 -4.75 0.703125 -4.328125 1.09375 -3.90625 C 1.515625 -3.453125 1.953125 -3.34375 2.546875 -3.203125 C 3.390625 -2.984375 3.484375 -2.953125 3.765625 -2.71875 C 3.96875 -2.546875 4.1875 -2.21875 4.1875 -1.78125 C 4.1875 -1.125 3.640625 -0.46875 2.734375 -0.46875 C 2.328125 -0.46875 1.421875 -0.5625 0.59375 -1.28125 L 0.4375 -0.46875 C 1.3125 0.078125 2.109375 0.21875 2.734375 0.21875 C 4.0625 0.21875 4.96875 -0.78125 4.96875 -1.890625 C 4.96875 -2.53125 4.671875 -3.015625 4.453125 -3.25 C 3.984375 -3.75 3.65625 -3.84375 2.734375 -4.0625 C 2.15625 -4.203125 2 -4.25 1.6875 -4.5 C 1.625 -4.5625 1.34375 -4.859375 1.34375 -5.296875 C 1.34375 -5.875 1.890625 -6.484375 2.796875 -6.484375 C 3.640625 -6.484375 4.109375 -6.15625 4.484375 -5.84375 Z M 4.640625 -6.640625 "
           style="stroke:none;" />
      </symbol>
      <symbol
         id="glyph0-20"
         overflow="visible">
        <path
           id="path62"
           d="M 1.828125 -6.921875 L 0.9375 -6.921875 L 0.9375 0 L 1.828125 0 Z M 1.828125 -6.921875 "
           style="stroke:none;" />
      </symbol>
      <symbol
         id="glyph0-21"
         overflow="visible">
        <path
           id="path65"
           d="M 5.796875 -1.140625 C 5.21875 -0.75 4.875 -0.53125 3.890625 -0.53125 C 2.453125 -0.53125 1.5625 -2.03125 1.5625 -3.46875 C 1.5625 -4.828125 2.375 -6.390625 3.90625 -6.390625 C 4.609375 -6.390625 5.0625 -6.21875 5.609375 -5.875 L 5.75 -6.6875 C 5.328125 -6.890625 4.5625 -7.03125 3.921875 -7.03125 C 2.078125 -7.03125 0.65625 -5.46875 0.65625 -3.375 C 0.65625 -1.796875 1.84375 0.109375 3.921875 0.109375 C 4.828125 0.109375 5.21875 -0.046875 5.859375 -0.453125 Z M 5.796875 -1.140625 "
           style="stroke:none;" />
      </symbol>
      <symbol
         id="glyph0-22"
         overflow="visible">
        <path
           id="path68"
           d="M 1.75 -3.84375 L 2.84375 -3.84375 L 2.84375 -4.421875 L 1.71875 -4.421875 L 1.71875 -5.609375 C 1.71875 -6.34375 2.390625 -6.421875 2.65625 -6.421875 C 2.84375 -6.421875 3.125 -6.40625 3.453125 -6.25 L 3.453125 -6.921875 C 3.34375 -6.953125 3.03125 -7.03125 2.65625 -7.03125 C 1.71875 -7.03125 1 -6.3125 1 -5.328125 L 1 -4.421875 L 0.265625 -4.421875 L 0.265625 -3.84375 L 1 -3.84375 L 1 0 L 1.75 0 Z M 1.75 -3.84375 "
           style="stroke:none;" />
      </symbol>
      <symbol
         id="glyph0-23"
         overflow="visible">
        <path
           id="path71"
           d="M 2.75 -1.921875 L 2.75 -2.5 L 0.109375 -2.5 L 0.109375 -1.921875 Z M 2.75 -1.921875 "
           style="stroke:none;" />
      </symbol>
      <symbol
         id="glyph0-24"
         overflow="visible">
        <path
           id="path74"
           d="M 4.328125 -6.921875 L 3.578125 -6.921875 L 3.578125 -3.984375 C 3.046875 -4.421875 2.5 -4.53125 2.125 -4.53125 C 1.140625 -4.53125 0.359375 -3.5 0.359375 -2.21875 C 0.359375 -0.90625 1.125 0.109375 2.078125 0.109375 C 2.40625 0.109375 2.984375 0.015625 3.546875 -0.515625 L 3.546875 0 L 4.328125 0 Z M 3.546875 -1.390625 C 3.546875 -1.25 3.53125 -1.0625 3.21875 -0.78125 C 2.984375 -0.578125 2.734375 -0.5 2.484375 -0.5 C 1.859375 -0.5 1.140625 -0.96875 1.140625 -2.203125 C 1.140625 -3.515625 2 -3.921875 2.578125 -3.921875 C 3.03125 -3.921875 3.328125 -3.703125 3.546875 -3.375 Z M 3.546875 -1.390625 "
           style="stroke:none;" />
      </symbol>
      <symbol
         id="glyph1-0"
         overflow="visible">
        <path
           id="path77"
           d=""
           style="stroke:none;" />
      </symbol>
      <symbol
         id="glyph1-1"
         overflow="visible">
        <path
           id="path80"
           d="M 4.078125 -2.296875 L 6.859375 -2.296875 C 7 -2.296875 7.1875 -2.296875 7.1875 -2.5 C 7.1875 -2.6875 7 -2.6875 6.859375 -2.6875 L 4.078125 -2.6875 L 4.078125 -5.484375 C 4.078125 -5.625 4.078125 -5.8125 3.875 -5.8125 C 3.671875 -5.8125 3.671875 -5.625 3.671875 -5.484375 L 3.671875 -2.6875 L 0.890625 -2.6875 C 0.75 -2.6875 0.5625 -2.6875 0.5625 -2.5 C 0.5625 -2.296875 0.75 -2.296875 0.890625 -2.296875 L 3.671875 -2.296875 L 3.671875 0.5 C 3.671875 0.640625 3.671875 0.828125 3.875 0.828125 C 4.078125 0.828125 4.078125 0.640625 4.078125 0.5 Z M 4.078125 -2.296875 "
           style="stroke:none;" />
      </symbol>
    </g>
    <clipPath
       id="clip1">
      <path
         id="path85"
         d="M 194 133 L 236 133 L 236 174.46875 L 194 174.46875 Z M 194 133 " />
    </clipPath>
    <clipPath
       id="clip2">
      <path
         id="path88"
         d="M 164 127 L 214 127 L 214 174.46875 L 164 174.46875 Z M 164 127 " />
    </clipPath>
  </defs>
  <g
     id="surface693">
    <path
       id="path93"
       transform="matrix(0.1,0,0,-0.1,0,174.47)"
       d="M 1978.710938 1332.5125 L 2375.546875 1332.5125 L 2375.546875 1559.309375 "
       style="fill:none;stroke-width:11.3366;stroke-linecap:butt;stroke-linejoin:miter;stroke:rgb(0%,0%,0%);stroke-opacity:1;stroke-miterlimit:10;" />
    <path
       id="path95"
       transform="matrix(0.1,0,0,-0.1,0,174.47)"
       d="M 2262.1875 1559.309375 L 2375.546875 1445.910938 L 2488.945312 1559.309375 "
       style="fill:none;stroke-width:11.3366;stroke-linecap:butt;stroke-linejoin:miter;stroke:rgb(0%,0%,0%);stroke-opacity:1;stroke-miterlimit:10;" />
    <path
       id="path97"
       transform="matrix(0.1,0,0,-0.1,0,174.47)"
       d="M 680.429688 1332.5125 L 680.429688 1168.098438 L 1349.414062 1168.098438 L 1349.414062 1496.926563 L 680.429688 1496.926563 Z M 680.429688 1332.5125 "
       style="fill:none;stroke-width:11.3366;stroke-linecap:butt;stroke-linejoin:miter;stroke:rgb(0%,0%,0%);stroke-opacity:1;stroke-miterlimit:10;" />
    <g
       id="g101"
       style="fill:rgb(0%,0%,0%);fill-opacity:1;">
      <use
         id="use99"
         y="38.069"
         x="87.6938"
         xlink:href="#glyph0-1" />
    </g>
    <g
       id="g105"
       style="fill:rgb(0%,0%,0%);fill-opacity:1;">
      <use
         id="use103"
         y="38.069"
         x="94.893802"
         xlink:href="#glyph0-2" />
    </g>
    <g
       id="g109"
       style="fill:rgb(0%,0%,0%);fill-opacity:1;">
      <use
         id="use107"
         y="38.069"
         x="97.293805"
         xlink:href="#glyph0-3" />
    </g>
    <g
       id="g113"
       style="fill:rgb(0%,0%,0%);fill-opacity:1;">
      <use
         id="use111"
         y="38.069"
         x="102.333804"
         xlink:href="#glyph0-2" />
    </g>
    <g
       id="g117"
       style="fill:rgb(0%,0%,0%);fill-opacity:1;">
      <use
         id="use115"
         y="38.069"
         x="104.733806"
         xlink:href="#glyph0-4" />
    </g>
    <g
       id="g121"
       style="fill:rgb(0%,0%,0%);fill-opacity:1;">
      <use
         id="use119"
         y="38.069"
         x="108.333811"
         xlink:href="#glyph0-5" />
    </g>
    <g
       id="g125"
       style="fill:rgb(0%,0%,0%);fill-opacity:1;">
      <use
         id="use123"
         y="38.069"
         x="113.13381"
         xlink:href="#glyph0-6" />
    </g>
    <g
       id="g129"
       style="fill:rgb(0%,0%,0%);fill-opacity:1;">
      <use
         id="use127"
         y="50.3674"
         x="77.2536"
         xlink:href="#glyph0-7" />
    </g>
    <g
       id="g133"
       style="fill:rgb(0%,0%,0%);fill-opacity:1;">
      <use
         id="use131"
         y="50.3674"
         x="83.253598"
         xlink:href="#glyph0-8" />
    </g>
    <g
       id="g137"
       style="fill:rgb(0%,0%,0%);fill-opacity:1;">
      <use
         id="use135"
         y="50.3674"
         x="86.613596"
         xlink:href="#glyph0-5" />
    </g>
    <g
       id="g141"
       style="fill:rgb(0%,0%,0%);fill-opacity:1;">
      <use
         id="use139"
         y="50.3674"
         x="91.413596"
         xlink:href="#glyph0-9" />
    </g>
    <g
       id="g145"
       style="fill:rgb(0%,0%,0%);fill-opacity:1;">
      <use
         id="use143"
         y="50.3674"
         x="96.573599"
         xlink:href="#glyph0-10" />
    </g>
    <g
       id="g149"
       style="fill:rgb(0%,0%,0%);fill-opacity:1;">
      <use
         id="use147"
         y="50.3674"
         x="100.413594"
         xlink:href="#glyph0-11" />
    </g>
    <g
       id="g153"
       style="fill:rgb(0%,0%,0%);fill-opacity:1;">
      <use
         id="use151"
         y="50.3674"
         x="108.333586"
         xlink:href="#glyph0-2" />
    </g>
    <g
       id="g157"
       style="fill:rgb(0%,0%,0%);fill-opacity:1;">
      <use
         id="use155"
         y="50.3674"
         x="110.733588"
         xlink:href="#glyph0-4" />
    </g>
    <g
       id="g161"
       style="fill:rgb(0%,0%,0%);fill-opacity:1;">
      <use
         id="use159"
         y="50.3674"
         x="114.333593"
         xlink:href="#glyph0-4" />
    </g>
    <g
       id="g165"
       style="fill:rgb(0%,0%,0%);fill-opacity:1;">
      <use
         id="use163"
         y="50.3674"
         x="117.933597"
         xlink:href="#glyph0-12" />
    </g>
    <g
       id="g169"
       style="fill:rgb(0%,0%,0%);fill-opacity:1;">
      <use
         id="use167"
         y="50.3674"
         x="122.373598"
         xlink:href="#glyph0-8" />
    </g>
    <path
       id="path171"
       transform="matrix(0.1,0,0,-0.1,0,174.47)"
       d="M 1474.140625 1332.5125 L 1474.140625 1224.817188 L 1689.570312 1224.817188 L 1689.570312 1440.246875 L 1474.140625 1440.246875 Z M 1474.140625 1332.5125 "
       style="fill:none;stroke-width:11.3366;stroke-linecap:butt;stroke-linejoin:miter;stroke:rgb(0%,0%,0%);stroke-opacity:1;stroke-miterlimit:10;" />
    <g
       id="g175"
       style="fill:rgb(0%,0%,0%);fill-opacity:1;">
      <use
         id="use173"
         y="44.698"
         x="152.187"
         xlink:href="#glyph0-13" />
    </g>
    <g
       id="g179"
       style="fill:rgb(0%,0%,0%);fill-opacity:1;">
      <use
         id="use177"
         y="44.698"
         x="158.667004"
         xlink:href="#glyph0-14" />
    </g>
    <path
       id="path181"
       transform="matrix(0.1,0,0,-0.1,0,174.47)"
       d="M 1355.078125 1332.5125 L 1468.476562 1332.5125 "
       style="fill:none;stroke-width:11.3366;stroke-linecap:butt;stroke-linejoin:miter;stroke:rgb(0%,0%,0%);stroke-opacity:1;stroke-miterlimit:10;" />
    <path
       id="path183"
       transform="matrix(0.1,0,0,-0.1,0,174.47)"
       d="M 1695.234375 1332.5125 L 1808.632812 1332.5125 "
       style="fill:none;stroke-width:11.3366;stroke-linecap:butt;stroke-linejoin:miter;stroke:rgb(0%,0%,0%);stroke-opacity:1;stroke-miterlimit:10;" />
    <g
       id="g187"
       style="fill:rgb(0%,0%,0%);fill-opacity:1;">
      <use
         id="use185"
         y="163.7528"
         x="84.2137"
         xlink:href="#glyph0-13" />
    </g>
    <g
       id="g191"
       style="fill:rgb(0%,0%,0%);fill-opacity:1;">
      <use
         id="use189"
         y="163.7528"
         x="90.693698"
         xlink:href="#glyph0-12" />
    </g>
    <g
       id="g195"
       style="fill:rgb(0%,0%,0%);fill-opacity:1;">
      <use
         id="use193"
         y="163.7528"
         x="95.1337"
         xlink:href="#glyph0-15" />
    </g>
    <g
       id="g199"
       style="fill:rgb(0%,0%,0%);fill-opacity:1;">
      <use
         id="use197"
         y="163.7528"
         x="99.573695"
         xlink:href="#glyph0-12" />
    </g>
    <g
       id="g203"
       style="fill:rgb(0%,0%,0%);fill-opacity:1;">
      <use
         id="use201"
         y="163.7528"
         x="104.013697"
         xlink:href="#glyph0-2" />
    </g>
    <g
       id="g207"
       style="fill:rgb(0%,0%,0%);fill-opacity:1;">
      <use
         id="use205"
         y="163.7528"
         x="106.413699"
         xlink:href="#glyph0-16" />
    </g>
    <g
       id="g211"
       style="fill:rgb(0%,0%,0%);fill-opacity:1;">
      <use
         id="use209"
         y="163.7528"
         x="110.9737"
         xlink:href="#glyph0-12" />
    </g>
    <g
       id="g215"
       style="fill:rgb(0%,0%,0%);fill-opacity:1;">
      <use
         id="use213"
         y="163.7528"
         x="115.413702"
         xlink:href="#glyph0-8" />
    </g>
    <path
       id="path217"
       d="M 61.441406 44.234375 L 67.476562 41.21875 L 61.441406 38.199219 L 61.441406 41.21875 "
       style=" stroke:none;fill-rule:nonzero;fill:rgb(0%,0%,0%);fill-opacity:1;" />
    <path
       id="path219"
       transform="matrix(0.1,0,0,-0.1,0,174.47)"
       d="M 448.007812 1332.5125 L 614.414062 1332.5125 "
       style="fill:none;stroke-width:11.3366;stroke-linecap:butt;stroke-linejoin:miter;stroke:rgb(0%,0%,0%);stroke-opacity:1;stroke-miterlimit:10;" />
    <g
       id="g223"
       style="fill:rgb(0%,0%,0%);fill-opacity:1;">
      <use
         id="use221"
         y="39.029"
         x="3.64375"
         xlink:href="#glyph0-7" />
    </g>
    <g
       id="g227"
       style="fill:rgb(0%,0%,0%);fill-opacity:1;">
      <use
         id="use225"
         y="39.029"
         x="9.64375"
         xlink:href="#glyph0-8" />
    </g>
    <g
       id="g231"
       style="fill:rgb(0%,0%,0%);fill-opacity:1;">
      <use
         id="use229"
         y="39.029"
         x="13.00375"
         xlink:href="#glyph0-5" />
    </g>
    <g
       id="g235"
       style="fill:rgb(0%,0%,0%);fill-opacity:1;">
      <use
         id="use233"
         y="39.029"
         x="17.803751"
         xlink:href="#glyph0-9" />
    </g>
    <g
       id="g239"
       style="fill:rgb(0%,0%,0%);fill-opacity:1;">
      <use
         id="use237"
         y="39.029"
         x="22.963749"
         xlink:href="#glyph0-10" />
    </g>
    <g
       id="g243"
       style="fill:rgb(0%,0%,0%);fill-opacity:1;">
      <use
         id="use241"
         y="39.029"
         x="26.803748"
         xlink:href="#glyph0-11" />
    </g>
    <g
       id="g247"
       style="fill:rgb(0%,0%,0%);fill-opacity:1;">
      <use
         id="use245"
         y="39.029"
         x="34.723749"
         xlink:href="#glyph0-2" />
    </g>
    <g
       id="g251"
       style="fill:rgb(0%,0%,0%);fill-opacity:1;">
      <use
         id="use249"
         y="39.029"
         x="37.123748"
         xlink:href="#glyph0-4" />
    </g>
    <g
       id="g255"
       style="fill:rgb(0%,0%,0%);fill-opacity:1;">
      <use
         id="use253"
         y="50.3677"
         x="11.92344"
         xlink:href="#glyph0-1" />
    </g>
    <g
       id="g259"
       style="fill:rgb(0%,0%,0%);fill-opacity:1;">
      <use
         id="use257"
         y="50.3677"
         x="19.123441"
         xlink:href="#glyph0-5" />
    </g>
    <g
       id="g263"
       style="fill:rgb(0%,0%,0%);fill-opacity:1;">
      <use
         id="use261"
         y="50.3677"
         x="23.923439"
         xlink:href="#glyph0-4" />
    </g>
    <g
       id="g267"
       style="fill:rgb(0%,0%,0%);fill-opacity:1;">
      <use
         id="use265"
         y="50.3677"
         x="27.52344"
         xlink:href="#glyph0-5" />
    </g>
    <path
       id="path269"
       transform="matrix(0.1,0,0,-0.1,0,174.47)"
       d="M 2262.1875 425.442188 L 2375.546875 312.04375 L 2488.945312 425.442188 "
       style="fill:none;stroke-width:11.3366;stroke-linecap:butt;stroke-linejoin:miter;stroke:rgb(0%,0%,0%);stroke-opacity:1;stroke-miterlimit:10;" />
    <path
       id="path271"
       transform="matrix(0.1,0,0,-0.1,0,174.47)"
       d="M 680.429688 198.645313 L 680.429688 34.270313 L 1349.414062 34.270313 L 1349.414062 363.059375 L 680.429688 363.059375 Z M 680.429688 198.645313 "
       style="fill:none;stroke-width:11.3366;stroke-linecap:butt;stroke-linejoin:miter;stroke:rgb(0%,0%,0%);stroke-opacity:1;stroke-miterlimit:10;" />
    <g
       id="g275"
       style="fill:rgb(0%,0%,0%);fill-opacity:1;">
      <use
         id="use273"
         y="151.4544"
         x="87.6938"
         xlink:href="#glyph0-1" />
    </g>
    <g
       id="g279"
       style="fill:rgb(0%,0%,0%);fill-opacity:1;">
      <use
         id="use277"
         y="151.4544"
         x="94.893802"
         xlink:href="#glyph0-2" />
    </g>
    <g
       id="g283"
       style="fill:rgb(0%,0%,0%);fill-opacity:1;">
      <use
         id="use281"
         y="151.4544"
         x="97.293805"
         xlink:href="#glyph0-3" />
    </g>
    <g
       id="g287"
       style="fill:rgb(0%,0%,0%);fill-opacity:1;">
      <use
         id="use285"
         y="151.4544"
         x="102.333804"
         xlink:href="#glyph0-2" />
    </g>
    <g
       id="g291"
       style="fill:rgb(0%,0%,0%);fill-opacity:1;">
      <use
         id="use289"
         y="151.4544"
         x="104.733806"
         xlink:href="#glyph0-4" />
    </g>
    <g
       id="g295"
       style="fill:rgb(0%,0%,0%);fill-opacity:1;">
      <use
         id="use293"
         y="151.4544"
         x="108.333811"
         xlink:href="#glyph0-5" />
    </g>
    <g
       id="g299"
       style="fill:rgb(0%,0%,0%);fill-opacity:1;">
      <use
         id="use297"
         y="151.4544"
         x="113.13381"
         xlink:href="#glyph0-6" />
    </g>
    <path
       id="path301"
       transform="matrix(0.1,0,0,-0.1,0,174.47)"
       d="M 1474.140625 198.645313 L 1474.140625 90.95 L 1689.570312 90.95 L 1689.570312 306.379688 L 1474.140625 306.379688 Z M 1474.140625 198.645313 "
       style="fill:none;stroke-width:11.3366;stroke-linecap:butt;stroke-linejoin:miter;stroke:rgb(0%,0%,0%);stroke-opacity:1;stroke-miterlimit:10;" />
    <g
       id="g305"
       style="fill:rgb(0%,0%,0%);fill-opacity:1;">
      <use
         id="use303"
         y="158.0837"
         x="152.187"
         xlink:href="#glyph0-13" />
    </g>
    <g
       id="g309"
       style="fill:rgb(0%,0%,0%);fill-opacity:1;">
      <use
         id="use307"
         y="158.0837"
         x="158.667004"
         xlink:href="#glyph0-14" />
    </g>
    <path
       id="path311"
       transform="matrix(0.1,0,0,-0.1,0,174.47)"
       d="M 1355.078125 198.645313 L 1468.476562 198.645313 "
       style="fill:none;stroke-width:11.3366;stroke-linecap:butt;stroke-linejoin:miter;stroke:rgb(0%,0%,0%);stroke-opacity:1;stroke-miterlimit:10;" />
    <path
       id="path313"
       transform="matrix(0.1,0,0,-0.1,0,174.47)"
       d="M 1695.234375 198.645313 L 1808.632812 198.645313 "
       style="fill:none;stroke-width:11.3366;stroke-linecap:butt;stroke-linejoin:miter;stroke:rgb(0%,0%,0%);stroke-opacity:1;stroke-miterlimit:10;" />
    <path
       id="path315"
       d="M 50.835938 151.585938 L 44.800781 154.605469 L 50.835938 157.621094 L 50.835938 154.605469 "
       style=" stroke:none;fill-rule:nonzero;fill:rgb(0%,0%,0%);fill-opacity:1;" />
    <path
       id="path317"
       transform="matrix(0.1,0,0,-0.1,0,174.47)"
       d="M 508.359375 198.645313 L 674.765625 198.645313 "
       style="fill:none;stroke-width:11.3366;stroke-linecap:butt;stroke-linejoin:miter;stroke:rgb(0%,0%,0%);stroke-opacity:1;stroke-miterlimit:10;" />
    <g
       id="g321"
       style="fill:rgb(0%,0%,0%);fill-opacity:1;">
      <use
         id="use319"
         y="152.4145"
         x="6.64375"
         xlink:href="#glyph0-13" />
    </g>
    <g
       id="g325"
       style="fill:rgb(0%,0%,0%);fill-opacity:1;">
      <use
         id="use323"
         y="152.4145"
         x="13.123748"
         xlink:href="#glyph0-12" />
    </g>
    <g
       id="g329"
       style="fill:rgb(0%,0%,0%);fill-opacity:1;">
      <use
         id="use327"
         y="152.4145"
         x="17.563748"
         xlink:href="#glyph0-15" />
    </g>
    <g
       id="g333"
       style="fill:rgb(0%,0%,0%);fill-opacity:1;">
      <use
         id="use331"
         y="152.4145"
         x="22.00375"
         xlink:href="#glyph0-12" />
    </g>
    <g
       id="g337"
       style="fill:rgb(0%,0%,0%);fill-opacity:1;">
      <use
         id="use335"
         y="152.4145"
         x="26.443748"
         xlink:href="#glyph0-2" />
    </g>
    <g
       id="g341"
       style="fill:rgb(0%,0%,0%);fill-opacity:1;">
      <use
         id="use339"
         y="152.4145"
         x="28.843747"
         xlink:href="#glyph0-16" />
    </g>
    <g
       id="g345"
       style="fill:rgb(0%,0%,0%);fill-opacity:1;">
      <use
         id="use343"
         y="152.4145"
         x="33.403749"
         xlink:href="#glyph0-12" />
    </g>
    <g
       id="g349"
       style="fill:rgb(0%,0%,0%);fill-opacity:1;">
      <use
         id="use347"
         y="163.7528"
         x="11.92344"
         xlink:href="#glyph0-1" />
    </g>
    <g
       id="g353"
       style="fill:rgb(0%,0%,0%);fill-opacity:1;">
      <use
         id="use351"
         y="163.7528"
         x="19.123441"
         xlink:href="#glyph0-5" />
    </g>
    <g
       id="g357"
       style="fill:rgb(0%,0%,0%);fill-opacity:1;">
      <use
         id="use355"
         y="163.7528"
         x="23.923439"
         xlink:href="#glyph0-4" />
    </g>
    <g
       id="g361"
       style="fill:rgb(0%,0%,0%);fill-opacity:1;">
      <use
         id="use359"
         y="163.7528"
         x="27.52344"
         xlink:href="#glyph0-5" />
    </g>
    <path
       id="path363"
       transform="matrix(0.1,0,0,-0.1,0,174.47)"
       d="M 1871.015625 765.598438 L 1871.015625 544.504688 L 2426.601562 544.504688 L 2426.601562 986.692188 L 1871.015625 986.692188 Z M 1871.015625 765.598438 "
       style="fill:none;stroke-width:11.3366;stroke-linecap:butt;stroke-linejoin:miter;stroke:rgb(0%,0%,0%);stroke-opacity:1;stroke-miterlimit:10;" />
    <g
       id="g367"
       style="fill:rgb(0%,0%,0%);fill-opacity:1;">
      <use
         id="use365"
         y="94.7618"
         x="200.479"
         xlink:href="#glyph0-17" />
    </g>
    <g
       id="g371"
       style="fill:rgb(0%,0%,0%);fill-opacity:1;">
      <use
         id="use369"
         y="94.7618"
         x="207.079011"
         xlink:href="#glyph0-9" />
    </g>
    <g
       id="g375"
       style="fill:rgb(0%,0%,0%);fill-opacity:1;">
      <use
         id="use373"
         y="94.7618"
         x="212.23902"
         xlink:href="#glyph0-5" />
    </g>
    <g
       id="g379"
       style="fill:rgb(0%,0%,0%);fill-opacity:1;">
      <use
         id="use377"
         y="94.7618"
         x="217.039032"
         xlink:href="#glyph0-6" />
    </g>
    <g
       id="g383"
       style="fill:rgb(0%,0%,0%);fill-opacity:1;">
      <use
         id="use381"
         y="94.7618"
         x="219.439022"
         xlink:href="#glyph0-18" />
    </g>
    <g
       id="g387"
       style="fill:rgb(0%,0%,0%);fill-opacity:1;">
      <use
         id="use385"
         y="94.7618"
         x="224.479009"
         xlink:href="#glyph0-3" />
    </g>
    <g
       id="g391"
       style="fill:rgb(0%,0%,0%);fill-opacity:1;">
      <use
         id="use389"
         y="107.0598"
         x="207.55908"
         xlink:href="#glyph0-19" />
    </g>
    <g
       id="g397"
       style="fill:rgb(0%,0%,0%);fill-opacity:1;">
      <use
         id="use393"
         y="107.0598"
         x="213.079068"
         xlink:href="#glyph0-20" />
      <use
         id="use395"
         y="107.0598"
         x="215.838719"
         xlink:href="#glyph0-21" />
    </g>
    <g
       id="g401"
       clip-rule="nonzero"
       clip-path="url(#clip1)">
      <path
         id="path399"
         transform="matrix(0.1,0,0,-0.1,0,174.47)"
         d="M 2195.507812 198.645313 C 2195.507812 224.465625 2174.609375 245.403125 2148.789062 245.403125 C 2123.007812 245.403125 2102.070312 224.465625 2102.070312 198.645313 C 2102.070312 172.864063 2123.007812 151.926563 2148.789062 151.926563 C 2174.609375 151.926563 2195.507812 172.864063 2195.507812 198.645313 Z M 2195.507812 198.645313 "
         style="fill:none;stroke-width:11.3366;stroke-linecap:butt;stroke-linejoin:miter;stroke:rgb(0%,0%,0%);stroke-opacity:1;stroke-miterlimit:10;" />
    </g>
    <path
       id="path403"
       transform="matrix(0.1,0,0,-0.1,0,174.47)"
       d="M 2375.546875 425.442188 L 2375.546875 198.645313 L 2205.507812 198.645313 "
       style="fill:none;stroke-width:11.3366;stroke-linecap:butt;stroke-linejoin:miter;stroke:rgb(0%,0%,0%);stroke-opacity:1;stroke-miterlimit:10;" />
    <path
       id="path405"
       transform="matrix(0.1,0,0,-0.1,0,174.47)"
       d="M 2092.109375 198.645313 L 1978.710938 198.645313 "
       style="fill:none;stroke-width:11.3366;stroke-linecap:butt;stroke-linejoin:miter;stroke:rgb(0%,0%,0%);stroke-opacity:1;stroke-miterlimit:10;" />
    <path
       id="path407"
       d="M 211.863281 142.898438 L 214.878906 148.933594 L 217.898438 142.898438 L 214.878906 142.898438 "
       style=" stroke:none;fill-rule:nonzero;fill:rgb(0%,0%,0%);fill-opacity:1;" />
    <path
       id="path409"
       transform="matrix(0.1,0,0,-0.1,0,174.47)"
       d="M 2148.789062 538.801563 L 2148.789062 315.715625 "
       style="fill:none;stroke-width:11.3366;stroke-linecap:butt;stroke-linejoin:miter;stroke:rgb(0%,0%,0%);stroke-opacity:1;stroke-miterlimit:10;" />
    <path
       id="path411"
       d="M 212.746094 41.21875 C 212.746094 42.394531 213.699219 43.351562 214.878906 43.351562 C 216.058594 43.351562 217.011719 42.394531 217.011719 41.21875 C 217.011719 40.039062 216.058594 39.085938 214.878906 39.085938 C 213.699219 39.085938 212.746094 40.039062 212.746094 41.21875 "
       style=" stroke:none;fill-rule:nonzero;fill:rgb(0%,0%,0%);fill-opacity:1;" />
    <path
       id="path413"
       d="M 211.863281 69.199219 L 214.878906 75.234375 L 217.898438 69.199219 L 214.878906 69.199219 "
       style=" stroke:none;fill-rule:nonzero;fill:rgb(0%,0%,0%);fill-opacity:1;" />
    <path
       id="path415"
       transform="matrix(0.1,0,0,-0.1,0,174.47)"
       d="M 2148.789062 1314.035938 L 2148.789062 1052.707813 "
       style="fill:none;stroke-width:11.3366;stroke-linecap:butt;stroke-linejoin:miter;stroke:rgb(0%,0%,0%);stroke-opacity:1;stroke-miterlimit:10;" />
    <g
       id="g419"
       style="fill:rgb(0%,0%,0%);fill-opacity:1;">
      <use
         id="use417"
         y="157.1239"
         x="211.039"
         xlink:href="#glyph1-1" />
    </g>
    <path
       id="path421"
       d="M 269.058594 120.292969 L 265.902344 126.257812 L 272.566406 125.207031 L 270.8125 122.75 "
       style=" stroke:none;fill-rule:nonzero;fill:rgb(0%,0%,0%);fill-opacity:1;" />
    <path
       id="path423"
       transform="matrix(0.1,0,0,-0.1,0,174.47)"
       d="M 2659.023438 1502.590625 C 3055.898438 1219.153125 3055.898438 765.598438 2708.125 517.2 "
       style="fill:none;stroke-width:11.3366;stroke-linecap:butt;stroke-linejoin:miter;stroke:rgb(0%,0%,0%);stroke-opacity:1;stroke-miterlimit:10;" />
    <path
       id="path425"
       d="M 378.921875 21.558594 L 384.957031 18.539062 L 378.921875 15.523438 L 378.921875 18.539062 "
       style=" stroke:none;fill-rule:nonzero;fill:rgb(0%,0%,0%);fill-opacity:1;" />
    <path
       id="path427"
       transform="matrix(0.1,0,0,-0.1,0,174.47)"
       d="M 2659.023438 1559.309375 L 3789.21875 1559.309375 "
       style="fill:none;stroke-width:11.3366;stroke-linecap:butt;stroke-linejoin:miter;stroke:rgb(0%,0%,0%);stroke-opacity:1;stroke-miterlimit:10;" />
    <path
       id="path429"
       d="M 271.9375 128.910156 L 265.902344 131.925781 L 271.9375 134.945312 L 271.9375 131.925781 "
       style=" stroke:none;fill-rule:nonzero;fill:rgb(0%,0%,0%);fill-opacity:1;" />
    <path
       id="path431"
       transform="matrix(0.1,0,0,-0.1,0,174.47)"
       d="M 2719.375 425.442188 L 3849.570312 425.442188 "
       style="fill:none;stroke-width:11.3366;stroke-linecap:butt;stroke-linejoin:miter;stroke:rgb(0%,0%,0%);stroke-opacity:1;stroke-miterlimit:10;" />
    <g
       id="g435"
       style="fill:rgb(0%,0%,0%);fill-opacity:1;">
      <use
         id="use433"
         y="78.7137"
         x="306.004"
         xlink:href="#glyph0-19" />
    </g>
    <g
       id="g439"
       style="fill:rgb(0%,0%,0%);fill-opacity:1;">
      <use
         id="use437"
         y="78.7137"
         x="311.523988"
         xlink:href="#glyph0-12" />
    </g>
    <g
       id="g443"
       style="fill:rgb(0%,0%,0%);fill-opacity:1;">
      <use
         id="use441"
         y="78.7137"
         x="315.964002"
         xlink:href="#glyph0-6" />
    </g>
    <g
       id="g447"
       style="fill:rgb(0%,0%,0%);fill-opacity:1;">
      <use
         id="use445"
         y="78.7137"
         x="318.363992"
         xlink:href="#glyph0-22" />
    </g>
    <g
       id="g451"
       style="fill:rgb(0%,0%,0%);fill-opacity:1;">
      <use
         id="use449"
         y="78.7137"
         x="321.363998"
         xlink:href="#glyph0-23" />
    </g>
    <g
       id="g457"
       style="fill:rgb(0%,0%,0%);fill-opacity:1;">
      <use
         id="use453"
         y="78.7137"
         x="324.723989"
         xlink:href="#glyph0-20" />
      <use
         id="use455"
         y="78.7137"
         x="327.48364"
         xlink:href="#glyph0-9" />
    </g>
    <g
       id="g461"
       style="fill:rgb(0%,0%,0%);fill-opacity:1;">
      <use
         id="use459"
         y="78.7137"
         x="332.643625"
         xlink:href="#glyph0-4" />
    </g>
    <g
       id="g465"
       style="fill:rgb(0%,0%,0%);fill-opacity:1;">
      <use
         id="use463"
         y="78.7137"
         x="336.243629"
         xlink:href="#glyph0-12" />
    </g>
    <g
       id="g469"
       style="fill:rgb(0%,0%,0%);fill-opacity:1;">
      <use
         id="use467"
         y="78.7137"
         x="340.683643"
         xlink:href="#glyph0-8" />
    </g>
    <g
       id="g473"
       style="fill:rgb(0%,0%,0%);fill-opacity:1;">
      <use
         id="use471"
         y="78.7137"
         x="344.043623"
         xlink:href="#glyph0-22" />
    </g>
    <g
       id="g477"
       style="fill:rgb(0%,0%,0%);fill-opacity:1;">
      <use
         id="use475"
         y="78.7137"
         x="347.04363"
         xlink:href="#glyph0-12" />
    </g>
    <g
       id="g481"
       style="fill:rgb(0%,0%,0%);fill-opacity:1;">
      <use
         id="use479"
         y="78.7137"
         x="351.483643"
         xlink:href="#glyph0-8" />
    </g>
    <g
       id="g485"
       style="fill:rgb(0%,0%,0%);fill-opacity:1;">
      <use
         id="use483"
         y="78.7137"
         x="354.843623"
         xlink:href="#glyph0-12" />
    </g>
    <g
       id="g489"
       style="fill:rgb(0%,0%,0%);fill-opacity:1;">
      <use
         id="use487"
         y="78.7137"
         x="359.283637"
         xlink:href="#glyph0-9" />
    </g>
    <g
       id="g493"
       style="fill:rgb(0%,0%,0%);fill-opacity:1;">
      <use
         id="use491"
         y="78.7137"
         x="364.443622"
         xlink:href="#glyph0-15" />
    </g>
    <g
       id="g497"
       style="fill:rgb(0%,0%,0%);fill-opacity:1;">
      <use
         id="use495"
         y="78.7137"
         x="368.883636"
         xlink:href="#glyph0-12" />
    </g>
    <g
       id="g501"
       style="fill:rgb(0%,0%,0%);fill-opacity:1;">
      <use
         id="use499"
         y="9.7223"
         x="289.836"
         xlink:href="#glyph0-7" />
    </g>
    <g
       id="g505"
       style="fill:rgb(0%,0%,0%);fill-opacity:1;">
      <use
         id="use503"
         y="9.7223"
         x="295.83601"
         xlink:href="#glyph0-8" />
    </g>
    <g
       id="g509"
       style="fill:rgb(0%,0%,0%);fill-opacity:1;">
      <use
         id="use507"
         y="9.7223"
         x="299.196014"
         xlink:href="#glyph0-5" />
    </g>
    <g
       id="g513"
       style="fill:rgb(0%,0%,0%);fill-opacity:1;">
      <use
         id="use511"
         y="9.7223"
         x="303.996026"
         xlink:href="#glyph0-9" />
    </g>
    <g
       id="g517"
       style="fill:rgb(0%,0%,0%);fill-opacity:1;">
      <use
         id="use515"
         y="9.7223"
         x="309.156011"
         xlink:href="#glyph0-10" />
    </g>
    <g
       id="g521"
       style="fill:rgb(0%,0%,0%);fill-opacity:1;">
      <use
         id="use519"
         y="9.7223"
         x="312.996018"
         xlink:href="#glyph0-11" />
    </g>
    <g
       id="g525"
       style="fill:rgb(0%,0%,0%);fill-opacity:1;">
      <use
         id="use523"
         y="9.7223"
         x="320.916022"
         xlink:href="#glyph0-2" />
    </g>
    <g
       id="g529"
       style="fill:rgb(0%,0%,0%);fill-opacity:1;">
      <use
         id="use527"
         y="9.7223"
         x="323.316012"
         xlink:href="#glyph0-4" />
    </g>
    <g
       id="g533"
       style="fill:rgb(0%,0%,0%);fill-opacity:1;">
      <use
         id="use531"
         y="9.7223"
         x="330.155933"
         xlink:href="#glyph0-19" />
    </g>
    <g
       id="g537"
       style="fill:rgb(0%,0%,0%);fill-opacity:1;">
      <use
         id="use535"
         y="9.7223"
         x="335.675921"
         xlink:href="#glyph0-2" />
    </g>
    <g
       id="g541"
       style="fill:rgb(0%,0%,0%);fill-opacity:1;">
      <use
         id="use539"
         y="9.7223"
         x="338.075911"
         xlink:href="#glyph0-3" />
    </g>
    <g
       id="g545"
       style="fill:rgb(0%,0%,0%);fill-opacity:1;">
      <use
         id="use543"
         y="9.7223"
         x="343.115922"
         xlink:href="#glyph0-9" />
    </g>
    <g
       id="g549"
       style="fill:rgb(0%,0%,0%);fill-opacity:1;">
      <use
         id="use547"
         y="9.7223"
         x="348.275907"
         xlink:href="#glyph0-5" />
    </g>
    <g
       id="g553"
       style="fill:rgb(0%,0%,0%);fill-opacity:1;">
      <use
         id="use551"
         y="9.7223"
         x="353.075918"
         xlink:href="#glyph0-6" />
    </g>
    <g
       id="g557"
       style="fill:rgb(0%,0%,0%);fill-opacity:1;">
      <use
         id="use555"
         y="145.7853"
         x="281.34577"
         xlink:href="#glyph0-1" />
    </g>
    <g
       id="g561"
       style="fill:rgb(0%,0%,0%);fill-opacity:1;">
      <use
         id="use559"
         y="145.7853"
         x="288.545779"
         xlink:href="#glyph0-12" />
    </g>
    <g
       id="g565"
       style="fill:rgb(0%,0%,0%);fill-opacity:1;">
      <use
         id="use563"
         y="145.7853"
         x="292.985768"
         xlink:href="#glyph0-10" />
    </g>
    <g
       id="g569"
       style="fill:rgb(0%,0%,0%);fill-opacity:1;">
      <use
         id="use567"
         y="145.7853"
         x="296.825775"
         xlink:href="#glyph0-2" />
    </g>
    <g
       id="g573"
       style="fill:rgb(0%,0%,0%);fill-opacity:1;">
      <use
         id="use571"
         y="145.7853"
         x="299.225765"
         xlink:href="#glyph0-8" />
    </g>
    <g
       id="g577"
       style="fill:rgb(0%,0%,0%);fill-opacity:1;">
      <use
         id="use575"
         y="145.7853"
         x="302.585745"
         xlink:href="#glyph0-12" />
    </g>
    <g
       id="g581"
       style="fill:rgb(0%,0%,0%);fill-opacity:1;">
      <use
         id="use579"
         y="145.7853"
         x="307.025759"
         xlink:href="#glyph0-24" />
    </g>
    <g
       id="g585"
       style="fill:rgb(0%,0%,0%);fill-opacity:1;">
      <use
         id="use583"
         y="145.7853"
         x="315.545749"
         xlink:href="#glyph0-13" />
    </g>
    <g
       id="g589"
       style="fill:rgb(0%,0%,0%);fill-opacity:1;">
      <use
         id="use587"
         y="145.7853"
         x="322.025753"
         xlink:href="#glyph0-12" />
    </g>
    <g
       id="g593"
       style="fill:rgb(0%,0%,0%);fill-opacity:1;">
      <use
         id="use591"
         y="145.7853"
         x="326.465743"
         xlink:href="#glyph0-15" />
    </g>
    <g
       id="g597"
       style="fill:rgb(0%,0%,0%);fill-opacity:1;">
      <use
         id="use595"
         y="145.7853"
         x="330.905756"
         xlink:href="#glyph0-12" />
    </g>
    <g
       id="g601"
       style="fill:rgb(0%,0%,0%);fill-opacity:1;">
      <use
         id="use599"
         y="145.7853"
         x="335.345746"
         xlink:href="#glyph0-2" />
    </g>
    <g
       id="g605"
       style="fill:rgb(0%,0%,0%);fill-opacity:1;">
      <use
         id="use603"
         y="145.7853"
         x="337.745736"
         xlink:href="#glyph0-16" />
    </g>
    <g
       id="g609"
       style="fill:rgb(0%,0%,0%);fill-opacity:1;">
      <use
         id="use607"
         y="145.7853"
         x="342.305749"
         xlink:href="#glyph0-12" />
    </g>
    <g
       id="g613"
       style="fill:rgb(0%,0%,0%);fill-opacity:1;">
      <use
         id="use611"
         y="145.7853"
         x="349.98558"
         xlink:href="#glyph0-19" />
    </g>
    <g
       id="g617"
       style="fill:rgb(0%,0%,0%);fill-opacity:1;">
      <use
         id="use615"
         y="145.7853"
         x="355.505568"
         xlink:href="#glyph0-2" />
    </g>
    <g
       id="g621"
       style="fill:rgb(0%,0%,0%);fill-opacity:1;">
      <use
         id="use619"
         y="145.7853"
         x="357.905558"
         xlink:href="#glyph0-3" />
    </g>
    <g
       id="g625"
       style="fill:rgb(0%,0%,0%);fill-opacity:1;">
      <use
         id="use623"
         y="145.7853"
         x="362.945569"
         xlink:href="#glyph0-9" />
    </g>
    <g
       id="g629"
       style="fill:rgb(0%,0%,0%);fill-opacity:1;">
      <use
         id="use627"
         y="145.7853"
         x="368.105554"
         xlink:href="#glyph0-5" />
    </g>
    <g
       id="g633"
       style="fill:rgb(0%,0%,0%);fill-opacity:1;">
      <use
         id="use631"
         y="145.7853"
         x="372.905566"
         xlink:href="#glyph0-6" />
    </g>
    <path
       id="path635"
       transform="matrix(0.1,0,0,-0.1,0,174.47)"
       d="M 1893.671875 1389.192188 L 1808.632812 1445.910938 L 1808.632812 1219.153125 L 1978.710938 1332.5125 Z M 1893.671875 1389.192188 "
       style="fill:none;stroke-width:11.3366;stroke-linecap:butt;stroke-linejoin:miter;stroke:rgb(0%,0%,0%);stroke-opacity:1;stroke-miterlimit:10;" />
    <g
       id="g639"
       clip-rule="nonzero"
       clip-path="url(#clip2)">
      <path
         id="path637"
         transform="matrix(0.1,0,0,-0.1,0,174.47)"
         d="M 1893.671875 141.965625 L 1808.632812 198.645313 L 1978.710938 312.04375 L 1978.710938 85.285938 Z M 1893.671875 141.965625 "
         style="fill:none;stroke-width:11.3366;stroke-linecap:butt;stroke-linejoin:miter;stroke:rgb(0%,0%,0%);stroke-opacity:1;stroke-miterlimit:10;" />
    </g>
    <path
       id="path641"
       transform="matrix(0.1,0,0,-0.1,0,174.47)"
       d="M 737.148438 765.598438 L 737.148438 544.504688 L 1292.734375 544.504688 L 1292.734375 986.692188 L 737.148438 986.692188 Z M 737.148438 765.598438 "
       style="fill:none;stroke-width:11.3366;stroke-linecap:butt;stroke-linejoin:miter;stroke:rgb(0%,0%,0%);stroke-opacity:1;stroke-miterlimit:10;" />
    <g
       id="g645"
       style="fill:rgb(0%,0%,0%);fill-opacity:1;">
      <use
         id="use643"
         y="94.7618"
         x="87.6938"
         xlink:href="#glyph0-1" />
    </g>
    <g
       id="g649"
       style="fill:rgb(0%,0%,0%);fill-opacity:1;">
      <use
         id="use647"
         y="94.7618"
         x="94.893802"
         xlink:href="#glyph0-2" />
    </g>
    <g
       id="g653"
       style="fill:rgb(0%,0%,0%);fill-opacity:1;">
      <use
         id="use651"
         y="94.7618"
         x="97.293805"
         xlink:href="#glyph0-3" />
    </g>
    <g
       id="g657"
       style="fill:rgb(0%,0%,0%);fill-opacity:1;">
      <use
         id="use655"
         y="94.7618"
         x="102.333804"
         xlink:href="#glyph0-2" />
    </g>
    <g
       id="g661"
       style="fill:rgb(0%,0%,0%);fill-opacity:1;">
      <use
         id="use659"
         y="94.7618"
         x="104.733806"
         xlink:href="#glyph0-4" />
    </g>
    <g
       id="g665"
       style="fill:rgb(0%,0%,0%);fill-opacity:1;">
      <use
         id="use663"
         y="94.7618"
         x="108.333811"
         xlink:href="#glyph0-5" />
    </g>
    <g
       id="g669"
       style="fill:rgb(0%,0%,0%);fill-opacity:1;">
      <use
         id="use667"
         y="94.7618"
         x="113.13381"
         xlink:href="#glyph0-6" />
    </g>
    <g
       id="g673"
       style="fill:rgb(0%,0%,0%);fill-opacity:1;">
      <use
         id="use671"
         y="107.0598"
         x="94.17388"
         xlink:href="#glyph0-19" />
    </g>
    <g
       id="g679"
       style="fill:rgb(0%,0%,0%);fill-opacity:1;">
      <use
         id="use675"
         y="107.0598"
         x="99.69388"
         xlink:href="#glyph0-20" />
      <use
         id="use677"
         y="107.0598"
         x="102.453531"
         xlink:href="#glyph0-21" />
    </g>
    <path
       id="path681"
       d="M 98.476562 69.199219 L 101.492188 75.234375 L 104.511719 69.199219 L 101.492188 69.199219 "
       style=" stroke:none;fill-rule:nonzero;fill:rgb(0%,0%,0%);fill-opacity:1;" />
    <path
       id="path683"
       transform="matrix(0.1,0,0,-0.1,0,174.47)"
       d="M 1014.921875 1162.434375 L 1014.921875 1052.707813 "
       style="fill:none;stroke-width:11.3366;stroke-linecap:butt;stroke-linejoin:miter;stroke:rgb(0%,0%,0%);stroke-opacity:1;stroke-miterlimit:10;" />
    <path
       id="path685"
       d="M 98.476562 131.5625 L 101.492188 137.597656 L 104.511719 131.5625 L 101.492188 131.5625 "
       style=" stroke:none;fill-rule:nonzero;fill:rgb(0%,0%,0%);fill-opacity:1;" />
    <path
       id="path687"
       transform="matrix(0.1,0,0,-0.1,0,174.47)"
       d="M 1014.921875 538.801563 L 1014.921875 429.075 "
       style="fill:none;stroke-width:11.3366;stroke-linecap:butt;stroke-linejoin:miter;stroke:rgb(0%,0%,0%);stroke-opacity:1;stroke-miterlimit:10;" />
  </g>
</svg>
